ধনু (23 Nov - 21 Dec) সামাজিক অগ্রগতি অব্যাহত থাকবে। কাজকর্মে ভাগ্যের আনুকূল্য পাবেন। কোনো আশা পূরণ হতে পারে। পেশাগত দিক ভালো যাবে। জ্ঞানস্পৃহা বৃদ্ধি পাবে।
মকর (22 Dec - 20 Jan) সামাজিক কাজে জড়াতে পারেন। সুনাম ও মর্যাদা বৃদ্ধি পেতে পারে। কর্মপরিবেশ অনুকূল থাকবে। কর্মস্থলে নিজের কর্তৃত্ব বজায় রাখতে পারবেন। পিতৃস্বাস্থ্য ভালো যাবে।
কুম্ভ (22 Jan - 18 Feb) আর্থিক দিক ভালো যাবে। পাওনা টাকা আদায় হতে পারে। রাজনীতিবিদদের জন্য দিনটি শুভ। সাংগঠনিক কাজে সুফল পাবেন। পেশাগত যোগাযোগ ফলপ্রসূ হতে পারে।
মীন (19 Feb - 20 Mar) কোনো গুরুত্বপূর্ণ কাজ শেষ করতে পারবেন। গোপন শত্রুরা ক্ষতির চেষ্টা করতে পারে। শত্রু সম্পর্কে সতর্ক থাকুন। ব্যয় বৃদ্ধি পেতে পারে। সম্ভাব্য ক্ষেত্রে বিদেশযাত্রার যোগ আছে।
মেষ (21Mar - 20 Apr) শরীর ভালো থাকবে। মানসিক প্রশান্তি বজায় থাকতে পারে। প্রথম সাক্ষাতেই কারো দৃষ্টি আকর্ষণ করতে পারবেন। দাম্পত্য সম্পর্ক ভালো থাকতে পারে। রোমান্স ও বিনোদন শুভ।
বৃষ (21 Apr - 20 May) আর্থিক দিক ভালো যাবে। প্রাপ্তি যোগ আছে। পাওনা টাকা আদায় হতে পারে। প্রদত্ত প্রতিশ্রুতি রক্ষা করা সহজ হতে পারে। মূল্যবোধ বজায় রাখুন।
মিথুন (22 May - 21 Jun) প্রাপ্ত তথ্যের ওপর নির্ভর করতে পারেন। কাজকর্মে উৎসাহ বোধ করবেন। প্রবাসী আপনজনের সঙ্গে যোগাযোগ হতে পারে। পরিবেশের সঙ্গে নিজেকে মানিয়ে চলুন। প্রতিবেশীদের সঙ্গে সুসম্পর্ক বজায় থাকতে পারে।
কর্কট (22 Jun - 22 Jul) মাতৃস্বাস্থ্য ভালো যাবে। অসুস্থ মায়ের আরোগ্য লাভ হতে পারে। কোনো আশা পূরণ হতে পারে। কোনো স্থাবর সম্পত্তি কেনাকাটা হতে পারে। পারিবারিক পরিবেশ অনুকূল থাকবে।
সিংহ (23 Jul - 23 Aug) প্রেম-ভালোবাসার জন্য দিনটি শুভ। প্রণয় প্রস্তাবে সাড়া পেতে পারেন। সৃজনশীল কাজে সুফল পাবেন। নিজের মনোভাব যথাযথভাবে প্রকাশ করুন। ধর্মীয় কাজে আনন্দ বোধ করবেন।
কন্যা (24 Aug - 23 Sep) কর্মপরিবেশ অনুকূল নাও থাকতে পারে। কর্মস্থলে কোনো ঝামেলা হতে পারে। ব্যক্তিগত দায়-দায়িত্ব বৃদ্ধি পাবে। নিজের সীমাবদ্ধতা সম্পর্কে সতর্ক থাকুন। সীমালঙ্ঘন করা ঠিক হবে না।
তুলা (24 Sep - 23 Oct) ব্যবসায়িক দিক ভালো যাবে। বিক্রয়-বাণিজ্যে লাভযোগ আছে। নতুন বিনিয়োগ ফলপ্রসূ হতে পারে। দাম্পত্য সম্পর্ক ভালো যাবে। জ্ঞাতিশত্রু সম্পর্কে সতর্ক থাকুন।
