খ্যাতিমান সুরকার ও সঙ্গীত পরিচালক আলী আকবর রুপু শেষ নিঃশ্বাস ত্যাগ করেছেন (ইন্নালিল্লাহি...রাজিউন)। বাংলাদেশ টেলিভিশনের অতি জনপ্রিয় ম্যাগাজিন অনুষ্ঠান 'ইত্যাদি'র অনেকগুলো জনপ্রিয় গানের সুর ও সংগীতের পেছনের মানুষটি তিনি।
আজ বেলা ১২টা ৪০ মিনিটের দিকে তিনি রাজধানীর ইউনাইটেড হাসপাতালের আইসিইউ-তে চিকিৎসাধীন অবস্থায় মৃত্যুবরণ করেন। এ খবর নিশ্চিত করেছে হাসপাতাল কর্তৃপক্ষ।
কিডনি, স্ট্রোক এবং হার্টের সমস্যায় ভুগছিলেন তিনি। জীবন-মৃত্যুর মাঝামাঝি অবস্থান করছিলেন। অবশেষে সবাইকে কাঁদিয়ে চলে গেলেন।  
শুধু 'ইত্যাদি' নয়, দেশের অনেক খ্যাতিমান শিল্পী ও অনেক নবাগত শিল্পীর গান তিনি সুর করেছেন। এর আগে বিক্রমপুর জন্ম নেওয়া এই মানুষটি ১৯৮৩ সালে 'উইন্ডস' নামক একটি ব্যান্ডের সাথে ছিলেন। 
