অনেকেই জানেন টমেটো ত্বক ও চুলের জন্য উপকারি। তাছাড়া এটা ক্যানসার প্রতিরোধেও সাহায্য করে। কিন্তু এই গুণগুলোর পাশাপাশি টমেটো যে চর্বি কমাতেও সাহায্য করে তা অনেকেরই অজানা।
বিশেষজ্ঞরা বলেন, কাঁচা টমেটো দিনে ৪টে থেকে ৫টা খাদ্য তালিকায় রাখলে শরীরে কোলেসিসটোকিনিন নামে এক ধরনের হরমোন নিঃসৃত হয় যা পেটের এবং ইনটেস্টাইনের মধ্যে যে ভালভ রয়েছে তা সংকুচিত করে দেয়। ফলে পেট ভরা থাকে, খিদে কম পায়। আর তাতে ওজন বাড়ার সম্ভাবনাও থাকে না।
এছাড়াও টমেটোর মধ্যে রয়েছে আরও বিশেষ কিছু গুণাগুণ, আসুন জেনে নেওয়া যাক সেই গুণগুলি কী কী-
১. ইনসুলিন নিঃসরণ কমে এবং ওজন বৃদ্ধির হরমোন নিয়ন্ত্রণে থাকে খাদ্য হিসেবে এটা অত্যন্ত কম ক্যালরিযুক্ত। একটা ছোট টমেটোতে ক্যালরির মাত্রা থাকে মাত্র ১৬। এছাড়া, টমেটোতে থাকে প্রাকৃতিক শর্করা। যা ‘গ্লাইসেমিক ইন্ডেক্স’ সমৃদ্ধ। এটি রক্তের শর্করার পরিমাণ ঠিক রাখে। ফলে ইনসুলিন নিঃসরণ কমে যায় এবং যে হরমোন চর্বি সঞ্চয় ও ওজন বৃদ্ধি করতে সাহায্য করে সেটিও নিয়ন্ত্রিত থাকে।
২. ডায়াবেটিস বা কিডনির সমস্যা রোধ করে ওজন নিয়ন্ত্রণে রাখা ছাড়াও শরীরের অন্যান্য বেশ কয়েকটি ক্ষেত্রে টমেটো বেশ উপকারি। যেমন ডায়াবেটিস বা কিডনির সমস্যা রুখতেও এটি সাহায্য করে। এছাড়াও রোগ প্রতিরোধে টমেটোর আরও বেশ কয়েকটি গুণ বর্তমান।
৩. হাড় ভালো রাখে টমেটোতে পর্যাপ্ত পরিমাণে ক্যালসিয়াম ও ভিটামিন কে রয়েছে। এগুলো হাড়ের টিস্যু ঠিকঠাক রাখতে ও ছোটখাটো হাড় সংক্রান্ত সমস্যা দূর করতে সাহায্য করে।
৪. চোখের দৃষ্টিশক্তি বাড়ায় চোখের দৃষ্টি উন্নত করতে টমেটোর ভূমিকা অপরিসীম। তাই রোজ খাদ্যতালিকায় টমেটো থাকলে তা আপনার চোখের জন্য উপকারি।
৫. ধুমপানের ক্ষতি কমায় আবার ধূমপানের ফলে শরীরে যে ক্ষতি হয় তার প্রভাব কমাতে পারে টমেটো। এতে বিদ্যমান রয়েছে কোমেরিক অ্যাসিড ও ক্লোরোজেনিক অ্যাসিড। যা শরীরে ধূমপান থেকে ক্ষতি কমাতে বিরাট সাহায্য করে।
