অপেক্ষার পালা শেষ। এবার সময় সাফল্যের আকাশে ডানা মেলার। মেকআপের রং-তুলি নিয়ে যারা কাজ করতে ভালোবাসেন, তাদের জন্যই জনপ্রিয় সংবাদমাধ্যম বাংলানিউজ ও দেশ সেরা সৌন্দর্য সেবা প্রতিষ্ঠান ওমেন্স ওয়ার্ল্ড যৌথভাবে আয়োজন করেছে মেকআপ আর্টিস্ট হান্ট রিয়েলিটি শো ‘ব্যাটল উইথ ব্রাশ’।
‘ব্যাটল উইথ ব্রাশ’ পাতায় থাকা ৯টি লুক থেকে পছন্দের লুকে মেকআপ করুন আপনার মডেলকে। আর ছবি তুলে পাঠিয়ে দিন।
লাইভ দেখতে ক্লিক করুন:   ব্যাটল উইথ ব্রাশ আপনাদের পাঠানো ছবি থেকে বাছাই করা ছবি নিয়ে অনলাইন ভোটিংয়ের মাধ্যমে বেছে নেওয়া হবে সেরা দশ। তাদের নিয়েই চলবে গ্রুমিং। সব শেষে গ্র্যান্ড ফিনালে প্রথম বিজয়ীকে দেওয়া হবে নগদ এক লাখ টাকা, ওমেন্স ওয়ার্ল্ড ও মিডিয়ার সঙ্গে এক বছর কাজের কন্ট্রাক্ট। অন্যদের জন্যও রয়েছে আকর্ষণীয় পুরস্কার।
আর দেরি কেন! সাজান আপনার পছন্দের মডেলকে আর ছবি পাঠিয়ে করে ফেলুন রেজিস্ট্রেশন।
আয়োজনের টিভি পার্টনার নিউজটোয়েন্টিফোর। সহযোগিতায় রাউন্ড দ্যা ক্লক
http://lifestyle.banglanews24.com
