মেষ ২১ মার্চ-২০ এপ্রিল। ভর # ৬ ভালোবাসা দিবস সামনে রেখে মনে পড়ল বহুকাল আগে রিডার্স ডাইজেস্ট পত্রিকায় পড়া একটি লেখা: হাউ টু কিল ইওর হাজব্যান্ড। আপনার স্বামীকে আপনি কীভাবে হত্যা করবেন। এই হত্যা অতিরিক্ত ভালোবেসে হত্যা। স্বামীকে ঘি, মাখন, মিষ্টি বেশি বেশি করে খাওয়ান, সুস্থ মানুষকে অসুস্থ করে তুলুন। তাহলে প্রিয় মেষ নারী, আপনার ভালোবাসা যেন অতটা গাঢ় না হয়। বৃষ ২১ এপ্রিল-২১ মে। ভর # ১ অনেকে বলেন, ঝগড়া-চিল্লাচিল্লি নাকি বাঙালির প্রধান অস্ত্র। শাস্ত্রে বৃষ খ্যাত তার মধুর কণ্ঠস্বরের জন্য। তাই প্রিয় বৃষ, অন্তত চলতি সপ্তাহটা ঝগড়া করে কাটাবেন না। সামনের ভালোবাসা দিবসটার কথা খেয়াল রাখুন। মিথুন ২২ মে-২১ জুন। ভর # ৬ যে শুভদিন পার হয়ে এসেছেন—সেই মিষ্টি দিনটিকে সব সময় স্মরণে রাখুন। এটুকুই! কর্কট ২২ জুন-২২ জুলাই। ভর # ২ যেকোনো একটা দিবসের আগে ও পরে সমান আবেগ মিশে থাকে। বিশ্ব ভালোবাসা দিবসটাকে মনে করে আপনাকে কথাটা জানালাম। সিংহ ২৩ জুলাই-২৩ আগস্ট। ভর # ১ সিংহের ভালোবাসা তার নিজের মতোই শক্তিশালী। এই ভালোবাসা শুধুই দখল করতে জানে। তবে চলতি সপ্তাহে সিংহকে ভালোবাসা দিতেও হবে। স্পষ্ট জানিয়ে রাখলাম। কন্যা ২৪ আগস্ট-২৩ সেপ্টেম্বর। ভর # ২ নিজেকে একটু আড়াল করে রাখুন। রবীন্দ্রনাথের সুরের সঙ্গে মিলিয়ে বলুন: তুমি মোর পাও নাই, পাও নাই পরিচয়।...এতে মিষ্টি দিনগুলো আরও মিষ্টি হয়ে উঠবে। তুলা ২৪ সেপ্টেম্বর-২৩ অক্টোবর। ভর # ২ ওই গানটা শুনেছেন তো? ‘ভালোবাসা মোরে ভিখারি করেছে, তোমারে করেছে রানি।’...আমি আরও সহজ করে বলি, ভালোবাসা মোরে ফকির করেছে ইত্যাদি। রাশিফল পড়তে বসে আমার দিকে অমন করে মুখ বাঁকা করবেন না। বৃশ্চিক ২৪ অক্টোবর-২২ নভেম্বর। ভর # ২ ভালোবাসা দিবসের আগে ও পরে আপনার জীবন আরেকটু বেশি মধুর হয়ে উঠবে। বাজি ধরতে চান তো ধরতে পারেন। ধরবেন? আমি তৈরি। ধনু ২৩ নভেম্বর-২১ ডিসেম্বর। ভর # ৯ ধনুর ভালোবাসা একদিকে যেমন গভীর নলকূপের মতো, অন্যদিকে তেমনই পাতলা সুরুয়া। আপনি রেগে ওঠার আগে কথাটা বলে নিলাম। এবারে রাগ করলে ক্ষতি নেই।
মকর ২২ ডিসেম্বর-২০ জানুয়ারি। ভর # ৩
ভালোবাসা অনেকভাবেই প্রকাশ করা যায়। আপনি মুখে কিছু না বলে এক চিমটি হাসি দিয়েও
সব বোঝাতে পারেন। তাই বলে সপ্তাহজুড়ে আপনাকে যে মুচকি হাসি হেসে যেতে হবে এমন
কোনো কথা নেই।
কুম্ভ ২১ জানুয়ারি-১৮ ফেব্রুয়ারি। ভর # ৯
চলতি সপ্তাহে কুম্ভ ৬০-৭০ ফুট উঁচু থেকে লাফিয়ে প্রেমে পড়বে। বলা বাহুল্য, এই প্রেম হবে চিনির শরবতের মতো মিঠা। বুঝলেন কিছু?
মীন ১৯ ফেব্রুয়ারি-২০ মার্চ। ভর # ৩
মীন রহস্যময়। তাই সোজা কথাটা সে ঘুরিয়ে বলতে পছন্দ করে। আপনি বলুন: আমি তোমাকে ভালোবাসি না। এবার এর অর্থটা উল্টো করে নিন।
আপনি নিজেই আপনার ভাগ্য নিয়ন্ত্রণ করতে পারেন শতকরা ৯০ থেকে ৯৬ ভাগ। বাকিটা আমরা ফেট বা নিয়তি বলতে পারি। ভাগ্য অনেক সময় অনির্দিষ্ট কারণে আপনা থেকেও গতিপথ বদলাতে পারে। এখানে রাশিচক্রে আমি ‘নিউমারলজি’ বা ‘সংখ্যা-জ্যোতিষ’ পদ্ধতি প্রয়োগ করেছি— কাওসার আহমেদ চৌধুরী
