বিশ্ববিদ্যালয়ে কি শিক্ষার্থীর অভাব আছে   বিদেশী নিতে হবে  

এর থেকে ভালো উদ্যোগ হতো  ১২ টা আর ২ টার গাড়ী বন্ধ করলে  ৮ ৫টা পর্যন্ত ক্লাস নেওয়ার ব্যবস্থা করেন  ছাত্ররাজনীতির নামে মারামারি বন্ধ করেন  হল বাড়িয়ে পরিবহন নির্ভরতা শুন্যের কোটায় নামিয়ে আনেন  

ইসলামী বিশ্ববিদ্যালয় স্থানীয় রাজনীতির কাছে একদম পরাধীন  শিক্ষক  শিক্ষার্থী  কর্মচারী সবাই একই শৃংখলে আবদ্ধ  এই শৃংখল ভাঙ্গুন
ভালো উদ্যোগ  সাধুবাদ জানাই
২০১১ সালে আমি পরীক্ষা দেয়ার সময়  এক দায়িত্বরত শিক্ষক আমার পাশের জন কে উত্তরপ্রত্র সরবরাহ করে  এমন টা হলে কোনো পদ্ধতিই কাজে আসবে না
আমাদের সবার শিক্ষা গুরুর মর্যাদা কবিতাটি পড়া উচিত অনুরোধ রইল সবাই শিক্ষা গুরুর মর্যাদা কবিতাটি পড়বে
দেশে ভালো প্রাইমারি এবং সেকেন্ডারি স্কুল নেই  আন্তর্জাতিকমানের শিক্ষার্থী তৈরি করতে এটির বিকল্প নেই  শিশুকালে শিক্ষার্থীর ব্রেন বেশি অ্যাকটিভ থাকে
২০১৮ সালের প্রস্তুতি দিন
তৃতীয় শ্রেণীর বিঞ্জান নিয়ে একটু আলোচনা করবেন ৯ ১০ ১১ ১২ আধ্যায়
শুধু তদন্ত কমিটি পর্যন্তই  এই কমিটি কোনদিন প্রতিবেদন দিবে না  বা প্রতিবেদন জমা  দিলেও যে সুপারিশ করবে তা কোন দিন বাস্তবায়ন হবে না
সারা দেশের সকল বোর্ডের প্রশ্নপত্র ফাঁস হয়েছে  এদেশে পড়ালেখার কি মূল্য
প্রশ্নপত্র  ফাঁস হবে কেন   
দেশে কি নীতি নাই শুধুই রাজনীতি
আমাদের শিক্ষা ব্যবস্থা
নিয়ম রক্ষা
ইংরেজি প্রথম পত্র প্রশ্নপত্র ফাঁসের গুজব ছিল  ঐ বিষযে একটি তদন্ত কমিটি গঠন করা উচিত  সত্যতা খুেজ দেখা উচিত এবং জড়িত দের শাস্তি দেয়া উচিত
যে তদন্ত কমিটি গঠন করা হয়েছে তার বিরোদ্দে আরো একটি তদন্ত কমিটি গঠন করা দরকার 
কারন তদন্ত কমিটির রিপোট বাংলাদেশে তেমন একটা আলোর মুখ দেখেনা  তাই তদন্ত কমিটির উপর তেমন আসতা ও নাই
মার্কেটিং  মার্কেটিং  মার্কেটিং  মার্কেটিং  মার্কেটিং  মার্কেটিং
কই  ওদের ওয়েবসাইটে ত কোন বিজ্ঞপ্তি দেখলাম না  ওইখানে না দেওয়া পর্যন্ত নিশ্চিত হওয়া যাবে না
কোটা মুক্ত মেধাবী বাংলাদেশ চাই  সরকারী চাকুরীতে অযাচিত কোটা সুবিধার কারনে দেশ পিছিয়ে গেছে হাজার বছর  দেশে ৫৬  চাকুরী কোটার মাধ্যমে হয় বাদ বাকী মাএ ৪৪  মেধার ভিওিতে নিয়োগ করা হয়
মেয়েরা এগিয়ে আসছে
জিপি ৫ পাওয়া এবং পাশ করাই শিক্ষার উদ্দেশ্য নয়
যারা পাশ করেছে তাদের জন্য শুভ কামনা
পাস করা সব পিচ্চিদের অভিনন্দন আর শুভকামনা
যারা এসএসসি পরীক্ষায় ভালো ফলাফল করেছে  তাদের অভিনন্দন  আর যারা ভালো করেনি  তাদের জন্য অগ্রিম শুভেচ্ছা  তাদের জন্য নিশ্চয়ই ভবিষ্যতে আরও বড় কিছুই অপেক্ষা করছে
তোমাদের জন্য অনেক অনেক শুভ কামনা  সত্যিকারের মানুষ হবে আশা করি  আর যারা ভালো করতে পারনি তাদের বলছি  হাল ছেড়না  এগিয়ে যাবার তাড়নাটা জাগ্রত রাখ দেখবে একদিন সফল হবেই  নিজেকে ভালোবাসো  ভালোবাসো প্রিয়জনকে
অভিনন্দন আর শুভকামনা
সবার প্রতি শুভ কামনা রইল
যারা পাশ করেছে তাদের জন্য শুভ কামনা
এ শিল্পের শ্রমিকদের আর বেশী দিন কষ্ট করতে হবে না  বাংলাদেশের জুটমিলের শ্রমিকদের ভাগ্যে যা ঘটেছিল  আপনাদের ক্ষেত্রেও সেটাই ঘটতে যাচ্ছে
যে স্মৃতি আজীবন মরে করিয়ে দিবে কাঁদাবে  চাইলেও আর কখনও ফিরে আসবেনা
পরীক্ষা ঠেকাতে জামাত বি এন পি ব্যর্থ হয়েছে
লাখ লাখ   কোটি কোটি টাকা খরচ হয় নাচ  গান   রিয়ালিটি শো   খেলাধুলায় অথচ লেখা  পড়ায়  মেধাবীদের পিছনে খরচ মাত্র ৫০০ টাকা হিসাবে বছরে মাত্র ৬০০০ টাকা
কেমন লেখছে      কোচিং ছাড়া কেমনে সম্ভব
অনেকদিন পর ভাষা শিক্ষার উপর বাস্তব ধর্মী লেখা পেলাম   দেশে যেভাবে ইংলিশ শেখার হুড়াহুড়ি এবং ইংলিশ প্রেমের ঠেলাঠলি চলছে সে তুলনায় ইংলিশের কর্মক্ষেত্র অনেক সীমিত   বরং প্রয়োজনের তাগিদে বিদেশী যেকোন ভাষা কে শিখে নেওয়াই বুদ্ধিমানের কাজ
জানালা দিয়ে বের হয়ে আবারো ফিরে আসুন  এই শুভকামনা রইলো
শিক্ষার্থীদের এভাবে হয়রানির মানে কি  তারা তো প্রশ্নপত্র ফাঁসের সাথে জড়িত না বা তারা এটা করতেও বলে না  এক একটা বই ভালভাবে শেষ করতে কি পরিশ্রম তা পড়ুয়া শিক্ষার্থীরা জানে  এসএসসির সিলেবাসে বর্তমানে ইন্টার মিডিয়েটের অনেক কিছুই সংযুক্ত হয়েছে  একবার হায়ার ম্যাথের কথাই ভাবুন  একদিনের মধ্যেই কি সব অংক করা সম্ভব  
শিক্ষামন্ত্রীর এই পদক্ষেপ কি আদৌ কার্যকর
আমরা দেড় মাস ধরেই পরীক্ষা দিছি  প্রশ্নপত্র কখনও ফাস হয় নাই  অপরাধী ধরে কঠোর সাজা আগে দিতে হবে নইলে যত ব্যবস্থাই নিন না কেনো অপরাধীরা বিকল্প পথ বের করে ফেলবে  এধরনের চিন্তাভাবনা আপনাদের মত উর্বর মস্তিষ্কেরে প্রাণীর মাথা থেকেই আসা সম্ভব
ভাল সিদ্দহান্ত
অপরাধী না ধরে এসব করে লাভ হবে না
মাননীয় শিক্ষামন্ত্রী আপনাকে ধন্যবাদ পাবলিক পরীক্ষায় বিরতি না রাখার জন্য তবে প্রশ্ন ফাঁস রোধে এটা কোনো সমাধান নয়   আর একটা কথা দেশবাসী সবাই জানে যে এইচএসসি এর বিজ্ঞান বিভাগের প্রায় সব পরীক্ষার প্রশ্নই ফাঁস হয়েছে এবং সেই ফাঁস প্রশ্নেই পরীক্ষা হয়েছে   এর বাস্তব প্রমাণ এ দেশের লাখো শিক্ষার্থীরা   তবুও আপনি এটা স্বীকার করেননি   মেধাবী শিক্ষার্থীদের দুঃখটা কিন্তু রয়েই গেল
এক কাজ করা যায় না   এক দিনে সব পরীক্ষা    আসামি না ধরে বিচার প্রার্থীকে ফাঁসি দেয়ার চিন্তা শুরু হয়সে
অপরাধটা তো কেউ না কেউ করেছে  তাদেরকে না ধরে আর যা কিছু করছেন তাতে কোন ফল পাওয়া যাবেনা  কিভাবে প্রশ্নপত্র হুবহু ফাঁস হয়েছে তা আগে জনগনকে জানান  অপরাধীদের বাচাতে কোন ধানাই পানাই করবেন না
এটা ছাত্র ছাত্রীদের চরম বিপদে ফেলবে  পরীক্ষার আগের দিন প্রস্তুতির জন্য কিছু সময় তাদের দিতেই হবে  আশা করি মাননীয় মন্ত্রী এমন কোন সিদ্ধান্ত নেবেন না  বরং অপরাধীদের উপযুক্ত শাস্তির ব্যবস্থা এবং অন্য বিকল্প গুলো গ্রহন করে সমস্যার সমাধান বের করা যেতে পারে
বা ভালো তো   মাথা ব্যাথা করছে   কেটে ফেলো   মন্ত্রিজি আপনি মনে হই অনেক দিন পরিক্ষা দেননা  পরীক্ষার জন্য যে একাটা প্রস্তুতি আছে সেটা মনে হই ভুলে গিয়াছেন  
বিরতিহীন পরীক্ষা যে কতটা চাপ তৈরী করবে সেটা আশা করি বুঝবেন  
তাই যারা প্রশ্ন ফাস করে তাদের ধরেন  ছাত্রদের দোষ দিয়ে লাভ নেই   হাতের কাছে প্রশ্ন পেলে আপনিও সেটা পরেই পরিক্ষা দিতেন
ফাঁস না হলে তদন্তে প্রমাণ মিলল কি করে  এর পরও কি শিক্ষা মন্ত্রী বলবেন প্রশ্নপত্র ফাঁস হয়নি   তারা সবাই কেন এমন সব বির্তকিত কথা বলেন
এসব করে লাভ নাই
শিক্ষার্থীদের জীবন অতিষ্ঠ হয়ে উঠে এমন কিছু না করে কিভাবে প্রশ্নপত্র ফাস রোধ করা যায় তা ভাল করে ভেবে দেখুন  তদন্ত রিপোর্ট হাতে পাবার আগেই তো একবার ঘোষনা দিয়ে দিছিলেন যে গত ৫ বছরে কোন প্রশ্নপত্র ফাস হয়নি  সেই বক্তব্য কি উইথড্র করেছেন বা তার জন্য দুঃখ প্রকাশ করেছেন   নিজেদের ভুল তো দেখবেননা
সুবিধাবাদি গ্রুপ কোনটা
ভাল তো
আমাদের সবার শিক্ষা গুরুর মর্যাদা কবিতাটি পড়া উচিত অনুরোধ রইল সবাই শিক্ষা গুরুর মর্যাদা কবিতাটি পড়বে
দেশে ভালো প্রাইমারি এবং সেকেন্ডারি স্কুল নেই  আন্তর্জাতিকমানের শিক্ষার্থী তৈরি করতে এটির বিকল্প নেই  শিশুকালে শিক্ষার্থীর ব্রেন বেশি অ্যাকটিভ থাকে
প্রশ্নপত্র ফাঁস তো হয় শুধু মাত্র মিডিয়ামের  ইংলিশ ভার্ষানের নয়
শুদ্ধ উচ্চারণ হবে চিভনিং স্কলারশিপ
পরীক্ষা পেছানো উচিৎ ছিল      অনেক বন্যা কবলিত এলাকার ছাত্ররা পরীক্ষার প্রস্তুতি ঠিকমত নিতে পারেনি
বর্তমান সরকারের সবচেয়ে বড় অবদান হচ্ছে পরীকক্ষার আগে শিক্ষার্থী কাছে প্রশ্ন  দেয়া
আমি মনে করি পরিক্ষার্থীদের একদিন আগে জেলে রাখা হোক   কোন প্রকার নকল বা প্রশ্ন ফাঁস তাদের ছুতেও পাড়বে না
পরীক্ষায় নকল করার ছড়াছড়ি ও প্রশ্নপত্র ফাঁস আমাদের বাকরুদ্ধ ও আশঙ্কিত করেছে
শিক্ষামন্ত্রীকে আটকে রাখুন যেন ক্যামেরা নিয়ে সুটিং করতে পরীক্ষার হলে না ঢোকে
২য় বার এইস এস সি পরীক্ষায় অংশ গ্রহন করলে কি তাদের প্রশ্ন আলাদা হয়   না কি একই হয়
আমি মনে করি প্রশ্ন ফাঁস না হলে আমাদের ফলাফল ভালএবার অন্য বার এর তুলনায় ভাল হবে  তাই এর বিরুদ্ধ কঠোর ব্যবস্তা নেয়া হক
অবস্থা দেখে মনে হচ্ছে এইচ এসসি পরীক্ষাও আগের পরীক্ষার স্টাইলে হবে  কারণ বর্তমান এসএসসি পরীক্ষা প্রহসনের পরীক্ষায় পরিণত হয়েছে  আগামীতে অবস্থা উন্নতি হবে তা কল্পনা করা যায় না
বিসিএস নিয়ে এত এলার্জি কেন আপনাদের  ভাবখানা এমন যারা বিসিএস ক্যাডার তাঁরা কিছুই জানেন না আর আপনারা সব বুঝে বসে আছেন
গবেষক বিজ্ঞানী এসবের কি এই সমাজে দাম আছে  বড় সরকারি চাকরী লাগবে আমাদের  ওটাই তরুণদের একমাত্র টার্গেট
অভিনন্দন তোমাদের  কিন্তু পেশাগত জীবনে এখনো মেয়েদের ক্ষমতায়ন হয় নি  আমরা চাই পেশাগত জীবনেও মেয়েরা বড় পদে চাকরি করুক এত পড়াশোনা করে বাকি জীবন রান্নাঘরে ব্যয় করার কোন মানে হয় না
নীতিনির্ধারক পর্যায়ে যেতে বিসিএস বা রাজনীতির বিকল্প নাই  খুঁত ধরার অভ্যাস ত্যাগ করুন
এত বছর পড়ে আমরা একরকম জাতীয় ঐকমতে পৌঁছেছি যে আমরা দেশের সেরা মানবসম্পদ সরকারি চাকুরে বানানোর পেছনে খরচ করব  আমরা কোনদিনও নিউটন  হকিংস দের উত্তরসূরি তৈরিতে মনোযোগ দিবনা
আমিও বাকরুদ্ধ্য ভাই
যে নিজের দেশের কাজে লাগলো না  দেশের মানুষের কাজে লাগলো না  সে বিদেশে যাই করুক তাঁর জীবন তো বৃথা
নারীরা এগোচ্ছে নিজেদের যোগ্যতায়  কারো করুণায় নয়  নারীর ক্ষমতায়ন তাদের নিজেদেরই অর্জন
কাঁদো বাঙ্গালি কাঁদো
সরকারি পর্যায়ে দেশে বড় কোনো পদে কাজ করতে হলে বিসিএস দিতে হয়  তাই মা চান আমি বিসিএস দিই 
আমি বাকশুণ্য
আমার মনে হয় আপনার বিসিএস এর বয়স নাই  ৩০ বছর শেষ
সমুদ্রবিজ্ঞানের সূতিকাগার চট্টগ্রাম বিশ্ববিদ্যালয়ের ইনস্টিটিউট অব মেরিন সায়েন্স অ্যান্ড ফিশারিজ
সমুদ্রবিজ্ঞানের সূতিকাগার চট্টগ্রাম বিশ্ববিদ্যালয়ের ইনস্টিটিউট অব মেরিন সায়েন্স অ্যান্ড ফিশারিজ
সমুদ্র বিজ্ঞান সম্পর্কে লিখেছেন খুশি হয়েছি  কিন্তু তথ্য গুলো আরো সঠিক হওয়া দরকার ছিল
সমুদ্র বিজ্ঞান সম্পর্কে লিখেছেন খুশি হয়েছি  কিন্তু তথ্য গুলো আরো সঠিক হওয়া দরকার ছিল
সমাবর্তনের স্থান কোথায় হবে
৯২ থেকে ৯৭ পর্যন্ত ছাত্রছাত্রীদের কি হবে
পিইসি  জেএসসি নামক এসব পরীক্ষা নিপীড়ন থেকে সন্তানদের বাঁচান
যশোর বোর্ড এ পাশের হার কত
লাভ কি এসব করে  কারা কারা ভাল করবে তারা নিজেরাই তা জানে
আজ বুধবার
তোমাদের জন্য অনেক অনেক শুভ কামনা  কুমিল্লার এই হাসি অটুট থাকুক সর্বক্ষেত্রে সবসময়য়  আশাকরি তোমরা আমাদের নিরাশ করবেনা
ঠিকই আছে    ধন্যবাদ আপনাকে   এজন্য এইঅনেক স্কুলে পরীক্ষার হলে    প্রথম হওয়ার জন্য প্রশ্ন ফাস আর ইংরেজী উত্তর ও এমসিকিউ উত্তর শিক্ষকরাই  সমাধান করে দেয়
বিনা ভোটের মন্ত্রীদের মত
বিনা পরীক্ষায় ফাস ডিভিশন        
সবই সম্ভব এই আমলে
এখন থেকে পাবলিক পরীক্ষার ফলাফলের ভিত্তিতে  সেরা ২০ বা ১০ শিক্ষাপ্রতিষ্ঠান  হিসেবে কোনো তালিকা করা হবে না   
এতে লাভটা কি বুঝা গেলনা  সেরার তালিকা না করা হলেও সেরা সেরাই থাকবে  কারণ শাক দিয়ে মাছ ঢাকা যায়না
সেরা কোচিং সেন্টার অবশ্যই থাকবে  এখন থেকে সের শিক্ষাপ্রতিষ্ঠান নয়  সেরা কোটিং সেন্টার পুরস্কারের ব্যবস্থা করতে পারেন শিক্ষামন্ত্রী
আমরা সবায় রাজা
আপনার সিধান্ত গুলু ভাল কিন্তু বান্তবায়ন হয় না
শিক্ষাকে যারা পণ্যে পরিণত করেছিল তাদের সে ধারাবাহিকতায় গাইড আর কোচিং ব্যবসা পুরো শিক্ষা ব্যবস্থাকেই ধ্বংস করে দেয়ার উপক্রম করেছিল  এ ঘোষণায় আশা খুঁজে পেলাম
আগেরবার দেশের পরিস্থিতি এর চেয়ে খারাপ ছিল  কিন্তু ফল ভাল ছিল  তার কৃতিত্ব কে পাবে  হরতাল  অবরোধ   ফলের ভাল মন্দ এখন সরকারের ইচ্ছার উপর নির্ভর করে  এটা এখন বোকারাও বোঝে
প্রতিযোগিতা উনাদের পছন্দ না  সব কিছুতে জোরজবরদস্তি
আশ্চার্য কথা এতগুলো মতামত পরল অথচ কেহই সৃজনশীলতার পক্ষে মতামত দিল নি
সেরা শিক্ষা প্রতিষ্ঠান হওয়ার জন্য কোন শিক্ষকই পড়ায় না
যে রকমভাবে বিরোধী দল বলতে কিছু থাকবেনা নীতিতে ক্ষমতাসীনরা অটল আছে
সেরা না থাকলে পরীক্ষাটা আর রাখলেন কেন
আগে দেখতাম দেশের মধ্যে একজন ফাষ্ট ষ্টেন করত
শুধুমাত্র বড় বড় কথা বললেই দেশ উন্নত হয়ে যায়না  সত্যিকারের টেকসই উন্নয়ন করতে চাইলে  মেধা  সততা  দক্ষতা এবং পরিশ্রম দরকার  যদিও আমি কোন দলকেই সমর্থন করিনা তারপরও বলব শিক্ষা ব্যবস্থা এই সরকার ক্ষমতায় আসার পর থেকে ধ্বংস হয়ে যাচ্ছে
শ্রদ্ধেয় স্যার  তাহলে আমরা ও স্বপ্ন দেখতে পারি এদেশের গরীব বলে কেউ থাকবে না   স্বপ্ন শুধু স্বপ্ন
নাসিম সাহেব  জলাতাংক রোগীর মত সব কিছুতেই সরকার আতঙ্কে ভুগছেন
এটা কোন যুক্তিপূর্ণ কথা হলো না   প্রতিটি শিক্ষার্থী যেমন অন্য শিক্ষার্থীকে প্রতিদ্বন্দী মনে করে লেখাপড়া চালিয়ে মেধার উন্নতি জাচাই করে তেমনি প্রতিটি শিক্ষাপ্রতিষ্ঠানও অন্যটিকে প্রতিদ্বন্দী ভাবে   এভাবেই শিক্ষকগন ছাত্রদের মনে স্ফুলিঙ্গ তৈরি করে মেধা বের করে অানেন   এখন যদি সেরা প্রতিষ্টান না থাকে তবে তো শিক্ষকগন উতসাহী হবেন না   অাদতে সেটা শিক্ষারই লোকসান
যা হয়েছে ভালোই হয়েছে        অভিনন্দন মাননীয় মন্ত্রী
এনার সময় শিক্ষার মান সর্বনিম্নস্তরে পৌছেছ
কোচিং আর গাইড ব্যবসায়ীরাই শিক্ষাকে পণ্যে পরিণত করেছে  শিক্ষার যত ক্ষতি এরাই করেছে  এরাই এখানে যতসব নেতিবাচক মন্তব্য দিচ্ছে  ওদের বিরুদ্ধে গেলেই ডিসলাইক দিচ্ছে
জী স্যার  সবাই পাশ করবে গোল্ডেন এ প্লাস সহ
এখানে খারাপ কি বলেছেন উনি  সব সময় এত নেগেটিভ মন মানসিকতা নিয়ে থাকেন কিভাবে
বিনা ভোটের মন্ত্রীদের মত
খুবই ভাল হবে
বিনা ভোট কিভাবে  আওয়ামি লীগ ২৭০ ৩০ আসনে জিতে আসা দল
এ কথা সত্য একটা দেশের এত বড় শিক্ষা ব্যবস্থা মাত্র দশটি অথবা বিশটি সেরা প্রতিষ্ঠানের মধ্যে সিমাবদ্ধ থাকা উচিৎ নয়   এতে একটা দেশকে ও এর শিক্ষা ব্যবস্থাকে ছোট করা হয়  একটা সিমাবদ্ধ গন্ডির মধ্যে নিয়ে আসা হয়
বিএনপি জামায়াত এবারের এসএসসি পরীক্ষার্থিদের অনেক জ্জ্বালাতন  করেছে
মন্ত্রী কবে ভোট দিয়া হইসে  কোন দেশে  কিয়ের সাথে কি
দারুন উৎসাহ প্রণোদিত সংবাদ  ভাল খেলাধুলা করেও ভাল লেখা পড়া করা যায় অর্থাৎ ভাল ছাত্র হওয়া যায় শ্রীকৃষ্ণ তার অনন্য উদাহরণ   অভিনন্দন তোমাকে  তোমার আরো সফলতা কামনা করছি
চিন এর মেডিকেল ডিগ্রী বি এম ডি সি কি পাত্তা দেয়   যেমন রাশিয়ার ইন্জিনিয়ারিং সনদ    আমাদের শিক্ষার মান ত তাদের চাইতে উন্নত
চিনা ভাষায় দক্ষতা অর্জন করলে কি হবে
আমার মতে সময়োপযোগী এবং গুরুত্বপূর্ণ সিদ্ধান্ত  আশা করি দ্রুত কার্যকর হবে এবং ফলপ্রসূ হবে
১০০ ভাগ সমর্থন করছি
এসব সুপারিশ নীতিমালা তো অনেকই হয়  বাস্তবায়ন হয় কয়টা   ডাক্তারদেরও তো উপজেলা  জেলায় যাওয়ার নীতিমালা করা হয়েছিল  তারপরও তো দেখি বছরের পর বছর তারা ঢাকা থেকে নড়েনা  আর এটার জন্য নাকি উপরে ম্যানেজ করতে হয়  তো একদিকে সুপারিশ নীতিমালা করলাম  অন্নদিকে ম্যানেজ হলাম তাতে লাভের লাভ কিছুই হবে না
সরকারি সিলেট ইঞ্জিনিয়ারিং কলেজ  ময়মনসিংহ ইঞ্জিনিয়ারিং কলেজ  ফরিদপুর ইঞ্জিনিয়ারিং কলেজ এবং বরিশাল ইঞ্জিনিয়ারিং কলেজকে প্রকৌশল বিশ্ব বিদ্যালয়ে রূপান্তর করা হউক
বর্তমানে বাংলাদেশে সুশিক্ষা মূখ্য নয় সবাই ছুটছে উচ্চশিক্ষার সনদের পেছনে  সবাইকেই বিশ্ববিদ্যালয়ের ডিগ্রিধারী হতে হবে এই ধারণা কেন আমাদের
নেত্রকোনা  জামালপুর আর রবীন্দ্র বিশ্ববিদ্যালয় সহ যে নতুন বিশ্ববিদ্যালয় হচ্ছে  তার ভবিষ্যত কী হবে সেটিই এখন বড় বিষয়  রাঙামাটির প্রযুক্তি বিশ্ববিদ্যালয়ের দূরাবস্থা তো সবাই জানে  একটা সরকারি প্রাথমিক বিদ্যালয়ও এর থেকে উন্নত  বর্তমান দেশের বিভিন্ন বিশ্ববিদ্যালয় গুলোতে যে রাজনৈতিক অস্থিরতা শিক্ষকদের মধ্যে দেখা যায় সেক্ষেত্রে আমার মনে হয়না ইউজিসি এর পরিকল্পনা বাস্তবায়িত হবে
আমার মতে সময়োপযোগী এবং গুরুত্বপূর্ণ সিদ্ধান্ত  আশা করি দ্রুত কার্যকর হবে এবং ফলপ্রসূ হবে
১০০ ভাগ সমর্থন করছি
এসব সুপারিশ নীতিমালা তো অনেকই হয়  বাস্তবায়ন হয় কয়টা   ডাক্তারদেরও তো উপজেলা  জেলায় যাওয়ার নীতিমালা করা হয়েছিল  তারপরও তো দেখি বছরের পর বছর তারা ঢাকা থেকে নড়েনা  আর এটার জন্য নাকি উপরে ম্যানেজ করতে হয়  তো একদিকে সুপারিশ নীতিমালা করলাম  অন্নদিকে ম্যানেজ হলাম তাতে লাভের লাভ কিছুই হবে না
সরকারি সিলেট ইঞ্জিনিয়ারিং কলেজ  ময়মনসিংহ ইঞ্জিনিয়ারিং কলেজ  ফরিদপুর ইঞ্জিনিয়ারিং কলেজ এবং বরিশাল ইঞ্জিনিয়ারিং কলেজকে প্রকৌশল বিশ্ব বিদ্যালয়ে রূপান্তর করা হউক
বর্তমানে বাংলাদেশে সুশিক্ষা মূখ্য নয় সবাই ছুটছে উচ্চশিক্ষার সনদের পেছনে  সবাইকেই বিশ্ববিদ্যালয়ের ডিগ্রিধারী হতে হবে এই ধারণা কেন আমাদের
নেত্রকোনা  জামালপুর আর রবীন্দ্র বিশ্ববিদ্যালয় সহ যে নতুন বিশ্ববিদ্যালয় হচ্ছে  তার ভবিষ্যত কী হবে সেটিই এখন বড় বিষয়  রাঙামাটির প্রযুক্তি বিশ্ববিদ্যালয়ের দূরাবস্থা তো সবাই জানে  একটা সরকারি প্রাথমিক বিদ্যালয়ও এর থেকে উন্নত  বর্তমান দেশের বিভিন্ন বিশ্ববিদ্যালয় গুলোতে যে রাজনৈতিক অস্থিরতা শিক্ষকদের মধ্যে দেখা যায় সেক্ষেত্রে আমার মনে হয়না ইউজিসি এর পরিকল্পনা বাস্তবায়িত হবে
বাংলাদেশে সংগীত  নৃত্য নিয়ে অনেক কাজ হয় কিন্তু বাংলাদেশে জাদুশিল্পীদের নিয়ে কোন কাজ হয় না কেন
একাদশ শ্রেণিতে দ্বিতীয় মেধা তালিকা থেকে ছাত্রীদের ভর্তি করা হচ্ছে না বলে অভিযোগ উঠেছে             সরকারের নিদের্ষ কলেজ মানে না    কেমন সরকার বুঝুন
আমরা এত এক্সসাইটেড কেন
লুঙ্গি পরার চলন এসেছে বার্মিজদের থেকে
আমার ইংরেজি ২য় সাজেশন লাগবে প্রশের উওর
এভাবে আরো মডেল দিলে খুব ভালো হয়
শুধু তদন্ত কমিটি পর্যন্তই  এই কমিটি কোনদিন প্রতিবেদন দিবে না  বা প্রতিবেদন জমা  দিলেও যে সুপারিশ করবে তা কোন দিন বাস্তবায়ন হবে না
সারা দেশের সকল বোর্ডের প্রশ্নপত্র ফাঁস হয়েছে  এদেশে পড়ালেখার কি মূল্য
প্রশ্নপত্র  ফাঁস হবে কেন   
দেশে কি নীতি নাই শুধুই রাজনীতি
আমাদের শিক্ষা ব্যবস্থা
নিয়ম রক্ষা
ইংরেজি প্রথম পত্র প্রশ্নপত্র ফাঁসের গুজব ছিল  ঐ বিষযে একটি তদন্ত কমিটি গঠন করা উচিত  সত্যতা খুেজ দেখা উচিত এবং জড়িত দের শাস্তি দেয়া উচিত
যে তদন্ত কমিটি গঠন করা হয়েছে তার বিরোদ্দে আরো একটি তদন্ত কমিটি গঠন করা দরকার 
কারন তদন্ত কমিটির রিপোট বাংলাদেশে তেমন একটা আলোর মুখ দেখেনা  তাই তদন্ত কমিটির উপর তেমন আসতা ও নাই
শাঁখের করাতের মত দুইদিকে কাটেন কেন  এসব সুবিধাবাদি নীতি বাদ দিয়ে ভাল হয়ে যান
এত প্রশ্ন ফাঁসের পরেও  নাহ এবার মনে হয় মন্ত্রীকে বাড়ি বাড়ি প্রশ্ন দিয়ে আসতে হবে
তাহলে কি যে সব প্রশ্ন ফাঁস হয় সেগুলোর ৯৫ ই ফেক   যারা পেয়েছে তাদের কয়জন আপনার মত বলতে এগিয়ে এসেছে   একটা কমন সেটেই তো পরীক্ষা হবার কথা 

ভাই আপনাকে মনে হয় গুঁড়ে ভাগ দেওয়া হচ্ছে না   আপনি বন্চিত হচ্ছেন
একটু রশি টেনে ধরার চেষ্টা করছেন  মানুষজন তো বুঝে গেছে  শিক্ষার আসলে হাল কী  একটু প্রেলেপ দেয়ার ব্যবস্থা
এখনকার পরীক্ষকেরা শুনেছি কিছু লিখলেই মার্কস দিয়ে দেয়   আগে এরকম ছিল না  আগের লিখিত পরীক্ষার ধারাটাই  ১৯৯২ এর আগে  সঠিক ছিল মেধা যাচাইয়ের জন্য
ঢিলা দেওয়া রশি এখন যতই টানেন  লাভের লাভ কিছুই হবে না  সামনে নির্বাচন  এই সময়ে এমন ফলাফল নির্বাচনের ফলাফলের উপরে না প্রভাব ফেলে  এর আগের বারে কিন্তু নির্বাচনের আগে আগে সব পাবলিক পরীক্ষার ফলাফল অনেক ভাল হয়েছিল
আমার নিজের অভিজ্ঞতা থেকেই বলছি  আমার হাতেও ফাঁসকৃত প্রশ্ন এসেছিল কিন্তু ৯৫  ভাগই ছিল মূল প্রশ্ন থেকে ভিন্ন  বুঝতেই পারছি সরকার এমন কৌশল নিয়েছে যাতে কেউ বিভ্রান্তিকর পরিস্থিতি এড়াতে ফাঁসকৃত প্রশ্নপত্রের মুখাপেক্ষী না হয়
রেজাল্ট  ভালো হলে মান খারাপ  খারাপ হলে সূচক খারাপ
খুব ভালো  আসলেই জেসমিন আক্তারের ইচ্ছা শক্তি প্রসংসার দাবিদার  মহান আল্লাহ্‌ যেন জেসমিন আক্তারের আশা পূরণ করেন
অভিনন্দন দিনাজপুর শিক্ষা বোর্ড  এর নতুন চেয়ারম্যান কে   তাঁর কথার সাথে যেন কাজের মিল পাই এই প্রত্যাশা করি
এই বছর এতো চাপাচাপি কেন
এত কড়াকড়ি কেন এই বছর
সুন্দর প্রতিবেদনের জন্য ধন্যবাদ
গর্ব করে বলতে পারবো সারাটা জীবন আমিও ফেনী কলেজের ছাত্র ছিলাম  ফেনী কলেজ টিকে থাকুক সারাটা জীবন  ভালোবাসা রইলো
ছাত্রছাত্রী এবং অভিভাবক যেভাবে হয়রানীর শিকার হচ্ছে তা মোটেও গ্রহনযোগ্য নয়  খুবই দুঃখজনক
অবকাঠামোগত সমস্যা সব জায়গায়ই হতে পারে কিন্তু শিক্ষার ক্ষেত্রে এসব সমস্যার চিন্তা মাথায় না এনে চটকদার সিদ্ধান্ত বাস্তবায়ন করতে গিয়ে দেশের শিক্ষাব্যবস্থাকে পিছিয়েই দেয়া হচ্ছে বলে মনে হয়  এভাবে শিক্ষার্থীদেরকে বলির পাঠা না বানালেই কি নয়
অভিননদন
এটা কি বলার মত একটা ফলাফল হল              তবুও ওদেরকে নতুন বছরের শুভেচ্ছা
আর্টিকেলশিপে থাকার সময়ে একজন শিক্ষার্থী সংযুক্ত প্রতিষ্ঠান থেকে প্রতি মাসে নির্ধারিত হারে ভাতা পেয়ে থাকেন  
আইসিএবি নির্ধারিত হারটা স্যার বলতে মনে হয় লজ্জা বোধ করছিলেন
সিএ নিয়ে এত পুওর আর্টিকেল খুব কমই দেখেছি
যারা আর্থিক বিষয় নিয়ে ইর্ন্টানশিপ করতে চান তারা বাংলাদেশের অন্যতম আর্থিক প্রতিষ্ঠান ইনভেস্টমেন্ট কর্পোরেশন অব বাংলাদেশ  আইসিবি  তে যোগাযোগ করেন এখানে শেখার পাশাপাশি ভাতার ব্যবস্থা রয়েছে
শিক্ষা মন্ত্রণালয় ও শিক্ষা বোর্ডের ওয়েবসাইটেও সময়সূচি পাওয়া যাচ্ছে না রুটিন পাওয়ার  লিংক দিবেন
শিক্ষা মন্ত্রণালয় ও শিক্ষা বোর্ডের ওয়েবসাইটেও সময়সূচি পাওয়া যাচ্ছে না
প্রশ্ন পত্র পাশ কবে হবে অপেক্ষায় রইলাম
আমাদের সময় এমন সুযোগ কোথায় ছিল
বর্তমান সরকারের সবচেয়ে বড় অবদান হচ্ছে পরীকক্ষার আগে শিক্ষার্থী কাছে প্রশ্ন  দেয়া
আমি মনে করি পরিক্ষার্থীদের একদিন আগে জেলে রাখা হোক   কোন প্রকার নকল বা প্রশ্ন ফাঁস তাদের ছুতেও পাড়বে না
পরীক্ষায় নকল করার ছড়াছড়ি ও প্রশ্নপত্র ফাঁস আমাদের বাকরুদ্ধ ও আশঙ্কিত করেছে
শিক্ষামন্ত্রীকে আটকে রাখুন যেন ক্যামেরা নিয়ে সুটিং করতে পরীক্ষার হলে না ঢোকে
২য় বার এইস এস সি পরীক্ষায় অংশ গ্রহন করলে কি তাদের প্রশ্ন আলাদা হয়   না কি একই হয়
আমি মনে করি প্রশ্ন ফাঁস না হলে আমাদের ফলাফল ভালএবার অন্য বার এর তুলনায় ভাল হবে  তাই এর বিরুদ্ধ কঠোর ব্যবস্তা নেয়া হক
অবস্থা দেখে মনে হচ্ছে এইচ এসসি পরীক্ষাও আগের পরীক্ষার স্টাইলে হবে  কারণ বর্তমান এসএসসি পরীক্ষা প্রহসনের পরীক্ষায় পরিণত হয়েছে  আগামীতে অবস্থা উন্নতি হবে তা কল্পনা করা যায় না
কিছু শিক্ষার প্রয়োজন নেই গোল্ডেন এ প্লাস পেলেই হবে
শুধু ইংরেজীতে ফেল করায় ফেলের সংখ্যা বেশী হয়  আর ঢাকা বিশ্ববিদ্যালয়ের ইংরেজী প্রশ্ন অনেক কঠিন হয়  এমন অনেক শব্দের প্রয়োগ হয় যা বাস্তবে ইংরেজীতে কম ই ব্যাবহার  একটা বিদেশী চাইলেই ডিকশনারী ব্যাবহার করে বের করা যায়    ইংরেজী  ভাষা না জানা কখনই মেধাহীনতা হতে পারে না  ইংরেজীর অহেতুক গুরত্ব কমাতে হবে
কিছু শিক্ষার প্রয়োজন নেই গোল্ডেন এ প্লাস পেলেই হবে
এইসব ছাত্র ছাত্রী যদি ফেল বা অকৃতকার্য হয়ে থাকেন তবে তারাই প্রতিনিধিত্ব করছে হাত তালি দেওয়া শিক্ষা ব্যবস্থাকে  ঢাকা বিশ্ববিদ্যালয়ে আসন না পাক কিন্তু পাস করার জন্য তো ন্যূনতম নম্বর পাওয়া উচিত ছিল
আড়াই বছর পড়ালেখার পরে  একটা পাবলিক পরীক্ষায় ভালো সিজিপিএ নিয়ে পাস করার পরেও মাত্র তিনটা সাবজেক্টের  তিন সাবজেক্টের একটা আবার মাতৃভাষা  ১০০ নাম্বারের পরীক্ষায় যদি ৩১০০০ এর মধ্যে ২৬০০০ ই ফেইল করে  এক সাব্জেক্টে ২৫ এ ১০ পাইলেই পাস  তাহলে এই আড়াইটা বছর নষ্ট করে লাভ কি  কি শিখল এই আড়াই বছর নষ্ট করে
ঢাকা বিশ্ববিদ্যালয়ের ইংরেজী প্রশ্ন এতই কঠিন হয় যে সয়ং ব্রিটিশরা ই ফেল করবে
ভর্তি পরীক্ষায় উত্তীর্ণ হওয়ার জন্য বাংলা ও ইংরেজীেত আলাদাভাবে পাশ করার শর্ত থাকলে এধরণের ঘটনা আরও ঘটতে থাকবে  কারণ  স্রেফ ভর্তিচ্ছুদের ফেল করানোর জন্য এমন কঠিন প্রশ্ল করা যা হয়ত যারা পরীক্ষা নিচ্ছেন  তাদের অনেকেই উত্তর দিতে পারবে না
শিক্ষা পদ্ধতি নিয়ে আমাদের নতুন করে ভাববার সময় এসেছে
এতেই করে বোঝা যায় যে দেশে পড়ালেখার মান কতটুকু উন্নতি সাধিত হয়েছে 
ভাবলে কেমন যেন লাগে
২৬ হাজার ফেল করবে এটাই স্বাভাবিক  কারণ এটা ঢাকা বিশ্ববিদ্যালয়  এখানে মেধা যাচাই করা হয়  জিপিএ না
একটি জাতিকে ধ্বংস করতে হলে তার শিক্ষা ব্যবস্থা ধ্বংস করে দাও  এখন সেটাই হচ্ছে
রায়হান   বড় বড় কথা বলার আগে মনে রাখা উচিৎ যাবতীয় চাকরীর পরীক্ষার প্রশ্নগুলো ঢাকা ভার্সিটির বিভিন্ন ডিপার্টমেন্টই করে থাকে   যারা এইপরীক্ষায় অকৃতকার্য হবে তাদের ভবিষ্যতেও চাকরীর এক্সামে কৃতকার্য হবার সম্ভবনা শূন্যের কাছাকাছি   আর একটা কথা  আপনার কাছে ইংরেজি প্রশ্ন কঠিন মনে হতে পারে আমার কাছে সেই প্রশ্ন স্ট্যান্ডার্ড বলেই মনে হয়েছে
এতেই করে বোঝা যায় যে দেশে পড়ালেখার মান কতটুকু উন্নতি সাধিত হয়েছে 
ভাবলে কেমন যেন লাগে
মানবিক বিভাগে এবার জিপিএ ৫ এর সংখ্যা ১ ০০০‌ এর মতো ছিল
এতেই করে বোঝা যায় যে দেশে পড়ালেখার মান কতটুকু উন্নতি সাধিত হয়েছে 
ভাবলে কেমন যেন লাগে
জিপিএ ৫ মানে ভাল পাশ নয়  ২৬০০০ ই ফেইল  কি শিখল
এতেই বুঝা যায় জিপিএ ৫ মানে ভাল পাশ নয়
পরিবর্তন প্রয়োজন পাঠদান ও সচেতনতায়
আমাদের শিক্ষাব্যবস্থায় কোথাও কোন ফাঁক রয়ে গেছে  এমন বিপর্যয় জাতির জন্য অমঙ্গলকর  কারন  শিক্ষাই জাতির মেরুদন্ড  ওটা মচকে গেলে জাতি আর দাঁড়াতে পারবে না  এটার ব্যপক পরিবর্তন দরকার
২০১৮ সালের প্রস্তুতি দিন
তৃতীয় শ্রেণীর বিঞ্জান নিয়ে একটু আলোচনা করবেন ৯ ১০ ১১ ১২ আধ্যায়
হে ঈশ্বর  প্রশ্নপত্র ফাঁস রোধ করো
তোমরা ভালোভাবে পরীক্ষা দাও  তোমাদের জীবনের সর্বাঙ্গিন উন্নতি কামনা করি
শুভ কামনা
প্রশ্ন ফাঁস বন্ধ হবে তো
মেহেদী ভাইরেতো চিনিবার পারসি  শ্রাবণ বাসের নিয়মিত মুখ
ভালো উদ্যোগ  সাধুবাদ জানাই
২০১১ সালে আমি পরীক্ষা দেয়ার সময়  এক দায়িত্বরত শিক্ষক আমার পাশের জন কে উত্তরপ্রত্র সরবরাহ করে  এমন টা হলে কোনো পদ্ধতিই কাজে আসবে না
পাশের হার কমে গেছে  এটা লন্ডনি ষড়যন্ত্র নয় তো
ওবায়দুল কাদের এখন বলবে রেজাল্ট খারাপ হওয়ার পেছনে বিএনপির হাত আছে
এবারো কি শুধু মেয়েরা পরিক্ষা দিয়েছিল
৭৭ ৭৭
এমন কিছু হবে  ভেবেছে কি কেউ আগে
প্রশ্নপত্র এত ফাঁসের পরও রেজাল্ট এত খারাপ হলো কিভাবে
ভাগ্যি প্রশ্ন ফাঁস হয়েছিল  নইলে কি যে হতো
এতে মনুষ্যত্তের পাস হয়েছে কি   নাকি আমরা এই পাশ করে ইভ টিজিং  বেয়াদবি  ব্রিস্রিনখলা    অশ্ললিলতা করেইইই যাব
অবশ্যই একটা ভালো উদ্যোগ  আমরা কি পারি না সম্পূর্ণ ভাবে ছাত্ররাজনীতি নিষিদ্ধ করতে
অনেকদিন পর একটা ভাল খবর জানতে পারলাম  এই শুভবুদ্ধির উদয় হউক দেশের সবগুলো বিশ্ববিদ্যালয়গুলোতে  যেখানে থাকবে না কোন দলবাজী
দেশের সকল শিক্কা  প্রতিসটানে ছাত্ররাজনীতি নিষিদ্ধ করা হোক   ছাত্রছাএিদের শুধু পড়া লিখাই করা উচিত 
ছাত্ররাজনিতির নামে টেন্ডারবাজি হানাহনি মারামারি খুনোখুনি কোন মতেই কাম্য নয়
শিক্ষক রাজনীতিও বন্ধ করতে হবে
সকল বিশ্ববিদ্যালয়ে সারাজীবনের জন্য ছাত্র  শিক্ষক রাজনীতি বন্ধ করতে হবে  দলীয়করণ  আত্মীয়করণ মুক্ত  রাখতে হবে
আলহামদুলিললাহ
ইলেক্ট্রিক্যাল   কম্পিউটার   সিভিল এর মত ব্যাপক কর্মক্ষেত্র বিশিষ্ট বিষয়গুলি থকে পড়াশুনা করেই এখন হাজার হাজার শিক্ষার্থী বেকার থাকছে বা   ভিন্ন ডিপার্টমেন্টগুলি যেমন   স্টোর   সেলস  এডমিন  বা   মার্কেটিং এ চাকরি করছে অনেকটা বাধ্য হয়েই   কাজেই পেশা ও বিশ্ববিদ্যালয় বাছাইয়ের ক্ষেত্রে সতর্কতা অবলম্বন করা জরুরী
ইলেক্ট্রিক্যাল   কম্পিউটার   সিভিল এর মত ব্যাপক কর্মক্ষেত্র বিশিষ্ট বিষয়গুলি থকে পড়াশুনা করেই এখন হাজার হাজার শিক্ষার্থী বেকার থাকছে বা   ভিন্ন ডিপার্টমেন্টগুলি যেমন   স্টোর   সেলস  এডমিন  বা   মার্কেটিং এ চাকরি করছে অনেকটা বাধ্য হয়েই   কাজেই পেশা ও বিশ্ববিদ্যালয় বাছাইয়ের ক্ষেত্রে সতর্কতা অবলম্বন করা জরুরী
খুব ভালো লাগছে  চট্টগ্রাম কলেজিয়েট স্কুল এবার চট্টগ্রাম বোর্ডে সেরা  ওয়াও     স্কুলের সকল পরীক্ষার্থীদের অনেক অনেক অভিনন্দন
বাংলাদেশ শিক্ষাবোর্ডের ওয়েব সাইট রেজাল্ট না পেলেও হাসি পেলাম
এইবারের ফলাফলে ঢাকার শীর্ষ  নামি  দামী কোনো স্কুলের নাম নেই   এর ধারা প্রমান হয় যে শিক্ষকদের  আন্তরিকতা থাকলে যেই কোনো স্কুল ভালো ফলাফল করতে পারে   নামি  দামী স্কুলের ফলাফল বিপর্যয়ের কারণ হলো একমাত্র ভর্তি বানিজ্য   আমাদের দেশের অভিবাবকদের কি কখনো কি দৃষ্টি ভঙ্গি পরিবর্তন হবে না
প্রতি বৎসরই ওরা কেউ না কেউ সেরা হয় কিন্তু আমরা সেরা মানুষ পাই না কেন
ঝিলটুলিতে অবস্থিত শহর ক্যাম্পাস  ওখান থেকে ৩ কি মি দূরে বায়তুল আমান ক্যাম্পাস
পাশের হার কমে গেছে  এটা লন্ডনি ষড়যন্ত্র নয় তো
ওবায়দুল কাদের এখন বলবে রেজাল্ট খারাপ হওয়ার পেছনে বিএনপির হাত আছে
এবারো কি শুধু মেয়েরা পরিক্ষা দিয়েছিল
৭৭ ৭৭
এমন কিছু হবে  ভেবেছে কি কেউ আগে
প্রশ্নপত্র এত ফাঁসের পরও রেজাল্ট এত খারাপ হলো কিভাবে
ভাগ্যি প্রশ্ন ফাঁস হয়েছিল  নইলে কি যে হতো
এতে মনুষ্যত্তের পাস হয়েছে কি   নাকি আমরা এই পাশ করে ইভ টিজিং  বেয়াদবি  ব্রিস্রিনখলা    অশ্ললিলতা করেইইই যাব
নদীর পানি ঘোলা তাই পরীক্ষা করার সময় ভাল করে দেখা যাবে না  পরীক্ষায় পাশ করিলে নদীতে পাঠানো হবে
ক্রিকেট খেলায় যখন তখন বোনাস দেয়া বাদ দিয়ে এসব ছেলেদের পেছনে বিনিয়োগ করা বেশি প্রয়োজনীয়
তোমরা এগিয়ে যাও  তোমাদের জন্য শুভকামনা রইলো
সুমিংপুল কেন লাগবে   নদী বা খাল ব্যবহারে এই রোবট এর সমস্যা কি
সুইমিং পুল লাগবে রোবটের প্রোগ্রাম রেডি করার জন্য     নদীর পানি অস্বচ্ছ এবং স্রোত বেশি   যেহেতু রোবটের প্রোগ্রাম গুলো পরীক্ষা নিরীক্ষা করা এবং কাজ পর্যবেক্ষণ করা দরকার সেহেতু সেটা সুইমিং পুলেই করতে হবে   

সব ঠিকঠাক মত কাজ করলে তবেই তো নদী কিংবা সমুদ্র
সরকারের দেওয়ার দরকার নেই  ব্র্যাক বিশ্ববিদ্যালয়ের শত শত কোটি টাকা আয় থেকেই করতে পারে বিনিয়োগ  
দেশের সবচেয়ে বেশি ইনকাম করা ভার্সিটি হলো ব্র্যাক
পরীক্ষা পাশ যেখানে মুখ্য হয়ে দাঁড়ায় সেখানে সুশিক্ষা হোচট খায়
আসুন আমাদের দেলদুয়ারে দেখে যান শুনে যান
খুব ভালো লাগলো
তোমার উত্তরোত্তর সাফল্য কামনা করছি
আমাদের সাঁথিয়ার কৃতি সন্তান  তোমার সাফল্য কামনা করছি
আরো বেশি প্রচার করা উচিত জাতে সবার নজরে আসে অনেকেই এই সাবজেক্ট সম্পর্কে জানেনা
এখানের প্রকৃত অবস্থা আমরা অর্থাৎ এই ইন্সটিটিউট এর ছাত্র ছাত্রীরা ভালো করে জানি  শিক্ষকের অভাব মূল্যবান সকল যন্ত্রপাতি অযত্নে অবহেলায় নষ্ট হয়ে থাকায় ঠিকমতো প্যাকটিস না করতে পারার যে কষ্ট তা আমরা ভালো করে অনুধাবন করতে পারছি  এছাড়া রাজনীতির কারণে ঠিকমতো ক্লাস না হওয়া ইত্যাদি সমস্যাতো আছেই  এতোবড় একটা ইন্সটিটিউট কিন্তু কেউ এটার খোঁজ নেয় না
এ শিল্পের শ্রমিকদের আর বেশী দিন কষ্ট করতে হবে না  বাংলাদেশের জুটমিলের শ্রমিকদের ভাগ্যে যা ঘটেছিল  আপনাদের ক্ষেত্রেও সেটাই ঘটতে যাচ্ছে
পরীক্ষা পাশ যেখানে মুখ্য হয়ে দাঁড়ায় সেখানে সুশিক্ষা হোচট খায়
আসুন আমাদের দেলদুয়ারে দেখে যান শুনে যান
অনেক অনেক শুভকামনা
সুবোধ তুই পালিয়ে যা
দলীয়ককরণের মাধ্যমে শিক্ষাব্যবস্থায় পুরোপুরি ধ্বস নেমেছে  মেধাবীরা চাকরী না পেয়ে ধুকছে আর ফেল্টু মার্কা দলীয় ক্যাডারদের হাতের কব্জায় শিক্ষা প্রতিষ্ঠান  একটা জাতিকে ধ্বংস করতে আর কী লাগে
রূপম নামে একজন কবি আছেন  সবসময় খুব সরব এখানে উনি নীরব কেন  টপ ক্লাস মানে কি ভি সি  ছি ছি  সাহেব প্রফেসর মান্নান সাহেব কবে চামচামি ছেড়ে ভাল হবেন
টপক্লাস যোগ্যতা কি জিনিস
অনিয়মই যে দেশের নিয়ম
দেশের যে অবস্থা  উচ্চ শিক্ষা প্রতিষ্ঠানের সেই অবস্থা   কোন নিয়ম নীতির বালাই নেই
এ অনুষ্ঠানে প্রাক্তন আরো দুই ভিসি ওয়াকিল আহমদ ও আবদুল মমিন চৌধুরী উপস্থিত থাকলে নিশ্চয় অনুষ্ঠান আরো পূর্ণতা পেত
সমাবর্তনের স্থান কোথায় হবে
৯২ থেকে ৯৭ পর্যন্ত ছাত্রছাত্রীদের কি হবে
তথ্য ও যোগাযোগ প্রযুক্তির দুটি প্রশ্নের উত্তরই খুব ভাল হয়েছে   ধন্যবাদ স্যারকে
আলহামদুলিল্লাহ্‌    বাংলাদেশকে আর ও অনেক দুরে নিয়ে যাও    দোয়া রইলো     ফি আমানিল্লাহ
মুহসীন কলেজের সদ্য অবসরে যাওয়া অধ্যক্ষের নাম মোঃ আব্দুল গোফরান  আবদুল মোনায়েম নয় 
এ ধরণের ভুল গ্রহণযোগ্য নয়
টেলিভিশন অথবা পত্রিকা সব জায়গায় মেয়েদের ছবি তুলে প্রচার করে পেইজ রঙিন করার জন্য  ছেলেরা কি পরীক্ষায় ভাল ফল নিয়ে পাশ করে নাই
সখীপুরের সেরা বিএএফ শাহীন কলেজকে অভিনন্দন
অভিনন্দন সফল শিক্ষার্থীদের   তবে মনে রাখতে হবে এ ভালো ফলাফলের জন্য ইস্কুল তেমন কৃতিত্ব দাবি করতে পারে না  কারণ তারা চড়া দামে প্রাইভেট টিউটরের কাছ থেকে এ শিক্ষা অর্জন করেছে  মা বাবা জানেন এ   প্লাস চড়া দাম দিয়ে কিনতে হয়েছে
ঢাকার সবচেয়ে মেধাবি ছাত্রীদেরকে নিয়ে আবার তাদের বাসায় টিউশনি দেয় কারা    ঢাকা বিশ্ববিদ্যালয়ের ছাত্র ্ছাত্রীরা   এরপরেও নিজেদের পছন্দসই স্কুলে সিট পড়া  রেজাল্ট এদের ভালো হবে নাতো আমার ভাতিজা যে গ্রামের স্কুলে পড়েছে তার হবে  যাই হোক তারপরেও যারা ভালো রেজাল্ট করেছে তাদের জন্য শুভকামনা  আর যারা এবার ভাল করতে পারে নাই তারা যেন এখন থেকেই নতুন উদ্যােমে এইচ এস সি তে ভাল করতে পারে সেই প্রত্যাশায়
ভালো হবে
মাননীয় মন্ত্রী  কোমলমতী শিশুদের উপর থেকে চাপ কমানোর জন্য পিএসসি ও জেএসসি পরীক্ষা অবিলম্বে বন্ধ করুন  ওরা লেখাপড়ার চাপের কারণে আউটডোর গেম খেলতে পারেনা  আর ইস্কুল গুলাযে বাধ্যতামুলক কোচিং করায় পিএসসি ও জেএসসি পরীক্ষার জন্য সেটা বন্ধ করুণ
সমাপনী পরীক্ষা বাতিল করা হোক
খপ্পরে পরেছে স্বদেশ
যারা আইন পাশ করছে  তারা এই ধরনের প্রশ্নপত্রে পরিক্ষা দিলে কী করতো ভাবনার বিষয়
পিএসসি  জেএসসি নামের অর্থহীন জিপিএ ৫ কারখানাগুলো কেন বন্ধ হয়না
তারপরও বন্ধ হবে না পিএসসি  জেএসসির মতো অভিশপ্ত পরীক্ষা ব্যবস্থা
খেলা ধুলা ও চিত্ত বিনোদন দেহ মন ও মননশীলতা বিকাশে সহায়ক  সরকারের উচিত কিন্ডারগার্টেন এসোসিয়েশন সিলোবাস ও তাদের বাণিজ্য  নীতির উপর নজরদারী করা
নিষ্পাপ শিশুদের নিয়ে খেলা করা উচিত নয়  হঠাৎ সিদ্ধান্ত নিয়েছেন যোগ‍্যতা ভিত্তিক প্রশ্ন দিয়ে পরীক্ষা নেওয়া হবে  দয়া করে পূর্ব প্রস্তুতি অনুযায়ী প্রশ্ন দিয়ে পরীক্ষা নেওয়ার জন্য বিনীত আবেদন করছি
সরকার যে ছাত্রছাত্রীদের সত্যিই গিনিপিগ ভাবে তা আরও একবার প্রমাণ হল
আর কত কাল শিক্ষার্থীদেরকে গিনিপিগ বানানো হবে  পাবলিক সার্ভিস কমিশন  মানবাধিকার কমিশন  দুদক এসবের মতো দেশে একটি স্থায়ী শিক্ষা কমিশন গঠন করে শিক্ষা সংক্রান্ত সকল সিদ্ধান্ত গ্রহণ ও বাস্তবায়নের দায়িত্ব ওই কমিশনকে দেয়া হোক  শিক্ষা মন্ত্রণালয় শুধু সচিবালয়ের দায়িত্ব পালন করবে যার দায়িত্বে থাকবেন শিক্ষামন্ত্রী
ফিরিয়ে নাও  জিপিএ 
ফিরিয়ে দাও  বিভাগ
এই আমাদের শিক্ষা ব্যবস্থা
কোয়ালিটির ব্যাপারে আর একটু মনযোগ দেওয়া দরকার
পরিক্ষার্থী বৃদ্ধি ততক্ষন পর্যন্ত কোন সুফল বয়ে আনবে না যতক্ষন পর্যন্ত না শিক্ষার মান একটা ভাল পর্যায়ে উন্নীত করা যায়  শেষে দেখা যাবে  শিক্ষার্থীরা ডিগ্রী তো অর্জন করল কিন্তু বিশ্বপ্রতিযোগিতায় পিছিয়েই রইল
সত্যি এটা বাজে সিদ্ধান্ত   এ রকম পদ্ধতি সচল থাকলে সত্যিকারের মেধা বের হবে না  আমি এই সিদ্ধান্তের তীব্র নিন্দা জানাচ্ছি
এখানে টেস্ট চালানো হল  পরে হয়তো পাবলিক বিশ্ববিদ্যালয়েও কার্যকর করার চেস্টা করা হবে    এর তীব্র বিরোধিতা করছি  এর ফলে জাতি মেধাশূন্যের দিকে কয়েকধাপ আগাবে
দেশের শিক্ষা ব্যাবস্থা পঙ্গু করা হয়েছে এসএসসি ও এইচএসসি পরীক্ষা ও ফলাফলের প্রক্রিয়ার উপর আর আজকের এই সিদ্ধান্ত সেই প্রক্রিয়ার কফিনের উপর শেষ পেরেক মাত্র   ধন্যবাদ সরকারকে একটা মেধাহীন জাতি উপহার দেয়ার জন্য
উচ্চ শিক্ষার জন্য আর বইয়ের পিছে না ঘুরলে্‌উ চলবে  যে যত টাকা ঢালবে তত ভালো মার্ক পাবে   বেশি মার্ক মানেই তো উচ্চ শিক্ষা
ভালো     এখন থেকে সোনার ছেলেদের পকেট আরও ভারি হবে
এস এস সি এবং এইচ  এস সি তে জোড়া ৫ পেয়েও চান্স পায় না ঢাবিতেে তাহলে কিসের ভিত্তিতে মেধা যাচাই   ভোগাস কাহিনী
এত অল্প সময়ে রেজাল্ট দেওয়া হয় যে পরীক্ষকেরা সৃজনশীল প্রশ্নের উত্তর ভালভাবে যাচাই করতে পারেন না  এর ফলে অনেক ছাত্র  ছাত্রী ভাল লিখেও ফল খারাপ করে আর অনেকে খারাপ লিখেও ফল ভাল করে  এর প্রমান আমদের ফলাফল পুনঃ পরীক্ষণের আবেদন করার হার বৃদ্ধি    আর এই ফলাফলের ভিত্তিতেই যদি উচ্চ শিক্ষার সুযোগ পায় তাহলে প্রকৃত মেধার অবমূল্যায়ন হবে  আর বোর্ড ভিত্তিক প্রশ্ন ও ভিন্ন হয়ে থাকে
খারাপ সিদ্ধান্ত    এই সব আজগুবি জিনিস না করে জট কমান  তাইলে দেশে প্রাইভেট বিশ্ববিদ্যালয়ের ভাত কমে যাবে  শুধু মাত্র জটের কারনে পোলাপাইন প্রাইভেট এ ভর্তি হয়  আর জাতীয়তে জট কমলে শিক্ষা ক্ষেত্র আরো এগিয়ে যাবে  লোকজনের টাকার সঞ্চয় হবে
আপনারা সকালে এক সিদ্ধান্ত নেন আবার বিকালে আরেকটা
সম্মান সবায় চায়  অর্থও চায়   ভাল মানুষ হয়েও তা অর্জন করা সম্ভব  অন্তত কারিগরি বিদ্যায় শিক্ষিত হয়ে  তোমরাও পারবে নিশ্চয়  আদর্শ ও নৈতিকতাসহ ভাল ডাক্তার হও   কর্ম ক্ষেত্রে  আদর্শ  নৈতিকতা এবং পেশাগত যোগ্যতা দিয়ে মানুষের সেবা করলে সংসার চালাতে মোটেও সমস্যা হবে না  সবায় মিলে আলো জ্বালিয়ে দিলে অন্ধকার দূরীভূত হয়ে যাবে
শুভ কামনা রইল তিনজনের প্রতি
ভালো মানুষ ও ভালো চিকিৎসক  এই দুইয়ের সমন্বয়ে বিকোশিত হবেন এই আশাকরি
একজন ভালো চিকিৎসক হওয়ার পূর্বে প্রয়োজন একজন ভালো মানুষ হওয়ার  আপনারা ভালো মানুষ হোন  ভালো চিকিৎসক হোন  এই প্রার্থনা করি
এই মেয়ে বুয়েটেও চান্স পেয়েছে  অসম্ভব পড়ুয়া মেয়ে
দোয়া ও শুভকামনা রইল
আপনার কমেন্ট খুব ভালো লাগলো  দিপক 
আসোলেই এটা সত্যি কথা
আপনাদের এই গল্প আমাদের সামনে এগিয়ে যেতে সাহায্য করবে  আমি আশাবাদী এমন গল্প আরোও পাবো
জেএসসি প্রশ্নপত্র কত তারিখ থেকে ফাস হওয়া শুরু হবে
আটটি শিক্ষাপ্রতিষ্ঠান থেকে ২১ জন শিক্ষার্থী পরীক্ষায় অংশ নিয়ে একজনও পাস করতে পারেনি  

রাজশাহীকে শিক্ষানগরী বলা হয়  আর এই বোর্ডের এই অবস্থা কাম্য নয়
তোমাদের জন্য অনেক অনেক শুভ কামনা  কুমিল্লার এই হাসি অটুট থাকুক সর্বক্ষেত্রে সবসময়য়  আশাকরি তোমরা আমাদের নিরাশ করবেনা
অসাধারণ লিখা
দারুণ লেখা
বাংলাদেশ দলের সদস্যদের বাচাই করা হয়েছিল কিভাবে  মানে কোন যোগ্যতার বিবেচনায় বিশ্ববিদ্যালয়ের ছাত্র হিসেবে আমি  অংশ নিতে চাইলে কি করতে হবে প্রসেস টা একটু জানাবেন প্লিজ
এবার প্রশ্নপত্র ফাঁস হলেও  ফাঁস হওয়ার খবর যেন ফাঁস না হয়   খেয়াল রাখেন  পরীক্ষা আর কত পিছাবেন
পি এস সি এর সমাপনী    জে এস সি   এস এস সি  এইচ এস সি   চাকরির  পরীক্ষা   সকল  পরীক্ষার প্রশ্ন পরীক্ষার আগেই ফাস হয়ে যায়  সবাই জানে   মিডিয়া জানে   সরকারও জানে  কিন্তু কোন পতিকার হয়না   সরকার পাসের হার ১০০   করতে ব্যসত   আর আমাদের জীবন অতিসটো  যে যতই বলুক   লিখুক তাতে সরকার বা যারা এগুলো করে তাদের কিছুই হবে না
তবুও কেন যেন একটা সন্দেহ থেকেই গেল 
প্রায় ২ মাস পিছানো হলো 
আবার ফাঁস হবে না তার তো কোনো গ্যারান্টি নেই   
বোর্ড কর্তৃপক্ষকে বলছি  প্রশ্নপত্র সংরক্ষনের ব্যপারে কঠিন নিয়ম পালন করুন
প্রতি জেলা উপজেলা  শহর অথবা মহানগরীর পর্যাপ্ত বিদ্যালয়  মহাবিদ্যালয়  বিশ্ববিদ্যালয়কে ঢেলে সাজানোর মহাপরিকল্পনা যদি সরকার শীঘ্র গ্রহণ করে তবে অদূর ভবিষ্যতে জাতি দক্ষ মানব সম্পদে রুপান্তরিত হতে বাধ্য   বহুনির্বাচনী প্রশ্ন বাতিলের পক্ষে আমি একমত   প্রাথমিক শিক্ষাকে অষ্টম শ্রেণি পর্যন্ত করা যুক্তিসঙ্গত কিন্তু এস এস সি পাস প্রাথমিক শিক্ষিকাগণ কি পারবেন অষ্টম শ্রেণি পর্যন্ত পড়াতে
যে পরিমান শিক্ষার্থী উচ্চশিক্ষার জন্য ভর্তিযুদ্ধে অবর্তীন হয়  বলা বাহুল্য যে এমনিতেই তার কিছু সংখ্যক উচ্চশিক্ষার সুযোগ পায়  বাকি থাকে বেসরকারি বিশ্ববিদ্যালয়  সেখানে নিজের অর্থে 
আকাশচুম্বী টিউশন ফি তে উচ্চশিক্ষা নেয়া নিতান্তই ব্যক্তিগত ব্যাপার  দুদক বরং নিজেকে দক্ষ 
নিরপেক্ষ প্রতিষ্ঠানে পরিনত করুক  দুর্নীতি কমবে
আইটি সেক্টরে রিমোট জব করার জন্য মহাপন্ডিত হবার দরকার নেই  সাধারণ বিষয় থেকে পড়াশোনা করেও করা যায়  মাসে 1 কোটি টাকা ইনকাম করা মনে এই না যে আপনি ইঞ্জিনিয়ারিং পড়ার যোগ্যতা রাখেন
ভালো লাগলো   দেরিতে হলেও অন্তত দুদক বুঝতে পেরেছে  সমগ্র সিস্টেম ঢেলে সাজাতে হবে
যে দেশে মেধাবীদের কদর নেই সে দেশ সামনে এগিয়ে যেতে পারে না
বাজেটে ব্যাংক লুটারদের ভর্তুকি দিব না কি শিক্ষা খাতে বরাদ্দ   ব্যাংক গুলি ফুটো কলস হয়ে গেছে  ক্রমাগত ভর্তুকিতে ফুটোর ছিদ্র দিন দিন বড় হচ্ছে  ছিদ্র বন্ধকারীরা ভর্তুকিতে উৎসাসিত হয়ে দিন দিন ফুটো বড় করার ফন্দি  ফিকির করে যাচ্ছে  ভর্তুকি বন্ধ না করলে এরা নিজের চেষ্টায় ঠিকে থাকার মানসিকতাই আসবে না  অবিলম্বে ভর্তুকি বন্ধ করে ঐ টাকা অন্য উন্নয়ন খাতে বরাদ্দ দেওয়াই উচিত
দেশে কেউ কারিগরি শিক্ষা নিতে অনিচ্ছুক   অথচ প্রবাসে এর চাহিদা ও বেতন অনেক বেশি  বিদেশ গিয়ে অনেকে উপলব্ধি করে ও আফসোস করে  দেশেও এর চাহিদা অনেক  বেকার থাকার প্রশ্নই আসে না  এমন কি অনেক অশিক্ষিত লোক কারিগরি শিক্ষা  ইলেকট্রিশিয়ান  নিয়ে শহরে বাড়ির মালিক হয়েছে
উত্তম প্রস্তাব
দুর্নীতি উচ্চ শিক্ষার লকেরাই করে
আসলে কোন প্রাতিষ্ঠানিক ডিগ্রীই পেশাগত জীবনে সাফল্যের গ্যারান্টি না  এর ভুরি ভুরি উদাহরণ আমরা দেশে বিদেশে দেখতে পাই  যেমন ড্রপ আউট বিল গেটস
প্রত্যাশা করি সরকার শিক্ষা খাতকে গুরুত্ব সহকারে নিবে এবং সকল প্রচার দুর্নীতি  প্রশ্নফাঁস রোধ সহ দক্ষ মানবশক্তি গঠনে মূল্যবান ভূমিকা রাখবে
দুদক বুঝেছে রাষ্ট্র এবং শিক্ষামন্ত্রণালয় বুঝবে তো
এটা সব সময়ই হয়ে আসছে  এখনও হচ্ছে  এটা আর এমন নতুন কি কথা  এখনকার ভর্তি পরীক্ষাগুলোতে তো ছেঁকে ছেঁকে মেধাবীদেরই নেয়া হচ্ছে  কলেজের অনার্স মাস্টার্স তো অনেকটা দুধের সাধ ঘোলে মেটানোর মতো  সে অধিকার থেকেই বা তাদেরকে বঞ্চিত করা কেন
কোটা দিয়ে চাকরি হয়  ভাইভাতে যাওয়ার পর  সত্যি কিন্ত সবাইকেই যে মেধা দিয়েই টিকতে হয় এটা বোঝেন না  নাকি বুঝতে চান না
আপনি এঞ্জিনিয়ারিং এ চান্স পাননি এর মানে এই না যে আপনার যোগ্যতা ছিল না  এর মানে হচ্ছে যারা চান্স পেয়েছে তাঁরা আপনার চেয়ে বেশি যোগ্য এবং আপনি  প্রতিযোগীতায় হেরে গেছেন  এতো ড্রামাবাজি করার কিছু নাই
তার সাথে আছে পোষ্য কোটা এবং মামু কোটা
দুদকের সুপারিশগুলো খুবই কার্যকর ও আধুনিক চিন্তাশীল   উন্নত দেশের শিক্ষা ব্যবস্থাকে ভালভাবে পর্যালোচনা করেই এই সুপারিশ গুলো করা হয়েছে
খুব ভালো উদ্যোগ  লক্ষ্য রাখতে হবে সঠিক কাজে যাতে টাকা ব্যয় হয়
আশা করি সবাই ভালো রেজাল্ট করবে
ফলাফল আশানুরূপ হোক
প্রাথমিক  শিক্ষা সমাপনি নিয়ে আপনাদের লেখা নিয়মিত নয় কেন
প্রাথমিক শিক্ষা সমাপনি নিয়ে আপনাদের লেখা নিয়মিত পাচ্ছি না
1 ১বর্গ সেমি   কত মিমি 
2 ১লি কত ঘন মি 
3 বর্গ কিমি ও কিমির পার্থক্য কী
গাইড পাচ্ছি না
যারা উত্তীর্ণ হতে পারবে না তারা বলবে প্রশ্ন পত্র ফাঁস হয়েছে  নিউ ট্র্যাডিশন অফ বাংলাদেশ
অনেক দেরিতে হলেও বায়োমেডিকেল ইঞ্জিনিয়ারিংয়ের মতো অতি গুরুত্বপূর্ণ বিষয় দেশে পড়ানো হচ্ছে এটি বিরাট সুখবর  এর প্রথম শিক্ষার্থী ও উদ্যোক্তাদের অভিনন্দন  জ্ঞানের চর্চা ও দেশে বিদেশে কর্মসংস্থানের জন্য এরকম অনেক অপ্রচলিত গুরুত্বপূর্ণ বিষয়ের পাঠ আমাদের দেশে শুরু করতে হবে  চাকরির বাজার নেই ছোট বলে আমরা মহাকাশ নিয়ে  একটি উদাহরণ  উচ্চতর পড়াশোনা কি করবোই না
এটা শুধুমাত্র চমক নাকি অন্য কিছু
এইচএসসিতে পাসের হারে আট শিক্ষা বোর্ডের মধ্যে এবার সবার চেয়ে এগিয়ে যশোর বোর্ড 
এখন দেখার বিষয়  পাবলিক বিশ্ববিদ্যালয়গুলোর ভর্তি পরীক্ষায় কৃতকার্যের হার কত হয়
এরাই প্রথিবীর শ্রেষ্ঠ সম্পদ
আমাদের আলোক বর্তিকা
স্যালুট
ঢাকা বিশ্ববিদ্যালয় এর অধিভুক্ত ৭ কলেজের ৩য় বর্ষের সকল বিভাগের পরীক্ষা স্থগিত করা হয়েছে   এই খবর টা কি সত্য
জাতীয় বিশ্ববিদ্যালয় সারাজীবন স্থগিতই থাকবে
ইউএসটিসির করতিপক্ষের ইউএসটিসি কে নিয়ে কোন চিন্তায় নেই  তারা শুধু স্টুডেন্ট ভর্তির মাধ্যমে নিজেদের কাজ শেষ করে ফেলে     আমরা ইউএসটিসির স্টুডেন্টরা আমাদের ভবিষ্যৎ নিয়ে উদ্বিগ্ন    মহামান্য রাস্টপতির দৃষ্টি আকর্ষণ করছি যাতে উনি আমাদের স্থায় ভিসি এবং অন্য দাবি গুলোর প্রতি নজর দেয়
খুব ভালো উদ্যোগ  লক্ষ্য রাখতে হবে সঠিক কাজে যাতে টাকা ব্যয় হয়
গাজীপুর সরকারি মহিলা কলেজের পরীক্ষার্থীদের একটি কেন্দ্রে তথ্য ও যোগাযোগ প্রযুক্তি পরীক্ষার সময় একই ঘটনা ঘটেছিলো  অন্য কেন্দ্রের প্রশ্ন পত্রের তুলনায় পরিবর্তিত প্রশ্ন পত্র ছিলো কঠিন  কর্তৃপক্ষকে আরো সচেতন হবার জন্য অনুরোধ করছি
ভাল বলেছেন ভাই
একেই বলে ডিজিটাল বাংলাদেশ
এই বিশ্ববিদ্যালয়ের বেশ কিছু বিভাগ অনেক আগে থেকেই সাম্প্রদায়িক ও ধর্মীয় কট্টরপন্থী মনোভাবাপন্ন শিক্ষক নামের অর্বাচীনদের নিয়ন্ত্রণ ভুক্ত
শিক্ষকদের মধ্যে যদি এমন সাম্প্রতিক চেতনা থাকে তবে এরা ছাত্রদের কি শিখাবে   এদের মতো শিক্ষকদের জন্যই ছাত্র ছাত্রী রা জংগিবাদে জড়িয়ে পরছে
অনিয়মে নিয়োগ পাওয়া শিক্ষকই যখন হর্তাকর্তা  তখন প্রশ্নপত্র ফাঁস থেকে ভর্তি পরীক্ষার প্রশ্ন নিয়ে প্রশ্ন আরো কত কিছুই হবে  সেটা কি বলার বাকী থাকে পৃথিবীর সর্বশ্রেষ্ঠ গ্রন্থের নাম কি  সেটা একটা প্রশ্নবোধক প্রশ্ন কিন্তু গীতার আগে  পবিত্র লেখা নেই  তাতে গীতার নয়  বরং রাজশাহী বিশ্ববিদ্যালয়ের চারুকলা অনুষদের সন্মান নষ্ট হলো
আজকের অনলাইন এডিশন কোথায়
ঢাকা বিশ্ববিদ্যালয় এর অধিভুক্ত ৭ কলেজের ৩য় বর্ষের সকল বিভাগের পরীক্ষা স্থগিত করা হয়েছে   এই খবর টা কি সত্য
জাতীয় বিশ্ববিদ্যালয় সারাজীবন স্থগিতই থাকবে
বাংলাদেশের বিশ্ববিদ্যালয় বলে কথা  সে প্রকৌশল বিশ্ববিদ্যালয় হোক কিংবা জাতীয় বিশ্ববিদ্যালয় হোক  অন্যান্য সরকারী প্রতিষ্ঠানের মতো শিক্ষা প্রতিষ্ঠানগুলোও মুরগীর মতো ঝিমিয়ে ঝিমিয়ে চলছে
শিক্ষা প্রতিষ্ঠান গুলো সব এখন ব্যবসা প্রতিষ্ঠান
তাতে সমস্যা কি    কম্পিউটার প্রকৌশল বিভাগের শিক্ষার্থীরা নষ্ট কম্পিউটারগুলো ঠিক করবে  এইগুলো যদি ঠিক করতে না পারে তাহলে প্রকৌশল পড়ার দরকারটা কি    সার্টিফিকেটতো নীলক্ষেতেও পাওয়া যায়
লাখ লাখ   কোটি কোটি টাকা খরচ হয় নাচ  গান   রিয়ালিটি শো   খেলাধুলায় অথচ লেখা  পড়ায়  মেধাবীদের পিছনে খরচ মাত্র ৫০০ টাকা হিসাবে বছরে মাত্র ৬০০০ টাকা
সাবাস ব্যাটা
ওরা পেরেছে কারন ওরা শুধু মেধাবীই না  ওদের সঠিক  দিকনির্দেশনা ছিল  আমাদের অধিকাংশ শিক্ষার্থীদের এসব সম্পর্কে কোন ধারনাই নেই  এম আই টি  হারভার্ড  কেমব্রিজে সুযোগ পাওয়া সোজা কথা না
খুব ভালো একটা সংবাদ  আমাদের বাবা মায়েদের ও এথেকে শিক্ষা নেয়া উচিৎ
এগিয়ে চলো ৷শুভেচ্ছা কলকাতা থেকে৷
খুশিতে মনটা ভরে গেলো এগিয়ে যাও ভাইয়েরা ✌
শুভকামনা রইল তোমাদের জন্য   মাতৃভুমিকে গর্বিত করো আর অনুজদের পথ দেখাও
বাংলাদেশের কোনও বিশ্ববিদ্যালয় টাইমস হাইয়ার এডুকেশন ২০১৭ এর জরিপে প্রথম ১০০০ এর মধ্যেই নেই  কাজেই বিশ্বের ৪ নম্বর বিশ্ববিদ্যালয়ে  কেম্বৃিজে  পড়তে পারা অনেক বড় সুসংবাদই বটে  তবে  পড়া শেষ করে ফিরে এসে নিজেদের বিশ্ববিদ্যালয়ের মানোন্নতি ঘটাতে অনুরোধ জানিয়ে রাখছি
অভিনন্দন তোমাদের
বাচ্চা দুটো প্রমান করেছে শিক্ষা অর্জন করাটাই বড় বিষয় তাই তারা শ্রেষ্ঠ বিদ্যাপীঠ বেছে নিয়েছে  অভিনন্দন
স্বপ্নের পূরণে কাজ করে যাওয়া দেখতে ভালো লাগে  নিজের স্বপ্নের পথে যখন বাধা পাই  হতাশ হয়ে পড়ি  এমন মানুষগুলোই প্রেরণা জোগায় আমাকে  
অনেক অনেক বড় হও  মনে  মননে  যতটা বড় হলে আকাশ ছুঁয়ে দেয়া যায় 
দোয়া রইলো
প্রাণঢালা  অভিনন্দন   এগিয়ে যাও আকাশ ছুয়েঁ দাও 
এখনো পর্যন্ত মাত্র সাতটি মন্তব্য দেখে বুঝতে বাকী নেই  ভালো খবরগুলোর প্রতি আমাদের আগ্রহ আমাদের কমে এসেছে  রাজনৈতিক বিতর্ক নিয়ে খবর কলাম আসলে এতক্ষণে ৪০ থেকে ৫০ টি মন্তব্য হয়ে যেতো  আমরা তর্ক প্রবণ জাতিতে পরিণত হচ্ছি না তো
অভিনন্দন
জিপিএ ৫ কিছুই নয়  ব্যাসিক স্ট্রং হতে হবে  তা না হলে ভাল কোথাও পড়ার সুযোগ মিলবে না
এ ধরণের জীবন জয়ী গলপ বেশি বেশি বলা দরকার
সাবাস এগিয়ে যাও
হায় হায়  হরতালের মধ্যে পরীক্ষা হয়েও এই সব কলেজ বরাবরের মত ভালো করলো কী করে     জরুরী ভিত্তিতে তদন্ত হওয়া দরকার
আমার কলেজ      সেরা কলেজ
রাজউক কলেজের সব প্রায় সব শিক্ষকরাই কোটিপতি       কেমনে      সবার আছে কোচিং       ২০ জনের ব্যাচ
ইচ্ছা থাকিলে উপায় হয়  সাথে টাকাও প্রযোজ্য
রাজউক কলেজের সাথে সংশ্লিষ্ট সকলকে কৃতিত্ব ধরে রাখার জন্য ধন্যবাদ জানাচ্ছি   আমি মনে করি কঠিন অধ্যবসায়   শ্রেণী কক্ষে পরজাপ্ত পাঠদান এবং শৃঙ্খলা বজায় রাখার কারনে তারা এই সাফল্য অম্লান রেখেছে   আশা করি ভবিষ্যতেও প্রতিষ্ঠানটি সেরাদের সেরা হয়ে টিকে থাকবে
পরিশ্রমী ছাত্র ছাত্রীদের কোনকিছুই দমিয়ে রাখতে পারে না
পিইসি  জেএসসি নামক এসব পরীক্ষা নিপীড়ন থেকে সন্তানদের বাঁচান
যশোর বোর্ড এ পাশের হার কত
অভিনন্দন সফল শিক্ষার্থীদের   তবে মনে রাখতে হবে এ ভালো ফলাফলের জন্য ইস্কুল তেমন কৃতিত্ব দাবি করতে পারে না  কারণ তারা চড়া দামে প্রাইভেট টিউটরের কাছ থেকে এ শিক্ষা অর্জন করেছে  মা বাবা জানেন এ   প্লাস চড়া দাম দিয়ে কিনতে হয়েছে
ঢাকার সবচেয়ে মেধাবি ছাত্রীদেরকে নিয়ে আবার তাদের বাসায় টিউশনি দেয় কারা    ঢাকা বিশ্ববিদ্যালয়ের ছাত্র ্ছাত্রীরা   এরপরেও নিজেদের পছন্দসই স্কুলে সিট পড়া  রেজাল্ট এদের ভালো হবে নাতো আমার ভাতিজা যে গ্রামের স্কুলে পড়েছে তার হবে  যাই হোক তারপরেও যারা ভালো রেজাল্ট করেছে তাদের জন্য শুভকামনা  আর যারা এবার ভাল করতে পারে নাই তারা যেন এখন থেকেই নতুন উদ্যােমে এইচ এস সি তে ভাল করতে পারে সেই প্রত্যাশায়
দেশের মানুষ এখন আইওয়াশ হয়ে যাচ্ছে
যাঁরা ভুল করেছেন  তাঁরা রেহাই পাওয়ার যোগ্য নন    কিন্তু তাঁরাই আপনাদের দৃষ্টিতে পাঠ্যবইয়ের যাবতীয়  দায়িত্ব পাবার যোগ্যতম ব্যক্তি ছিলেন
অমলেশ  যে নীতিমালায় গত বছর বিভিন্ন গল্প কবিতা বাদ দেয়া হয়েছিল
একটি নিরপেক্ষ তদন্ত কমিটি দোষীদের শাস্তির ব্যবস্থা হবে  এটা আমরা আশা করতেই পারি  সঙ্গে ভবিষ্যতে এই ধরনের ভুল হবে না  এমন আশ্বাসও চাই
কিন্তু শিক্ষানুরাগী মানুষদের দাবী যথাযথ কতৃ্পক্ষের কাছে পৌঁছাবে না  ধর্ম ব্যবসায়ী দেরটা অবশ্য পৌঁছে গেছে
বাদ পরা গল্প কবিতা প্রসংগে আপনার মতামত জানতে চাই  কার পরামর্শে বা কোন নীতিমালায় তা করা হয়েছে   যে শিক্ষা ব্যবস্থা ধর্মের নামে সাম্প্রদায়িকতাকে পশ্রয় দেয় তা কখনও আধুনিক শিক্ষা ব্যবস্থা হতে পারে না  হতাশ হই যখন দেখি  আপনি থাকা অবস্থায়
শিক্ষা ব্যবস্থায় এই হাল
বাদ পড়া গল্প কবিতার বিষয়ের সুরাহা চায় দেশের শিক্ষানুরাগী মানুষ
নিজের দায়ের কী হবে
শিক্ষিত মানুষের ভুলের বোঝা সাধারণ মানুষ আর কত দিন বয়ে বেড়াবে
বাদ পড়াগুলো তো এবছর আবার ফিরিয়ে আনা হয়েছে    প্রদীপ
কিন্ত রেহাই পেয়েছে  কেলাস ওয়ান টু এর বইয়ে বানান ভুল
যারা মেডিক্যাল এ চান্স পেয়েছে শুধু তাদের আবার পরীক্ষা নেয়া হোক    তাহলে বোঝা  যাবে  পরীক্ষায় প্রশ্ন্ ফাস হয়েছে কিনা    আমার ধারণা যত সহজ প্রশ্ন্নই  হক না কেন সঠিকভাবে পরীক্ষা হলে এবার মেডিক্যাল এ  ৯০   এর উপরে নম্বর প্রাপ্ত  অনেকেই ৪০   নম্বর পাবে না
ছাত্র আন্দলন কখনই ব্যর্থ হয় না  শুধু লাগে ধর্য্য
আন্দোলনকারিদের ন্যায় সংগত দাবী মেনে নেয়া উচিত
খুব ভালো  আসলেই জেসমিন আক্তারের ইচ্ছা শক্তি প্রসংসার দাবিদার  মহান আল্লাহ্‌ যেন জেসমিন আক্তারের আশা পূরণ করেন
অভিননদন
এটা কি বলার মত একটা ফলাফল হল              তবুও ওদেরকে নতুন বছরের শুভেচ্ছা
সুন্দর পোষ্ট ধন্যবাদ প্রথম আলো
প্রথম আলোর কাছে অনুরোধ সরকারি চাকরির মেয়াদ ৩০ বছর থেকে বারানোর জন যেন দ্রুত কোন আর্টিকেল ছাপা হয়
চাকুরীর বয়স ৩৫ করা আবশ্যক হয়ে দাঁড়িয়েছে
বাংলাদেশে এম এ পাস করতে সময় লাগে ২৬ ২৭ বছর   বিসিএস এর এমসি কিউ আর লিখিত পরীক্ষা  রেজাল্ট হইতে লাগল ১৩ মাস ভাইভা সহ ফাইনাল রেজাল্ট হইতে কত মাস লাগবে জানি না এমত অবস্থা একজন ছাত্রের চাকুরির বয়স কি যুক্তিতে ৩০ বছর রাখা হয়েছে  চাকুরির বয়সসীমা ৩৫ বছর করা হোক
কোটা মুক্ত বাংলাদেশ চাই
40 বছর করা উচিত
আরো বেশি প্রচার করা উচিত জাতে সবার নজরে আসে অনেকেই এই সাবজেক্ট সম্পর্কে জানেনা
এখানের প্রকৃত অবস্থা আমরা অর্থাৎ এই ইন্সটিটিউট এর ছাত্র ছাত্রীরা ভালো করে জানি  শিক্ষকের অভাব মূল্যবান সকল যন্ত্রপাতি অযত্নে অবহেলায় নষ্ট হয়ে থাকায় ঠিকমতো প্যাকটিস না করতে পারার যে কষ্ট তা আমরা ভালো করে অনুধাবন করতে পারছি  এছাড়া রাজনীতির কারণে ঠিকমতো ক্লাস না হওয়া ইত্যাদি সমস্যাতো আছেই  এতোবড় একটা ইন্সটিটিউট কিন্তু কেউ এটার খোঁজ নেয় না
এই ধরনের গুরুত্বপূর্ণ লেখার জন্য অনেক অনেক ধন্যবাদ  আশা করি ভবিষ্যতে আরো গুরুত্বপূর্ণ কিছু লিখবেন
অনেক ধন্যবাদ
চমৎকার টিপসের জন্য ধন্যবাদ
এরাই প্রথিবীর শ্রেষ্ঠ সম্পদ
আমাদের আলোক বর্তিকা
স্যালুট
দুঃখজনক ব্যাপার
অনুপস্থিত অনেক শিক্ষার্থী হয়ত জানেই না শুক্রবার থেকে পরিক্ষা এবং অবশ্যই এর দায়ভার হরতালকারীদের
৮৩ হাজার ৫৮২ জন পরীক্ষায় অংশ নিয়ে ১১ হাজার ৩৩০ জন উত্তীর্ণ  এমন করুন দশার জন্য দায়ী কে
বই বাদ দিয়ে বা বই থেকে সিলেক্টেড কিছু অংশ পড়ে পাবলিক পরীক্ষায় ভালো করা গেলেও সেটা দিয়ে যে বিশ্ববিদ্যালয়ের গন্ডি পেরোনো যায় না তা প্রমাণিত  তাই যারা তথাকথিত নোট পড়ে জিপিএ বাড়িয়ে ভালো ছাত্র ছাত্রী হওয়ার স্বপ্ন দেখছেন  তারা এবার ক্ষান্ত দেন  বই পড়ুন  জ্ঞান অর্জন করুন  সেই জ্ঞান ভর্তি পরীক্ষাসহ জীবনের সিদ্ধান্ত গ্রহণে ব্যবহার করুন  তবেই মুক্তি
লাভ কি এসব করে  কারা কারা ভাল করবে তারা নিজেরাই তা জানে
আজ বুধবার
সার্ভার ডাউন
এই হলো শিক্ষা প্রতিষ্ঠান
১০ হাজার শিক্ষার্থীর জন্যে ৪১ জন শিক্ষক   ওয়াও
অভিনন্দন কুমিল্লা বোর্ড
শিক্ষামন্ত্রী সংবাদ সম্মেলনে বলেন  কুমিল্লা বোর্ডে গত দুই বছরে পাসের হার কম ছিল  ওই দুই বছরে অন্য সব বোর্ডের সঙ্গে পরামর্শ করে প্রচেষ্টা চালানো হয়েছে  
 কী প্রচেষ্টা চালানো হয়েছে  এ রকম ক্ষেত্রে প্রচেষ্টা শুধু একটাই থাকে  পরীক্ষায় বেশি বেশি নম্বর দেয়ার জন্য পরীক্ষকদের নির্দেশনা দিয়ে দেয়া  এ প্রচেষ্টার কথা সবাই জানে
আগামী ১১ ডিসেম্বর থেকে শুরু হবে যে পরীক্ষা তার বিজ্ঞপ্তি এত আগে কেন
কুমিল্লা বোর্ড মানেই বিশেষ কিছু
অবশেষে একটা স্বস্তির খবর শুনলাম  দেখা যাক ঢাবি কী করে  আশা করি দিবে
ভাল উদ্যোগ
এসএসসি এবং এইচ এসসি পরীক্ষার প্রশ্ন ফাস করে যারা জিপিএ ৫ পেল তাদের জন্য সুবিধা হলো
আপনাদের ভালবাসার ছোঁয়ায় বেঁচে থাকুক আমাদের জীবন  স্বপ্নগুলো
এই বছর এতো চাপাচাপি কেন
এত কড়াকড়ি কেন এই বছর
১ বছরে দুটি বিসিএস পরীক্ষা    
৮ই  জানুয়ারি ২০১৬ ৩৬ তম বিসিএস পরীক্ষা হল 
আবার ৩০ সেপ্টেম্বর ২০১৬ ৩৮ তম  
কতৃপক্ষের কাছে জানতে চাই এর উপকারিতা কি
বাংলাদেশ সরকারি কর্মকমিশনের  পিএসসি  কাছে হাতজোড় অনুরোধ করছি   অন্তত এই একটি  ৩৭ তম  বিসিএস পরীক্ষা কোনো প্রকার ভুল প্রশ্ন বা  অপশনের সবগুলোই ভুল  ব্যতীত নিয়ে প্রমাণ করুন যে  বাংলাদেশ সরকারি কর্মকমিশনে  পিএসসি   যোগ্য ব্যক্তি আছে 
বিঃ দ্রঃ ১০ম থেকে ৩৬ তম পর্যন্ত প্রতিটি পরীক্ষায় কমপক্ষে ১ টি ভুল আছে
কালরাত ফিরে এসেছে আরও ভয়ংকর হয়ে ফিরে দেখার সুযোগ নেই
এত ফিরে দেখার কি আছে   এখন তো দিনরাত সবই কালো
বাংলাদেশের শিক্ষা প্রতিষ্ঠানগুলোর দিনদিন অবনতির পেছনে মূল কারণ   এদেশের দলীয় রাজনীতি  শিক্ষা প্রতিষ্ঠানগুলো থেকে ছাত্র রাজনীতি  শিক্ষক রাজনীতি দূর করতে না পারলে এ অধঃপতন কোনওভাবেই বন্ধ করা যাবেনা
বাংলাদেশের বিশ্ববিদ্যালয়গুলোর কী অবস্থা  খুব জানতে ইচ্ছে করছে
অক্সফোর্ড বিশ্ববিদ্যালয়কে এক নম্বরে উল্লেখ করে রিপোর্টার বললেন   সেরা বিশ্ববিদ্যালয়গুলোর মধ্যে শীর্ষ পাঁচে জায়গা করে নেওয়া ইংল্যান্ডের একমাত্র বিশ্ববিদ্যালয়ও কেমব্রিজ   এটা কী ধরনের বক্তব্য
এই জরিপে বাংলাদেশের সেরা বিশ্ববিদ্যালয় কত তম স্থানে আছে জানতে পারলে ভাল হতো
রিপোর্টটা একটা ব্যাপারে অসম্পূর্ণ থেকে গেল  উল্লিখিত বিশ্ববিদ্যালয় গুলোর কোনটীর ক্যাম্পাসে কোন ছাত্র সংগঠনের প্রভাব তা কিন্তু প্রকাশ করা হলোনা
বাংলাদেশের কোন বিশ্বিবদ্যালয় রাংকিং এ আনা সম্ভব হবে বলে মনে হয় না
একটি জাতি ও রাষ্ট্রের সবচে বড় শক্তিই হল তার দেশের বিশ্ববিদ্যালয়ের মান কেমন  দুর্ভাগ্য বাংলাদেশ  দুর্ভাগ্য পৃথিবীর সকল মুসলিম দেশ  একটিও বিশ্বমানেরর বিশ্ববিদ্যালয় নাই
ভাই পরীক্ষা পদ্ধতি উঠিয়ে দিলে ত আর কিছু থাকেনা
সরকার জিতেছে তবে হেরেছে দেশের জনগণ
পরীক্ষা পদ্ধতি উঠিয়ে দিলেই পারেন  সবাইকে এ  দিয়ে দিন
আপনার সন্তান আললাহ তায়ালার দেয়া একটি উপহার  পরে খুব ভাল লাগ্লো
ভাল লাগলো  এগিয়ে যাও
ধন্যবাদ আপানাকে  নম্বর ভিত্তিক পড়াশুনায় বেশী দুর যাওয়া যায় না
নিঃসন্দেহে তিনি সেরাদের মধ্যে সেরা  আশা করি  বাংলাদেশ একজন ভালো সার্জন পেতে যাচ্ছে
বোন  তোমায় করি নমস্কার 
তোমারই  প্রতিক্ষায় রহিয়াছে বিশ্বের দরবার 

আর্ত জনে সেবা কর তাদের বেসো ভালো 
আঁধার ঘরের মানিক হয়ে জ্বালতে হবে আলো 

ভক্তি রেখো ঈশ্বরে  নিষ্ঠা রেখো কর্মে 
সপ্ন তোমার হবে পুরণ  বিশ্বাস রেখো মর্মে
মেহেদী ভাইরেতো চিনিবার পারসি  শ্রাবণ বাসের নিয়মিত মুখ
সান্ধ্য কোর্সে নিম্নমানের গ্র্যাজুয়েট তৈরি হচ্ছে  আর সৃজনশীল সিলেবাসে পাশকরা গোল্ডেন জিপিএ প্রাপ্তরা আন্ডার গ্রাজুয়েট ভর্তি পরীক্ষায় যা ফলাফল দেখাচ্ছে তাতে তো গড়ে উভয়ই সমান  আমাদের গলদটা কোথায়  তা বের করা জরুরী  আমরা কি ক্রমান্বয়ে নিম্নমানের হয়ে যাচ্ছি
পরীক্ষা ঠেকাতে জামাত বি এন পি ব্যর্থ হয়েছে
যে যাই বলুক  শুধু ইচ্ছা এই হাসি খুশি মুখগুলু ভর্তি না হতে পেরে যেন ম্লান না হয়ে যায়
আমার বিশ্ববিদ্যালয়ের আমার বিভাগ  চারুকলা  নিয়ে লিখাটি পড়ে খুব ভালো লাগলো  ভেতরের আরো কিছু মজার কাহিনি নিয়ে একটি প্রতিবেদন লিখে প্রথম আলোকে পাঠানোর কথা অনেক আগেই ভেবেছিলাম কিন্তু লিখি লিখি ভেবে লিখা হয়ে ওঠেনি
একটি ভাল সিদ্ধান্ত  প্রফেসর জিয়াউল হককে আমি জানি  এই পদ তাঁর অনেক আগেই প্রাপ্য ছিল  তাঁর নেতৃত্বে ঢাকা বোর্ড বর্তমান অচলাবস্থা কাটিয়ে উঠবে বলে আশা করা যায়  
তাঁকে অভিনন্দন এবং তাঁর সাফল্য কামনা করি
অভিনন্দন
ধন্যবাদ দাদা  সুন্দর উপস্থাপনা   এই ছোট ক্যাম্পাসে অনেক বড় বড় স্বপ্ন বাস্তবায়িত হচ্ছে   এভাবেই একদিন শীর্ষে পৌছে যাবে মাভাবিপ্রবি  আমাদের গর্ব
শাহজালাল বিশ্ববিদ্যালয়   মাসুক মামা  কবির মামার খিচুড়ি অস্থির  ক্যাম্পাস থেকে আসা ৩ বছরের উপরে  এখনো কোন কারনে গেলে খিচুড়ি অবশ্যই খেয়ে আসি
আমরা যখন ছিলাম সিস্টেমের দাম ছিল তখন ৮ টাকা   সেই  ২০০২   ০৩ সালের কথা         রাজশাহী বিশ্ববিদ্যালয়
চট্টগ্রমেও তো একটা ইউনিভার্সিটি আছে  ভূলে গেছেন
এখন রাত তিনটা  সংবাদটা পড়ার পর সোহরাওয়ার্দী হল আর স্টেশন বাজারের হোটেল মাদারীপুরের কথা মনে করে নিজের অজান্তেই চোখ ভিজে গেল  হোটেেল মালিক অসাধারন ব্যক্তি  তিনি টাকার জন্য নয় সেবার জন্য ব্যবসা করেন
পা‌সের হার আরোও কমা উচিৎ
এইবার যারা এ  পাবে তারা অন্তত কিছুটা দাম বেশি পাবে  কারণ এইবার এ  বস্তা দরে পাওয়া যাচ্ছে না
কোনো বাবা মা চায় না তাঁদের সন্তান ফেল করুক
অভিনন্দন  তবে লাফালাফির কিছু নাই৷
শিক্ষার মানদন্ড রক্ষা করা বাঞ্ছনীয়  পাশের হার এবং জিপিএ ৫ কমল কি বাড়ল তা বিবেচ্য নয়  এক বছর কমলে আরেক বছর বাড়তে পারে
সাফল্য অর্জনকারীদের অভিন্দন জানাই  বাস্তব জীবনের শিক্ষার পথ সুগম হোক
না জেনে পাস করে সে পাস দিয়ে কি হবে
আমদের শিক্ষার মান এতো নীচে নেমেছে যে পাসের হার ও জিপিএ ৫ কমেছে এই খবরে আমার খুশি লাগছে  অথচ উল্টোটা হওয়া উচিত ছিল
শিক্ষামন্ত্রী প্রকারান্তরে স্বীকার করে নিয়েছেন এতদিন পাশের হার ও জিপিএ ৫ বাড়ানোর জন্যেই চোখবন্ধ করে পাশ করানো ও নাম্বার দেয়া হতো  এ ধরনের সস্তা জনপ্রিয়তা পাওয়ার চেষ্ঠায় মৌলিক ভাবে শিক্ষা ব্যবস্থার ভিত্তি ধ্বংস করা হয়েছে  ফলে জাতিকে ভুগতে হবে অনেকদিন
মিয়া ভাই  তাইলে কি জোর কইরা ফেল করাইতে হইব
এত কড়া করে খাতা দেখার নিয়ম করার জন্য শিক্ষামন্ত্রীকে ধন্যবাদ  👏
সম্প্রতি আমি ও এই ধরনের একটি গবেষণায় হাত দিয়েছি কিন্ত কোন গাইড লাইন পাচ্ছি না  কেউ স্যারের মেইল আইডিটা দিতে পারলে খুব খুশি হতাম অথবা মোবাইল নাম্বার
অনেক দেরিতে হলেও বায়োমেডিকেল ইঞ্জিনিয়ারিংয়ের মতো অতি গুরুত্বপূর্ণ বিষয় দেশে পড়ানো হচ্ছে এটি বিরাট সুখবর  এর প্রথম শিক্ষার্থী ও উদ্যোক্তাদের অভিনন্দন  জ্ঞানের চর্চা ও দেশে বিদেশে কর্মসংস্থানের জন্য এরকম অনেক অপ্রচলিত গুরুত্বপূর্ণ বিষয়ের পাঠ আমাদের দেশে শুরু করতে হবে  চাকরির বাজার নেই ছোট বলে আমরা মহাকাশ নিয়ে  একটি উদাহরণ  উচ্চতর পড়াশোনা কি করবোই না
পাসের হার বলতে ১৪ ৭৫ ছাড়া বাকিরা পাস নাম্বারই পায়নি  যেমন ইংরেজিতে পাস করতে দরকার ৮ মার্কস কিন্তু শিক্ষার্থীরা তা পায়নি
প্রশ্ন হচ্ছে এখনো আসল পরীক্ষা হয় নাই  তাই বলা যাচ্ছে না এইবারের পরীক্ষায় আসলেই কি ভালো শিক্ষার্থীরা উত্তীর্ণ হতে পেরেছে কি না  আগের বছরগুলোর মত গয়রহ পাশ হল কি হল না  তা বোঝা যাবে আর কয়েক সপ্তাহ পরেই
কি লিখলেন ভাই  ভর্তি পরীক্ষা সম্পর্কে সামান্য ধারাণাও তো মনে হয় রাখেন না
আই এ্যাম জিপিএ ফাইভের যুগে এর থেকে ভালো রেজাল্ট কি আসা করা যায়
কিছুই বুঝলাম ন
এভাবে আমাদের শিক্ষার মান বাড়ানো হচ্ছে এবং দেশ এগিয়ে যাচ্ছে  ধন্যবাদ মাননীয় শিক্ষামন্ত্রী
পাশের হার ৮০  হলে কি সবাইকে ভর্তির সুযোগ দিতো কর্তৃপক্ষ  কখনোই না  যারা এগিয়ে তাদের ভর্তি করানো হবে  সুতারাং পাশের হার নিয়ে  চিন্তা করা অমুলক
এস এম বার্তা আর ওয়েব পেজ দুটোর একই আবস্থা    এখন দুপুর ২  ৪৪ মিনিট    সরকারি ওয়েব পেজে রেজাল্ট দেখা যায় না   

সব কিছু সঠিক সময়ে পেতে আরো কতশত বছর অপেক্ষা করতে হবে   কে যানে
হাস্যকর শিরোনাম
নিউজের অথেনটিসিটি কতটুকু  ২১ ডিসেম্বর বৃহস্পতিবার  এখন পর্যন্ত কোন প্রিলি শুক্রবার হয়েছে কি না আমার জানা নাই  তবে শুনছি কখনোও হয় নাই  সো  ২১ ডিসেম্বর পরীক্ষা নিতে চাওয়ার কথা ভুয়া  এখন প্রশ্ন হচ্ছে বাকী সংবাদগুলো কতটুকু অথেনটিক
পিএসসির চেয়ারম্যান তো কনফার্ম ডেট দেননি  তাহলে রিপোর্টার ৩৮তম বিসিএস এর তারিখ নির্দিষ্ট করলেন কিভাবে
প্রতিষ্ঠানের নাম সরকারি কর্মকমিশন  পিএসসি  নয়  এটার নাম বাংলাদেশ সরকারি কর্মকমিশন  বিপিএসসি
অবশেষে
যারা উত্তীর্ণ হতে পারবে না তারা বলবে প্রশ্ন পত্র ফাঁস হয়েছে  নিউ ট্র্যাডিশন অফ বাংলাদেশ
১ বছরে দুটি বিসিএস পরীক্ষা    
৮ই  জানুয়ারি ২০১৬ ৩৬ তম বিসিএস পরীক্ষা হল 
আবার ৩০ সেপ্টেম্বর ২০১৬ ৩৮ তম  
কতৃপক্ষের কাছে জানতে চাই এর উপকারিতা কি
বাংলাদেশ সরকারি কর্মকমিশনের  পিএসসি  কাছে হাতজোড় অনুরোধ করছি   অন্তত এই একটি  ৩৭ তম  বিসিএস পরীক্ষা কোনো প্রকার ভুল প্রশ্ন বা  অপশনের সবগুলোই ভুল  ব্যতীত নিয়ে প্রমাণ করুন যে  বাংলাদেশ সরকারি কর্মকমিশনে  পিএসসি   যোগ্য ব্যক্তি আছে 
বিঃ দ্রঃ ১০ম থেকে ৩৬ তম পর্যন্ত প্রতিটি পরীক্ষায় কমপক্ষে ১ টি ভুল আছে
ছুটিতে ক্যাম্পাসের কী মিস করি                মুখরিত জিবনের চলার পথে যখনি ঢাকা বিশ্ববিদ্যাল্যের ক্যাম্পাসে ধুকে পড়ি তখনি দেখি একবুক স্বপ্ন নিয়ে দেশের সেরা তারুন্যএর চঞ্চলতা   ফি বছর একি ছবি দেখি  কিন্তু সেই স্বপনের ব্যাস্তবায়ন ৪৬ বছরেও দেশের কোথাও ঠিক ভাবে প্রতি ফলন হচ্চে না       কেন
এই রেজাল্টকে এখন একটা রাজনৈতিক ইষ্যু হিসাবেই ধরবে আওয়ামিলীগ
অবরোধ আর পেট্রোলবোমের কারন
কেন কমল সেটা বুঝার জন্য আইনস্টাইন হতে হয় না
প্রশ্ন ফাঁসের পরও পাসের হার আর জিপিএ ৫ এত কমে গেল
পাশের হার কিভাবে বাড়ে আর কমে তা বাংলাদেশের মানুশ েখন জানে
অবরোধ হরতাল আর পেট্রল বোমার মাঝে যে ছাত্র  ছাত্রীরা পরীক্ষা দিয়ে যে এই ফলাফল করেছে এটাই তো অনেক কিছু  অভিনন্দন সকল শিক্ষার্থীদের
কর্তার ইচ্ছায় কর্ম
চাওয়াটা অবাস্তব নয় কি
প্রাথমিকে ৩১ লক্ষ পরিক্ষার্থী   দেশে মানুষ কতরে ভাই  একটা ব্যাচে যদি ৩১ লক্ষ হয় আর দেশের গড় আয়ু ৬৫ বছর করে ধরলে মিনিমাম জনসংখ্যা ২০ কোটি ছাড়াইয়া গেছে    রক্ষা কর আল্লাহ
১০০  পাস দেওয়া যেত না  তাহলে আর ফেইল করার চিন্তা ভাবনা থাকত না
অভিনন্দন তোমাদের  তোমরা শিক্ষাযোদ্ধা
আমার পাশের বাশার এক ছেলে জিপিএ ৫ পেয়েছে তাতে তাদের পরিবারে খুশির বন্যা বয়ে যাচ্ছে কারণ ছেলেটা পাশকরার সামর্থ্য ছিলনা যেখানে সেখানে পেয়ে গেল জিপিএ ৫   এই শিক্ষার দরকার নেই      তবে সকলকে অভিনন্দন
অভিনন্দন আগামির দেশ গড়ার কারিগর দের
জিপিএ ৫ এ কি লাভ
চাকুরীর বয়স ৩৫ করা আবশ্যক হয়ে দাঁড়িয়েছে
বাংলাদেশে এম এ পাস করতে সময় লাগে ২৬ ২৭ বছর   বিসিএস এর এমসি কিউ আর লিখিত পরীক্ষা  রেজাল্ট হইতে লাগল ১৩ মাস ভাইভা সহ ফাইনাল রেজাল্ট হইতে কত মাস লাগবে জানি না এমত অবস্থা একজন ছাত্রের চাকুরির বয়স কি যুক্তিতে ৩০ বছর রাখা হয়েছে  চাকুরির বয়সসীমা ৩৫ বছর করা হোক
কোটা মুক্ত বাংলাদেশ চাই
40 বছর করা উচিত
প্রশ্নপত্র ফাঁস তো হয় শুধু মাত্র মিডিয়ামের  ইংলিশ ভার্ষানের নয়
অভিনন্দন দিনাজপুর শিক্ষা বোর্ড  এর নতুন চেয়ারম্যান কে   তাঁর কথার সাথে যেন কাজের মিল পাই এই প্রত্যাশা করি
সফলদের চিন্তাভাবনাগুলো আসলেই বতিক্রম   চমৎকার বলছো   তবে একটা কথা  সফলতার ক্ষেত্রে বাবা মায়ের বিশেষ করে বাবার ভূমিকাটা সবচাইতে গুরুত্বপুর্ণ   ভালো থাকো
একেই বলে ডিজিটাল বাংলাদেশ
এই বিশ্ববিদ্যালয়ের বেশ কিছু বিভাগ অনেক আগে থেকেই সাম্প্রদায়িক ও ধর্মীয় কট্টরপন্থী মনোভাবাপন্ন শিক্ষক নামের অর্বাচীনদের নিয়ন্ত্রণ ভুক্ত
শিক্ষকদের মধ্যে যদি এমন সাম্প্রতিক চেতনা থাকে তবে এরা ছাত্রদের কি শিখাবে   এদের মতো শিক্ষকদের জন্যই ছাত্র ছাত্রী রা জংগিবাদে জড়িয়ে পরছে
অনিয়মে নিয়োগ পাওয়া শিক্ষকই যখন হর্তাকর্তা  তখন প্রশ্নপত্র ফাঁস থেকে ভর্তি পরীক্ষার প্রশ্ন নিয়ে প্রশ্ন আরো কত কিছুই হবে  সেটা কি বলার বাকী থাকে পৃথিবীর সর্বশ্রেষ্ঠ গ্রন্থের নাম কি  সেটা একটা প্রশ্নবোধক প্রশ্ন কিন্তু গীতার আগে  পবিত্র লেখা নেই  তাতে গীতার নয়  বরং রাজশাহী বিশ্ববিদ্যালয়ের চারুকলা অনুষদের সন্মান নষ্ট হলো
আকর্ষিক  
আপনার মত মেধাবীরা এ পেশায় আছে বলেই শিক্ষার বারটা বাজছে
আমরা নিশ্চিত আপনার নেয়া কোনো পদক্ষেপই আর শিক্ষার মান উন্নতিতে কাজে আসবেনা  কারণ  তার বারোটা বাজানোর কাজটি ইতোমধ্যেই সম্পন্ন করে ফেলেছেন আরও কিছুদিন এই নিরীক্ষা চলতে থাকলে এদেশে শিক্ষিত গরু পাওয়া যাবে বটে কিন্তু শিক্ষিত মানুষ মিলবেনা
বিষয়টি বর্তমানে অতীব জরুরী  ধন্যবাদ সংশ্লিষ্ট সকলকে
আর কত গিনিপিগের স্বীকার হবে দেশের শিক্ষার্থীরা   এসব সাব্জেক্ট আপনিই পাবলিক পরীক্ষায় ডুকিয়েছেন  জেএসসি  পিএসসি পরীক্ষা পদ্ধতি গত কয়েক বছরে বহুবার পরিবর্তন করেছেন  এখনো সিদ্ধান্তে পৌঁছাতে পারেননি  পরীক্ষার প্রশ্ন ফলাফল নিয়ে প্রতি বছর কেলেঙ্কারী হচ্ছে  কোন কাজটা সঠিকভাবে করতে পেরছেন
বহুনির্বাচনী প্রশ্ন  এমসিকিউ  ও সৃজনশীল প্রশ্নের মানোন্নয়নে আইটেম ব্যাংক  নাম পরিবর্তন হতে পারে  করা 
বলে কি
একের পর এক্সপেরিমেন্ট করে শিক্ষাব্যবস্থার বারোটা বাজানো হচ্ছে
শিক্ষাগতা পেশায় মেধাবীরা না আসলে এবং শিক্ষকদের মনোন্নয়ন না করলে শিক্ষার মানের উন্নতি হবে না
বেসরকারি মাধ্যমিক বিদ্যালয়ের সহকারি শিক্ষকেরা বিএড স্কেল থেকে ৮ বছর চাকরি হলে একমাত্র টাইম স্কেল পান  আকর্ষিক তা স্থগীত করেছেন সরকার  এখন আমাদের টাইমস্কেল নাই ইনক্রিমেন্টও নাই্   আমি ১৫ বছর চাকরি করে যে বেতন পাই আজ চাকরিতে যোগ দেওয়া কেউ এক্ই বেতন পাচ্ছেন এই বিষয়টা নিয়ে কেউই ভাবছেন না
প্রতি জেলা উপজেলা  শহর অথবা মহানগরীর পর্যাপ্ত বিদ্যালয়  মহাবিদ্যালয়  বিশ্ববিদ্যালয়কে ঢেলে সাজানোর মহাপরিকল্পনা যদি সরকার শীঘ্র গ্রহণ করে তবে অদূর ভবিষ্যতে জাতি দক্ষ মানব সম্পদে রুপান্তরিত হতে বাধ্য   বহুনির্বাচনী প্রশ্ন বাতিলের পক্ষে আমি একমত   প্রাথমিক শিক্ষাকে অষ্টম শ্রেণি পর্যন্ত করা যুক্তিসঙ্গত কিন্তু এস এস সি পাস প্রাথমিক শিক্ষিকাগণ কি পারবেন অষ্টম শ্রেণি পর্যন্ত পড়াতে
যে পরিমান শিক্ষার্থী উচ্চশিক্ষার জন্য ভর্তিযুদ্ধে অবর্তীন হয়  বলা বাহুল্য যে এমনিতেই তার কিছু সংখ্যক উচ্চশিক্ষার সুযোগ পায়  বাকি থাকে বেসরকারি বিশ্ববিদ্যালয়  সেখানে নিজের অর্থে 
আকাশচুম্বী টিউশন ফি তে উচ্চশিক্ষা নেয়া নিতান্তই ব্যক্তিগত ব্যাপার  দুদক বরং নিজেকে দক্ষ 
নিরপেক্ষ প্রতিষ্ঠানে পরিনত করুক  দুর্নীতি কমবে
আইটি সেক্টরে রিমোট জব করার জন্য মহাপন্ডিত হবার দরকার নেই  সাধারণ বিষয় থেকে পড়াশোনা করেও করা যায়  মাসে 1 কোটি টাকা ইনকাম করা মনে এই না যে আপনি ইঞ্জিনিয়ারিং পড়ার যোগ্যতা রাখেন
ভালো লাগলো   দেরিতে হলেও অন্তত দুদক বুঝতে পেরেছে  সমগ্র সিস্টেম ঢেলে সাজাতে হবে
যে দেশে মেধাবীদের কদর নেই সে দেশ সামনে এগিয়ে যেতে পারে না
বাজেটে ব্যাংক লুটারদের ভর্তুকি দিব না কি শিক্ষা খাতে বরাদ্দ   ব্যাংক গুলি ফুটো কলস হয়ে গেছে  ক্রমাগত ভর্তুকিতে ফুটোর ছিদ্র দিন দিন বড় হচ্ছে  ছিদ্র বন্ধকারীরা ভর্তুকিতে উৎসাসিত হয়ে দিন দিন ফুটো বড় করার ফন্দি  ফিকির করে যাচ্ছে  ভর্তুকি বন্ধ না করলে এরা নিজের চেষ্টায় ঠিকে থাকার মানসিকতাই আসবে না  অবিলম্বে ভর্তুকি বন্ধ করে ঐ টাকা অন্য উন্নয়ন খাতে বরাদ্দ দেওয়াই উচিত
দেশে কেউ কারিগরি শিক্ষা নিতে অনিচ্ছুক   অথচ প্রবাসে এর চাহিদা ও বেতন অনেক বেশি  বিদেশ গিয়ে অনেকে উপলব্ধি করে ও আফসোস করে  দেশেও এর চাহিদা অনেক  বেকার থাকার প্রশ্নই আসে না  এমন কি অনেক অশিক্ষিত লোক কারিগরি শিক্ষা  ইলেকট্রিশিয়ান  নিয়ে শহরে বাড়ির মালিক হয়েছে
উত্তম প্রস্তাব
দুর্নীতি উচ্চ শিক্ষার লকেরাই করে
আসলে কোন প্রাতিষ্ঠানিক ডিগ্রীই পেশাগত জীবনে সাফল্যের গ্যারান্টি না  এর ভুরি ভুরি উদাহরণ আমরা দেশে বিদেশে দেখতে পাই  যেমন ড্রপ আউট বিল গেটস
প্রত্যাশা করি সরকার শিক্ষা খাতকে গুরুত্ব সহকারে নিবে এবং সকল প্রচার দুর্নীতি  প্রশ্নফাঁস রোধ সহ দক্ষ মানবশক্তি গঠনে মূল্যবান ভূমিকা রাখবে
দুদক বুঝেছে রাষ্ট্র এবং শিক্ষামন্ত্রণালয় বুঝবে তো
এটা সব সময়ই হয়ে আসছে  এখনও হচ্ছে  এটা আর এমন নতুন কি কথা  এখনকার ভর্তি পরীক্ষাগুলোতে তো ছেঁকে ছেঁকে মেধাবীদেরই নেয়া হচ্ছে  কলেজের অনার্স মাস্টার্স তো অনেকটা দুধের সাধ ঘোলে মেটানোর মতো  সে অধিকার থেকেই বা তাদেরকে বঞ্চিত করা কেন
কোটা দিয়ে চাকরি হয়  ভাইভাতে যাওয়ার পর  সত্যি কিন্ত সবাইকেই যে মেধা দিয়েই টিকতে হয় এটা বোঝেন না  নাকি বুঝতে চান না
আপনি এঞ্জিনিয়ারিং এ চান্স পাননি এর মানে এই না যে আপনার যোগ্যতা ছিল না  এর মানে হচ্ছে যারা চান্স পেয়েছে তাঁরা আপনার চেয়ে বেশি যোগ্য এবং আপনি  প্রতিযোগীতায় হেরে গেছেন  এতো ড্রামাবাজি করার কিছু নাই
তার সাথে আছে পোষ্য কোটা এবং মামু কোটা
দুদকের সুপারিশগুলো খুবই কার্যকর ও আধুনিক চিন্তাশীল   উন্নত দেশের শিক্ষা ব্যবস্থাকে ভালভাবে পর্যালোচনা করেই এই সুপারিশ গুলো করা হয়েছে
মানে  ২৫  এর উপরে ফেল
শুভেচ্ছা সহ অভিন্দন  
সাথে যদি সময় সুযোগ হয় পাওনা মিষ্টি পাঠাতে কেহ কিন্তু  ভুলবেন না
সরকারের রাজনীতির বলির পাঠা হল হাজারো শিক্ষার্থী
সবাইকে ধন্যবাদ  তবে সরকারী চাকুরীতে প্রবেশের বয়সসীমা বাড়ানোর জন্য আনন্দলনের শরীক হবেন
তাদের মেধার বিচারে তারা কাতটুকো শিখলো সেটা হলো আসোল
আমাদের সময়  ২০০৭  এ  পেয়েছিল ১০ হাজারের মতো আর এইবার পাইল ৬০ হাজারের মতো  তার মানে ৬ গুন  কিন্তু মেডিকেল  ইঞ্জিনিয়ারিং সহ প্রসিদ্ধ বিশ্ববিদ্যালয়গুলোতে আসন সংখ্যা কি ৬ গুন হয়েছে
সবার জন্য শুভ কামনা
সুখের পাশে দুঃখ থাকে   হাসির পাশে কি থাকে জান  হাস   তরুণ তরুণীরা হাস
ভাল খবর
যারা সফল হলেন তাদের অভিনন্দন  সম্ভাব্য দ্রুততম সময়ের মধ্যে ফলাফল প্রকাশ করার জন্য পরীক্ষকদের উপর বাড়তি চাপ থাকে  এবার কোন কোন বোর্ডে একজন পরিক্ষক ইংরেজি বিষয়ে ৭০০ মতো খাতা মূল্যায়ন করেছেন  কিন্তু বোর্ড পর্যাপ্ত সময় দিতে পারেনি  খুব অল্প সময় নিয়ে এতোগুলো খাতা মূল্যায়ন করা দুরহ ফলে অনেক শিক্ষার্থী যেমন যথাযথ নাম্বার পাচ্ছেন না তেমনি অনেক নিম্নমানের পরিক্ষার্থী আশাতীত নাম্বার পেয়ে যান
শুভকামনা সবার জন্য
সবাইকে ধন্যবাদ  তবে সরকারী চাকুরীতে প্রবেশের বয়সসীমা বাড়ানোর জন্য আনন্দলনের শরীক হবেন
শুভ কামনা সবার জননো
কোটা আছে      তা না হলে আঙ্গুল তুইলা লাভ নাই
দাদা    মিষ্টি আজ কিছু বেশি লাগবে
সবার জন্য শুভকামনা   এবার শুরু হবে ভরতি ব্যাবসায়িদের রমরমা কাচা পয়সা হাতিয়ে নেয়ার পালা
২৬    ফেল
তোমাদের সবাইকে প্রাণঢালা অভিনন্দন
যারা পাশ করতে পারো নাই   দুঃখ করো না  তোমাদের সংখ্যা ও কম নয়  সবাই মিলে করি কাজ  হারি জিতি নাহী লাজ  
আশা করি ভবিষ্যতে ভালো করবে
প্রায়  ২৬০০০  ছাত্রছাত্রীর ঈদ মাটি
তারপরও যারা ভাল করেছে তাদের জন্য  শুভকামনা
সবার জন্য শুভ কামনা
তোমাদের কে আনেক আনেক ধন্যবাদ এগিয়ে যাও
পাশের হার কম
এই যে এতো এতো উল্লাস   মুখে চোখে স্বপনের হাতছানি  একদিন আর থাকবে না  কোটা প্রথার যাতাকলে পিষ্ট হয়ে অসংখ্য মেধাবী হারিয়ে যাবে অন্ধকারে  কেউবা অনিশ্চিত ভবিষ্যতের কথা চিন্তা করে যোগ দিবে ছাত্ররাজনীতিতে হাতে তুলে নিবে অস্ত্র আর সিগারেট তবু দোয়া করি মেধাবীদের স্বপ্নগুলো বেচে থা্‌ক  অমানবিক কোটাপ্রথা নিপাত যাক
এইবার এ  গ্রেড র যথাযথ মূল্যায়ন হবে
তুমি নিজে কতটুকু শিখলে এটাই বড় কথা এদেশের রাজনীতি পাশের হার বাড়ানোতে ব্যস্ত
সুভেচ্ছো রইল
অনেক কষট করে তোমাদের পরীক্কা দিতে হয়েছে  যারা তোমাদের কষট দিয়েছে  বাংলাদেশের আইন তাদের অবৈধ ঘোষনা করেছে  এই সুখবরের সাথে এগিয়ে যাও তোমরা সফলতার পথে  তোমাদের অভিননদন
হৈ হৈ করতে করতে হাত ধরে গোল করে ঘুরতে থাকার ভিডিও কই
দেশের যে অবস্থা  উচ্চ শিক্ষা প্রতিষ্ঠানের সেই অবস্থা   কোন নিয়ম নীতির বালাই নেই
স্যালুট তোমাকে  এগিয়ে যাও
স্যালুট তোমাকে  এগিয়ে যাও
দেশের সেবা করবে
খুবই উত্তম   অন্যান্য সকল তরুণ যুবারা তার পরিকল্পনা ও প্রচেষ্টাকে গ্রহণ করতে পারবে   দেশে মেধাবীদের কদর করতে হবে  না হোলে মেধা পাচার হতেই থাকবে
পড়াশোনায় মন দেওয়ার জন্য আমি বন্ধুদের সঙ্গে অহেতুক আড্ডা বাদ দিয়েছিলাম  এটা হয়তো অন্যদেরও কাজে আসতে পারে
বিসিএস পরীক্ষায় যে ছেলে প্রশাসনে প্রথম হবে তার আত্মবিশ্বাস এত দুর্বল হবে কেন  তিনি মৌখিক পরীক্ষার পর ভেবেছিলেন অন্তত  শিক্ষা ক্যাডার পাবেন  তাঁর ভাবনাটা যদি এমন হতো যে বিশ্বাস ছিল  প্রশাসন  ক্যাডার পাবেন  তবে প্রথম হবেন তা ভাবেননি  তাহলে তা উপযুক্ত হতো বলে মনে করি  প্রথম হওয়া ব্যক্তির আত্মবিশ্বাসের যদি এই অবস্থা হয় তাহলে অন্যরা কি ভেবেছেন
সুন্দর পরামর্শ
অভিনন্দন
এবার ও কি ফাঁস হওয়া প্রশ্নে পরীক্ষা হবে
এতই ভাল তাহলে স্থায়ী ক্যাম্পাস নেই কেন
যত বেশী নারীর জয় হবে তত বেশী সুনাগরিক তৈরী হবে 💐🇧🇩
অভিনন্দন কুমিল্লা বোর্ড
শিক্ষামন্ত্রী সংবাদ সম্মেলনে বলেন  কুমিল্লা বোর্ডে গত দুই বছরে পাসের হার কম ছিল  ওই দুই বছরে অন্য সব বোর্ডের সঙ্গে পরামর্শ করে প্রচেষ্টা চালানো হয়েছে  
 কী প্রচেষ্টা চালানো হয়েছে  এ রকম ক্ষেত্রে প্রচেষ্টা শুধু একটাই থাকে  পরীক্ষায় বেশি বেশি নম্বর দেয়ার জন্য পরীক্ষকদের নির্দেশনা দিয়ে দেয়া  এ প্রচেষ্টার কথা সবাই জানে
মেয়েরা এগিয়ে আসছে
জিপি ৫ পাওয়া এবং পাশ করাই শিক্ষার উদ্দেশ্য নয়
যারা পাশ করেছে তাদের জন্য শুভ কামনা
পাস করা সব পিচ্চিদের অভিনন্দন আর শুভকামনা
যারা এসএসসি পরীক্ষায় ভালো ফলাফল করেছে  তাদের অভিনন্দন  আর যারা ভালো করেনি  তাদের জন্য অগ্রিম শুভেচ্ছা  তাদের জন্য নিশ্চয়ই ভবিষ্যতে আরও বড় কিছুই অপেক্ষা করছে
তোমাদের জন্য অনেক অনেক শুভ কামনা  সত্যিকারের মানুষ হবে আশা করি  আর যারা ভালো করতে পারনি তাদের বলছি  হাল ছেড়না  এগিয়ে যাবার তাড়নাটা জাগ্রত রাখ দেখবে একদিন সফল হবেই  নিজেকে ভালোবাসো  ভালোবাসো প্রিয়জনকে
অভিনন্দন আর শুভকামনা
সবার প্রতি শুভ কামনা রইল
যারা পাশ করেছে তাদের জন্য শুভ কামনা
বিসিএস নিয়ে এত এলার্জি কেন আপনাদের  ভাবখানা এমন যারা বিসিএস ক্যাডার তাঁরা কিছুই জানেন না আর আপনারা সব বুঝে বসে আছেন
গবেষক বিজ্ঞানী এসবের কি এই সমাজে দাম আছে  বড় সরকারি চাকরী লাগবে আমাদের  ওটাই তরুণদের একমাত্র টার্গেট
অভিনন্দন তোমাদের  কিন্তু পেশাগত জীবনে এখনো মেয়েদের ক্ষমতায়ন হয় নি  আমরা চাই পেশাগত জীবনেও মেয়েরা বড় পদে চাকরি করুক এত পড়াশোনা করে বাকি জীবন রান্নাঘরে ব্যয় করার কোন মানে হয় না
নীতিনির্ধারক পর্যায়ে যেতে বিসিএস বা রাজনীতির বিকল্প নাই  খুঁত ধরার অভ্যাস ত্যাগ করুন
এত বছর পড়ে আমরা একরকম জাতীয় ঐকমতে পৌঁছেছি যে আমরা দেশের সেরা মানবসম্পদ সরকারি চাকুরে বানানোর পেছনে খরচ করব  আমরা কোনদিনও নিউটন  হকিংস দের উত্তরসূরি তৈরিতে মনোযোগ দিবনা
আমিও বাকরুদ্ধ্য ভাই
যে নিজের দেশের কাজে লাগলো না  দেশের মানুষের কাজে লাগলো না  সে বিদেশে যাই করুক তাঁর জীবন তো বৃথা
নারীরা এগোচ্ছে নিজেদের যোগ্যতায়  কারো করুণায় নয়  নারীর ক্ষমতায়ন তাদের নিজেদেরই অর্জন
কাঁদো বাঙ্গালি কাঁদো
সরকারি পর্যায়ে দেশে বড় কোনো পদে কাজ করতে হলে বিসিএস দিতে হয়  তাই মা চান আমি বিসিএস দিই 
আমি বাকশুণ্য
আমার মনে হয় আপনার বিসিএস এর বয়স নাই  ৩০ বছর শেষ
এমন করে কেন একটি সরকারী বিশ্ববিদ্যালয় চালাতে হয়  খুলতে হয় বাপু   এ তো সি গ্রেডের প্রাইভেট বিশ্ববিদ্যালয়কেও হার মানিয়ে দিল
হাসব না কাদঁব  ডিজিটাল সরকারের বিশ্ববিদ্যালয় বলে কথা
না  এখন আর পারবেন না  আগামী সমাবর্তনের জন্য অপেক্ষা করুন  প্রায় ২ বছর আন্দোলন করেছি এই সমাবর্তনের জন্য  আর জাতীয় বিশ্ববিদ্যালয় ১ বছরেরও বেশি সমায় দিয়েছিল রেজিস্ট্রেশানের জন্য   অবশেষে আসছে ১৭ জানুয়ারী জাতীয় বিশ্ববিদ্যালয়ের ইতিহাস নতুন করে লেখা হবে
দোয়া করি ওরা ভাল করে পরীক্ষা দিক
আমার ছেলে এবার পরীক্ষা দিচ্ছে  আমার কাছে এই পরীক্ষা একটা যন্ত্রণা
শিশুদের উপর এই আজাব কবে শেষ হবে
রাজনৈতিক ক্ষমতা অধিগ্রহনের প্রতিযোগিতা আর মাদকের ভয়াল থাবা বর্তমান ছাত্রসমাজকে তথা যুবসমাজকে দিন দিন পুঙ্গ করে দিচ্ছে
অভিনন্দন বোন
হাসিনার আমলে এটাই বেচে নেওয়া উচিত
৮৩ হাজার ৫৮২ জন পরীক্ষায় অংশ নিয়ে ১১ হাজার ৩৩০ জন উত্তীর্ণ  এমন করুন দশার জন্য দায়ী কে
বই বাদ দিয়ে বা বই থেকে সিলেক্টেড কিছু অংশ পড়ে পাবলিক পরীক্ষায় ভালো করা গেলেও সেটা দিয়ে যে বিশ্ববিদ্যালয়ের গন্ডি পেরোনো যায় না তা প্রমাণিত  তাই যারা তথাকথিত নোট পড়ে জিপিএ বাড়িয়ে ভালো ছাত্র ছাত্রী হওয়ার স্বপ্ন দেখছেন  তারা এবার ক্ষান্ত দেন  বই পড়ুন  জ্ঞান অর্জন করুন  সেই জ্ঞান ভর্তি পরীক্ষাসহ জীবনের সিদ্ধান্ত গ্রহণে ব্যবহার করুন  তবেই মুক্তি
এই বছর পাশের হার এত কম
আরো কম
আসল চিত্র তো আরো খারাপ   সামনে হয়তো আরো কমবে
জিপিএ পদ্ধতি বাতিল করতে হবে  আলোকিত জাতি হতে চাইলে
বাংলাদেশেই খবর নাই   আবার এশিয়ায়    এগুলি বাণিজ্য ছাড়া আর কিছু না
স্যালুট তোমাকে  এগিয়ে যাও
স্যালুট তোমাকে  এগিয়ে যাও
জয় হোক রাজশাহী কলেজের
৫টি কলেজের মধ্যে ৪টি কলেজ উত্তরবঙ্গের
সেরা পাঁচের চারটিই উত্তরবঙ্গের
সখীপুরের সেরা বিএএফ শাহীন কলেজকে অভিনন্দন
এরকম দিন দেখতে হবে ভাবি নাই
মন্ত্রীর সাথে সাথে সচিবদেরকেও তাদের পদ থেকে অব্যাহতি দেয়া প্রয়োজন
কাজগুলো ভুতে করেছে মনে হয়   সুতরাং আমরা কেউ দায়ী নই
অনেকদিন পর ভাষা শিক্ষার উপর বাস্তব ধর্মী লেখা পেলাম   দেশে যেভাবে ইংলিশ শেখার হুড়াহুড়ি এবং ইংলিশ প্রেমের ঠেলাঠলি চলছে সে তুলনায় ইংলিশের কর্মক্ষেত্র অনেক সীমিত   বরং প্রয়োজনের তাগিদে বিদেশী যেকোন ভাষা কে শিখে নেওয়াই বুদ্ধিমানের কাজ
জানালা দিয়ে বের হয়ে আবারো ফিরে আসুন  এই শুভকামনা রইলো
একটি ভাল সিদ্ধান্ত  প্রফেসর জিয়াউল হককে আমি জানি  এই পদ তাঁর অনেক আগেই প্রাপ্য ছিল  তাঁর নেতৃত্বে ঢাকা বোর্ড বর্তমান অচলাবস্থা কাটিয়ে উঠবে বলে আশা করা যায়  
তাঁকে অভিনন্দন এবং তাঁর সাফল্য কামনা করি
অভিনন্দন
