লাল সবুজের পতাকা দেখিয়ে বাংলাদেশের উদীয়মান এক শুটার জবাব দিলেন   আমরা বাংলাদেশ থেকে এসেছি
বাংলাদেশের পতাকা চেনানোর মঞ্চ যখন আর্জেন্টিনা              ঠিক তখনী  যারা বাংলাদেশ কে চেনানর কারিগর তাদের কে রাতের আধারে কর্ম রত অবস্থায় নিরজন কক্ষে ডেকে নি একই সাথে দু জনে মিলে ধর্ষণ করল   কিছু পত্রিকা ছাড়া নারী নেত্রী   বুদ্ধি জিবি সবাই নিরব   এই ধর্ষণে যেন তারা খুশিই হয়েছে   ওকে প্রচলিত আইনেই ধরসলের সাজা হউক
তাদের পরিশ্রম  তাদের সততা  তাদের দেশপ্রেম  তাদের সাহস এর কারণেই আজ তাঁরা বাংলাদেশকে জেতাতে পেরেছে   অভিনন্দন আমাদের মেয়েদেরকে  তাদের জন্য শুভকামনা রইলো
সঠিকভাবে পরিচর্যা করলে এরা দেশের মুখ উজ্জ্বল করবে ইনশাআল্লাহ্‌
এগিয়ে যাও বাংলাদেশ
মোস্তাফিজ না থাকাটা আশির্বাদও হতে পারে  উইকেট পাওয়ার তুলনায় যে পরিমান রান দেয় তাতে না থাকাটাই ভাল
নিদহাস ট্রফিতে বাংলাদেশ ৫ ম্যাচের দুটো জিতেছিল  কিছুদিন আগেও টানা হারতে থাকা ইতিহাসের সবচেয়ে দুর্বল শ্রীলংকা দলের সাথে আর দ্বিতীয়  তৃতীয় সারির ভারতের সাথে তিন ম্যাচের তিনটিতেই হেরেছিল এই পারফরমেন্স যদি দুর্দান্ত হয় তাহলে বলার কিছু নেই
ঠিকই বলেছেন  আইপিএলে কোনো এক ম্যাচে ৪ ওভারে ৫৬ রান দিয়ে বাদ পড়েছিলেন পরে শেষ ম্যাচে নামলেও খুব একটা সুবিধা করতে পারেননি
নিদাহাসে শ্রীলংকার বিরুদ্ধে ১৭ ওভারের মোস্তাফিজের কার্টারগুলি কি ভুলে গেছে বাংলাদেশিরা
মোস্তাফিজ থাকলেও লাভ হতনা
মোস্তাফিজ না থাকাই ভালো৷
স্পেনের টিকিটাকা বলতে ভুলে গিয়েছিলাম  জ্ঞান বুদ্ধি কম তো   একটু মানিয়ে নিয়েন  কখন কি বলতে কি বলে ফেলি
ও জ্ঞানীরা কত ভাবে বলেন    সম্ভবত খুব কাছাকাছি একটা কথা চলে  বুঝতে সামান্য সময় লেগেছে
ও মা এত্তো সোজা বিশ্বকাপ জেতা  সালাউদ্দিন এই ফর্মূলা দেখলে দেখবেন ২০২২ বিশ্বকাপে কাজে লাগিয়ে দেবে
ব্যাপারটা বলতে গেলে ঠিক উল্টো
ফরমুলা হচ্ছেঃ মেসি  ৯০     ভাগ্য  ১০     শিরোপা
শুধু ছকের গল্প  কিছু শব্দ ভুল হলে শুধরে দিয়েন
  মনে করেছিলাম ব্রাজিলের ছন্দময় ফুটবল জোগো বোনিতা    ইতালীর বিখ্যাত রক্ষণ ক্যাতানেচ্চিও না কি বলে   জার্মানদের হার না মানার মানসিকতা আর যান্ত্রিক ফুটবল  নেদারল্যান্ডসের টোটাল ফুটবল   আর্জেন্টিনার ম্যারাডোনা নির্ভরতা  কোন কোচের নিজের দলের শক্তি দুর্বলতা বুঝে পরিকল্পনা করা এমন কোন রিপোর্টের আশা করেছিলাম
কোনো ফর্মুলা লাগবে না  শুধু জার্মানিকে হারাতে পারবে যে দল তারাই বিশ্ব কাপ জিতবে   প্রমাণ স্বরুপ ১  ২০০২ ফাইনাল ব্রাজিল বনাম জার্মানি  শিরোপা ব্রাজিলের  ২  ২০০৬ সেমিফাইনাল ইতালি  বনাম জার্মানি  জয়ী ইতালি  শিরোপা ইতালির   ৩  ২০১০ সেমিফাইনাল স্পেন  বনাম জার্মানি  জয়ী স্পেন  স্পেনের ঘরে প্রথম শিরোপা   ৪  ২০১৪ ফাইনাল আর্জেন্টিনা  বনাম জার্মানি জয়ী জার্মানি   জার্মানির চার নম্বর শিরোপা জয়
১৯৭৪ সাল থেকেই তো বর্ননা করত হবে   এর আগে থেকে করতে গেলে তো ব্রাজিলের সাফল্যের কথা লিখতে লিখতে কলম কাগজ শেষ হবে সাফল্যের কাহিনী শেষ হবে না
ফর্মুলা অনেক গুরোত্বপূর্ণ বিষয় কিন্তু তার চেয়ে বেশি গুরোত্বপূর্ণ হচ্ছে মাঠে খেলোয়াড়দের সামর্থ্য  যে টুর্ণামেন্টে যারা যত বেশি সামর্থ্যের প্রমাণ রাখতে পেরেছে তারাই শিরোপা জিতেছে  এখানে একটা ফর্মেশনও অজেয় বা অবিসংবাদিত নয়
যেকথাটা উহ্যই থেকে গেল  তা হল যে মহাদেশে খেলা হয়  সেই মহাদেশের দল জেতে না  এমন একটা কথা মনে হয় প্রচলিত আছে
যে সেনাপতি প্রতিপক্ষকে সুপেরিয়র ভাবেন তার সেনাপতির পদ কেড়ে নেওয়া উচিত   তা না হলে জেতার আশা নিয়ে কেও মাঠে নামবে না
টি টোয়েন্টিতে ফেবারিট বা ফেবারিট নয়  এ ধরনের কোনো তকমা থাকে না  আবার বলছেন আফগানিস্তান এই সিরিজে ফেবারিট  এমন স্ববিরোধিতা কেন
এত বছর ধরে খেলে  এত বিনিয়োগ হওয়ার পর আজ আফগানিস্থানকেও ভয় পাই  কি দরকার তাহলে ক্রিকেট খেলে  অযথা করের টাকা নষ্ট
মামা মেজাজ গরম করেন কেন  রশীদ আলোচনায় আসায় হিংসা হবার কোনো যুক্তি নেই  নিজের সেরাটা দিয়ে যান  তাতেই আমাদের চলবে
ঠিক বলেছেন ভাই  এদের পেছনে সরকার ফ্ল্যাট বাড়ি গাড়ি অঢেল টাকা ধেলে খুব অন্যায় করেছে
না বুঝে আন্তাজি তীর মেরে দিলেন
সেনাপতি হয় সৈন্যদলে  আপনার কথা যুদ্ধকালে প্রযোজ্য  এখানে না 
 খেলা বিনোদন থেকে এসেছে  খেলতে হলে প্রতিপক্ষ থাকবেই  তাই বলে  প্রতিপক্ষকে সম্মান না করে কথা বলতে হবে  এটা কেমন ভাব  আসল খেলায় যদি আমরা আফগানিস্তানকে অনায়াসেও যদি হারিয়ে দেই  তবেও সম্মান রাখতে হবে  
সাকিবের অনেক কথাই পরে সত্যি হয়েছে  যেমন  অস্ট্রেলিয়াকে আমরা টেস্টে হারাতে পেরেছি  যেটা সাকিব আগেই বলেছিল
আসলেই আফগানরা আমাদের চেয়ে এগিয়েই থাকবে সামনের সিরিজে
এর আগে লিভারপুল চ্যাম্পিয়নস লিগ জিতবে বলে বিভিন্ন যুক্তি দিয়েছিল প্রথম আলো কিন্তু লিভারপুল এর ভরাডুবি হয়েছে
তিতে আসার পর ১১ ম্যাচে ১০ জয় ১ড্র গোল দিয়েছে ৩০ টি খেয়েছে ৩টি
এই অংক কি জার্মানি  স্পেনের ক্ষেত্রে আরও ভালভাবে খাটে না  প্রথম আলোর মত পত্রিকা যখন লাইক পাওয়ার জন্য শিরোনাম করে তখন দুঃখ লাগে
ব্রাজিল দলটা ভাল তবে আর্জেন্টিনার মতো অতো শক্তিশালী না  নেইমারও মেসির তুলনায় অনেক পিছিয়ে
হাস্যকর রিপোট  বিশ্বকাপ জয় এর জন্য সব চাইতে বেশি প্রয়োজন ভাগ্য  সেটারই উল্লেখ নাই
সবচেয়ে সফলতা দিয়ে যদি কাজ হবে তাহলে গত ১৬ বছর জিততে পারেনি কেন
ভাগ্যকে যেহেতু নিয়ন্ত্রন করা যায় না  তাই ভাগ্যকে নিয়ে বলা সময় নষ্ট ছাড়া কিছুই না
ব্রাজিলই এইবার শিরোপা জিতবে ♥♥♥
হাহাহা 😜  হাসালেন আপু  হাসালেন    😊
আর্জেন্টিনার এই দল শক্তিশালী দল  দুঃখিত  আমার মনে হয় না স্বয়ং আর্জেন্টাইনরাও এটা মনে করে  কাগজে কলমে এই দলের খুব বেশিদূর যাওয়ার সম্ভাবনাও নেই  যদি গতবারের মতো মূল টুর্নামেন্টে গুছিয়ে খেলতে পারে  তাহলে একমাত্র তাদের সেমি বা ফাইনালে যাওয়া সম্ভব  

আর এই যুক্তিটা খাটছে বিশ্বকাপের প্রতিটি দলেরই ওপর
অনেকের ধারনা মেসি থাকলেই জিতবে  গত বিশ্বকাপেও মেসি ছিল
ম্যারাডোনা নিজেও বলেছে আর্জেন্টিনা গ্রুপ পর্বে সব ম্যাচ হারবে যদিও আমি জার্মানি ফ্যান
এবং একজন নেইমার ব্যতীত সব ঠিক আছে   
কারন নেইমার বড় ম্যাচের চাপ নিতে পারে না    
সে বড় ম্যাচের আগে ইনজুরিতে পরবে   
তাছাড়া সে এখনও ম্যাচ খেলার মত ফিট হতে পারেনি   
এত বড় ইনজুরি থেকে ফিরে সে আদৌ ম্যাচ খেলার মত ফিট হতে পারবে কিনা তা দেখার বিষয়
লোক না হাসায়ে দ্রুত পাবনা চলে যান
আশার কথা হলো  বর্তমান কোচ তিতের ফুটবল দর্শন ক্ল্যাসিক্যাল ব্রাজিলীয় ঘরানার  বাছাইপর্বে দুর্দান্ত খেলে বিশ্বকাপে এসেছে ব্রাজিল   তিতে দলের দায়িত্ব নিয়েছিলেন মাঝপথে  তিনি আসার পর ১১ ম্যাচে একটিতেও হারেনি দল  এর আগে ৭ ম্যাচে ৬টিতে জিততে পারেনি ব্রাজিল  তিতে আসার পর ব্রাজিল বাছাই পর্বে গোলই খেয়েছে মাত্র তিনটি  কী আক্রমণ  কী মাঝমাঠ  কী রক্ষণ  একই সঙ্গে তিতে ব্রাজিলের ঐতিহ্যের সঙ্গে মিশিয়েছেন আধুনিকতা
ব্রাজিলের আবেগ বেশি তাইতো তারা বিশ্বের সবচেয়ে সফল ফুটবল দল
ম্যারাডোনা নিজেও বলেছে আর্জেন্টিনা গ্রুপ পর্বে সব ম্যাচ হারবে যদিও আমি জার্মানি ফ্যান
কি শুনাইলেন     আমি তো আঁকাশ থেকে পরলাম   এখন ব্রাজিলের কি হবে
আজকের ম্যাচটা কিছুটা গোছানো মনে হচ্ছে আর্জেন্টিনাকে  দেখি কি হয়
ইনশাআল্লাহ্‌ এইবার বিশ্বকাপ জিতা হবে ব্রাজিলের
এইটাই ব্রাজিলের সবচেয়ে বড় প্লাস পয়েন্ট
সবচেয়ে গুরুত্বপূর্ণ কারনটি বোধহয় বলা হয়নি   তা হলো তিতের কোচিং  তিতে আসার পর ব্রাজিল আমূল বদলে গেছে  গত দেড় দশকের মধ্যে ব্রাজিল এখন সবচেয়ে গুছানো অবস্হায় আছে
নেইমার বড় ম্যাচের চাপ নিতে পারে না     আপনি কি স্পেনের সা্থে কনফেডারেশন কাপের ফাইনাল আর জার্মানীর সাথে অলিম্পিক ফাইনাল দেখছেন
ইনশাললাহ   হাসান জামিলুর ভাই  আপনার মুখে ফুল চনদন ফুটুক 😊 আর আপনি ভালো থাকবেন
দোয়া করেন যেন সেভেন আপ না খেয়ে বসে
ব্রাজিল আর্জেন্টিনা মূলত আবেগের কারণে বিশ্বকাপে ভাল খেলতে পারে না  মূলত ইউরোপীয় দল গুলো অনেক প্রফেশনাল ⚽
ব্রাজিলের প্লেয়াররা ক্লাবে যতটা ভালো খেলে দেশের হয়ে তারচেয়েও দুর্দান্ত  
ব্রাজিলই এবার বিশ্বকাপ জিতবে ইনশাল্লাহ
ভাই প্রতিবার যদি কাপ নেয় তবে বিশ্বকাপের মজাটাই থাকবে না    জার্মানী প্রফেশনাল ফুটবল খেলে ১৯ বারের মধ্যে কয়বার জিতছে
ভাগ্য শুধু আর্জেন্টিনার দরকার হয়  বাকিরা নিজেরা ভাল খেলে নিজেদের ভাগ্য নিজেরাই গড়ে নেয়
ব্রাজিল ২০১৮ বিশ্বকাপ কোয়ালিফাইং ম্যাচ এর ১৮ টির মধ্যে ১২টি জয়  ৫টি ড্র ও ১টিতে হার  চিলির বিপক্ষে ২ ০   দয়া করে সঠিক সংবাদ প্রচার করুন
সময়ই বলে দেবে কে বিশ্বকাপ জিতবে
পুঁচকে বার্সার ফ্যান তারে একটাই কথা কিং মাদ্রিদ কিং রনালদো কিং রামোস 13 বার চ্যাম্পিয়ন
নেইমারের আঘাত হত্যাচেষ্টা
লিগে ৩ নাম্বার দল  ১০ বছরে দুইবার চ্যাম্পিয়ন    কোপা দেল রে তে পাত্তা না পাওয়া দল   আর যাই হোক কিং হয় না    কিং হতে হলে সব জায়গায় চ্যাম্পিয়ন হতে হয়    একটা কাপ জিতলেই কিং হয় না
আইনজীবী সাহেব আলোচনায় আসতে চান 
কেউ তাকে দুইটা বিস্কুট দেন
খেলায় আহত হওয়া স্বাভাবিক ঘটনা  মিশরীয়দের এতো বাড়াবাড়ি অগ্রহণযোগ্য
সালাহকে ইচ্ছাকৃতভাবে চোটে ফেলেছেন রামোস  এ জন্য তাঁর শাস্তি হওয়া উচিত
হাস্যকর
হাজার বিলিয়ন হোক
সালাহকে ইচ্ছাকৃতভাবে চোটে ফেলেছেন রামোস  এ জন্য তাঁর শাস্তি হওয়া উচিত
রামোসের ট্যাকেল খেলারই অংশ   আবেগ আর বাস্তবতা এক নয়
কেস যে কেউ করতে পারে  অভিযোগ আনা আর দোষী সাব্যস্ত করা এক না   কোনো নামি ফুটবল বোদ্ধা অভিযোগ আনেন নি   এনেছে এক আইনজীবি  অভিযোগ ওদের ব্যাবসা
ক্রীড়া অপরাধী রামোসের বিচার এই ইউরোপের মাটিতেই হবে
বিচার মানি কিন্তু তালগাছ আমার আপনার কথায় এরচেয়ে ভালো কিছু আর খুঁজে পাচ্ছি না ভিডিওতে পরিস্কার দেখা গেছে যে রামোস ইচ্ছা করে তাঁকে ইনজুরিতে ফেলেনি  তবে আপনাদের মতো আর্জেন্টাইন সাপোর্টারদের কাছে এর চেয়ে ভালো কিছু আশা করা যায় না
হুম ২০১৪ বিশ্বকাপে মারকানায়ও তাই হয়েছিল কিন্তু  হলদে ইঁদুর সাদা কালো বিড়ালের কাছে সাত সাত খান গোল খাইছিল
আসছে বিশ্বকাপ উপলক্ষে খেলা দেখা শুরু করেছেন   জানেন না বিশ্বকাপ আগেও হয়েছে 
আপনি যখন থেকে খেলা দেখা শুরু করেছেন সেদিন থেকেই ফুটবল খেলা শুরু হয়নি জনাব   কয়টা দিন খেলা দেখুন তারপর নাহয় শুরু করুন
পেলের সময় মেসি নেইমারেরা থাকলে ১৭৭ গোল করতো  পেলে তো জীবনে ইউরোপেই খেলার সুযোগ বা ডাক পায় নাই  তার আমলে অফ সাইড থেকে গোল দেবার সুবিধা ছিল  হুদাই ত্যানা প্যাচায়েন না মিয়া  লিখলে এমন বহুত কথাই লেখা যায়  মেসি গ্রেট বইলাই তো আপনের দিনের অর্ধেক নিয়মিত তাঁর পেছনে ব্যয় করেন
আহা অভিনন্দন হে প্রিয়
কারন উনি ব্রাজিল মাদ্রিদ হাইতি পানামার ইকুয়েডরের  মত ছোট দলের সাথে হ্যাট্রিক করতে ভাল বাসেন
আমার জানা মতে  হাইতির ফিফা রেংকিং লাটভিয়া ফারো আইল্যান্ড এদের চেয়ে কমপক্ষে ৫০ ধাপ আগে
সবচেয়ে আশ্চর্যের বিষয় আর্জেন্টিনার হয়ে বেশীরভাগ ম্যাচেই মাঝমাঠে প্লে মেকারের ভূমিকায় খেলেই মেসি এই কৃতিত্ব অর্জন করলো  ৬৪ গোলের পাশাপাশি তার করা ৪২ অ্যাসিস্টের রেকর্ডটাও তার অলরাউন্ড পারফর্মেন্সেরই প্রমাণ বহন করবে
হ্যাট্রিকটা ভাইটির মনে বড়ই বেদনার উদ্রেক ঘটাইলো
আর্জেন্টিনা জিতলে ও সমস্যা হারলে ও সমস্যা  মেসি গোল দিলে ও সমস্যা না দিলে ও সমস্যা  সেরা কে সেরা বলতে তুমাদের  ব্রাজিল সাপোটার  সমস্যা কি   ভাল লাগা যেখানে সেখানে সব যুক্তিই শেষ পর্যন্ত অকেজো হয়ে যায়   মেসি সারা দুনিয়ার ভাল লাগা যেখানে সেখানে তুমরা  ব্রাজিল সাপোটার  এত উল্টা কেন
ভালোই খেলেছে আর্জেন্টিনা   অসাধারন    যদিও হাইতি এ ম্যাচে ফেবারিট ছিল
সব কমেন্টের মধ্যে আপ্নারটাই সবচেয়ে যুক্তিযুক্ত
আপনাদের বড় ম্যাচের জ্বলন্ত খেলোয়াড়ের খেলা দেখা হইয়া গেছে   ৯০ মিনিটের মাঝে সবমিলিয়ে ১ মিনিট ও খেলে নাই   
বহুত চাপাবাজি করছেন এইবার ক্ষেমা দেন   মেসির লগে আর কাউরে কখনো তুলনা কইরা নিজের বেকুবিপনা প্রকাশ কইরেন না
ম্যানেজমেন্টের বাজে সিদ্ধান্ত 
দল নির্বাচনের উপলক্ষ ম্যাচ হিসেবে খেললো ইতালি আর স্পেনের মত প্রতিপক্ষের বিরুদ্ধে  আধ ডজন প্লেয়ারকে অভিষেক করালো 
আর বিশ্বকাপ প্রস্তুতির ম্যাচ খেললো হাইতি আর ইসরায়েলের মত দলের বিপক্ষে  আশা করি যা করছে ভেবে চিনতেই করছে
উল্লেখ্য  পেলে নিখাদ স্ট্রাইকার ছিলেন আর মেসি জাতীয় দলে মিডফিল্ডেই বেশি খেলেছে
প্রস্তুতি ম্যাচের ফলাফলে কিছু যায় আসেনা  যেমন ০ ৬ হারার ম্যাচেরও তেমন গুরুত্ব নেই  গুরুত্ব দেখি বাংলাদেশী ফুটবল বোদ্ধাদের মাঝে
মেসিকে লিজেন্ডের কাতারে লিজেন্ডরাই অনেক আগে থেকেই স্থান দিয়ে আসছেন  এই বেলা আপনি লিজেন্ড হওয়ার নতুন সংজ্ঞা উপস্থাপন করলে হবে  

ক্রুইফ  জিকো  গার্ড মুলার  জর্জ বেস্ট  প্লাতিনি  স্টেফানো সহ আরো অনেক লিজেন্ড কখনো বিশ্বকাপ জেতেন নি  অনেকে বিশ্বকাপে খেলারই সুযোগ পাননি  আপনার চোখকে ফাঁকি দিয়ে তারা লিজেন্ড হয়ে গেলেন কি করে
গত বিশকাপে আপনার  সাথে খেলে ফাইনাল অব্দি গিয়েছিল তাই না
দেশের হয়ে নেইমারের অর্জন হচেছ মাত্র একটা কনফেডারেশন কাপ আর অলিম্পিক স্বর্ণ পদক     আনুপাতিক হারেও নেইমার মেসির চাইতে এগিয়ে জাতীয় দলের পারফর্মেন্সের ভিত্তিতে   জাতীয় দলে মেসির অর্জন টা জানাবেন দয়া করে
কারন উনি বারজিল মাদ্রিদ হাইতি পানামার ইকুয়েডরের  মত ছোট দলের সাথে হ্যাট্রিক করতে ভাল বাসেন
মোহাম্মদ রাসেল আপ্নি কি আন্ধা নাকি ব্রাযিল আর আরজেন্তিনার টিম এক হইল   আর নেইমার কি এমন জিতাই ফেলছে দেশেরে
আপনি মেসির ভক্ত নাকি হেটার সেটা সবাই বুঝতেসে ভাই  রোজা রমজানের দিন খামাখা মিথ্যা বলে লাভ নাই
বিড়াল আর ইঁদুরের খেলায়  বিড়াল যে জিতবে এটাই স্বাভাবিক
ভাল বলেছেন 

টিম কম্বিনেশন তৈরির ম্যাচ হিসেবে আগের দুই ম্যাচ ইতালি আর স্পেনের বিপক্ষে না খেলে বরং হাইতি আর ইসরায়েলের সাথে খেলতে পারতো 
আর বিশ্বকাপ প্রস্তুতির ম্যাচ হিসেবে ইতালি আর স্পেনের সাথে খেলতে পারতো
মেসি ছোট দলের বিপক্ষে বড় খেলোয়াড়  ফাইনাল হলে পেনাল্টি মিস
কারন উনি বারজিল মাদ্রিদ হাইতি পানামার ইকুয়েডরের  মত ছোট দলের সাথে হ্যাট্রিক করতে ভাল বাসেন
জাতীয় দলে নেইমার মেসির চাইতেও সফল   কোনো ক্লাব লিজেন্ড এর সাথে নেইমারের তুলনা করাটা বোকামি
খেলোয়ার হিসেবে মেসি নেইমারের চেয়ে এগিয়ে নিঃসন্দেহে  ঠিক তেমনি দল হিসেবে আর্জেন্টিনা ব্রাজিলের চেয়ে কয়েকগুণ পিছিয়ে    এইজন্য ব্রাজিল সমর্থকরা মাতামাতি করে   খেলা বুঝলে নিজে একটু মাথা খাটান
আশা করি ইসরাইলের বিরুদ্ধে ম্যাচটি খেলবে না আর্জেন্টিনা
পিচ্চিরে পাইয়া খুব দেখাইলা
একই সাথে ব্রাজিল ও রিয়াল মাদ্রিদের মত ছোট দলের বিপক্ষে ইতিহাসের একমাত্র হ্যাট্রিককারী সস্তা প্লেয়ার হল মেসি
হা ব্রাদার  গত বিস্বকাপ আর দুইটা কোপা ফাইনালে  জাপান  চায়না এগুলার সাথে খেলেই ফাইনাল এ গেছে  অবশ্য আপনি কইবেন যে ফাইনাল জেতে নাই  ভাগ্যের জোরে ফাইনালে গেসিল
রেংকিং এ ১০৮ নম্বরে থাকা হাইতির সাথে প্রস্তুতি ম্যাচ টাকে আসলে প্রস্তুতি ম্যাচ না বলাই ভাল   নব্বই এর দশকে  বাংলাদেশের ফিফা রেংকিং ও ১১০ এর কাছাকাছি ছিল   কৈ কোন বড় দল তো তখন বিশ্বকাপের আগে বাংলাদেশের সাথে খেলতে আসেনি   তাহলে আর্জেন্টিনার মত দলের   হাইতির সাথে খেলা কতটুকু যুক্তিযুক্ত হল
হাইতি  ফিফা র‍্যাংকিং ১০৮  আর ইসরাইল  ফিফা র‍্যাংকিং ৯৮  এই দুই মহা শক্তিধর    দেশের সংগে প্রস্তুতি ম্যাচে দুর্দান্ত জয় পেয়ে আর্জেন্টিনা সমর্থকরা বিশ্বকাপের স্বপ্ন দেখা শুরু করবে  খুব দ্রুতই স্বপ্ন থেকে জেগে তারা দেখবে বিশ্বকাপে তাদের পারফরমেন্স জঘন্য  তখন তারা বলবে ৩২ বছর তো হলো আর কত
হাইতির মতো দলের সাথেই পারবে  আরে কলিজা থাকলে বিশ্বকাপ খেলবে এমন কোন দলের সাথে খেলে দেখুক
আরো শক্ত প্রতি পক্ষ দরকার ছিল
মহা গুরুত্ত্বপুর্ন
টিভির ওপর ভরসা করে লাভ নেই
4 0 গোলে জিতল আর্জেন্টিনা  মেসির হ্যাটট্রিক
খুব জমবে ম্যাচটা  কেউ কারো চেয়ে কম নয় 
শক্তির বিচারে কাছাকাছি আর মানে আর্জেন্টিনা একটুখানি এগিয়ে
কোন চ্যানেলে দেখাবে
সহজ ভাবে না নেওয়া মানে ভয় পাওয়া নয়ইরে পাগলা 
প্রতিপক্ষকে দূর্বল ভাবে তো বোকারা
এই সব দলের সাথে ভুরিভুরি গোলে জিতে বিশ্বকাপের আসল পরীক্ষায় ফেল করবে
হা হা    বিশ্বকাপের আশাবাদী আর্জেন্টিনা
এটা নিয়ে এতো মাতামাতি কেন  মনে হচ্ছে যেন বিশ্ব জয় করতে গেছে
ভাই এ ওভারটা থিসারার ছিল না এটা ছিল উদানার
ম্যাচটি দারুন উপভোগ করেছি  রিয়াদের বুদ্ধিতেই ম্যাচটি জয় হয়েছে  সাকিবের কথায় মাঠ হতে বের হয়ে গেলে ম্যাচ জিতা হতো না
আগের ম্যাচেই স্পেনের কাছে আধা ডজন গোল হজম করা দলটা আজ হাইতির মতো দলের সাথে জিতেই প্রত্যাশা  এবং কনফিডেন্স কতটা বেড়ে গেলো  এই না হলে আর্জেন্টিনা  এদের খেলোয়াড়  সাবেক খেলোয়াড় এবং  সমর্থক সবাই এক রকম
শক্তিশালী একটা দলের সাথে জিতেছে  স্বাভাবিক ভাবে নিজেদের প্রতি বিশ্বাসও একটু বাড়বে
কামড় দিয়া আর সুয়ারেজ বাঁচতে পারবে না
হাত দিয়ে গোল করে ফুটবল ঈশ্বর হওয়ার দিন শেষ
খেলোয়াড়দের প্রতি আমাদের ভালবাসা আমাদের দেশকে কেন্দ্র করে  তারা দেশের হয়ে খেলে বলে আমাদের ভালবাসা পায়
সুনিল নারায়ণ এখন তার আদর্শ শুধু আইপিএল খেল আর ১২ মাস বিশ্রাম নাও
আমি এর ভবিষ্যৎ অন্ধকার দেখতে পাচ্ছি  ও আইপিএল এর অর্ধেক খেলাই খেলেনি  তারপরও চোট
মুস্তাফিজ হলো দেশের সম্পদ যে সম্পদ দেশের কোন কাজে আসে না
হাহাহা হাসালেন  প্লেয়াররা টাকার জন্যই খেলে ঠিকই বলেছেন  স্যালুট আপনাকে
বিদেশী লীগে খেলে চোট পেলে তার দায়দায়িত্ব বিসিবি তথা দেশের জনগণ কেন নিবে
আফগান সিরিজে তাকে রাখলে বাংলাদেশের ক্ষতি ছাড়া লাভ কিছুই হবেনা
কোনরকমে ১ ম্যাচ খেলবেন পরের সাত ম্যাচে বিশ্রাম নিবেন এখন এটাই মুস্তাফিজ
আপনার কথা শুনে মনে হচ্ছে প্লেয়াররা ইচ্ছা করেই খেলে না দেশের হয়ে
আপাতত এর চেয়ে খারাপ খবর আর কী হতে পারে
যাক আমাদের একটা অজুহাত তৈরী হয়ে গেল হারলে বলতে পারবো মুস্তাফিজ না খেলাতে হেরেছি আর যদি এক দুইটা ম্যাচ জিতে যাই তাহলে তো কথাই নেই বিশ্বজয়ের আনন্দ  আমরা নিদহাস ট্রফিতে শ্রীলংকার সাথে দুইটা ম্যাচ জিতেছি কিন্তু দ্বিতীয় তৃতীয়  সারির ভারতের সাথে তিন ম্যাচের তিনটাতেই হেরেছি তারপর ও কি খেলোয়াড়  কি ম্যানেজমেন্ট কিংবা সমর্থক সবাই গলাবাজিতে ব্যস্ত হয়ে পড়েছি আর কোটি টাকার বোনাস তো আছেই
আমাদের দরকার মাশরাফির মতো নেতা যারা খেলবে শুধু দেশের জন্য টাকার জন্য নয়
এভাবে বারবার বাইরের লিগ খেলতে গিয়ে চোট নিয়ে দেশে ফিরে আসা    আর তার খেসারত দিতে হচ্ছে বিসিবি ও জাতীয় দলকে    এ রকম বিদেশী লিগে খেলায় নিষেধাজ্ঞা দরকার
ওনাকে শোপিস হিসেবে রেখে দেওয়া হোক  বাইরের লিগগুলো খেলবে আর দেশের ম্যাচগুলো খেলার সময় ইনজুরী দেখাবে  সত্যই যদি আগেই ইনজুরীতে পড়ত  তবে কেন আইপিএলের মাঝপথে ফিরে এল না
মুস্তাফিজ এর আগেও আইপিএল এ যেয়ে  ইঞ্জুরি তে পড়েছে   মুস্তাফিজ এর উচিত খেলার ও দেশের সারথে আইপিএল এ না যাওয়া
শোকেস এ সাজিয়ে রেখে দেয়া হোক তারে  কাজের কাজ তো কিছুই হয় না একে দিয়ে
ওরা আছে বলেই বাংলাদেশকে জানছে পৃথিবী  ওরা আমাদের গর্বের ধন  হার জিত আছে বলেইত মানুষ খেলাকে ইনজয় করে
ছবিগুলা ভালো করে দেখেন  ওরা প্র‌্যাকটিস করছে মাঠে  কোথাও সাইট সিয়িং করছে না  দয়া করে শুধু শিরনাম দেখে কমেন্ট করবেন না
আরো শক্ত প্রতি পক্ষ দরকার ছিল
মহা গুরুত্ত্বপুর্ন
টিভির ওপর ভরসা করে লাভ নেই
4 0 গোলে জিতল আর্জেন্টিনা  মেসির হ্যাটট্রিক
খুব জমবে ম্যাচটা  কেউ কারো চেয়ে কম নয় 
শক্তির বিচারে কাছাকাছি আর মানে আর্জেন্টিনা একটুখানি এগিয়ে
কোন চ্যানেলে দেখাবে
সহজ ভাবে না নেওয়া মানে ভয় পাওয়া নয়ইরে পাগলা 
প্রতিপক্ষকে দূর্বল ভাবে তো বোকারা
এই সব দলের সাথে ভুরিভুরি গোলে জিতে বিশ্বকাপের আসল পরীক্ষায় ফেল করবে
হা হা    বিশ্বকাপের আশাবাদী আর্জেন্টিনা
নাছির ভাল বোলিং করার জন্য ধন্যবাদ   সেই সাথে ম্যাচ জেতানোর জন্য রইল এক রাশ ভালবাসা
এগিয়ে যাও বাংলাদেশ
ম্যারাডোনার নিজের স্বীকারোক্তি আছে
ম্যারাডোনা শুধু সর্বকালে সেরা ফুটবলারই নন তিনি একজন সাদা মনের মানুষও  তবে বোধ করি তিনি সবচে  বড় উপমা দৃঢ় মানসিক শক্তির  মাদক সেবন থেকে মুক্তি  বেঢপ সাইজকে বাগে আনা  বিশ্ব ফুটবল নিয়ন্তাদের মুখের উপর সমালোচনা করা  এ শুধু ম্যারাডোনার পক্ষেই সম্ভব  ম্যারাডোনা তোমায় সালাম  এই বাংলাদেশ অধীর আগ্রহে অপেক্ষা করছে তোমার জন্য  সেদিন বেশি দূরে নয়  যেদিন এই বাংলার রুপ তুমি দেখিতে পাইবে
ম্যারাডোনার নিষেধাজ্ঞা ছিল ভুয়া  সে নাকের ড্রপের কারণে নিষিদ্ধ হয়েছিল
আহারে     😂
মানুষটাই কলংকে মাখা  ঘৃণা করার জন্য সে সঠিক ব্যক্তি  যাকে আপনি লক্ষ বানাতে পারেন
কখনো পারবে না বাংলাদেশ
ভরসা সামানের ম্যাচ
হ ভাই  গোল ৭ টা তো আর্জেন্টনা দিছিল
নেইমার একজন জাত নেতা নেইমারের উপস্থিতিই ব্রাজিলের জন্য যথেষ্ট
তাড়াতাড়ি ফিট হয়ে বিশ্বকাপ জেত  নইলে যে ব্রাজিল সমর্থকেরা মুখ দেখাতে পারবে না
এতো ভয় পেলে মাঠে নামার দরকার নেই  ঘরে বসে মেসির খেলা দেখ
পুরোনো কাহিনি আর কত বলবেন
শ্রেষ্ঠ অভিনেতা নেইমার  এইবার মনে হয় অস্কার পেয়েই যাবে
ম্যারাডোনার নিজের স্বীকারোক্তি আছে
ম্যারাডোনা শুধু সর্বকালে সেরা ফুটবলারই নন তিনি একজন সাদা মনের মানুষও  তবে বোধ করি তিনি সবচে  বড় উপমা দৃঢ় মানসিক শক্তির  মাদক সেবন থেকে মুক্তি  বেঢপ সাইজকে বাগে আনা  বিশ্ব ফুটবল নিয়ন্তাদের মুখের উপর সমালোচনা করা  এ শুধু ম্যারাডোনার পক্ষেই সম্ভব  ম্যারাডোনা তোমায় সালাম  এই বাংলাদেশ অধীর আগ্রহে অপেক্ষা করছে তোমার জন্য  সেদিন বেশি দূরে নয়  যেদিন এই বাংলার রুপ তুমি দেখিতে পাইবে
ম্যারাডোনার নিষেধাজ্ঞা ছিল ভুয়া  সে নাকের ড্রপের কারণে নিষিদ্ধ হয়েছিল
আহারে     😂
মানুষটাই কলংকে মাখা  ঘৃণা করার জন্য সে সঠিক ব্যক্তি  যাকে আপনি লক্ষ বানাতে পারেন
সাকিবকে অভিনন্দন  কিন্তু সেই সাথে একথাও বলতে হবে যে নতুন ক্রিকেটার বের হচ্ছে না বলেই সাকিব   তামিম   মুস্ফিক   মাশ্রাফি ঘুরে ফিরে সবসময় বর্ষ সেরা   রানার আপ ক্রিকেটার হচ্ছেন
তবে আমার মতে বর্ষসেরা খেলোয়ার মাহমুদুল্লাহ
অত্যন্ত অনুপ্রেরণাদায়ী খবর  কিন্ত এত বছর টানা জাতীয় চ্যাম্পিয়ন একজন সম্পর্কে জানেন না সবসময় প্রচারের আলোয় থাকা দুই ক্রীড়াবিদ  এতেই অনুমেয় অ্যাথলেটিক্সের হাল
কী যে করেন না  কিসের মধ্যে কী মন্তব্য
সালাহকে ইচ্ছা করেই হাত ধরে ফেলে  কাঁধে চোট দিয়েছে ৷খুবই দুঃখিত হয়েছি
এটা আজহার ভাইয়ের জন্য সন্মানের হতে পারে কিন্ত এটি দেশের এথলেটিকসের বেহাল দশা প্রকাশ করে  নতুন খলোয়ার উঠে আসছেনা  তরুন প্রজন্ম বিভিন্ন কারনে অনাগ্রহী
এখানে সালাহ আসলো কোথা থেকে
হুম ২০১৪ বিশ্বকাপে মারকানায়ও তাই হয়েছিল কিন্তু  হলদে ইঁদুর সাদা কালো বিড়ালের কাছে সাত সাত খান গোল খাইছিল
আসছে বিশ্বকাপ উপলক্ষে খেলা দেখা শুরু করেছেন   জানেন না বিশ্বকাপ আগেও হয়েছে 
আপনি যখন থেকে খেলা দেখা শুরু করেছেন সেদিন থেকেই ফুটবল খেলা শুরু হয়নি জনাব   কয়টা দিন খেলা দেখুন তারপর নাহয় শুরু করুন
পেলের সময় মেসি নেইমারেরা থাকলে ১৭৭ গোল করতো  পেলে তো জীবনে ইউরোপেই খেলার সুযোগ বা ডাক পায় নাই  তার আমলে অফ সাইড থেকে গোল দেবার সুবিধা ছিল  হুদাই ত্যানা প্যাচায়েন না মিয়া  লিখলে এমন বহুত কথাই লেখা যায়  মেসি গ্রেট বইলাই তো আপনের দিনের অর্ধেক নিয়মিত তাঁর পেছনে ব্যয় করেন
আহা অভিনন্দন হে প্রিয়
কারন উনি ব্রাজিল মাদ্রিদ হাইতি পানামার ইকুয়েডরের  মত ছোট দলের সাথে হ্যাট্রিক করতে ভাল বাসেন
আমার জানা মতে  হাইতির ফিফা রেংকিং লাটভিয়া ফারো আইল্যান্ড এদের চেয়ে কমপক্ষে ৫০ ধাপ আগে
সবচেয়ে আশ্চর্যের বিষয় আর্জেন্টিনার হয়ে বেশীরভাগ ম্যাচেই মাঝমাঠে প্লে মেকারের ভূমিকায় খেলেই মেসি এই কৃতিত্ব অর্জন করলো  ৬৪ গোলের পাশাপাশি তার করা ৪২ অ্যাসিস্টের রেকর্ডটাও তার অলরাউন্ড পারফর্মেন্সেরই প্রমাণ বহন করবে
হ্যাট্রিকটা ভাইটির মনে বড়ই বেদনার উদ্রেক ঘটাইলো
আর্জেন্টিনা জিতলে ও সমস্যা হারলে ও সমস্যা  মেসি গোল দিলে ও সমস্যা না দিলে ও সমস্যা  সেরা কে সেরা বলতে তুমাদের  ব্রাজিল সাপোটার  সমস্যা কি   ভাল লাগা যেখানে সেখানে সব যুক্তিই শেষ পর্যন্ত অকেজো হয়ে যায়   মেসি সারা দুনিয়ার ভাল লাগা যেখানে সেখানে তুমরা  ব্রাজিল সাপোটার  এত উল্টা কেন
ভালোই খেলেছে আর্জেন্টিনা   অসাধারন    যদিও হাইতি এ ম্যাচে ফেবারিট ছিল
সব কমেন্টের মধ্যে আপ্নারটাই সবচেয়ে যুক্তিযুক্ত
আপনাদের বড় ম্যাচের জ্বলন্ত খেলোয়াড়ের খেলা দেখা হইয়া গেছে   ৯০ মিনিটের মাঝে সবমিলিয়ে ১ মিনিট ও খেলে নাই   
বহুত চাপাবাজি করছেন এইবার ক্ষেমা দেন   মেসির লগে আর কাউরে কখনো তুলনা কইরা নিজের বেকুবিপনা প্রকাশ কইরেন না
ম্যানেজমেন্টের বাজে সিদ্ধান্ত 
দল নির্বাচনের উপলক্ষ ম্যাচ হিসেবে খেললো ইতালি আর স্পেনের মত প্রতিপক্ষের বিরুদ্ধে  আধ ডজন প্লেয়ারকে অভিষেক করালো 
আর বিশ্বকাপ প্রস্তুতির ম্যাচ খেললো হাইতি আর ইসরায়েলের মত দলের বিপক্ষে  আশা করি যা করছে ভেবে চিনতেই করছে
উল্লেখ্য  পেলে নিখাদ স্ট্রাইকার ছিলেন আর মেসি জাতীয় দলে মিডফিল্ডেই বেশি খেলেছে
প্রস্তুতি ম্যাচের ফলাফলে কিছু যায় আসেনা  যেমন ০ ৬ হারার ম্যাচেরও তেমন গুরুত্ব নেই  গুরুত্ব দেখি বাংলাদেশী ফুটবল বোদ্ধাদের মাঝে
মেসিকে লিজেন্ডের কাতারে লিজেন্ডরাই অনেক আগে থেকেই স্থান দিয়ে আসছেন  এই বেলা আপনি লিজেন্ড হওয়ার নতুন সংজ্ঞা উপস্থাপন করলে হবে  

ক্রুইফ  জিকো  গার্ড মুলার  জর্জ বেস্ট  প্লাতিনি  স্টেফানো সহ আরো অনেক লিজেন্ড কখনো বিশ্বকাপ জেতেন নি  অনেকে বিশ্বকাপে খেলারই সুযোগ পাননি  আপনার চোখকে ফাঁকি দিয়ে তারা লিজেন্ড হয়ে গেলেন কি করে
গত বিশকাপে আপনার  সাথে খেলে ফাইনাল অব্দি গিয়েছিল তাই না
দেশের হয়ে নেইমারের অর্জন হচেছ মাত্র একটা কনফেডারেশন কাপ আর অলিম্পিক স্বর্ণ পদক     আনুপাতিক হারেও নেইমার মেসির চাইতে এগিয়ে জাতীয় দলের পারফর্মেন্সের ভিত্তিতে   জাতীয় দলে মেসির অর্জন টা জানাবেন দয়া করে
কারন উনি বারজিল মাদ্রিদ হাইতি পানামার ইকুয়েডরের  মত ছোট দলের সাথে হ্যাট্রিক করতে ভাল বাসেন
মোহাম্মদ রাসেল আপ্নি কি আন্ধা নাকি ব্রাযিল আর আরজেন্তিনার টিম এক হইল   আর নেইমার কি এমন জিতাই ফেলছে দেশেরে
আপনি মেসির ভক্ত নাকি হেটার সেটা সবাই বুঝতেসে ভাই  রোজা রমজানের দিন খামাখা মিথ্যা বলে লাভ নাই
বিড়াল আর ইঁদুরের খেলায়  বিড়াল যে জিতবে এটাই স্বাভাবিক
ভাল বলেছেন 

টিম কম্বিনেশন তৈরির ম্যাচ হিসেবে আগের দুই ম্যাচ ইতালি আর স্পেনের বিপক্ষে না খেলে বরং হাইতি আর ইসরায়েলের সাথে খেলতে পারতো 
আর বিশ্বকাপ প্রস্তুতির ম্যাচ হিসেবে ইতালি আর স্পেনের সাথে খেলতে পারতো
মেসি ছোট দলের বিপক্ষে বড় খেলোয়াড়  ফাইনাল হলে পেনাল্টি মিস
কারন উনি বারজিল মাদ্রিদ হাইতি পানামার ইকুয়েডরের  মত ছোট দলের সাথে হ্যাট্রিক করতে ভাল বাসেন
জাতীয় দলে নেইমার মেসির চাইতেও সফল   কোনো ক্লাব লিজেন্ড এর সাথে নেইমারের তুলনা করাটা বোকামি
খেলোয়ার হিসেবে মেসি নেইমারের চেয়ে এগিয়ে নিঃসন্দেহে  ঠিক তেমনি দল হিসেবে আর্জেন্টিনা ব্রাজিলের চেয়ে কয়েকগুণ পিছিয়ে    এইজন্য ব্রাজিল সমর্থকরা মাতামাতি করে   খেলা বুঝলে নিজে একটু মাথা খাটান
আশা করি ইসরাইলের বিরুদ্ধে ম্যাচটি খেলবে না আর্জেন্টিনা
পিচ্চিরে পাইয়া খুব দেখাইলা
একই সাথে ব্রাজিল ও রিয়াল মাদ্রিদের মত ছোট দলের বিপক্ষে ইতিহাসের একমাত্র হ্যাট্রিককারী সস্তা প্লেয়ার হল মেসি
হা ব্রাদার  গত বিস্বকাপ আর দুইটা কোপা ফাইনালে  জাপান  চায়না এগুলার সাথে খেলেই ফাইনাল এ গেছে  অবশ্য আপনি কইবেন যে ফাইনাল জেতে নাই  ভাগ্যের জোরে ফাইনালে গেসিল
রেংকিং এ ১০৮ নম্বরে থাকা হাইতির সাথে প্রস্তুতি ম্যাচ টাকে আসলে প্রস্তুতি ম্যাচ না বলাই ভাল   নব্বই এর দশকে  বাংলাদেশের ফিফা রেংকিং ও ১১০ এর কাছাকাছি ছিল   কৈ কোন বড় দল তো তখন বিশ্বকাপের আগে বাংলাদেশের সাথে খেলতে আসেনি   তাহলে আর্জেন্টিনার মত দলের   হাইতির সাথে খেলা কতটুকু যুক্তিযুক্ত হল
হাইতি  ফিফা র‍্যাংকিং ১০৮  আর ইসরাইল  ফিফা র‍্যাংকিং ৯৮  এই দুই মহা শক্তিধর    দেশের সংগে প্রস্তুতি ম্যাচে দুর্দান্ত জয় পেয়ে আর্জেন্টিনা সমর্থকরা বিশ্বকাপের স্বপ্ন দেখা শুরু করবে  খুব দ্রুতই স্বপ্ন থেকে জেগে তারা দেখবে বিশ্বকাপে তাদের পারফরমেন্স জঘন্য  তখন তারা বলবে ৩২ বছর তো হলো আর কত
হাইতির মতো দলের সাথেই পারবে  আরে কলিজা থাকলে বিশ্বকাপ খেলবে এমন কোন দলের সাথে খেলে দেখুক
এবার আর্জেন্টিনা ফেভারিট
এবারও জার্মানিই ফেভারিট
অভিযোগ করা হয়েছিল পাতানো ম্যাচ খেলে পাকিস্তান ফাইনালে গেছে  তাহলে ভারত হারল কেন  ভারতও কি তাহলে পাতানো ম্যাচ খেলল
ইংল্যান্ড ও পাকিস্তান এর মধ্যকার শেষ ১১ টেস্টের ৮ টিতেই জিতেছে পাকিস্তান
বোল্ট   মাক্লানেগান   এনগিডি   রাবাডা র মতো বোলার খেলে আইপিএল এ  ওরা তো চোটে পড়েনি
আই পি এল এর টাকার লোভেই এত সুন্দর ক্যারিয়ার টা  নস্ট হয়ে যাচ্ছে
এই আইপিএল তো অনেকের ক্যারিয়ার গড়ে দিলো   রাশিদ খান   আম্বাতি রায়ুডু   ভুবনেশ্বর   বুমরাহ   জাদেজা   আন্ড্রু টাই
এমনিতেই বাদ পড়বে টিম হতে  যদিও বলা হবে ইনজুরি
বোল্ট   মাক্লানেগান   এনগিডি   রাবাডা র মতো বোলার খেলে আইপিএল এ  ওরা তো চোটে পড়েনি
আমাদের সাংবাদিক ভাইদের কথা শুনলে আরো গা জ্বলে   
 
সফরের আগ মুহূর্তে বাঁহাতি পেসারকে হারিয়ে বিরাট ধাক্কা খেয়েছে বাংলাদেশ 

খালি খেলেয়াড়দের কিভাবে মনোবল লো করা যায়  
সেই সমস্ত কথা
এ হালায় প্রতিবারই আইপিএল খেলে এসে চোটে পড়ে    বাংলাদেশের হয়ে আর খেলতে পারে না  ওর কাছে কি টাকাই সব
মুস্তাফিজকে নিয়ে বোধহয় মাতামাতি শেষ হওয়া দরকার  সেও আশরাফুলের মতো ঈদের চাঁদ হয়ে উঠছে  ফলে কখন ভালো খেলবে তা  নিশ্চিত করে বলা যাবেনা  আবেগ নয়  আমাদের পা  রাখতে হবে বাস্তবের শক্ত জমিতে
আগেই কেমন সুন্দর হারার কারণ  অজুহাত তৈরী হয়ে গেল  সেটা দেখুন    বাহ্
হে ভাই মহাকাশ  আপনার মহাকাশীয় জ্ঞান দেখে চমকে গেলাম  লা লিগা চ্যাম্পিয়ন লিগ থেকে বেশি সম্মানের না   হা হা হা  আপনার জ্ঞাতার্থে জানাচ্ছি যে  চ্যাম্পিয়ন লিগে বার্সেলোনা তো রিয়ালের ধারে কাছে নাই  এমনকী লা লিগেও বার্সেলোনা রিয়ালের ধারে কাছে নাই  লা লিগা তে রিয়াল জিতছে রেকর্ড 33 টি শিরোপা আর আপনার বার্সেলোনা জিতছে 25 টি শিরোপা  উল্টা পাল্টা মন্তব্য করে কেন হাসির খোরাক হোন ভাই
বার্সেলোনাকে কয়েকটা দান করে দিলেই তো হতো
অপেক্ষাকৃত কম সম্মানের চ্যাম্পিয়নস লীগ না হয় বাদি দিলাম কিন্তু বেশী সম্মানের লা লিগায় বার্সেলোনার এত ট্রফিই বা রাখবে কোথায়
ইংল্যান্ড ও পাকিস্তান এর মধ্যকার শেষ ১১ টেস্টের ৮ টিতেই জিতেছে পাকিস্তান
রোনালদো জাদুর জন্যঃ
পর্তুগাল বেলজিয়াম
পর্তুগাল আলজেরিয়া
আমার বাসায়ও ব্রাজিল   আর্জেনটিনা লড়াই চলবে  কারণ  আমি ব্রাজিল সমর্থন করি আর আমার ছেলে সমর্থন করে আর্জেনটিনা
আর্জেন্টিনা হাইতি ম্যাচটি দেখার জন্য যেমন টিভির ওপর ভরসা করে লাভ নেই
ইসরায়েলের সাথে খেললে আর্জেন্টিনার অনেক জনপ্রিয়তা কমবে  ইসরায়েল পরে সব গুলো ম্যাচ দেখব
মেসির উচিৎ ইসরায়েলের সাথে ম‍্যাচ না খেলা
তাদের পরিশ্রম  তাদের সততা  তাদের দেশপ্রেম  তাদের সাহস এর কারণেই আজ তাঁরা বাংলাদেশকে জেতাতে পেরেছে   অভিনন্দন আমাদের মেয়েদেরকে  তাদের জন্য শুভকামনা রইলো
সঠিকভাবে পরিচর্যা করলে এরা দেশের মুখ উজ্জ্বল করবে ইনশাআল্লাহ্‌
যে সেনাপতি প্রতিপক্ষকে সুপেরিয়র ভাবেন তার সেনাপতির পদ কেড়ে নেওয়া উচিত   তা না হলে জেতার আশা নিয়ে কেও মাঠে নামবে না
টি টোয়েন্টিতে ফেবারিট বা ফেবারিট নয়  এ ধরনের কোনো তকমা থাকে না  আবার বলছেন আফগানিস্তান এই সিরিজে ফেবারিট  এমন স্ববিরোধিতা কেন
এত বছর ধরে খেলে  এত বিনিয়োগ হওয়ার পর আজ আফগানিস্থানকেও ভয় পাই  কি দরকার তাহলে ক্রিকেট খেলে  অযথা করের টাকা নষ্ট
মামা মেজাজ গরম করেন কেন  রশীদ আলোচনায় আসায় হিংসা হবার কোনো যুক্তি নেই  নিজের সেরাটা দিয়ে যান  তাতেই আমাদের চলবে
ঠিক বলেছেন ভাই  এদের পেছনে সরকার ফ্ল্যাট বাড়ি গাড়ি অঢেল টাকা ধেলে খুব অন্যায় করেছে
না বুঝে আন্তাজি তীর মেরে দিলেন
সেনাপতি হয় সৈন্যদলে  আপনার কথা যুদ্ধকালে প্রযোজ্য  এখানে না 
 খেলা বিনোদন থেকে এসেছে  খেলতে হলে প্রতিপক্ষ থাকবেই  তাই বলে  প্রতিপক্ষকে সম্মান না করে কথা বলতে হবে  এটা কেমন ভাব  আসল খেলায় যদি আমরা আফগানিস্তানকে অনায়াসেও যদি হারিয়ে দেই  তবেও সম্মান রাখতে হবে  
সাকিবের অনেক কথাই পরে সত্যি হয়েছে  যেমন  অস্ট্রেলিয়াকে আমরা টেস্টে হারাতে পেরেছি  যেটা সাকিব আগেই বলেছিল
আসলেই আফগানরা আমাদের চেয়ে এগিয়েই থাকবে সামনের সিরিজে
তাই দেখা যায়   তবে এটি রামোসের দোষ ৷ রিয়ালের হয়তো নয় ৷
হাল্কা টোকাতেই মাঠে গড়াগড়ি খেলে বিশ্বকাপে না খেলাই ভাল
রিয়েল জেতার জন্য যে কোন কিছু করতে পারে জানি  কিন্তু আমি স্বপ্নেও ভাবিনি রিয়েল এই রকম একটা প্লেন করে খেলতে নামবে
এটা ঠিক
হে মহা বীর
মহারথী
তোমার জন্য শুভকামনা রহিলো
সার্জিও রামোসের শাস্তি কি হবে না
রিয়াল ফুটবল খেলে না  কুস্তি লড়ে
হুম  আমরা ও আশাবাদী
ফেয়ার প্লের বাইরে এসে কিছুই করে নি  কোনো বোদ্ধা বলেনি সে ইন্টেনসানালি  এটা করেছে  সালাহের স্পিচ আপনি দেখতে পারেন
বাহ্ আপনে তো দেখি সেই লেভেলের বুদ্ধিমান   সবকিছু কত সহজে বুঝে ফেলেন   এবার তো ৪টা দলের পিএসজি  জুভেন্টস  বার্য়ান  লিভারপুল  সাপোর্ট করেও কাজ হল না  তাই পরবর্তী মৌসুমের জন্য অগ্রিম ভাল ব্রন্ডের মলম কিনে রাখেন কাজে দিবে
যারা বলতেছেন ফুটবলকে ভালবাসেন বলেই রামোসের শাস্তি চাচ্ছেন তারা আসলে ফুটবল না বার্সা ভালবাসেন নাহলে বুঝতেন এটা কোন ডিরেক্ট ফাউল ছিলনা  এটা নিছক দুর্ঘটনা এবং খুবই সাধারণ একটা ফাউল  ২০১০ এ ডি জং আলোন্সো কে জেটা করেছিল সেটা ছিল ডিরেক্ট ফাউল  প্ল্যান করা  এটা নয়  দয়া করে বেশি ইমোশনাল না হয়ে ব্রেইন ব্যবহার করুন
প্রথম আলো কে তো ভালোই নিরপেক্ষ সংবাদ পত্রিকা ভাবছিলাম  এখন দেখি প্রথম আলো আমার কমেন্ট মাঝেমধ্যে প্রকাশ করে না  আবার  আংশিকও প্রকাশ করে  যাতে অন্যরা ভুল বুঝে রিপ্লাই দেয়
আমার ক্ষেত্রেও এমন হয়েছে কয়েকবার
সাকিবকে অভিনন্দন  কিন্তু সেই সাথে একথাও বলতে হবে যে নতুন ক্রিকেটার বের হচ্ছে না বলেই সাকিব   তামিম   মুস্ফিক   মাশ্রাফি ঘুরে ফিরে সবসময় বর্ষ সেরা   রানার আপ ক্রিকেটার হচ্ছেন
তবে আমার মতে বর্ষসেরা খেলোয়ার মাহমুদুল্লাহ
আগে বাংলা বানান ঠিক করেন  তারপরে খোঁচা খুঁচি করেন  কারণ বাঙালিতো   নিজে খেলা না বুঝলেও  আরেক জনকে খোঁচা খুঁচি ঠিকই পারেন  মেসির খবর আপনার পড়ার দরকার নেই
মেসি যখন ফরাশগঞ্জ এফ সি এর হয়ে খেলতে আসবে তখন অকে জাতিয় নিরাপত্তা দেয়া হবে তখন আরর ভয় করবেনা
খ্যাতির বিড়ম্বনা
মেসির উচিৎ ছিলো ভদ্রতার খাতিরে হলেও রোনালদোকে দাওয়াত দেওয়া
বাংলাদেশ টিম কি মুস্তাফিজ নির্ভর দল হয়ে গেলো নাকি     নতুন প্লেয়ার তৈরীতে মনোনিবেশ করুন
চোর পালিয়ে যাওয়ার পর বুদ্ধি বেরোয়  এখন এসব ভেবে লাভ নেই  আই পি এল এ কোনো খেলোয়াড় এর যাওয়া বন্ধ করা সম্ভব নয়  ফিটনেস এর উপর জোর দিতে হবে  আই পি এল এ অংশগ্রহণ করে খেলোয়াড় রা অনেক কিছু শেখার ও সুযোগ পায়  বিশ্বের সেরা খেলোয়াড়দের সঙ্গে একই টিমে খেলার সুযোগ পেলে এবং ভালই পারিশ্রমিক পেলে  কেউই সেই সুযোগ খুব সহজে ছাড়বে না
হায়রে মুস্তাফিজ
সত্যি বলতে কি  আপনারা কিছুই করতে পারবেন না   কোটি টাকার খেলা থেকে জোর করে দূরে সরিয়ে রাখতে গেলে প্লেয়াররা রিটায়ার করে ওসব জায়গায় খেলতে চলে যাবে
জার্মানি বিশ্বসেরা দল তা আবার প্রমান করার সময় আসলো
নতুনদের সাথে নিয়ে অভিজ্ঞতা বাড়িয়ে নিন  ২০২২ বিশ্বকাপে পরিবেশের সাথে মানিয়ে নিতে পারলে আপনার আবার ও সেরা হবেন  ২০২০ ইউরোপ সেরা ও হতে পারে জার্মানি  
অভিজ্ঞতা ই সেরা হবার মূলমন্ত্র
পুঁচকে বার্সার ফ্যান তারে একটাই কথা কিং মাদ্রিদ কিং রনালদো কিং রামোস 13 বার চ্যাম্পিয়ন
নেইমারের আঘাত হত্যাচেষ্টা
লিগে ৩ নাম্বার দল  ১০ বছরে দুইবার চ্যাম্পিয়ন    কোপা দেল রে তে পাত্তা না পাওয়া দল   আর যাই হোক কিং হয় না    কিং হতে হলে সব জায়গায় চ্যাম্পিয়ন হতে হয়    একটা কাপ জিতলেই কিং হয় না
আইনজীবী সাহেব আলোচনায় আসতে চান 
কেউ তাকে দুইটা বিস্কুট দেন
খেলায় আহত হওয়া স্বাভাবিক ঘটনা  মিশরীয়দের এতো বাড়াবাড়ি অগ্রহণযোগ্য
সালাহকে ইচ্ছাকৃতভাবে চোটে ফেলেছেন রামোস  এ জন্য তাঁর শাস্তি হওয়া উচিত
হাস্যকর
হাজার বিলিয়ন হোক
সালাহকে ইচ্ছাকৃতভাবে চোটে ফেলেছেন রামোস  এ জন্য তাঁর শাস্তি হওয়া উচিত
রামোসের ট্যাকেল খেলারই অংশ   আবেগ আর বাস্তবতা এক নয়
কেস যে কেউ করতে পারে  অভিযোগ আনা আর দোষী সাব্যস্ত করা এক না   কোনো নামি ফুটবল বোদ্ধা অভিযোগ আনেন নি   এনেছে এক আইনজীবি  অভিযোগ ওদের ব্যাবসা
ক্রীড়া অপরাধী রামোসের বিচার এই ইউরোপের মাটিতেই হবে
বিচার মানি কিন্তু তালগাছ আমার আপনার কথায় এরচেয়ে ভালো কিছু আর খুঁজে পাচ্ছি না ভিডিওতে পরিস্কার দেখা গেছে যে রামোস ইচ্ছা করে তাঁকে ইনজুরিতে ফেলেনি  তবে আপনাদের মতো আর্জেন্টাইন সাপোর্টারদের কাছে এর চেয়ে ভালো কিছু আশা করা যায় না
ব্রাজিল সবসময় ভালো খেলে যাবে  ২০১৮ বিশ্বকাপ নিবে ব্রাজিল
আগের ম্যাচেই স্পেনের কাছে আধা ডজন গোল হজম করা দলটা আজ হাইতির মতো দলের সাথে জিতেই প্রত্যাশা  এবং কনফিডেন্স কতটা বেড়ে গেলো  এই না হলে আর্জেন্টিনা  এদের খেলোয়াড়  সাবেক খেলোয়াড় এবং  সমর্থক সবাই এক রকম
শক্তিশালী একটা দলের সাথে জিতেছে  স্বাভাবিক ভাবে নিজেদের প্রতি বিশ্বাসও একটু বাড়বে
বেটা কুলসারা  তোকে রামোসের পাশে রিয়াল মাদ্রিদে দেখতে চায়
শেষ লাইনটা পড়ে বেশ মজা পেলাম
বার্সার সব ট্রপি গুলো মনে হয় ওর নিজের
এই দল দিয়ে আর যাই হোক বিশ্বকাপ জেতা সম্ভব হবে বলে মনে হচ্ছেনা  তারপর ও মেসি ও আর্জেন্টিনার জন্য শুভকামনা
সরি ড্র  ২৫
মেসি বিশ্বকাপ চান  বার্সায় জেতা সব ট্রফি দিয়ে   আর্জেনটিনার এখন উচিত বিশ্বকাপ খেলা বাদ দিয়া ফিফার কাছে লিখিত আবেদন করা যাতে মেসির বার্সায় জেতা সব ট্রফিগুলোর বদলে ফিফা মেসিকে একটা বিশ্বকাপ দিয়া দেয়  তাহলে ফিফা বিষয়টা ভেবে দেখতে পারে
আর্জেন্টিনার বিশ্বকাপ না জিততে পারা এই ভালো খেলা অব্যাহত থাকুক  তোমরা আর্জেন্টিনার ভালো খেলা দেখে পেট ভর আর অন্যরা ততক্ষণে কাপ দিয়ে ঘর বোঝাই করুক
দেশের আনাচে কানাচে কত মেধাবী মানুষ ছড়িয়ে রয়েছে
হা হা হা হা যথার্থ
ছন্দ আসতে আসতেই সব শেষ
তার জন্য যে তোমার সহযোগিদের একঘেয়েমিতা দূর করতে হবে তাদের খামখেয়ালী ছাড়তে হবে তোমাকেও দিতে হবে সেরাটা
একটা ক্লাব ট্রফির বিনিময়ে একটা আন্তর্জাতিক ট্রফি  
বিষয়টা হাস্যকর হয়ে গেলো না
লীগে ৩৮ ম্যাচে ধারাবাহিক ভাবে পারফর্ম করা অর্জনের থেকে বিস্বকাপের ৭ ম্যাচের শর্টকাট   কিছু লোক কম ম্যাচ খেলে শিরোপা অর্জন কে শর্টকাট মনে করে  শিরোপার মূল্য যে কতখানি বেশী তা মেসি বুঝলেও এদেশের মেসিভক্তকুলের একটা অংশ বুঝেনা  যেমন করে তারা ১৩ ম্যাচের উয়েফা চ্যাম্পিয়নস লীগকে মূল্যহীন মনে করে ৩৮ ম্যাচের লীগ থেকে
আর একবার ছন্দ ফিরে পেলে যেকোন কিছুই ঘটতে পারে
মেসি একজন কিংবদন্তী এতে সন্দেহ নাই তবে অতিরিক্ত মেসি নির্ভরতা আর্জেন্টিনাকে ভোগাবে এটা নিশ্চিত  ইকার্দিকে ঠিক কোন কারনে বাদ দেয়া হয়েছে আর্জেন্টিনার কোচ ভাল জানেন  এই দল নিয়ে কোয়ার্টার ফাইনালে ওঠাই সাফল্য বিবেচিত হবে  তবে দলে একজন মেসি থাকলে অনেক কিছুই ঘটতে পারে
আর একবার ছন্দ পেয়ে গেলে যেকোনো কিছুই তো হতে পারে
সামাজিক যোগাযোগ মাধ্যমগুলোতে আর্জেন্টিনার সমর্থকরা গলা ফাটিয়ে দিনরাত বলছে  যারা শিরোপার সংখ্যা দেখে দল সমর্থন করে তারা বোকা  আশা করি তাদের বসের  তাদের ভাষায়  কথা শোনার পর আর্জেন্টিনার সমর্থকরাও বুঝবে একটি বিশ্বকাপ শিরোপার মূল্য কতখানি
এবার আর্জেন্টিনাই চ্যাম্পিয়ন হবে  মেসি সর্বচ্চ গোলদাতার সাথে সাথে সেরা খেলোয়াড় হবে
ইনশাআল্লাহ্ এবার ভাল কিছু হবে  মেসির উপর ভরসা করা যায়
আর্জেন্টাইন ফ্যানদের তো বিশ্বকাপ লাগবে না  তারা তো আর কাপ দেখে দল সাপোর্ট করে নাই  খেলা দেখে সাপোর্ট করেছে  এইটা যদি মেসি বুঝত  আশা করি এবারো তারা অতীতের মত ভালো খেলে আর্জেন্টাইন ফ্যানদের আনন্দ দেবে এবং কাপ ছাড়া বাড়ি যাবে
যাক বোঝা শেষ   চাইলেই কি বিশ্বকাপ পাওয়া যায় ভন্দু   বাংলাদেশে আসো তোমায় আমি গুলিস্থান থেকে বিশ্বকাপ কিনে দেব
বিনয় যদি চরিত্রের ভূষণ হয়  মেসি নিঃসন্দেহে এই অলঙ্কারে সজ্জিত  শুধু আর্জেন্টিনা বাসীর মুখ চেয়ে তিনি এমন গভীর আবেগ ঢালা কথা বলছেন  কিন্তু তাদের বুঝতেই হবে ফুটবল ১১ জনের খেলা
ঠিক বলেছেন  ও বাদে একটাও জিততে পারতো না  এখনও লীগের 17 18 নম্বরের টিমের সাথে মেসি না থাকলে হারে
৩২ বছর ধরে ছন্দে  এই ছন্দ আর থামছে না   চলছে    চলবেই
আমাদের মত আর্জেন্টিনার সাপোর্টাররা  ডুব মেরে গোবর তুলে আনবো   তবুও ভচ কে একটা বিচ্চ কাপ দেওয়া হোক
এবারের আর্জেন্টিনা দলটা দারুণ  গতবারও ভাল দল ছিল কিন্তু ভাগ্যের কাছে হেরে গিয়েছিল
ব্রাজিল সমর্থকদের সেই এক কথা তারা পাচবার বিশ্বকাপ জিতছে  আরে মুখোমুখি লড়াইয়ে তোদের চেয়ে এক ম্যাচ এগিয়ে সেটা বলবিনা
নেইমার এর বিকল্পটা কে একটু নাম বলবেন
শ্রেষ্ঠ অভিনেতা
সুস্থ ফিট নেইমার ব্রাজিলের জন্য অনেক গুরুত্বপূর্ণ  তবে বর্তমান ব্রাজিল দল আগেরবারের মতো সম্পুর্ন নেইমার নির্ভর নয়  নেইমারের অবর্তমানে তার জায়গায় খেলার মতো বিকল্প ভালো প্লেয়ার আছে
নেইমার যে বলেছে সে ওয়ার্ল্ড কাপের কাপের ১০০  ফিট হয়ে যাবে তা তো লিখলেন না
আমি প্রায় নিশ্চিত নেইমার ১০০   ফিট থাকবে বিশ্বকাপে     কিন্তু ওর  
স্কিল দেখানোর মত কনফিডেন্ট্স হয়ত নাও থাকতে পারে  যার ফলে আমরা হয়ত ওর অসাধার‌ণ কিছু মুভমেন্ট এবং স্কিল বেশি নাও দেখতে পারি
একমত আপনার সাথে   বিকল্প আছে      কিন্তু নেইমার থাকা মানেই বলের দখলে ব্রাজিল আরেকটু বেশিই থাকবে   যা খেলায় পার্থক্য গড়তে পারে
এখন সবাই নেইমার
ম্যাশ ছাড়া বাংলাদেশ দল কল্পনাতেও আসেনা  দল নির্বাচনে দর্শকের ভোট দেয়ার প্রথা চালু থাকলে ২০২৩ বিশ্বকাপেও ম্যাশ নিশ্চিতকরেই দলে থাকবে
শুভ হোক বিদায়ক্ষণ
এগিয়ে যাও বাংলাদেশ
মোস্তাফিজ না থাকাটা আশির্বাদও হতে পারে  উইকেট পাওয়ার তুলনায় যে পরিমান রান দেয় তাতে না থাকাটাই ভাল
নিদহাস ট্রফিতে বাংলাদেশ ৫ ম্যাচের দুটো জিতেছিল  কিছুদিন আগেও টানা হারতে থাকা ইতিহাসের সবচেয়ে দুর্বল শ্রীলংকা দলের সাথে আর দ্বিতীয়  তৃতীয় সারির ভারতের সাথে তিন ম্যাচের তিনটিতেই হেরেছিল এই পারফরমেন্স যদি দুর্দান্ত হয় তাহলে বলার কিছু নেই
ঠিকই বলেছেন  আইপিএলে কোনো এক ম্যাচে ৪ ওভারে ৫৬ রান দিয়ে বাদ পড়েছিলেন পরে শেষ ম্যাচে নামলেও খুব একটা সুবিধা করতে পারেননি
নিদাহাসে শ্রীলংকার বিরুদ্ধে ১৭ ওভারের মোস্তাফিজের কার্টারগুলি কি ভুলে গেছে বাংলাদেশিরা
মোস্তাফিজ থাকলেও লাভ হতনা
মোস্তাফিজ না থাকাই ভালো৷
কামড় দিয়া আর সুয়ারেজ বাঁচতে পারবে না
হাত দিয়ে গোল করে ফুটবল ঈশ্বর হওয়ার দিন শেষ
সৌম্যকে অফস্ট্যাম্পের বাইরের চ্যানেলের বল আবেগ নিয়ন্ত্রনে রেখে খেললেই চলবে
হুম
মাথ ঠান্ডা রেখে পরিস্থিতি আমলে নিয়ে খেলতে পারলে জয় আসবেই
আপনারা সবার কথা ভাবেন  এ জন্যই আপানারা নামবার ওয়ান
আগে বাংলা বানান ঠিক করেন  তারপরে খোঁচা খুঁচি করেন  কারণ বাঙালিতো   নিজে খেলা না বুঝলেও  আরেক জনকে খোঁচা খুঁচি ঠিকই পারেন  মেসির খবর আপনার পড়ার দরকার নেই
মেসি যখন ফরাশগঞ্জ এফ সি এর হয়ে খেলতে আসবে তখন অকে জাতিয় নিরাপত্তা দেয়া হবে তখন আরর ভয় করবেনা
খ্যাতির বিড়ম্বনা
রোনালদো জাদুর জন্যঃ
পর্তুগাল বেলজিয়াম
পর্তুগাল আলজেরিয়া
আমার বাসায়ও ব্রাজিল   আর্জেনটিনা লড়াই চলবে  কারণ  আমি ব্রাজিল সমর্থন করি আর আমার ছেলে সমর্থন করে আর্জেনটিনা
আর্জেন্টিনা হাইতি ম্যাচটি দেখার জন্য যেমন টিভির ওপর ভরসা করে লাভ নেই
ইসরায়েলের সাথে খেললে আর্জেন্টিনার অনেক জনপ্রিয়তা কমবে  ইসরায়েল পরে সব গুলো ম্যাচ দেখব
মেসির উচিৎ ইসরায়েলের সাথে ম‍্যাচ না খেলা
স্পেনের টিকিটাকা বলতে ভুলে গিয়েছিলাম  জ্ঞান বুদ্ধি কম তো   একটু মানিয়ে নিয়েন  কখন কি বলতে কি বলে ফেলি
ও জ্ঞানীরা কত ভাবে বলেন    সম্ভবত খুব কাছাকাছি একটা কথা চলে  বুঝতে সামান্য সময় লেগেছে
ও মা এত্তো সোজা বিশ্বকাপ জেতা  সালাউদ্দিন এই ফর্মূলা দেখলে দেখবেন ২০২২ বিশ্বকাপে কাজে লাগিয়ে দেবে
ব্যাপারটা বলতে গেলে ঠিক উল্টো
ফরমুলা হচ্ছেঃ মেসি  ৯০     ভাগ্য  ১০     শিরোপা
শুধু ছকের গল্প  কিছু শব্দ ভুল হলে শুধরে দিয়েন
  মনে করেছিলাম ব্রাজিলের ছন্দময় ফুটবল জোগো বোনিতা    ইতালীর বিখ্যাত রক্ষণ ক্যাতানেচ্চিও না কি বলে   জার্মানদের হার না মানার মানসিকতা আর যান্ত্রিক ফুটবল  নেদারল্যান্ডসের টোটাল ফুটবল   আর্জেন্টিনার ম্যারাডোনা নির্ভরতা  কোন কোচের নিজের দলের শক্তি দুর্বলতা বুঝে পরিকল্পনা করা এমন কোন রিপোর্টের আশা করেছিলাম
কোনো ফর্মুলা লাগবে না  শুধু জার্মানিকে হারাতে পারবে যে দল তারাই বিশ্ব কাপ জিতবে   প্রমাণ স্বরুপ ১  ২০০২ ফাইনাল ব্রাজিল বনাম জার্মানি  শিরোপা ব্রাজিলের  ২  ২০০৬ সেমিফাইনাল ইতালি  বনাম জার্মানি  জয়ী ইতালি  শিরোপা ইতালির   ৩  ২০১০ সেমিফাইনাল স্পেন  বনাম জার্মানি  জয়ী স্পেন  স্পেনের ঘরে প্রথম শিরোপা   ৪  ২০১৪ ফাইনাল আর্জেন্টিনা  বনাম জার্মানি জয়ী জার্মানি   জার্মানির চার নম্বর শিরোপা জয়
১৯৭৪ সাল থেকেই তো বর্ননা করত হবে   এর আগে থেকে করতে গেলে তো ব্রাজিলের সাফল্যের কথা লিখতে লিখতে কলম কাগজ শেষ হবে সাফল্যের কাহিনী শেষ হবে না
ফর্মুলা অনেক গুরোত্বপূর্ণ বিষয় কিন্তু তার চেয়ে বেশি গুরোত্বপূর্ণ হচ্ছে মাঠে খেলোয়াড়দের সামর্থ্য  যে টুর্ণামেন্টে যারা যত বেশি সামর্থ্যের প্রমাণ রাখতে পেরেছে তারাই শিরোপা জিতেছে  এখানে একটা ফর্মেশনও অজেয় বা অবিসংবাদিত নয়
যেকথাটা উহ্যই থেকে গেল  তা হল যে মহাদেশে খেলা হয়  সেই মহাদেশের দল জেতে না  এমন একটা কথা মনে হয় প্রচলিত আছে
হে ভাই মহাকাশ  আপনার মহাকাশীয় জ্ঞান দেখে চমকে গেলাম  লা লিগা চ্যাম্পিয়ন লিগ থেকে বেশি সম্মানের না   হা হা হা  আপনার জ্ঞাতার্থে জানাচ্ছি যে  চ্যাম্পিয়ন লিগে বার্সেলোনা তো রিয়ালের ধারে কাছে নাই  এমনকী লা লিগেও বার্সেলোনা রিয়ালের ধারে কাছে নাই  লা লিগা তে রিয়াল জিতছে রেকর্ড 33 টি শিরোপা আর আপনার বার্সেলোনা জিতছে 25 টি শিরোপা  উল্টা পাল্টা মন্তব্য করে কেন হাসির খোরাক হোন ভাই
বার্সেলোনাকে কয়েকটা দান করে দিলেই তো হতো
অপেক্ষাকৃত কম সম্মানের চ্যাম্পিয়নস লীগ না হয় বাদি দিলাম কিন্তু বেশী সম্মানের লা লিগায় বার্সেলোনার এত ট্রফিই বা রাখবে কোথায়
বাংলাদেশ ফুটবল ফেডারেশন দুর্নীতিমুক্ত না করতে পারলে কোন সংস্থায় যোগ দিয়ে কাজ হবে না
এসব সংস্থা তৈরী করে কি লাভ  কোনো তো খেলাই হচ্ছে না বছরে এক দুইটা ম্যাচ খেলে লাভ কি
সালাহউদ্দিনের বিদেশ ভ্রমনের সুযোগ আরো বাড়লো
খেলোয়াড়দের প্রতি আমাদের ভালবাসা আমাদের দেশকে কেন্দ্র করে  তারা দেশের হয়ে খেলে বলে আমাদের ভালবাসা পায়
সুনিল নারায়ণ এখন তার আদর্শ শুধু আইপিএল খেল আর ১২ মাস বিশ্রাম নাও
আমি এর ভবিষ্যৎ অন্ধকার দেখতে পাচ্ছি  ও আইপিএল এর অর্ধেক খেলাই খেলেনি  তারপরও চোট
মুস্তাফিজ হলো দেশের সম্পদ যে সম্পদ দেশের কোন কাজে আসে না
হাহাহা হাসালেন  প্লেয়াররা টাকার জন্যই খেলে ঠিকই বলেছেন  স্যালুট আপনাকে
বিদেশী লীগে খেলে চোট পেলে তার দায়দায়িত্ব বিসিবি তথা দেশের জনগণ কেন নিবে
আফগান সিরিজে তাকে রাখলে বাংলাদেশের ক্ষতি ছাড়া লাভ কিছুই হবেনা
কোনরকমে ১ ম্যাচ খেলবেন পরের সাত ম্যাচে বিশ্রাম নিবেন এখন এটাই মুস্তাফিজ
আপনার কথা শুনে মনে হচ্ছে প্লেয়াররা ইচ্ছা করেই খেলে না দেশের হয়ে
আপাতত এর চেয়ে খারাপ খবর আর কী হতে পারে
যাক আমাদের একটা অজুহাত তৈরী হয়ে গেল হারলে বলতে পারবো মুস্তাফিজ না খেলাতে হেরেছি আর যদি এক দুইটা ম্যাচ জিতে যাই তাহলে তো কথাই নেই বিশ্বজয়ের আনন্দ  আমরা নিদহাস ট্রফিতে শ্রীলংকার সাথে দুইটা ম্যাচ জিতেছি কিন্তু দ্বিতীয় তৃতীয়  সারির ভারতের সাথে তিন ম্যাচের তিনটাতেই হেরেছি তারপর ও কি খেলোয়াড়  কি ম্যানেজমেন্ট কিংবা সমর্থক সবাই গলাবাজিতে ব্যস্ত হয়ে পড়েছি আর কোটি টাকার বোনাস তো আছেই
আমাদের দরকার মাশরাফির মতো নেতা যারা খেলবে শুধু দেশের জন্য টাকার জন্য নয়
এভাবে বারবার বাইরের লিগ খেলতে গিয়ে চোট নিয়ে দেশে ফিরে আসা    আর তার খেসারত দিতে হচ্ছে বিসিবি ও জাতীয় দলকে    এ রকম বিদেশী লিগে খেলায় নিষেধাজ্ঞা দরকার
ওনাকে শোপিস হিসেবে রেখে দেওয়া হোক  বাইরের লিগগুলো খেলবে আর দেশের ম্যাচগুলো খেলার সময় ইনজুরী দেখাবে  সত্যই যদি আগেই ইনজুরীতে পড়ত  তবে কেন আইপিএলের মাঝপথে ফিরে এল না
মুস্তাফিজ এর আগেও আইপিএল এ যেয়ে  ইঞ্জুরি তে পড়েছে   মুস্তাফিজ এর উচিত খেলার ও দেশের সারথে আইপিএল এ না যাওয়া
শোকেস এ সাজিয়ে রেখে দেয়া হোক তারে  কাজের কাজ তো কিছুই হয় না একে দিয়ে
যা হবার হয়ে গেলো  মাঝে কিছু নাটক হলো   মজা পাইছি
নেইমারকে হারিয়ে বার্সা এখন পা ভাঙ্গা ঘোড়া  ম্যাচ উইনার কেউ নেই
এবার আর্জেন্টিনা ফেভারিট
এবারও জার্মানিই ফেভারিট
বাংলাদেশ টিম কি মুস্তাফিজ নির্ভর দল হয়ে গেলো নাকি     নতুন প্লেয়ার তৈরীতে মনোনিবেশ করুন
চোর পালিয়ে যাওয়ার পর বুদ্ধি বেরোয়  এখন এসব ভেবে লাভ নেই  আই পি এল এ কোনো খেলোয়াড় এর যাওয়া বন্ধ করা সম্ভব নয়  ফিটনেস এর উপর জোর দিতে হবে  আই পি এল এ অংশগ্রহণ করে খেলোয়াড় রা অনেক কিছু শেখার ও সুযোগ পায়  বিশ্বের সেরা খেলোয়াড়দের সঙ্গে একই টিমে খেলার সুযোগ পেলে এবং ভালই পারিশ্রমিক পেলে  কেউই সেই সুযোগ খুব সহজে ছাড়বে না
হায়রে মুস্তাফিজ
সত্যি বলতে কি  আপনারা কিছুই করতে পারবেন না   কোটি টাকার খেলা থেকে জোর করে দূরে সরিয়ে রাখতে গেলে প্লেয়াররা রিটায়ার করে ওসব জায়গায় খেলতে চলে যাবে
ম্যাশ ছাড়া বাংলাদেশ দল কল্পনাতেও আসেনা  দল নির্বাচনে দর্শকের ভোট দেয়ার প্রথা চালু থাকলে ২০২৩ বিশ্বকাপেও ম্যাশ নিশ্চিতকরেই দলে থাকবে
শুভ হোক বিদায়ক্ষণ
বোল্ট   মাক্লানেগান   এনগিডি   রাবাডা র মতো বোলার খেলে আইপিএল এ  ওরা তো চোটে পড়েনি
আই পি এল এর টাকার লোভেই এত সুন্দর ক্যারিয়ার টা  নস্ট হয়ে যাচ্ছে
এই আইপিএল তো অনেকের ক্যারিয়ার গড়ে দিলো   রাশিদ খান   আম্বাতি রায়ুডু   ভুবনেশ্বর   বুমরাহ   জাদেজা   আন্ড্রু টাই
এমনিতেই বাদ পড়বে টিম হতে  যদিও বলা হবে ইনজুরি
বোল্ট   মাক্লানেগান   এনগিডি   রাবাডা র মতো বোলার খেলে আইপিএল এ  ওরা তো চোটে পড়েনি
আমাদের সাংবাদিক ভাইদের কথা শুনলে আরো গা জ্বলে   
 
সফরের আগ মুহূর্তে বাঁহাতি পেসারকে হারিয়ে বিরাট ধাক্কা খেয়েছে বাংলাদেশ 

খালি খেলেয়াড়দের কিভাবে মনোবল লো করা যায়  
সেই সমস্ত কথা
এ হালায় প্রতিবারই আইপিএল খেলে এসে চোটে পড়ে    বাংলাদেশের হয়ে আর খেলতে পারে না  ওর কাছে কি টাকাই সব
মুস্তাফিজকে নিয়ে বোধহয় মাতামাতি শেষ হওয়া দরকার  সেও আশরাফুলের মতো ঈদের চাঁদ হয়ে উঠছে  ফলে কখন ভালো খেলবে তা  নিশ্চিত করে বলা যাবেনা  আবেগ নয়  আমাদের পা  রাখতে হবে বাস্তবের শক্ত জমিতে
আগেই কেমন সুন্দর হারার কারণ  অজুহাত তৈরী হয়ে গেল  সেটা দেখুন    বাহ্
বাংলাদেশ ফুটবল ফেডারেশন দুর্নীতিমুক্ত না করতে পারলে কোন সংস্থায় যোগ দিয়ে কাজ হবে না
এসব সংস্থা তৈরী করে কি লাভ  কোনো তো খেলাই হচ্ছে না বছরে এক দুইটা ম্যাচ খেলে লাভ কি
সালাহউদ্দিনের বিদেশ ভ্রমনের সুযোগ আরো বাড়লো
হ্যা    আর তখন বার্সেলোনা আপনাকে রেকর্ড ট্রান্সফার দিয়ে কিনে নিয়ে শুন্যস্থান পুরন করবে
পেলে বা মেরাডোনার মানের হতে হলে নেপলির মত দলে গিয়ে খেলুক অার চ্যামপিয়ন করুক  ভাল দলে থাকলে যারা একটু ভাল তারা অার্ ভাল হয়ে যায় যেমন মেসি  পেলে ইউরোপে না খেলেও তিন বারের ওয়ারলড চেমপিওন পেলে ১০০ তে ১০০ পাবে  মেরাডোনা ১০০ তে ৩০ পাবে অার মেসি  ১০০তে ১০ পাবে  এটা ১০০০০০০০  সত্য
খুব বেশি নাচতেছেন  আপনার জারমানিরে এইবার ব্রাজিল খালি পাইয়া নেক  ইনিএস্তা মেসিরে ভালমত ৩০ টা অ্যাসিস্ত অ করে নাই  আর মেসির সবচেয়ে বেশি সোলো গোল
যদি ফুটবল ভালবাসেন তাহলে মেসির খেলা আপনাকে ভালবাসতে হবে
ফরাশগঞ্জে অথবা ধানমন্ডি যেখানেই আসে আসুক  কিন্তু মেসি এখানে এসে যদি বলে ইনিয়েস্তা আল্ভেজ ছাড়া গোল দিতে পারবে না তাহলে কিন্তু সমস্যা
যারা ফুটবল ভালোবাসে   খেলে এবং দেখে   তাদের পক্ষে মেসিকে ভালো না বাসার কোন কারণ নেই    এটা সে আদায় করে নিয়েছে তার
বাসায় যাবে
শেখ জামাল ধানমন্ডি ক্লাব লড়বে মেসিকে পেতে ফরাশগঞ্জের সাথে
ফরাশগঞ্জ এফ সি তেই মেসিকে মানাবে হালি হালি গোল দিতে পারবে ইনিয়েস্তা এর এসিস্ট ছাড়া
সামান্যতম মনুষত্যবোধ থাকলেও এ কথাগুলো কোন মানুষের পক্ষে সম্ভব না
মেসি কখনই বার্সেলোনা ছেড়ে যাবে না  কারণ  অন্যকোন দলে খেললে সে কখনই বিশ্বসেরা হতে পারবে না  পারতো না  রোনালদো  নেইমার কিন্তু বিশ্বের বিভিন্ন লীগে খেলে নিজেকে প্রমাণ করেছে  যা মেসি পারেনি
আমি রোনালদোর ফ্যান এবং বিশ্বাস করি রোনালদোই বিশ্বের সেরা ফুটবলার  কিন্তু ফুটবলকে ভালবাসলে মেসিকে ভালবাসতেই হবে  অনন্য অসাধারণ এক প্রতিভা
মেসি বার্সা ছাড়বে না  কারণ মেসি বার্সার কাছে ঋণী তাই ছাড়ার প্রশ্নই উঠেনা
মেসির গোলের এসিস্ট বেশি ভাগ হচ্ছে আলভেজ থেকে  তাছাড়া মেসির এসিস্ট থেকে তো অনেক গোল হয়েছে সেটা কি দেখেন না
কিছু কিছু ব্রাজিল  রিয়ালের আর নোনান্ড আবাল মার্কা সাপোর্টারদের জন্য খুব কষ্ট হয়  মাথায় বিবেক বুদ্ধি থাকলে এ ধরনের কমেন্ট অত্যন্ত মানুষের কাছ থেকে আশা করা যায় না
একটা বিষয় বোধগম্য না প্রথম আলো সমস্যা কোথায় মেসিকে নিয়ে কিছু লিখলে সেটা এডিট করে পাবলিশ করে এর কারণ কি   কিন্তু মেসিকে নিয়ে খোঁচা মার্কা কিছু লিখলে সেটা সবার আগে পাবলিশ করে
বিশ্বের প্রায় সব গ্রেট প্লেয়ার ক্লাব বদল   লিগ বদল করেই গ্রেট প্লেয়ার হয়েছেন
একটু জ্ঞান অর্জনের চেষ্টা করেন  অযথা হাসির পাত্র হয়েন না
যার চেনা জানা পরাশগঞ্জ পর্যন্ত সে তো চাইবেই বিশ্বের সব নামি দামি ফুটবলারকে  পেলে  ম্যারাডোনা  মেসি  রোনালদো  পরাশগঞ্জে নিয়ে আসতে 
ভয় হয়  কখন আবার বলে বসে  বিশ্বকাপটা পরাশগঞ্জের মাঠে আয়োজন করতে হবে
আমরা  ডুব মেরে  মেরে  গোবর তুলে আনবো   তবুও ভচ কে একটা কাপ দেওয়া হোক
ঠিক বলেছেন   কিন্তু ১০০ তে ৩০ আর ১০ একটু কমই হয়ে যায় 
নিস্বন্দেহে মেরাডোনা এবং মেসি অসাধার‌ণ প্রতিভা    
কিন্তু পেলে ইজ পেলে        তার স্কিল এবং মুভমেন্ট গুলো ছিল সহজাত এবং সেই প্রথম এতো সহজে সেগুলো করে দেখাতো
