রাজ্য যাক  রাজ যাক 
বেঁচে থাক রাজ্জাক
শুভ কামনা রইল
বৃষ্টিকে দিয়ে জয়যাত্রা  কিংবা গেরিলা টাইপের সিনেমা করানো যাবে
বেশ কিছুদিন আগে দেখেছিলাম শিশু জিহাদকে গভীর পাইপের ভেতর থেকে উদ্ধারের শোডাউন 
মিডিয়া সৃষ্ট  সেই শোডাউন শিশু জিহাদকে উদ্ধার করতে পারেনি  পেরেছিল সাধারন জনগন
সেই একই কায়দায় রোহিঙ্গাদের নিয়ে তামাশা শুরু হয়েছে
মায়ানমান হতে তাদের বিদেশী মদদে বাংলায় ঢোকানো হল  এখন আলগা পিরিত দেখানোর জন্যে সবাই দৌড়ঝাপ পারে কেনে  পারলে ভাই রোহিঙ্গাকে ওদের বাপদাদার ভিটেয় ফেরত করেন না  দেখি কত হেডম  তাদের পরিদর্শন করা দরকার নাই
আপনার যাত্রা শুভ হোক এবং রোহিঙ্গারা যাতে তাদের নিজ মাতৃভূমিতে যেতে পারে সে ব্যাপারে ব্যবস্থা গ্রহণের জন্য জাতিসংঘের কাছে আপনি আমাদের হয়ে বিশেষভাবে অনুরোধ করবেন
দেখতে এসেছন শুধু নাকি কোন ম্যাসেজ নিয়া যাবেন দেশে  ভারতসহ বহি বিশ্বকে একটু বলুন যে বাংলাদেশ কতটা সমস্যায় আছে  মিয়ানমার এতবড় দেশ এই ক জনের ঠাই হয় না
বাঙ্গালি কাঁকড়ার গল্প আমরা শুনেছি  আমরা কোনো খবরকে ইতিবাচক ভাবে নিতে পারি না কিছু পেলেই হলো অমনি তার দোষ ত্রুটি ও গালি শুরু  অপর দিকে    বিচের ছবি দেখলেও ওরা গালি না দিয়ে অন্য মন্তব্য করে  আমরা কি কিছু ভোলো ভাবে নিতে শিখব না
ধন্যবাদ প্রিয়াঙ্কা চোপড়া যে আপনি আমাদের এই গুরুত্বপূর্ণ সমস্যা নিয়ে ভাবছেন এবং এই বিষয়টি নিয়ে যে বিশ্বের ভাবা উচিৎ তাও মনে করিয়ে দিয়েছেন
এই  অসহায় রোহিঙ্গাদের নিয়ে ভালই তামাশা শুরু হয়েছে  সমস্যার সমাধান যারা করতে পারবে তারা এ সমস্যাকে আরো বাড়িয়ে তুলছেন  ওদেকে কিছুই যারা করতে পারবেনা তারা বারংবার আসছে রোহিঙ্গা শিবিরে  এসে বার বার আশার বাণী শুনিয়ে যাচ্ছেন  এ অসহায় মানুষদের সাথে তামাশা বন্ধ করুন
এ সফরের জন্য তোমায় ধন্যবাদ প্রিয়ংকা
প্রিয়াঙ্কা চোপড়া লিখেছেন   রোহিঙ্গা উদ্বাস্তু ক্যাম্পে যাচ্ছি  আমার ইনস্টাগ্রামে সেখানকার সব অভিজ্ঞতা শেয়ার করব  এই বিষয়টি নিয়ে বিশ্বের ভাবা উচিত  ভাবতে হবে আমাদেরও   ধন্যবাদ
বাঙ্গালি কাঁকড়ার গল্প আমরা শুনেছি আমরা কোনো খবরকে ইতিবাচক ভাবে নিতে পারি না কিছু পেলেই হলো অমনি তার দোষ ত্রুটি ও গালি শুরু  অপর দিকে নুড বিচের ছবি দেখলেও ওরা গালি না দিয়ে অন্য মন্তব্য করে  আমরা কি কিছু ভোলো ভাবে নিতে শিখব না
জাতিসংঘের শিশু তহবিলের  ইউনিসেফ  শুভেচ্ছাদূত হিসেবে বাংলাদেশে এসেছেন তিনি
গান বাজনার সাথে যুক্ত অনেক বেক্তির মৃত্যু স্বাভাবিক হয় না  কেউ আত্মহত্যা করে  কেউ মারা যায় অতিরিক্ত মদ্যপান বা ড্রাগের কারনে  কেউ মানসিক রোগ   অবসাদে ভুগে  কেউ বা অতিরিক্ত ঔসুধ খাওার কারনে  অনেকের আবার সঠিক কারন খুঁজে পাওয়া যায় না বা গোপন রাখা হয়
হ্যারি এইটা কি মেয়ে পছন্দ করছে   এই মেয়ের চেয়ে তার মা ও ভাবী হাজার গুন বেশী সুন্দরী   হলিউডে অভিনয় করে বলেই  বিশাল কিছু হয়ে গেল
যতদিন ৩ খান বেঁচে আছেন  বলিউড এ আর কারো ভাত নাই
মাকাল ফল একটা   নায়িকাদের আলোতে আলোকিত হতে হয়
মেধা আর যৌনতার সংযোগটা অসহনীয় রকম বিব্রতকর ও গা শিউরে ওঠার ব্যাপার  কি করে জানবেন কার ভেতর কি বাস করে  কখন সে মানব থেকে প্রবৃত্তির দানব হয়ে যায়  অথচ সেই পিয়ানিস্টের পিয়ানো বাজায়  মানুষকে পরিবারের বন্ধনে আপ্লুত করে
ভারত বাংলাদেশের নায়ক রাজকে সম্মানিত করছেন  আর আমরা
বাংলাদেশের নায়কের নামে ভারতীয়রা এওয়ার্ড দিচ্ছে     এখানে ঋতুপর্ণাকে না এনে বাপ্পাকে রাখা যেত না
অরিজিৎ সিং এর গায়কীতে রবীন্দ্রসঙ্গীত  মেনে নেয়া কঠিন বললে কম বলা হবে আসলে
ক্রিস্টোফার নোলানের ইন্টারস্টলার দেখে মুগ্ধ হয়েছি   আর ২০০১  আ স্পেস অডিসি দেখে চিন্তা করার ক্ষমতা হারিয়েছি  সত্যিকার অর্থে চিন্তা করার হাজারো রাস্ত তৈরি হয়েছে   মাথায় গেথে যাওয়া একটা সিনেমা
বিয়েতে আমায় বলবে না
বোনকে ব্যাংক থেকে ঋণ নিয়ে বিয়ে না দিয়ে তাকে নিজের পায়ে দাঁড়াতে সাহায্য করা উচিত ছিল  তাছাড়া যে বিয়ের জন্য ব্যাংক থেকে ঋণ নেওয়ার প্রয়োজন হয়  সেটা কোনো সম্মানের বিয়ে না
একদম ঠিক বলেছেন ভাই
জন আব্রাহামের পাশে দাড়ালে সালমান কে একটা বাচ্চা র মতো লাগে  জন কে যদি ২য় লিড রোলও  দেয়া হতো  তবুও ফোকাস টা জনের উপরেই আসতো  আর জন শার্ট খুললে সালমান আর নিজের শার্ট খোলার সাহস পেতোনা  তাদের দুজনের সম্পর্ক শীতল হলেও এই দিক গুলিই জনকে না নেয়ার কারণ
জন তো অনেক ভাল
এই জগতের বেশিরভাগ মানুষের জীবন নাটকের চেয়ে বেশি নাটকীয়  কে কখন কাকে বিয়ে করে  আর কার বিয়ে কখন ভাঙ্গে তার ঠিক নেই  নাটকের পাশাপাশি এই ভাঙ্গা গড়া আমাদের জন্য দারুন বিনোদনের ব্যবস্থা করে
কি সুখীই না এঁরা
শুভেচ্ছা
জীবন একটাই তা সত্য  তবে মানুষের জীবনে ভালবাসা কোন ট্রায়ার এন্ড এরোর মেথড নয়
তাঁহারা বিবাহ করেন বিবাহ ছাড়াছাড়ি করিয়া হাফ ছাড়িবার জন্য       আমরা করিলেই দোষ
চাঁদনী  আর দেবাশীষ বিশ্বাস বিয়ে করলে মনে হয় হিসাব টা মিলে যেত
আপনাদের জীবনটাই একটা নাটক 
অস্বস্তিকর      😞😞😞
এসব ২য় বিয়ের নিউজ না করলে হয়না    
সমাজ এদের কাছ থেকে কি শিখবে   

একটু ভেবে দেখবেন
এদের খবর চাই না
অনেক হইছে ভাই  আর কত
এদের জীবন কতই না রঙিন
ফুকরে  তামাচে  মাসান এ তার অভিনয় ছিল অসাধারণ
সোজাসুজি কথা  ভাল লাগলো
সেই রকমের টাকা দিলে ঠিকই কমার্শিয়াল ছবিতে চলে আসবে
আহারে জয়া  কত মিষ্টি এবং তুখোড় একজন অভিনেত্রী ছিল    কেমন যেন হয়ে গেছে  মোটেই ভালো লাগে না আর
কোন দেশের মিডিয়াতে   হার্ভি  রা নাই   মিডিয়াতে  হার্ভি  দের সংখ্যাই ৯৯     এটাই বাস্তবতা
শুভ কামনা রইল
বৃষ্টিকে দিয়ে জয়যাত্রা  কিংবা গেরিলা টাইপের সিনেমা করানো যাবে
আমাদের অনেক গানের সুরই ভারত  পাকিস্তান বা অন্য কোন দেশের থেকে চুরি করা
খুব ভালো করে খোঁজ নিয়ে দেখা গেছে  আইয়ুব বাচ্চুর গানটির স্বত্তাধিকারী তিনিই  নকল গানের স্বত্তাধিকার নিবন্ধন হয় না  শিল্পীর দাবিই মুখ‍্য  পাঠক বা অন্য জন এর বিশ্বাসে কিচ্ছু এসে যায় না
কিন্তু কোন চুরিই সমর্থন করি না
সুর চুরিতে ভারত সবার উপরে
ওরা সুর তৈরি করা ক্ষমতাও এখন হারিয়েছে       
ভাইসাব ওদের কাছে অন্তত গানের ব্যাপারে আপনারা শিশু
সম্প্রতি একটি হিন্দি গান বেশ জনপ্রিয় হয়েছে   আজ ফির তুমপে ইয়াদ আয়ি হ্যায়  সত্তর দশকের জনপ্রিয় গান   চোখের পলক আর না পড়ে  এর সুর নকল করেছে
বাংলাদেশের সুর চুরি নিয়ে যখন বাংলাদেশের মিডিয়াগুলো হৈচৈ শুরু করে তখন এটা আমার কাছে বিরাট জোকস মনে হয়  কারণ সুর গল্প ইত্যাদি চুরিতে বাংলাদেশের চেয়ে পৃথীবির আর কোন দেশ এগিয়ে আছে বলে আমার কাছে মনে হয় না
রাকিবুল ইসলাম ইউটিউব চ্যানেলের নাম  উনি অন্য কোনো চ্যানেল থেকে ডাউনলোড করে পুনরায় আপলোড করেছিলেন  শিল্পির নাম ইফতেখার আনাম  উনি ভালো ভাবে ক্রেডিট দিয়েছেন  কিন্তু আমার মনে হয়না পাকিস্তানের কোম্পানিটি আইয়ুব বাচ্চু তো নয়ই ইফতেখার আনাম কেও ক্রেডিট দিয়েছে
আসলে আমার দেয়া তথ্যে ভুল আছে  ক্ষমা চেয়ে নিচ্ছি  মাইলসের একটি গান তাদের অনুমতি ব্যাতিরেকেই নেয়া হয়েছিল
নিজের এলাকার দৃশ্য সিনেমাতে দেখার ব্যপারটি খুবই উত্তেজনাপূর্ণ হবে আশা করি  পাইকগাছা  রাড়ুলী  কপোতাক্ষ নদ এই অঞ্চলেই যে আমার বেড়া ওঠা
আমার এলাকা
যে ছবি আজও জীবন্ত  যার ছবি আঁকা আছে লাখো কোটি ভক্তদের হৃদয় মাঝে  সে আর কে হতে পারে তুমি ছাড়া  হে অমর নায়ক সালমান শাহ্   

হ্যা সালমান  অন্য সবাই তোমাকে মন থেকে মুছে ফেললেও  ভক্তদের হৃদয়ে তোমার যে ছবি আঁকা রয়েছে  তা মুছে যাবেনা কোন দিনও  ভক্তদের ভালোবাসায় তুমি অমর হয়ে থাকবে সারাজীবন
মৃত্যুর প্রায় ১৩ বছর পরও সালমান শাহ্‌র ইমেজটা টিকে আছে  
১৩ বছর না  প্রায় ২১ বছর
আপনি তো বিরাট এক জন অভিনেতা
ছোটবেলায় শিখেছিলাম  মহিলা বন্ধুকে বান্ধবী বলা হয়  এখন দেখি সবাই বলে সে আমার ভালো বন্ধু  অবশ্যই মেয়ে   বন্ধু  বান্ধবী  কখনই স্ত্রীর আসন পেতে পারে না  আর স্ত্রী কখনই বান্ধবী বন্ধু হতে পারে না  দুটো সম্পর্কের আলাদা মহিমা আছে  হাঁস মুরগির প্রেম আর মানুষের জীবন সংসার এক না  জীবনকে চিনতে পারার মাঝেই সার্থকতা  ফেসবুকে নয়
দেশি নায়িকার হিরোইন হওয়ার দরকার নাই ৷
দেশে আমাদের আর কোন চর্চাযোগ্য বিষয় নাই    এগুলোই চর্চা করেই সময় অতিবাহিত করি
টাকা গাছে ধরলে যা হয়
ভুল তথ্য বেশির ভাগ

হ্যাপি নিউ ইয়ার পুরো ছবির জন্য ৮ কোটি টাকা নিয়েছিলো   শুধু লাভলি গানটার জন্য নয়
খুবই গুরুত্বপূর্ণ তথ্য  দেশের নায়িকাদের দৃৃষ্টি আকর্ষন করছি যেন তারা অভিনয় ছেড়ে আইটেম গান বেশি বেশি করেন
লুল হাহাহাহা
হা হা হা এমন যত্ন দিয়ে কাজ করেন যে নাটকের গল্প বা চরিত্র কিছুই মনে নাই  মজা লাগলো
সেলফি তোলা একটা রোগে পরিণত হচ্ছে   এখন উনি যদি সেলফি তোলার কারনে টাকা নিয়ে থাকে তাতে দুইটা কাজ হচ্ছে  ১  উনি এই টাকা পরউপকারে লাগাচ্ছে   ২  সেলফি রোগীদের সংখ্যা কমবে কারন টাকা দিয়ে সেলফি তুলতেতো গায়ে লাগে
পাক্কা ব্যবসায়ী
এসব নাটক কখন হয়  আমিতো টিভি খুললেই দেখি খবর  টকশো আর বিজ্ঞাপন
ভাই মনের কথা বলেছেন  টিভি খুল্লেই দেখি ভাঁড়ামি  এগুলো কখন হয়
আমার তো ঘুম তাই হারাম হয়ে যাচ্চিল চিন্তায়  ধন্যবাদ প্রথমআলো
ভারতের অনেক সাধারন মানের পত্রিকাতেও এইসব খবর ছাপা হয়না
শেষ পর্যন্ত পোষাক ফাঁস  এই ফাঁসাফাঁসির তালিকায় ভবিষ্যতে আর কী কী আসবে কে জানে  তবে প্রশ্ন ফাঁসে আমরা যথেষ্ট নাম কুড়িয়েছি এখন কিছুটা বিশ্রামে আছি
হা হা হা
তাদের পারিবারিক জীবন কীভাবে বিনোদনের পাতায় জায়গা পায়
আম্মু আম্মু  আমি না টিভিতে দেখেছি আমার মতো আরেকটা মেয়ে তোমাকে আম্মু ডাকছে
আব্বু নায়কদেরও আলোচনা হওয়া উচিৎ
শাকিব খান এর ব্যপারে তেমন কিছু লিখলেন না 
আব্বু নায়ক রা কোথায়
আশ্চার্য   আম্মু নায়িকাদের গ্লামার কুমারী নায়িকাদের চেয়েও অনেক সুন্দর
ভারতে এলে এরা একেকজন বলিউড তারকাদের ভক্ত হয়ে যায়  মুখ দিয়ে মিষ্টি মিষ্টি কথা ঝরে আর প্রথমআলো তা ফলাও করে প্রচার করে  আর বাস্তবে চেহারা চেনে না  হা হা
শাহরুক খান এক মাত্র যাহাকে সারা বিশ্ব চেনে
এখানে মাত্র দুইটা ছবি  খুবই সুন্দর
এমন জীবন্ত চোখের ছবি আমি এর আগে কখনো দেখিনি  কি নিষ্পাপ চাহনি   তাও আবার কিনা তুলির আঁচড়ে
নাটকের অভিনেতা অভিনেত্রী  গানের গায়ক গায়িকা এই চারজন আসলেই ২০১৭ সালের সেরা হওয়ারই যোগ্য বড় ছেলের নাটকটা যেমন অসাধারণ তেমনি অভিনেতা অভিনেত্রীর অভিনয়ও অসাধারণ 

আর স্বত্বা ছবির গান দুইটা হবেই তো অসাধারণ জেমস আর মমতাজের গাওয়া গানই সেরা
সব ছবি দেখবো
ইরফান খানের আরোগ্য কামনা করছি  আপনি ফিরে আসুন  আরো অনেক অনেক শিল্পসম্মত ছবি আপনার হাত ধরে সৃষ্টি হোক
আরো তথ্য দিলে ভাল হতো
ওরা যদি সেরা সুন্দরী হয়ে যায়    দেশের বাকি নারীদের কি বলে সম্বোধন করা হবে   অসুন্দর নাকি কম সুন্দর নাকি বিশ্রী
সেরা সুন্দরীর পুরষ্কার দেয়া হয় আমাদের দেশে  সেরা সেরা মেধাবী মেয়েরা অন্ধকারে থাকে সারাজীবন  সেরা সুন্দরী নির্বাচন করে দুই একটা ফালতু নাটকের অভিনয় দেখতে চাই না  সেরা মেধাবী মেয়েদেরকে সুযোগ দিয়ে  স্বীকৃতি দিয়ে মেধা দিয়ে দেশকে এগিয়ে নিতে চাই
বিচারকদের ধন্যবাদ তারা সঠিক সিদ্ধান্ত নিয়েছে  অথৈতো বিচারকদের কোয়েশ্চনই বুঝে নাহ  বৃষ্টি গানের লিরিক ভুলভাল বলে  মানতাশাই সব দিক থেকে ট্যালেন্ট  ও একটা পাবলিক বিশ্ববিদ্যালয়ে পড়ছে লুকস ওসাম অপরদিকে ওরা এভারেজ
ভালইতো  খারাপ কি
স্বচ্ছ অন্তরের কথাই তো পরিস্ফুটিত হয়েছে  সমস্যা কোথায় ভাই
☺☺☺☺
আয় তব সহচরী হাতে হাতে ধরি ধরির বদ্লে সে যদি ও প্রিয়া তুমি কোথায় বলতো তবেইনা আপনার আফসোস মানাতো
কত আজব আজব মানুষ যে আছে এই দুনিয়ায়
যেখানেই ক্যামেরা ও অ্যাটেনশন সেখানেই কোনো না কোনোভাবে প্রিয়াঙ্কা চোপড়া উপস্থিত থাকবেন এটা তো নিয়ম হয়ে গিয়েছে
গুড
কি আর করবেন  হাতীর কাছ থেকে যদি একটু প্রকৃত ভালবাসা পাওয়া যায়  একেবারে নিঃস্বার্থ ভালবাসা যাকে বলে  বেচে থাকুক এই ভালবাসা
মাই হার্ট
২০০০০ পাথর লাগানো কাপড়
একজন রূপবতী মানুষের আসন্ন বৃদ্ধকাল
যে অংশ পড়া যায়না সেটা জুড়ে দিয়ে লাভ কি  সব যায়গায় কি আর ২০ জন বাহক পুচ্ছ ধরার জন্য পাওয়া যাবে  ই রেকর্ডের মুল্য কি
ফালতু রেকর্ড গড়ার জন্য আমরা খুব এক্সপার্ট
যত্তসব ন্যাকামি ছাড়া আর কিছুই না
এটা শুধু রেকর্ড গড়ার জন্যই বানানো হয়েছে   নাকি এই শাড়ি বাণিজ্যিকভাবে বাজারে ছাড়া হবে  মহিলারা কি এই শাড়ি পড়তে পারবে বিভিন্ন অকেশান গুলোতে
অভিনন্দন
প্রথম আলোর কাছে অনুরোধ দয়াকরে প্রিয়াঙ্কা চোপড়ার আর কোন ছবি ছাপবেন না   
কারণ আমার বয়স হয়েছে এত সৌন্দর্য চোখ দিয়ে দেখার মতো অবস্থা আর নেই
কাস্টিং কাউচ
সে কাস্টিং কাউচের সুবিধা নিয়েছে এতে কোন সন্দেহ নাই
বেশ সাহসী আমাদের সাদিয়া নাবিলা
আরও অনেক সাফল্য কামনা করি
আমার প্রিয় একজন অভিনেতা  ছেলেবেলা থেকে যার অভিনয় সবসময় মুগ্ধ করেছে 
শুভ জন্মদিন মি  পারফেকশনিস্ট 
ওপারে ভালো থাকবেন
আমার অদেখা গুরু  আমরা ওনার সবটুকু নিংড়ে নিতে পারি নাই  আসলে তিনি সময়ও দেন নাই বেশী  শুভ জন্মদিন ভাল থাকবেন দাদা
আমার দেখা বাংলার শ্রেষ্ঠ অভিনেতা  ছোট বেলায় তার ছবি দেখতেই সবচেয়ে আনন্দ পেতাম
তিনি গ্রেগরি পেক এর চেয়েও ভালো অভিনেতা ছিলেন
বাংলাদেশের যেমন হুমায়ুন ফরিদী  ঠিক তেমনি  আমেরিকার গ্রেগরি পেক  
কুর্নিশ ও শুভেচ্ছা এই শতকের শ্রেষ্ঠ অভি  নেতার  জন্মদিনে
উপমহাদেশে হুমায়ূন ফরীদি মানের কোন অভিনেতা কখনো আসেনি  আর আসবেও না  একশ বছর আর পাঁচশ বছর না  সারা জীবনে হুমায়ূন ফরীদি একজনই হয়  আফসোস তাকে আমরা ঠিকঠাক ব্যবহার করতে পারেনি
শ্রদ্ধাঞ্জলি
আর্টিকেলটি অসাধারণ হয়েছে  কিন্তু অনেক ছোট উনাকে কোনো শব্দ দিয়ে বিশেষায়িত করা যাবে না উনার প্রতিটি চরিত্রে অভিনয় ছিল মনোমুগ্ধকর  খুব মিস করি  শুভ জন্মদিন
ত্রই মানুষ গুলো কেনোই বা  আসে আর কেনোই বা আবার চলে যায় যদি থাকত অন্ততকাল ধরে তবে পৃথিবীর কি ত্রমন ক্ষতি হতো
তিনি বাংলার শেষ হুমায়ুন  মাত্র ৩টি হুমায়ুন ছিল আমাদের   সবই শেষ  একশ  বছরেও আর কোন হুমায়ুন আসে কিন সন্দেহ  শায়ের খানের আবেগঘন এ লেখাটিতে কিংবদন্তী হুমায়ুন ফরিদীর মাত্র এক চিলতে পাওয়া যায়  শ্রদ্ধাঞ্জলি
শুভ জন্মদিন ফরিদী ভাই  আপনি আছেন  আপনি থাকবেন  
হুমায়ূন ফরিদী  আল বেরুনী হল  জাহাঙ্গীরনগর বিশ্ববিদ্যালয় এবং আমি একই মালায় গাঁথা   ধন্যবাদ খান ভাই  সুন্দর লেখনীর জন্যে
হুমায়ুন ফরিদী একজন মানুষ একটি মহাকাল  ক্ষণজন্মা এক কিংবদন্তি  কি যে ভালো লাগে লোকটাকে  কি ভয়ংকর খুনী  কি প্রেমিক পুরুষ  কি নোংরা ধর্ষক  কি রাজাকার  কি ভালো মানুষ এর চরিত্র  আমি তার ক্যারেক্টার অনুকরন করতাম  তার মতো করে অভিনয় করার চেষ্টা করতাম  আমার কাছে সে চিরন্তন হিরো
হুমায়ূন ফরিদীরা বারবার আসেনা ওরা একজনই হয় 
হুমায়ূন ফরিদী আমার দেখা শ্রেষ্ঠ অভিনেতা তার মতো এমন অভিনয় শিল্পী বিরল  আজকের এই দিনে শ্রদ্ধার সাথে স্বরণ করছি তাকে  লিখাটা পড়ে ভালো লাগলো ধন্যবাদ লেখক
হুমায়ূন ফরিদী মানেই   চুল পাকলে বুদ্ধি বুদ্ধি বাড়ে   সহ কানে শুনতে পাওয়া অহরহ বিখ্যাত ডায়লগ 
যেখানে আছেন  ভালো থাকেন 
জন্মদিনে শ্রদ্ধা ও ভালোবাসা
মাম্মি  সিরিজ এর সহ অভিনেতা ব্রেন্ডন ফ্রেশারের সাথে না র‍্যাচেলের ইটিশ পিটিশ ছিল
সুন্দর
প্রিয়াঙ্কা চোপড়ার এ সফর  একটা যুগান্তকারি সফর  ধন্যবাদ  প্রিয়াঙ্কা
প্রিয়াংকার মত সকল চলচিত্র অভিনেতা বিশিষ্ট  শিল্পপতি রহিঙ্গাদের পাশে অাশা উচিত অামি মনে করি
না তাকে আমার মোটেও পছন্দ হয়নি
তাঁর পেশাটা সন্মানের
অপরাধীর সাজা হওয়া উচিৎ  কিন্তু ভারতে গরুর জন্য মানুষ হত্যা করলে তার কোন বিচার হয় না
একটু বেশি বাড়াবাড়ি
যেমন কর্ম তেমনি ফল  সাজা আরও বেশি হওয়া উচিত ছিল
হরিণ নিয়ে মাতামাতি সোনার হরিণকেও হার মানাচ্ছে
বাংলা সিনেমার অবিসংবাদিক নায়িকা সুচিত্রা সেন বলিউডে গিয়ে সুবিধা করতে পারে নি   বোঝাই যাচ্ছে প্রিয়াংকা ও দিপীকার সে রকমই হবে
এদের বিয়ে আর ডিভোর্স সবই আলোচনায় আসার জন্য
চিরায়ত লাবণ্যময়ী বাঙালী রমণী ছবিটি অপূর্ব সুন্দর
বাংলাদেশে আমার পছন্দের অভিনেত্রী
তার হাসি দাত দুইটাই খুবই ভালো লাগে
দিব্যা সিনহা মিম আমার ভাষায় বিশ্ব মানের নায়িকা   তিনি বাংলাদেশের গর্ব
বিয়ে করেননি  তাতে কী     এটা ভালো ছিল
বড় ছেলে  আরিফিন শুভ  আজাদ আবুল কালাম
তারকা জরিপে আমার ৭টা ভোট ই সঠিক হয়েছি এখন আমার কথা হলো আপনাদের যে লটারির মাধ্যমে পুরস্কার দেওয়ার কথা সেটা কবে হবে
ববির সবগুলিতে শুধু খোলামেলা পোশাকের প্রদর্শনী   এর  মধ্যে    আই ডোন্ট কেয়ার   ছবিতে আর সম্প্রতি   পার্টি পার্টি   গানে ববির চরম খোলামেলা 
দৃশ্য ছিল লজ্জাজনক     এগুলিতে কোন সেন্সর হয় না     বরং দোষ হয় শুধু দ্বিতীয়  সারির নায়িকাদের
শুরু হল সুপার হিরোইনদের যুগ  হলিউড মজে আছে ওয়ান্ডার ওমেনে আর আমরা বিজলীতে
অন্যদের বিনোদন দিতে গিয়ে আজ তার এই পরিণতি  খারাপ লাগলো
এক সময় না এক সময় নিয়তির কাছে সমর্পিত হতেই হয়
এ ধরণের উদ্ভট খবর      পত্রিকায়ই ছাপা হয়
এই রিপোর্টগুলো বোধ বিচার বহির্ভভূত
অবস্থা বেগতিক হলে সালমানকে জেলেই পাঠিয়ে দেওয়া উচিত   কারণ সেখানে অনেক প্রহরী আছে কয়েদীদের পাহারা দেবার জন্য
আশা করি এর মাধ্যমে আাবার ঐক্য ফিরে আসবে চলচ্চিত্র পরিবারে
আঁখির জয় হোক
তারকাদের সংসার  এরকমই হয়
পদ্মাবত  ছবিতে নায়ক রণবীর কাপুর না রনবীর সিং 
এত বড় ভুল
প্রথম আলোর বিনোদন ডেস্কের নতুন বিনোদন হল নায়কের নাম সঠিকভাবে লিখতে না পারা  দীপিকার প্রেমিকা মনে করতাম রনবীর সিং কে  কিন্তু  প্রতিবেদক লিখেছে রণবীর কাপুর  মনে করেছিলাম আমি ভুল জানি  পরে পদ্মাবত মুভিতেও ভুল নায়কের নাম ব্যবহার করে বুঝিয়ে দিলেন আমি ভুল না লেখক ভুল  এত বড় একটা পত্রিকায় এই ধরণের ভুল আসলেই দৃষ্টি কটু দেখায়
প্রথম আলোর বিনোদন পাতায় এ ধরনের বিনোদন মূলক খবর আরো বেশি করে দেখতে চাই
তথ্যমন্ত্রী হাসানুল হক ইনু যে বানিজ্যমন্ত্রী তোফায়েল আহমেদের চেয়ে প্রভাবশালী বানিজ্যমন্ত্রীর এই বক্তব্যে প্রমাণ
তথ্যমন্ত্রী গত চার বছরে দেশি চলচ্চিত্রের কোনো উন্নয়ন করেননি 
তবে ভারতীয় চলচ্চিত্র আমদানী করে তাদের
কিছুটা উন্নয়নে সহায়তা করেছে
রতনে রতন চেনে
তুখোড় বামপন্থী নেতা এখন মুভিমন্ত্রী
মনে হয় না
এক কথায় অসাধারণ  সেই ছোটবেলা থেকে আইববাচ্চুর গান শুনি  এলআরবির গানগুলো সেই আগের মত লাগে  রাফসানের মুখে গানগুলো শুনে আবার সেই পুরনো দিনগুলোর কথা মনে পড়ল
এলআরবি আমার ছোট বেলার প্রেম তাই আজো ছাড়ি নাই
প্রথম আলোর নিউজের মান দিন দিন খারাপ হচ্ছে 
একজনের বিয়েতে কে নাচলো না নাচলো সেটা দিয়ে পাবলিক কি করবে
বিশাল খবর
সোনমের বিয়েতে প্রথম আলোর ব্লগাররা সবাই নাচবো
ফজলুর রহমান বাবু কে অনেক ধন্যবাদ তিনি আমাদের বিনোদনকে অনেক সূন্দর করে দেয়ার জন্য
এখনি দেখতে মন চায়
এমন কালোত্তীর্ন আরেকজন মহানায়ক বাংলা আর পাবে কিনা জানিনা  অন্তত তার স্মৃতি চিহ্নগুলোই ভক্তদের জন্য স্বান্তনার ছিল  এই ক্ষমাহীন পাপকর্ম যারা করেছে তাদের সমুচিত শাস্তি হলেই একমাত্র উত্তমের আত্মা শান্তি পাবে
এখানে নুসরাত ফারিয়া ব্যাপারে কিছু বলা হয়নি  দয়া করে ওনার ব্যাপারে আপডেট দিবেন   থ্যাংক য়্যু
গভীর  ভালোবাসা  দিয়ে স্মরণ করছি তোমায় প্রিয় নায়ক
এতো আন্দোলন বাদ দিয়ে  ভাল ভাল সিনেমা তৈরীতে মনোযোগ দেওয়া উচিৎ  আন্দোলন নয়  ভাল সিনেমা দিয়েই আমাদের শিল্প সংস্কৃতিকে সারা বিশ্বে তুলে ধরতে হবে
কিন্তু আইন সবসময় সবার জন্য সমান থাকেনা
মোশাররফ করিমের মতো নায়ক থাকলে আর কারোই দরকার পড়ে না  সে একাই একশ  সম্প্রতি পত্রিকায় দেখলাম সে নাকি একটা নাটকে অভিনয় করছে একাই দশটি চরিত্রে  নাটকটি সম্ভবত  হাসির নাটক  নাহলে আমার এত হাসি আসছে কেন
এখন নাটকের নামে বস্তাপচা কিছু জিনিস তৈরি হচ্ছে আর একটা বাজে কাজ হচ্ছে দেশের বাইরে গিয়ে শুটিং করা
হাহাহাহা
অসাধারন একজন অভিনেতা
বিনোদন জগতে আমার প্রথম পছন্দ 😍
মডার্ন টাইমস  এ শ্রমিক বেশে চাপলিনকে অসাধারণ মনে হয়েছিল আমার কাছে
সবগুলাই হাসির সিনেমা 
আর বললেন জুতা সেদ্ধ করে খাওয়ার দৃশ্যটা হাসির    
আজব বাঙালি নির্মাতা আপনি 
আপনি গোল্ড রাশ দেখেছেন বলে তো মনে হয় না 
নিজের জীবনের প্রতিচ্ছবি গোল্ড রাশ সিনেমা 
চরম দুর্দশার মধ্যে থেকেও কিভাবে সুখের অভিনয় করা যায় তার প্রমাণ জুতা সেদ্ধ করে খাওয়া 
আসলে আমরা তো এমনই 
হয়তবা গরীবের কষ্টের মাঝে আমরা হাসি খুজে পায়
জাতীয় কবির সম্মান তারই প্রাপ্য
প্রিয় কবি কাজী নজরুল ইসলাম
ভুল তো মানুষ করেই তবে রংবাজ পরিচালক একটু বেশিই করে ফেলছে তা শাস্তি তো তাকে পেতেই হবে 
নমনিয় হতে হপবে সমিতি কেও 😭😭😭
হ্যাথাওয়ে তো অভিনয় করতে গিয়ে অনেকবারই  নগ্ন  হয়েছে
রঙ্গকাহিনীটা হিন্দুস্থান টাইমসের  নায়িকাটা পশ্চিমা  খবরটা অনুবাদ করে দেশে প্রচার করছে প্রথম আলো
আপনাদের কল্যাণে সেটা আমরাও জেনে গেলাম
এদের মডেল বলে অন্য মডেলদের অপমান করবেন না প্লিজ লিখুন আসামী 

কারণ একজন বিবেকবান মানুষ এইগুলা করতে পারে না
আমিও আসিফকে ব্যাক্তিগত ভাবে চিনি  ধানমন্ডিতে একসাথে আড্ডা মারতাম  পাশের বাসায় ছিলাম কয়েক বছর  একদম অবাক হইনি খবরটা জেনে
কয়েকদিন পর ইয়াবা খাবে  আর ইয়াবার ব্যবসা করবে
পোলাপান এখন দু এক বার ক্যামেরার সামনে দাঁড়াতে পারলেই নিজেকে জমিদার ভাবতে শুরু করে  দু দিন পর রাস্তায় রাস্তায় ঘুরে আর জমিদারি ফিরে পাওয়ার জন্য যেকোন ধরনের অপরাধজনক কর্মকান্ডে জড়িত হতে রাজি থাকে
আমি আসিফকে ব্যাক্তিগত ভাবে চিনি  আর সেই হিসেবে এইটা বলতে পারি সে কোন মেয়েকে বা স্ত্রী কে টাকার জন্য গায়ে হাত তুলবেনা  এইটা একটা হাস্যকর অভিযোগ
যৌতুক দেয়া ও নেয়া উভয়ই শাস্তিযোগ্য অপরাধ
বিশ্ব বরেণ্য চলচিত্রকার সত্যজিৎ রায়কে দুটি বিষয়ের জন্যে অস্কারে ভূষিত করা হয়েছে একটি হচ্ছে বিশ্বমানের চলচিত্র তৈরির দক্ষতা অর্জন করা অপরটি ভারতের মতো একটি মধ্যযুগের দেশে জন্মেও একজন বিশ্বমানের চলচিত্রকার হিসেবে নিজেকে প্রতিষ্ঠিত করা
আসলে যে কোন দেশে  যে কোন কাজের ক্ষেত্রে মেয়েরা যৌন হেনেস্তার স্বীকার হন  হয়ত মাত্রার একটু হের ফের  কখনো প্রকাশ পায়  কখনো প্রকাশ পায় না  এই ব্যাপার নতুন নয়  বহু আগে থেকেই প্রচলিত
কাস্টিং কাউচ না থাকলে তো শুধু যোগ্যরাই স্থান পাবে  অযোগ্যরা কোথায় যাবে তাহলে
আরো তথ্য দিলে ভাল হতো
যেখানেই ক্যামেরা ও অ্যাটেনশন সেখানেই কোনো না কোনোভাবে প্রিয়াঙ্কা চোপড়া উপস্থিত থাকবেন এটা তো নিয়ম হয়ে গিয়েছে
আমার প্রিয় ভারতীয় নায়ক  তোমার আরো উত্তরোত্তর সাফল্য কামনা করি
সাধুবাদ জানাই এখন আর কাউকে বিদেশে খরচ করে বিদেশি সিন দেখতে হবে না এবার দেশের সৌন্দর্য উপভোগ করবে দর্শকরা
ঠিক বোধগম্য হল না
নন্দিতা দাস এক প্রতিভার নাম আর সেই প্রতিভা আরেক বিস্ময়কর প্রতিভা মান্টোকে নিয়ে চলচ্চিত্র নির্মাণ করেছেন এবং সেই সিনেমাতে নওয়াজুদ্দিন সিদ্দিকী অভিনয় করেছেন এ এক বহু প্রতিভার মিলন  যখন থেকে শুনেছি মান্টোর উপর সিনেমা নির্মিত হচ্ছে তখন থেকেই অধির আগ্রহে অপেক্ষা করছি এই ত্রয়িকে একসাথে দেখার
প্রতিবেদন করার কোন বিষয় হল এটা
এবারের আসরে সেরা চলচ্চিত্রের পুরস্কার জিতেছে তৌকীর আহমেদ পরিচালিত চলচ্চিত্র  অজ্ঞাতনামা    হৃদয়স্পর্শী কাহিনী  চমৎকার লোকেশন  পরিচালনা  সার্বিকভাবেই নন্দিত হওয়ার মতো একটি চলচিত্র  পাশাপাশি খল চরিত্রে শহীদুজ্জামান সেলিমের দূর্দান্ত অভিনয়  অথচ আমি ভেবে পাই না কেন সিনেমাটি হিট করলো না
অন্যান্য দেশে পুরস্কার অনুষ্ঠানে কোনো রাজনৈতিক ব্যক্তি উপস্থিত থাকে না  কিন্তু আমারদের দেশে
কি আর করবেন  হাতীর কা