এই পাঁচ বছরে দেশ জুড়ে ২২৫৬৮টি পাইরেসি মামলার তদন্ত করেছে সংস্থাটি। এতে পাইরেটেড প্রকাশনার ৬০ লাখের বেশি লিঙ্ক মুছে ফেলা হয়েছে বলে প্রতিবেদনে জানিয়েছে দেশটির স্থানীয় সংবাদসংস্থা শিনহুয়া।
অন্যান্য বিভাগের সঙ্গে মিলে ১৩ বছর ধরে এই এই তদন্ত চালিয়েছে আসছে ন্যাশনাল কপিরাইট অ্যাডমিনিস্ট্রেশন। অনলাইন সাহিত্য, মিউজিক, ভিডিও, গেইমস, অ্যানিমেশন এবং সফটওয়্যারের পাশাপাশি মোবাইল অ্যাপ, ক্লাউড স্টোরেজ এবং ই-কমার্স প্লাটফর্মকে লক্ষ্য করে এই তদন্ত চালানো হয়।
ন্যাশনাল কপিরাইট অ্যাডমিনিস্ট্রেশনের পক্ষ থেকে বলা হয়, কপিরাইট ভঙ্গের সংখ্যা কমেছে এবং কপিরাইট সুরক্ষায় জন সচেতনতা দারুণভাবে বেড়েছে।
