‘ব্যাড নিউজ’ নামের এই গেইম গেইমারকে একটি সামাজিক মাধ্যম বানাতে দেয়। এতে জ্বালাময়ী শিরোনাম আর ছবি বাছাই করে তা কাল্পনিক ভক্তদের সঙ্গে শেয়ারের সুযোগ দেওয়া হয়।
গেইমটিতে তারকা ব্যক্তিত্বের রূপ নেওয়া আর ভুল তথ্য ছড়ানোর মাধ্যমে অর্জন বাড়ে গেইমারদের,খবর বিবিসি’র।
নির্মাতারা বলেছেন, তারা চান এই গেইমটি ভুয়া সংবাদের বিরুদ্ধে ‘প্রতিষেধক’ হয়ে উঠবে। ইউনভার্সিটি অফ কেমব্রিজ সোশাল ডিসিশান-মেকিং ল্যাবরেটরি-এর পরিচালক ড. স্যান্ডার ফন ডার লিনডেন বলেন, “এই কৌশলগুলো বাইরে রয়েছে, এগুলো বাস্তবে মানুষ ব্যবহার করছেন।”
“আমরা যা করার চেষ্টা করছি তা হচ্ছে কীভাবে এগুলো শনাক্ত করা যায়, কীভাবে চিহ্নিত করা যায় আর কীভাবে এগুলোর মাধ্যমে প্রভাবিত না হয়ে থাকা যায়- এই কৌশলগুলো আসলে কী তা নিয়ে আলোকপাত করা ও সহজ করা।”
