বুধবার যুক্তরাষ্ট্রের ফ্লোরিডার কেনেডি স্পেস সেন্টার-এর লঞ্চ কমপ্লেক্স ৩৯এ থেকে একটি ফ্যালকন ৯ রকেটে করে ইকোস্টার ১০৫/এসইএস-১১ নামের নতুন এই কৃত্রিম উপগ্রহ উৎক্ষেপণ করা হয়।
আইএএনএস-এর প্রতিবেদনে বলা হয়েছে, উৎক্ষেপণের প্রায় আট মিনিট পর রকটেটির প্রথম ধাপ আটলান্টিক মহাসাগরে ‘অফ কোর্স আই স্টিল লাভ ইউ’ নামের ড্রোন শিপ স্টেশনের উল্লম্বভাবে অবতরণের মাধ্যমে সম্পন্ন হয়। এই অবতরণের কয়েক মিনিট পর প্রতিষ্ঠানটির পক্ষ থেকে এক টুইটে বলা হয়, “ফ্যালকন ৯-এর প্রথম ধাপ অফ কোর্স আই স্টিল লাভ ইউ-তে অবতরপণ করেছে- এটি একটি ‘ফ্লাইট-প্রুভেন’ অরিটারল রকেটের তৃতীয় সফল অভিযান।”
মহাকাশ অভিযানের খরচ কমাতে স্পেসএক্স-এর চলমান প্রচেষ্টার মধ্যে রকেটের পুনরুদ্ধার একটি অংশ।
বুধবার উৎক্ষেপিত কৃত্রিম উপগ্রহটি মার্কিন অপারেটর ইকোস্টার আর লুক্সেমবার্গভিত্তিক অপারেটর এসইএস, দুই প্রতিষ্ঠানই ব্যবহার করবে। 
 
