ডিম এমনই এক খাবার যার স্বাস্থ্য গুণ যেমন সর্বজনবিদিত, তেমনই ডিম খেতে ভালোবাসেন না এমন মানুষও প্রায় খুঁজে পাওয়া দুষ্কর। এমন পরিস্থিতিতে একদিনে কতগুলো ডিম খাওয়া যাবে এ প্রশ্ন অনেকের মনেই ঘুরপাক খায়।
যারা ডিম খেতে ভালোবাসেন, তারা একসঙ্গে একাধিক- এমনকি দিনে ৩-৪টি ডিমও খেয়ে ফেলেন। আবার অনেকেই মনে করেন, এতে কি স্বাস্থ্যহানি বা অন্য কোনো প্রভাব পড়তে পারে?
পুষ্টি বিশেষজ্ঞরা বলছেন, যারা প্রতিদিন শরীরচর্চা বা কায়িক পরিশ্রম করেন না, তাদের কখনই দিনে দুটির বেশি ডিম খাওয়া উচিত নয়। খুব বেশি গরমের দিনে একটির বেশি কখনই খাওয়া উচিত নয়।
ইউএস ন্যাশনাল লাইব্রেরি অব মেডিসিন, ন্যাশনাল ইনস্টিটিউট অব হেলথে প্রকাশিত গবেষণায় দেখা গেছে, সকালের নাস্তায় ডিম খেলে দুপুরের আগ পর্যন্ত পেট ভরা থাকে। ঠিক একইভাবে ৩৬ ঘণ্টা পর্যন্ত ক্যালোরি গ্রহণ করার মাত্রাও কমে যায়। ২৫ থেকে ৬০ বছর বয়সী ৩০ নারীর ওপর এ গবেষণা করা হয়েছিল।
