আলু আমরা বিভিন্নভাবে খেয়ে থাকি।রান্নায় মাছ, মাংস থেকে শুরু করে বিভিন্ন খাবারে আলু দিয়ে তৈরি করা হয়। আলু ছোট বড় সবার কাছে একটি প্রিয় খাবার। তবে আলু শুধু তরকারি রান্না করতেই নয়, আলু দিয়ে তৈরি করা যেতে পারে সুস্বাদু একটি খাবার সেটি হলো আলু পুরি।
বিকালে নাশতায় বা বন্ধুমহলে চায়ের আড্ডায় আলু পুরির জুড়ি নেই।এছাড়া অতিথি অপ্যায়নও করতে পারে আলু পুরি দিয়ে।তাই ঘরেই শিশুদের জন্য তৈরি করুন প্রিয় আলু পুরি।
আসুন জেনে নিই কীভাবে ঘরেই তৈরি করবেন আলু পুরি।
উপকরণ :
আলু-২ কাপ, পেঁয়াজ কুচি-২ টেবিল চামচ, শুকনা মরিচ-৩টি, পুদিনা পাতা কুচি-২ টেবিল চামচ, সরিষার তৈল-৪ টেবিল চামচ, ময়দা-২ কাপ, লবণ- স্বাদমতো, তেল-ভাজার জন্য।
প্রণালি :
আলুতে ১ কাপ পানি ও লবণ দিয়ে সিদ্ধ করে নামিয়ে হাত দিয়ে মেখে নিন। সরিষার তৈলে শুকনা মরিচ টেলে গুঁড়া করে নিন। পেঁয়াজ বেরেস্তা করে গুঁড়া করে নিন। আলুর সঙ্গে তেল, মরিচ গুঁড়া, পেঁয়াজ বেরেস্তা গুঁড়া, পুদিনা পাতা কুচি মিশিয়ে ভর্তা করে নেবেন। ময়দার সঙ্গে ৫ টেবিল চামচ তৈল ও লবণ দিয়ে ঝরঝরে করে নিবেন। পরিমাণমতো পানি মিশিয়ে নিন। ময়দা দুই ভাগ করে নিন। প্রতি ভাগ ময়দা আলুর পুর ভরে মুখ বন্ধ করে নেবেন। পিঁড়িতে আলুর পুর বেলে নিন। কড়াইয়ে তৈল গরম করে ডুবো তৈলে কম আঁচে মচমচে করে ভেজে নিন।
