জন্মদিনের উৎসবে কেক না হলে কী চলে? অনেকে জন্মদিনে প্রিয়জনকে কেক উপহার দিয়ে থাকেন। তবে বেশিরভাগ ক্ষেত্রে কেক আমরা কিনে থাকি। তবে আপনি যদি চান তবে ঘরে প্রিয়জনের জন্মদিনে বানাতে পারেন পেইন কেক।
কেক বড়দের পাশাপাশি শিশুদের কাছে প্রিয় একটির খাবার। তাই শিশুদের টিফিনে বা বিকালের নাস্তায় জন্য বানাতে পারেন প্লেইন কেক।
যেকোনো ধরনের কেক তৈরিতে এক্সপার্ট হতে হলে আগে প্লেইন কেক বানানো ভালোভাবে রপ্ত করতে হবে কেননা এটা কেক তৈরির বেসিক। এখানে একটি সাধারণ প্লেইন কেকের রেসিপি দেওয়া হল। ডিম, ময়দা, মাখন ও চিনি কেক তৈরির প্রধান উপাদান।
আসুন জেনে নেই কীভাবে তৈরি করবেন প্লেইন কেক
উপকরণ
বাটার (গলানো) ১ টেবিল চামচ, ময়দা ১/২ কাপ, বেকিং পাউডার ১/২ চা চামচ, ডিম ২ টি, চিনি ১/২ কাপ, গুঁড়ো দুধ ২ টেবিল চামচ, ভেনিলা এসেন্স ১/২ চা চামচ।
প্রণালী
প্রথমে চিনি ও বাটার বিটারে বিট করে নিন। ময়দায় বেকিং পাউডার মিশিয়ে বিট করা চিনি, বাটার ঢেলে বিট করুন। ডিমের কুসুম দিয়ে বিট করে পরে আবার সাদা অংশ দিয়ে বিট করুন। গুঁড়ো দুধ ও ভ্যানিলা এসেন্স দিয়ে ভালোভাবে ৩ মিনিট বিট করে খামির তৈরি করুন। ১টি বেকিং পাত্রে তেল দিয়ে কেক পেপার বসিয়ে খামির দিয়ে বেক করুন ১৬০ ডিগ্রি সেন্টিগ্রেডে ২০-৩০ মিনিট। ওভেন খুলে কেকে চাকু বা কাঠি বসিয়ে দেখুন কেকের ব্যাটার লেগে থাকে কিনা। যদি না থাকে তাহলে কেক তৈরি আর যদি লেগে থাকে তাহলে আরো কিছুক্ষণ রাখুন।
