যা খেলে ভালো থাকে পুরুষের শরীরসুস্থতা, তারুণ্য আর বয়স লুকাতে কিছু খাবার পুরুষের জন্য অতিপ্রয়োজনীয়। আমাদের দৈনন্দিন খাবার তালিকার মধ্যে কিছু খাবার আছে যা ফাইটোনিয়ট্রিয়েন্টে ভরপুর। এ ছাড়া তারুণ্য ধরে রাখতে ওমেগা-৩ ফ্যাট, লাইকোপেন, ভিটামিন-‘সি’ নিয়মিত খাদ্য তালিকায় রাখা জরুরি। নিয়মিত এসব খাবার খেলে সহজে বয়সের ছাপ পড়ে না। শুধু যে বয়সের ছাপ তাই নয়, শরীরের দুর্বলতাও কমবে।
আসুন ছবিতে দেখে নেই এমন কয়েকটি খাবার।
টমেটো: ক্ষতিকর বিষাক্ত পদার্থ থেকে টমেটো শরীরকে সুরক্ষা দেয়। টমেটো ত্বকে কোলাজেন তৈরি করে এবং ত্বকে প্রোটিনের সরবরাহ বজায় রাখে।
মাছের তেল: মাছের তেল শরীরের কোষের প্রদাহের বিরুদ্ধে লড়াই করে এবং ঠিকমতো চালাতে সাহায্য করে। মাছের তেলে আছে উচ্চমাত্রার হজমে সহায়ক প্রোটিন।
বাদাম: সুস্বাস্থ্যের জন্য প্রতিদিন খাদ্য তালিকায় বাদাম রাখা জরুরি। বাদমে দরকারি ভিটামিন ও পুষ্টি আছে।
বেরি: স্ট্রবেরি, ব্ল্যাকবেরি ও ব্লুবেরিতে গুরুত্বপূর্ণ অ্যান্টিঅক্সিডেন্ট এবং ফ্ল্যাভোনয়েডসের ভালো উৎস। এতে আছে প্রচুর ভিটামিন ‘সি’, যা কোলাজেনকে শক্তিশালী করে। এতে ত্বকের দাগ কমায়।
গ্রিন টি: তারুণ্য ধরে রাখতে গ্রিন টি বা সবুজ চায়ের কদর দিন দিন বাড়ছে।সবুজ চায়ে রয়েছে একাধিক পুষ্টি উপাদান ও খনিজ পদার্থ।
দই: শরীর ভালো রাখতে দই বিশেষভাবে কাজ করে। দইয়ে থাকা ব্যাকটেরিয়া শরীরের জন্য বেশ উপকারি এবং বয়সের কারণে হওয়া রোগগুলো প্রতিরোধে দই বিশেষভাবে কাজ করে।
অ্যাভোকাডো: পুষ্টিকর ফলগুলোর মধ্যে অ্যাভোকাডো অন্যতম। কেননা এর মধ্যে আছে নানা ঔষধি গুণও।
[প্রিয় পাঠক, আপনিও দৈনিক যুগান্তর অনলাইনের অংশ হয়ে উঠুন। লাইফস্টাইলবিষয়ক ফ্যাশন, স্বাস্থ্য, ভ্রমণ, নারী, ক্যারিয়ার, পরামর্শ, এখন আমি কী করব, খাবার, রূপচর্চা ও ঘরোয়া টিপস নিয়ে লিখুন এবং সংশ্লিষ্ট বিষয়ে ছবিসহ মেইল করুন[email protected]এ ঠিকানায়। লেখা আপনার নামে প্রকাশ করা হবে।]
