বর্তমান বিশ্বের বৃহত্তম বিলাসবহুল জাহাজের নাম ‘ওয়েসিস অব দ্য সিজ’। জাহাজটি আকারে টাইটানিকের চেয়ে পাঁচগুণ বড়। রয়্যাল ক্যারিবিয়ান ইন্টারন্যাশনালের হাতে এই প্রমোদতরীর মালিকানা রয়েছে। ‘এসটিএক্স ইউরোপ’-এর তৈরি এ জাহাজটির অন্দরমহল দেখলে চমকে যাবেন।
‘ওয়েসিস অব দ্য সিজ’-এর নির্মাণকাজ শুরু হয় ২০০৬ সালে। ২০০৮ সালের শেষে প্রথম জলে ভাসে বিশাল এই বিলাসবহুল জাহাজটি। ২ লাখ ২৫ হাজার ২৮২ টনের এই জাহাজটি লম্বায় ১১৮৭ ফুট, চওড়ায় ২০৮ ফুট। এ ছাড়া জলের নিচে প্রায় ৩০ ফুট কাঠামো রয়েছে জাহাজটির।
এটি তৈরি করতে খরচ হয়েছিল প্রায় দেড়শ কোটি ডলার।
২২ তলা এই জাহাজটিতে রয়েছে ১৬টি ডেক এবং ২৭০০টি বিলাসবহুল ক্যাবিন। মোট ৬৩০০ যাত্রী বহনে সক্ষম জাহাজটিতে রয়েছেন ২১০০ জন কর্মী।
এতে রয়েছে সেন্ট্রাল পার্ক, পুল, ফিটনেস সেন্টার, একাধিক পানশালা, রেস্তোরাঁ, ক্যাসিনোসহ একাধিক বিনোদন কেন্দ্র।
রয়েছে একটি আস্ত ভাসমান উদ্যান। যেখানে ১২ হাজার চারা গাছ এবং ৫৬টি বড় গাছ রয়েছে। জাহাজের পেছনের অংশে রয়েছে ৭৫০ আসনবিশিষ্ট থিয়েটার, রয়েছে চারটি সুইমিংপুল।
