অনেকে মনে করেন দিনে মাত্র একটা সিগারেট পানে আর কি এসে যায়? এতে ঝুঁকি খুব সামান্যই।
কিন্তু গবেষণা বলছে, দিনে মাত্র একটি সিগারেট পান করলেও হৃদরোগের ঝুঁকি তৈরি হয়।
বৃহস্পতিবার মেডিকেল জার্নাল বিএমজেতে প্রকাশিত এক গবেষণা প্রতিবেদনে এ কথা বলা হয়েছে। খবর এএফপির।
এতে উল্লেখ করা হয়, দিনে পুরো প্যাকেটের ২০টি সিগারেট পান করলে হৃদরোগ ও স্ট্রোকে আক্রান্ত হওয়ার যে ঝুঁকি, মাত্র একটি সিগারেট পান করলেও তার প্রায় অর্ধেক ঝুঁকি তৈরি হয়।
প্রতিবেদনটির প্রধান লেখক অ্যালান হ্যাকশাও বলেন, আমরা মনে করি কেউ দিনে ২০টি সিগারেটের বদলে কেবল একটি পান করলে তার হৃদরোগে আক্রান্ত হওয়ার ঝুঁকি থাকল মাত্র ৫ শতাংশ।
কিন্তু তিনি এএফপিকে বলেন, ফুসফুসের ক্যান্সারের ক্ষেত্রে এটি প্রযোজ্য হলেও হৃদরোগ ও স্ট্রোকে আক্রান্ত হওয়ার ক্ষেত্রে এটি ঠিক নয়। দিনে মাত্র একটি সিগারেট পান করেও পুরো প্যাকেট ধূমপানের ঝুঁকির প্রায় অর্ধেক বহন করতে হয়।
তিনি আরও বলেন, অনেকে মনে করেন যে দিনে সামান্য কয়েকটি সিগারেট পান করলে দীর্ঘমেয়াদি কোনো ক্ষতি হয় না। প্রতিবেদনে বলা হয়, এমন ধারণা একেবারে ভুল।
