ঢাকা আন্তর্জাতিক বাণিজ্য মেলা জমে উঠেছে। প্রতিবারের মতো এবারো শিশুদের জন্য মেলায় এসেছে বাহারি খেলনা।
দাম রাখা হয়েছে নাগালের মধ্যে। তাই বড়দের পাশাপাশি মেলায় এখন ভিড় করছে শিশুরা।
মেলায় গেলেই চোখে মিলবে শিশুদের উপচেপড়া ভিড়। দুপুরের পর থেকে বাড়তে থাকে ক্রেতা সমাগম।
আসুন ছবিতে দেখে নেই বাণিজ্য মেলায় শিশুদের পছন্দসই খেলনা।
মেলায় খেলনা কিনতে মায়ের সঙ্গে রোজি ও রুহি
[প্রিয় পাঠক, আপনিও দৈনিক যুগান্তর অনলাইনের অংশ হয়ে উঠুন। লাইফস্টাইলবিষয়ক ফ্যাশন, স্বাস্থ্য, ভ্রমণ, নারী, ক্যারিয়ার, পরামর্শ, এখন আমি কী করব, খাবার, রূপচর্চা ও ঘরোয়া টিপস নিয়ে লিখুন এবং সংশ্লিষ্ট বিষয়ে ছবিসহ মেইল করুন[email protected]এ ঠিকানায়। লেখা আপনার নামে প্রকাশ করা হবে। ]
