রাজধানীর শেরেবাংলা নগরে জমে উঠেছে ঢাকা আন্তর্জাতিক বাণিজ্য মেলার ২৩তম আসর। মেলায় প্রতিদিনই ক্রেতা সমাগম বাড়ছে, তার সঙ্গে পাল্লা দিয়ে বাড়ছে বেচাবিক্রি। মেলায় বেশির ভাগ স্টলগুলোতে বিক্রি হচ্ছে গৃহস্থালির পণ্য। দেশি-বিদেশি বিভিন্ন ব্র্যান্ডের গৃহস্থালির পণ্য পাওয়া যাচ্ছে সাশ্রীয় মূল্যে। তাই মেলায় গৃহস্থালির টুকিটাকি কিনতে ভিড় বাড়ছে নারী ক্রেতাদের।
সরেজমিনে শুক্রবার বাণিজ্য মেলায় গিয়ে দেখা যায়, ছুটিরে দিন হওয়াতে মেলায় ক্রেতা-দর্শনার্থীদের ভিড় বেড়েছে। মেলায় বিভিন্ন পণ্যের পসরা সাজিয়ে বসেছেন বিক্রেতারা। প্রায় প্রতিটি স্টলে এখন ক্রেতা-দর্শনার্থীদের উপচে পড়া ভিড়। এছাড়া অনেক দর্শনার্থী এসেছেন মেলা ঘুরে দেখতে। মেলায় বাবা-মায়ের হাত ধরে বা কোলে চড়ে এসছেন অনেক শিশু। মেলায় বেশির ভাগ স্টলগুলোতে রয়েছে নারী ও শিশুদের উপচে পড়া ভিড়। স্টলগুলো ঘুরে দেখা গেছে, জুতা, কাপড় ও কসমেটিকসের দোকানে ক্রেতাদের আনাগোনা থাকলেও ভিড় বেশি গৃহস্থালির স্টলগুলোতে। মেলায় গৃহস্থালির টুকটাক পণ্য কিনতে এখন নারী ক্রেতারা হুমড়ি খেয়ে পড়েছেন।
মেলা ঘুরে আরো দেখা মেলে, মেলায় বিভিন্ন ব্র্যান্ডের গৃহস্থালির পণ্য পাওয়া যাচ্ছে সুলভ মূল্যে। একটি পণ্যের সঙ্গে আরেকটি পণ্য ফ্রি দেয়া হচ্ছে। গৃহস্থালির হাঁড়ি, পাতিল, কড়াই, চামিচ, ছুরি, বল, গামলা, বাটি, প্লেট, ওভেনসহ বিভিন্নপণ্য মিলবে বাণিজ্য মেলায়। এছাড়া ঘর সাজানোর জন্য বাহারি ফুল, ওয়ালমেট মিলবে মেলায়।
গৃহস্থালির পণ্য কিনতে মেলায় এসেছেন বায়ের বেগম। তিনি যুগান্তরকে বলেন, প্রতি বছরই মেলায় আসি। বেশির ভাগ সময় গৃহস্থালির পণ্য কেনা হয়। এবার মেলা থেকে প্লেট ও কাপ-প্রিজ কিনব। এ ছাড়া ঘর সাজোনোর জন্য কিছু ফুল ও কেনা হবে।
দাম কেমন জানতে চাইলে নারী জানান, দাম নাগালের মধ্যে আছে। এ ছাড়া একটি পণ্য কিনলে আরেকটি ফ্রি ও ছাড়ও দেয়া হচ্ছে ।
গৃহস্থালির পণ্য বিক্রেতা আলাউদ্দিন মিয়া যুগান্তরকে বলেন, মেলার প্রথম দিন থেকেই বেচাবিক্রি ভালো হচ্ছে। দিন যত বাড়বে, বিক্রিও ভালো হবে। আর মেলায় বেশির ভাগ নারী ক্রেতা। নারী ক্রেতারা গৃহস্থালির পণ্য বেশি কিনে থাকেন।
মেলায় কসমেটিকসক ও জুতা বিক্রেতা ইমন জানায়, মেলায় এখনো বেচাবিক্রি জমে উঠেনি। তবে আশানুরূপ বিক্রি এখনো শুরু হয়নি। নারী ক্রেতাদের ভিড় বেশি গৃহস্থালির পণ্যের স্টলে।
বাণিজ্য মন্ত্রণালয় ও রফতানি উন্নয়ন ব্যুরোর (ইপিবি) আয়োজনে রাজধানীর শেরেবাংলা নগরে প্রতিবারের মতো এবারও আয়োজন করা হয়েছে ঢাকা আন্তর্জাতিক বাণিজ্য মেলার। গত সোমবার (১ জানুয়ারি) মাসব্যাপী ২৩তম ঢাকা আন্তর্জাতিক বাণিজ্য মেলার উদ্বোধন করেন প্রধানমন্ত্রী শেখ হাসিনা। পদ্মা সেতু এবং ঐতিহ্যের ঢাকা গেটের আদলে তৈরি মেলার প্রধান ফটক। মেলায় এবার স্টল ও প্যাভিলিয়ন থাকছে ৫৮৯টি। এর মধ্যে ৪৩টি প্রতিষ্ঠান বিদেশি।
মেলা চলবে ৩১ জানুয়ারি পর্যন্ত। কোনো সাপ্তাহিক ছুটি ছাড়াই মেলা সকাল ১০টা থেকে রাত ১০টা পর্যন্ত দর্শনার্থীদের জন্য খোলা থাকবে। প্রবেশ ফি ধরা হয়েছে জনপ্রতি ৩০ টাকা, ছোটদের জন্য ২০ টাকা।
