বিশ্বের অন্যান্য দেশের মতো বাংলাদেশেও আজ পালিত হচ্ছে বিশ্ব ক্যান্সার দিবস। ক্যান্সারে আক্রান্ত হওয়ার শুরুর দিকেই যাতে এই রোগটিকে শনাক্ত করা যায় তার জন্য প্রয়োজন সচেতনতা বৃদ্ধি।
আমি তো সুস্থ, তা হলে আমি কেন ডাক্তারের কাছে যাব? বেশিরভাগ মানুষেরই এ ধারণাটি মনের মধ্যে বদ্ধমূল থাকে।
গবেষণায় দেখা গেছে, ক্যান্সারে আক্রান্ত হয়ে প্রতি বছর প্রায় ৯০ লাখ মানুষের মৃত্যু হয়। তাদের মধ্যে বহু মৃত্যুর ঘটনাই ঘটে রোগটিকে শুরুর দিকে শনাক্ত করতে না পারার কারণে।
নারীদের বেলায় যে তিন ধরনের ক্যান্সারের কথা বেশি শোনা যায়, সেগুলো হল- জরায়ুর মুখে ক্যান্সার বা সার্ভিক্যাল ক্যান্সার, ডিম্বাশয়ের ক্যান্সার বা ওভারিয়ান ক্যান্সার ও স্তন ক্যান্সার।
জাতীয় ক্যান্সার গবেষণা ইন্সটিটিউটের সহযোগী অধ্যাপক ড. বেগম রোকেয়া আনোয়ার জানান, বাংলাদেশের নারীরা জরায়ুমুখের ক্যান্সার ও স্তন ক্যান্সারের কারণে বেশি মারা যাচ্ছে। অথচ উন্নত বিশ্বে এটি শূন্যের ঘরে নামিয়ে আনা সম্ভব হয়েছে। কারণ এই রোগ পুরোপুরি প্রতিরোগযোগ্য। পূর্ব-লক্ষণ যাচাইয়ের জন্য বাংলাদেশেও বেশ কিছু পদ্ধতি রয়েছে এবং ভিআইএ নামে সহজ একটি পরীক্ষা জাতীয়ভাবে পরিচালিত হচ্ছে।
