এর আগে উবার থেকে কালানিক নিজের কোনো শেয়ার বিক্রি করেননি বলে জানানো হয়েছে ব্যবসা-বাণিজ্যবিষয়ক মার্কিন প্রকাশনা বিজনেস ইনসাইডার-এর প্রতিবেদনে। জাপানের প্রযুক্তি প্রতিষ্ঠান সফটব্যাংক-এর কাছে এই শেয়ার বিক্রি করছেন।
সম্প্রতি সফটব্যাংক ৩০ শতাংশ ছাড়ে উবারের ১৫ শতাংশ শেয়ার কিনে নেয়, এ চুক্তির ক্ষেত্রে উবারের বাজারমূল্য ধরা হয়েছিল ৪৮০০ কোটি ডলার।  
সফটব্যাংকের কেনা অধিকাংশ শেয়ারই উবারের শুরুর দিকের বিনিয়োগকারী আর কর্মীদের কাছ থেকে কেনা খবর বের হয়েছিল। তাদের মধ্যে যে কালানিকও ছিলেন তা এবার জানা গেল।
