নিউ জিল্যান্ড-এ প্রতিষ্ঠানের দ্বিতীয় লঞ্চপ্যাড রয়েছে রকেট ল্যাব-এর। এবার এখান থেকেই উৎক্ষেপণ করা হবে ইলেকট্রন রকেট। রকেটটি বাণিজ্যিকভাবে উৎক্ষেপণের জন্য প্রস্তুত কিনা তা জানা যাবে এই পরীক্ষার পর, বলা হয়েছে প্রযুক্তিবিষয়ক সাইট ভার্জ-এর প্রতিবেদনে।
পরীক্ষা সফল হলে রকেট শিল্পে স্পেসএক্স, ব্লু অরিজিন-এর মতো প্রতিষ্ঠানের সঙ্গে প্রতিযোগিতায় নামবে রকেট ল্যাব।
রকেটটি দ্বিতীয়বারের মতো মহাকাশে পাঠাতে ডিসেম্বরের ৮ তারিখ থেকে ১০ দিনের সময় বেঁধে দিয়েছে নির্মাতা প্রতিষ্ঠানটি। ৮ তারিখ থেকে ইলেকট্রন রকেট উৎক্ষেপণের শেষ পর্যায়ের প্রস্তুতি শুরু করে রকেট ল্যাব।
পরীক্ষামূলক ফ্লাইট বলে আবহাওয়া এবং অন্যান্য সব ব্যবস্থা পুরোপুরি অনুকূলে না থাকলে এটি উৎক্ষেপণ করা হবে না বলে জানানো হয়েছে। ১১ ডিসেম্বর এটি উৎক্ষেপণের তারিখ ঠিক করেছিল রকেট ল্যাব। কিন্তু আবহাওয়া ও কক্ষপথের ট্রাফিক বিবচনা করে ওই পরিকল্পনা বাতিল করা হয়।
শীঘ্রই উৎক্ষেপণের নতুন তারিখ ঘোষণা করা হবে বলে জানিয়েছে রকেট ল্যাব। নতুন এই রকেটটির উৎক্ষেপণের ১৫ মিনিট আগে থেকে এটি লাইভ দেখানো হবে বলেও জানানো হয়েছে।
