যুক্তরাষ্ট্রের পররাষ্ট্রমন্ত্রী হিসেবে রেক্স টিলারসন-কে বেছে নিয়েছেন নতুন মার্কিন প্রেসিডেন্ট। ট্রাম্প-এর এই বাছাই ইতোমধ্যে বিতর্কের জন্ম দিয়েছে বলে জানিয়েছে ব্রিটিশ দৈনিক ইন্ডিপেনডেন্ট। রেক্স-এর পক্ষ নিয়ে টুইট করেছেন ইলন মাস্ক। রেক্স-এর বৈদেশিক নীতি সম্পর্কিত কাজে যোগ দেওয়ার পর ইলন মাস্ক বলেন, তার নিজের কাজে “ভাল” করার “ক্ষমতা” আছে।
ব্রিটিশ সাময়িকী দ্য ইকোনমিস্ট-এ এক প্রতিবেদনে রেক্স টিলারসন-এর ‘চারিত্রিক সততা’ নিয়ে সম্পাদকীয়তে গুণগান প্রকাশ করা হলে ইলন মাস্ক প্রতিবেদনটি নিয়ে তার সম্মতি জানান।
ইলন মাস্ক পোস্ট করে জানান, “এটি হয়ত আশ্চর্যজনক মনে হতে পারে যে আমি বলছি, কিন্তু আমি ইকোনোমিস্ট-এর সঙ্গে একমত।” তিনি আরও বলেন, “রেক্স টিলারসন চমৎকার একজন পররাষ্ট্রমন্ত্রী হওয়ার ক্ষমতা রাখেন।”
মাস্ক আরও বলেন, “রেক্স অত্যন্ত উপযুক্ত নির্বাহী, ভূ-রাজনীতি বোঝেন এবং জানেন দলের জন্য কীভাবে জেতা যায়। এখন তার দল হচ্ছে যুক্তরাষ্ট্র।”
