চীনের রাষ্ট্রীয় সংবাদ সংস্থা শিনহুয়া’র প্রতিবেদনে বলা হয়েছে, অ্যাপলের সরবরাহকারী ও বিক্রেতা প্রতিষ্ঠানগুলো থেকে আন্ডারগ্রাউন্ড ডেটা ব্যবসায় নেটওয়ার্ক-এর অংশ হিসেবে ২২ কর্মীকে আটক করেছে দেশটির পুলিশ।
এদের মধ্যে ২০ জন কর্মী অ্যাপলের নিজস্ব কর্মী না হলেও তারা অ্যাপল সরবরাহকারী প্রতিষ্ঠানগুলোর অধীনে কাজ করতেন, তাদের হাতে নাম, ফোন নাম্বার, অ্যাপল আইডি ও অন্যান্য তথ্যের অ্যাকসেস ছিল। এ ডেটা তারা ১০ থেকে ১৮০ ইউয়ানের মধ্যে বিক্রি করে। সব মিলিয়ে তারা পাঁচ কোটি ইউয়ান বা ৭৩.৬ লাখ ডলার হাতিয়ে নেয়, বলা হয়েছে আইএএনএস-এর প্রতিবেদনে।
চলতি বছর জানুয়ারিতে কালোবাজারে অ্যাপল বিক্রি নিয়ে প্রথম তদন্ত শুরু করে চীনা পুলিশ, পরে ৩ মে থেকে তারা এ নিয়ে আটকও শুরু করে। দেশটির গুয়াংদং, জিয়াংসু ও ফুইজান প্রদেশের বিভিন্ন স্থান থেকে এ নিয়ে আটক করা হয়।
অভিযুক্তরা সিরি ডেটার জন্য বিভিন্ন শনাক্তকারী তৈরি করে ও আইমেসেজগুলো এন্ড-টু-এন্ড এনক্রিপশনে পরিণত করে।
চলতি বছরের শুরুতে ‘টার্কিশ ক্রাইম ফ্যামিলি’ নামের অপরাধীদের একটি দল অ্যাপলকে মুক্তিপণের ফাঁদে ফেলার চেষ্টা চালায়। ওই চক্রের দাবি ছিল, তাদের কাছে লাখ লাখ অ্যাপল অ্যাকাউন্টের অ্যাকসেস আছে এবং তারা আইফোন আর আইপ্যাড থেকে ডেটা মুছে দিতে সক্ষম।
