টুইটারে হুয়াওয়ে একটি ছোট ভিডিও পোস্ট করেছে বলে জানিয়েছে মার্কিন সংবাদমাধ্যম সিএনবিসি। ওই টুইটে দেখানো হয় একটি আপেল খেয়ে ফেলা হচ্ছে। টুইটে বলা হয়, “হতাশ লাগছে? আমরা সত্যি একটি সারপ্রাইজ নিয়ে আসছি যা আপনাদের দেখা আগের সবকিছু ছাড়িয়ে যাবে।”
কেবল প্রযুক্তি প্রতিষ্ঠান নয়, নতুন আইফোনকে নিয়ে বিদ্রুপ করছে টক শোর উপস্থাপকরাও। কমেডিয়ান এবং টক শো হোস্ট এলেন ডিজেনারিস তার শোতে বলেছেন- নতুন আইফোনের পেছনের দিকেও গ্লাস ব্যবহার করা হয়েছে। কাজেই এখন আপনি চাইলে আইফোনের দুই দিকের কাঁচই ফাটাতে পারবেন!
আসছে ১৬ অক্টোবর হুয়াওয়ে তদের হুয়াওয়ে মেইট ১০ স্মার্টফোন উন্মোচন করবে।
ফেইসবুকে আরেক ভিডিওতে আইফোন X- এর ফেসিয়াল রিকগনিশন নিয়ে বিদ্রুপ করেছে, যাতে বোঝানো হয় এই প্রযুক্তি প্রায়ই ব্যর্থ হয়। হুয়াওয়ে’র পক্ষ থেকে বলা হয়, “আসল এআই ফোন” অক্টোবরে আসছে।
