রয়টার্স-এর প্রতিবেদনে বলা হয়, সম্প্রতি শীর্ষস্থানীয় এক ব্যবসায়ী অভিযোগ তুলে বলেন- তার বিশ্বাস টেনসেন্ট সবার অ্যাকাউন্ট পর্যবেক্ষণ করে। এই অভিযোগের প্রেক্ষিতে জবাব দিয়েছে চীনের সবচেয়ে জনপ্রিয় মেসেজিং অ্যাপটি।
সামাজিক মাধ্যমে এক পোস্টে উইচ্যাট -এর পক্ষ থেকে বলা হয়, “উইচ্যাট কোনো ব্যবহারকারীর চ্যাট হিস্ট্রি সংরক্ষণ করে না। এটি শুধুই ব্যবহারকারীদের মোবাইল, কম্পিউটার আর অন্যান্য মাধ্যমে সংরক্ষণ করা হয়।”
সম্প্রতি গাড়ি ব্র্যান্ড ভলভো-এর মালিক প্রতিষ্ঠান গিলি হোল্ডিংস-এর চেয়ারম্যান লি শুফু সোমবার চীনা গণমাধ্যমগুলোর কাছে বলেন, টেনসেন্ট চেয়ারম্যান মা হুয়াতেং “অবশ্যই আমাদের উইচ্যাটের চ্যাটিং প্রতিদিন দেখছেন।”
এ নিয়ে আরও মন্তব্যের জন্য অনুরোধ করা হলেও উইচ্যাট কোনো সাড়া দেয়নি বলে প্রতিবেদনে উল্লেখ করা হয়।
