ব্যবহারকারী কোন গান শুনবেন তা নিয়ে পরামর্শ দেওয়া আর ঘরের তাপমাত্রা মানিয়ে নেওয়ার মতো কাজ করতে পারবে এই স্পিকার। সোমবার শুরু হওয়া ডেভেলপারপদের নিয়ে অ্যাপলের সবচেয়ে বড় বার্ষিক সম্মেলন ওয়ার্ল্ডওয়াইড ডেভেলপারস কনফারেন্স (ডাব্লিউডাব্লিউডিসি)-এর এবারের আসরে অ্যাপল এই ডিভাইস উন্মোচন করে। অ্যামাজনের অ্যালেক্সা ফিচার আর ইকো ডিভাইসগুলোর দিকে লক্ষ্য রেখেই অ্যাপল এই স্পিকার এনেছে, এমন মন্তব্য এসেছে রয়টার্স-এর প্রতিবেদনে।
৩৪৯ মার্কিন ডলারের এ স্পিকারের সঙ্গে যুক্ত করে দেওয়া হবে অ্যাপলের সিরি অ্যাসিস্ট্যান্ট। তারপর সিরির সঙ্গে মিলে এই স্পিকার অ্যাপল মিউজিক সেবা থেকে গানের বাছাই করে দিতে পারবে। সেইসঙ্গে টেক্সট মেসেজ পাঠানো, সংবাদ জানানো, খেলার খবর জানানো আর লাইটবাল্ব ও থার্মোস্ট্যাট-এর মতো হোম গ্যাজেটগুলো নিয়ন্ত্রণও করতে পারে এটি।
সিরি ভয়েস অ্যাসিস্ট্যান্ট-এ আরও বেশি ধরনের অ্যাপ আনার বিষয়ে চলতি সপ্তাহে অ্যাপল তাদের পরিকল্পনা ঘোষণা করবে বলে আশা করা হচ্ছে। তবে, শুরুর দিকের পরিবর্তনে অল্প সংখ্যক সক্ষমতা যোগ হবে বলে ধারণা করা হচ্ছে।  
হোমপডটি লম্বায় ১৮ সেন্টিমিটারের চেয়েও কম আর এটি সাদা বা ধূসর রঙের কাপড়ের জালে ঢাকা। 
বিশ্বের সবচেয়ে দামি প্রযুক্তি প্রতিষ্ঠানটি জানিয়েছে, অ্যালফাবেট-এর গুগল অ্যাসিস্ট্যান্ট-এর সঙ্গে প্রতিদ্বন্দ্বীতা করা সিরি এখন বিভিন্ন ডিভাইসে কাজ করবে। 
অ্যাপল ওয়াচে আনা নতুন সিরি ইন্টারফেইস-এর সঙ্গে ব্যবহারকারীদের ক্যালেন্ডার ও এয়ারলাইন টিকেট-এর মতো অন্যান্য বিষয়ের তথ্য যুক্ত হবে।
