এই প্রান্তিকে ৭.৭৩ কোটি আইফোন বিক্রি করেছে মার্কিন প্রযুক্তি জায়ান্ট প্রতিষ্ঠানটি। আগের বছর এই প্রান্তিকে আইফোন বিক্রি হয়েছে ৭.৮৩ কোটি, বলা হয়েছে মার্কিন সংবাদমাধ্যম সিএনবিসি’র প্রতিবেদনে।
এর আগে ওয়াল স্ট্রিট জার্নাল ধারণা করেছিল এই প্রান্তিকে আট কোটি আইফোন বিক্রি করবে অ্যাপল।
এবারই প্রথম হিসাবে আইফোন X-এর বিক্রির সংখ্যা যোগ করা হয়েছে। আগের বছরের অক্টোবরে উন্মোচিত হওয়া ডিভাইসটির বিক্রি শুরু হয় নভেম্বরের ৩ তারিখ। তবে, ঠিক কী পরিমাণ আইফোন X এবং অন্যান্য ডিভাইস বিক্রি হয়েছে তা প্রকাশ করেনি অ্যাপল।
বছরের প্রথম প্রান্তিকে আইফোনের বিক্রি কমলেও আগের বছরের চতুর্থ প্রান্তিকে আইফোন বিক্রির গড় মূল্য বেড়েছে বলে প্রতিবেদনে উল্লেখ করা হয়েছে।
২০১৭ সালের চতুর্থ প্রান্তিকে আইফোন বিক্রির গড় মূল্য ছিল ৭৯৬ মার্কিন ডলার। এক বছর আগে এই মূল্য ছিল ৬৯৫ ডলার।
অ্যাপলের নতুন ফ্ল্যাগসশিপ আইফোন X-এর বাজার মূল্য ৯৯৯ মার্কিন ডলার। কিন্তু পুরানো মডেলের অনেক আইফোন বিক্রি হওয়ায় গড় মূল্য কমেছে প্রতিষ্ঠানটির।
