সকাল ও সন্ধ্যায় মার্কিন প্রযুক্তি জায়ান্ট প্রতিষ্ঠানটির বাসে এ ধরনের বেশ কয়েকটি হামলা হয়েছে। হামলা করে বাসের জানালার কাঁচ ভেঙ্গে দেওয়া হয়। কুপার্টিনোতে অ্যাপলের প্রধান কার্যালয়ে কর্মীদের যাওয়া আসার পথে এই হামলাগুলো চালানো হয়-- খবর বিবিসি’র।
দেশটির স্থানীয় সংবাদ সাইট এসএফগেইটএর প্রতিবেদনে বলা হয়েছে গুগলের বাসকেও লক্ষ্য করেছে হামলাকারীরা।
হামলায় এখন পর্যন্ত হতাহতের কোনো খবর পাওয়া যায়নি। আর হামলাকারীরা নির্দিষ্ট কোনো প্রতিষ্ঠানকে লক্ষ্য বানিয়েছে এমন কোনো তথ্যও পাওয়া যায়নি।
ধারণা করা হচ্ছে স্যান ফ্রান্সিসকো এবং এর আশপাশের অঞ্চলে প্রযুক্তি প্রতিষ্ঠানগুলো যেভাবে প্রভাব বিস্তার করছে সে কারণেই ক্ষুব্ধ জনতা এই হামলা চালিয়েছে।
এর আগে ২০১৩ সালে গুগল কর্মীদের বহনকারী বাসে প্রতিবাদকারীরা হামলা চালিয়ে বাসের জানালার কাঁচ ভেঙ্গে দেয়। বেশি মজুরী দেওয়া প্রযুক্তি প্রতিষ্ঠানগুলো শহরে বাড়ির দাম বাড়াচ্ছে- এমস প্রতিবাদের মুখে এই হামলা চালানো হয়।
হাইওয়ে ২৮০-তে অ্যাপল বাসে হামলাগুলো চালানো হয়। এবার হামলা এড়াতে বিকল্প রাস্তা ব্যবহার করছে প্রতিষ্ঠানটি। এতে যাত্রার সময় ৩০ থেকে ৪৫ মিনিট বেড়েছে বলে প্রতিবেদনে উল্লেখ করা হয়।
হামলার বিষয়টি নিশ্চিত করেছে ক্যালিফোর্নিয়া হাইওয়ে পেট্রোল (সিএইচপি)। সিএইচপি কর্মকর্তা আর্ট মন্টিয়েল বলেন, “আমরা এই মুহুর্তে জানিনা কী কারণে হামলা চালানো হয়েছে, কিন্তু আমরা কোনো কিছুই এড়িয়ে যাচ্ছি না।”
