চলতি বছর সেপ্টেম্বরে অ্যাপল ইভেন্টে অ্যাপল ওয়াচের সিরিজ ২ এর বিশেষ সংস্করণ নাইকি-ব্র্যান্ডেড এই অ্যাপল ওয়াচ উন্মোচন করা হয়। এবার অ্যাপল তাদের সাইটে ২৮ অক্টোবর বাজারে ছাড়ার তারিখ ঘোষণা করেছে বলে জানিয়েছে মার্কিন প্রযুক্তি সাইট ভার্জ।
ক্রীড়া সরঞ্জামাদি নির্মাণে অন্যতম শীর্ষস্থানীয় প্রতিষ্ঠান নাইকি আর অ্যাপলের সম্মিলিতভাবে তৈরি এই ঘড়িতে রয়েছে আকর্ষণীয় ব্যান্ড আর নাইকি ওয়াচের চেহারা আর কারিগরি গুণাবলী। এ ছাড়াও নাইকি তৈরি করেছে নাইকি প্লাস রান ক্লাব যাতে সমন্বিত করা হয়েছে নাইকি প্লাস অ্যাপল ওয়াচের সবকিছু, এমনকি অ্যাপল ওয়াচের পেছনের অ্যালুমিনিয়াম কভারও রয়েছে এতে।
নতুন এই ওয়াচ -কালো, ধূসর, রুপালি আর হলুদ এই  চারটি ভিন্ন রঙে পাওয়া যাবে। সব কয়টি মডেলেই অ্যালুমিনিয়ামের আবরণ রয়েছে।
