চলতি বছর নভেম্বরে প্রযুক্তি পরামর্শক প্রতিষ্ঠান ইপিসি গ্রুপ মানুষের পাসওয়ার্ড দেওয়ার অভ্যাস নিয়ে জরিপ চালিয়েছে বলে প্রযুক্তি সাইট সিনেট-এর প্রতিবেদনে উল্লেখ করা হয়। এতে অংশ নেওয়া ছয়শ’ জনের মধ্যে ৩৭ শতাংশেরও বেশি স্বীকার করেছেন তারা শুধু তখনই তাদের পাসওয়ার্ড বদলান, যখন কোনো সাইট থেকে তাদেরকে পাসওয়ার্ড বদলাতে বলা হয়।
জরিপে অংশ নেওয়াদের মধ্যে ১১ শতাংশ বলেছেন তারা অন্তত সাত বছর ধরে একই পাসওয়ার্ড বা তার কিছুটা ভিন্ন রূপ ব্যবহার করছেন।
পাসওয়ার্ড দেওয়ার ক্ষেত্রে ‘পাসওয়ার্ড’ লিখেই পাসওয়ার্ড দিয়ে রাখার নজিরে পুরুষরা নারীদের থেকে ২.৮ গুণ এগিয়ে। আর নারীরা এগিয়ে আছেন তাদের ভালোবাসার মানুষের নাম পাসওয়ার্ড দেওয়ার ক্ষেত্রে, এগিয়ে থাকার মাত্রাটা ১.৩ গুণ। 
