সর্বশেষ আইফোন ‘ক্র্যাশ প্র্যাংক’-এ এই ভিডিও লিংক ব্যবহার করা হয়েছে বলে জানিয়েছে ব্রিটিশ দৈনিক গার্ডিয়ান।
চীনা মাইক্রোব্লগিং সাইট সিনা উইবো’র বানানো ভিডিও শেয়ারিং অ্যাপ মিয়াওপাই-এ থাকা এই ভিডিও আইফোনের ভিডিও প্লেয়ারে সাধারণভাবেই চালু হয়। একবার ভিডিওটি চলা শেষ হওয়ার পর, আইফোনকে বন্ধ করে দিতে এটি সময় নেয় এক মিনিট। আর এরপর আইফোনটি চালু করতে আরেকটি ‘ফোর্সড রিবুট’ দিতে হয়। 
অনেক মানুষই এই বিষয় সম্পর্কে জানেন না, বলা হয়েছে ব্রিটিশ দৈনিকটির প্রতিবেদনে।
আইওএস ৫ পর্যন্ত অপারেটিং সিস্টেমগুলোকে আক্রমণ করতে পারে এই বাগ, আর ডিভাইস সংস্করণের ক্ষেত্রে এর আক্রমণের আওতায় আছে আইফোন ৪ থেকে আইফোন ৭ পর্যন্ত। আইফোন বা অপারেটিং সিস্টেম যত পুরানো হবে, বাগটি তত দ্রুত কাজ করবে।
