বিটসাইট টেকনোলজিস-এর সহ-প্রতিষ্ঠাতা ও প্রধান পরিচালন কর্মকর্তা বয়ার মার্কিন সংবাদমাধ্যম সিএনবিসি-কে বলেন, “কারও কাছে নিশ্চিত বিস্তারিত তথ্য থাকায় বা লঙ্ঘন করা যাবে এমন তথ্য থাকায় এমন প্রচুর নিরাপত্তা লঙ্ঘনের ঘটনা ঘটেছে।”
নিজেদের ও গ্রাহকদের জন্য বড় প্রতিষ্ঠানগুলোর সাইবার সুরক্ষা আরও বাড়ানো প্রয়োজন বলে পরামর্শ দিয়ে তিনি বলেন, “শুধু নিজেদের ব্যবস্থাই নয় সেই সঙ্গে সাপ্লাই চেইনও পর্যবেক্ষণ ও রক্ষা করতে সমর্থ হওয়া প্রয়োজন।” 
এ নিয়ে অনুরোধ করা হলেও ইয়াহু তাৎক্ষণিকভাবে কোনো মন্তব্য করেনি বলে জানিয়েছে সিএনবিসি।
আর্থিক সেবাদানের খাতে সবচেয়ে বেশি পূর্বসতর্কতা রয়েছে বলে জানিয়ে তিনি বলেন, “তাদের ঝুঁকি ব্যবস্থাপনার খুব ভালো সংস্কৃতি আছে।” কিন্তু তথ্য সুরক্ষার ক্ষেত্রে ছোট প্রতিষ্ঠানগুলোকে ধুঁকতে হয়। এই প্রতিষ্ঠানগুলোকে তাদের সাইবার নিরাপত্তা অনুশীলন উন্নত করা উচিৎ বলে মত দিয়েছেন তিনি। 
