স্পেনের বার্সেলোনায় মোবাইল ওয়ার্ল্ড কংগ্রেস (এমডাব্লিউসি)-এর মঞ্চে শুরুতেই আসেন দক্ষিণ কোরীয় ইলেকট্রনিকস জায়ান্টটির মোবাইল বিভাগের প্রধান ডিজে কোহ। “আজকের অসম্ভব ধারণাগুলোকে বাস্তবে নিয়ে আসতে স্যামসাং জোরদার কাজ করছে”- এমনটাই ছিল তার ভাষ্য। এর কিছুক্ষণ পর তিনি উন্মোচন করেন নতুন স্মার্টফোনদুটি।
এরই মধ্যে টুইটারের স্যামসাংয়ের পক্ষ থেকে জানানো হয়, গ্যালাক্সি এস৯ চারটি রঙে পাওয়া যাবে- মিডনাইট ব্ল্যাক, টাইটেনিয়াম গ্রে, মিডনাইট ব্লু এবং লাইলাক পারপল।  
ইমোজি খাতে এবার নতুন কিছুই দেখালো স্যামসাং। ফেসিয়াল রিকগনিশন সেন্সর ব্যবহার করা এআর ইমোজি আনা হয়েছে নতুন স্মার্টফোনে। অ্যানিমোজি’র মতো এই ফিচার যে কোনো চরিত্রের নড়াচড়া নকল করতে পারে আর ক্যামেরা থেকে নেওয়া কোনো চেহারায় তা বসিয়ে দেখাতে পারে। ক্যামেরায় দেখানো চেহারার একটি কার্টুন রুপ বানিয়ে নেওয়া হয় এতে।
স্যামসাংয়ের স্মার্ট অ্যাসিস্ট্যান্ট-কে ফিরিয়ে আনা হয়েছে। গ্যালাক্সি এস৮-এ এর জায়গায় দেওয়া হয়েছিল বিক্সবি বাটন। এস৯-এ আবার আনা হয়েছে স্মার্ট অ্যাসিস্ট্যান্ট, এটি ছবি থেকে বস্তু শনাক্ত করতে পারে। এমনকি ভিনদেশে বিদেশী ভাষায় লেখায় মেনুও অনুবাদ করে দেওয়ার সক্ষমতা আছে এই অ্যাসিট্যান্ট-এর। 
মঞ্চে এলেন স্যামসাংয়ের অগমেন্টেড রিয়ালিটি বা এআর বিষয়ক প্রধান ইউই-সুক চাং। স্যামসাং নক্স নামের ফিচার ব্যবহার করে নতুন স্মার্টফোনদুটি কতোটা সুরক্ষিত তা জানালেন তিনি।
এক নজরে স্যামসাং এস৯ আর এস৯ প্লাস-এর স্পেসিফিকেশন-
