দেশে ডিজিটাল মুদ্রা ব্যবহার বিস্তৃত করতে বড় পদক্ষেপের অংশ হিসেবে দেশের স্টক এক্সচেঞ্জ আর আটটি স্থানীয় ব্যাংককে নিয়ে মনিটর অথরিটি অফ সিঙ্গাপুর (এমএস) এই প্রকল্প চালুর পরিকল্পনা করেছে বলে জানায় রয়টার্স। 
এই প্রকল্পের আওতায় বিদেশী মুদ্রা লেনদেনের বিষয়টিও যাচাই করা হবে।
আন্তর্জাতিক অর্থবিষয়ক প্রযুক্তি খাতের সম্প্রদায়কে নিয়ে আয়োজিত সিঙ্গাপুর ফিনটেক ফেস্টিভাল-এ এমএএস-এর ব্যবস্থাপনা পরিচালক রাভি মেনন জানান, ব্লকচেইন গবেষণা প্রতিষ্ঠান আর৩ এবং সিঙ্গাপুরভিত্তিক পরামর্শদাতা প্রতিষ্ঠান বিসিএস ইনফরমেশন সিস্টেমস এই প্রচেষ্টায় সমর্থন যোগাচ্ছে। তিনি বলেন, "এই পাইলট ব্যবস্থায় ব্যাংকগুলো এমএএস-এর সহযোগী হিসেবে নগদ অর্থ জমা দিয়ে বিনিময়ে এমএএস নিবন্ধিত ডিজিটাল মুদ্রা গ্রহণ করবে।"
এই প্রকল্পের সঙ্গে যুক্ত হওয়া ব্যাংকগুলো হচ্ছে- ব্যাংক অফ আমেরিকা মেরিল লিঞ্চ, দ্য ব্যাংক অফ টোকিও-মিসুবুসি ইউএফজি লিমিটেড, ক্রেডিট সুইসে, ডিবিএস ব্যাংক লিমিটেড, দ্য হংকং অ্যান্ড সাংহাই ব্যাংকিং কর্পোরেশন লিমিটেড, জেপি মরগ্যান, ওসিবিসি ব্যাংক, সিঙ্গাপুর এক্সচেঞ্জ আর ইউনাইট ওভারসিজ ব্যাংক।
ডিজিটাল মুদ্রা থেকে উদ্ভূত হওয়া ব্লকচেইন প্রযুক্তি ইলেকট্রনিক লেনদেন প্রক্রিয়াকরণ আর রেকর্ড সংরক্ষণ ব্যবস্থা হিসেবে কাজ করে। এতে লেনদেনকারীরা একটি নিরাপদ নেটওয়ার্কের মাধ্যমে তথ্য জানতে পারেন, আর এ ক্ষেত্রে কোনো থার্ড-পার্টি যাচাইয়ের দরকার নেই। 
