অ্যাপলের ফেইসটাইম, মাইক্রোসফটের স্কাইপ, ফেইবসুকের মেসেঞ্জার-এর মতো অন্যান্য প্রতিষ্ঠানগুলোর ভিডিও কলিং অপশনের বিপরীতে এই অ্যাপ আনল গুগল। 
অন্যান্য ভিডিও চ্যাটিং সেবার থেকে এটি খুব একটা আলাদা নয়। শুধু যে কল করেছে তার সম্পর্কে এক নজর জানতে কল গ্রাহককে একটি সুযোগ করে দেওয়া হয়। এর ফলে গ্রাহক ঠিক করে নিতে পারেন তিনি কল ধরবেন কি ধরবেন না, জানিয়েছেন বিবিসি।
এই ফিচার-কে 'নক, নক' ডাকা হচ্ছে বলে জানিয়েছে গুগল। 'নক, নক' বলতে সাধারণত ' দরজায় কড়াঘাত' করাকে বুঝায়। 
চলতি বছর মে-তে নতুন এই অ্যাপের ঘোষণা দেওয়া হয়েছিল। এখন অ্যাপটি অ্যান্ড্রয়েডচালিত স্মার্টফোন আর আইফোন-এর জন্য বিনামূল্যে ছাড়া হচ্ছে।
এই অ্যাপে কলগুলো এনক্রিপটেড রাখা হবে আর ইন্টারনেট সংযোগের গতির উপর ভিত্তি করে এর ভিডিও-এর মান ঠিক হবে।
আইওএস-এর ফেইসটাইম-এর মতোই ডুয়ো-তে কল করার জন্য শুধু ব্যক্তির ফোন নাম্বার দরকার হয়। এ ধরনের অনেক সেবায় ব্যবহারকারীদের ভিডিও কলিং অপশন ব্যবহারের জন্য অ্যাকাউন্ট লগইন করতে হয়।
২০১৩ সাল থেকে গুগল হ্যাংআউট-এর মাধ্যমে ভিডিও কলিং সেবা দিচ্ছে। বন্ধুবান্ধব ও পরিবারের সদস্যদের সঙ্গে ভিডিও কলে ডুয়ো আরও সহজ ও নির্ভরযোগ্য হবে বলে দাবি নির্মাতাদের।
সামনের কয়েকদিনের মধ্যে বিশ্বের সবখানে এই অ্যাপ পাওয়া যাবে।
