ক্রিপ্টোকারেন্সি নিয়ে থাকা বিষয়গুলো যাচাইয়ে ভারত সরকারের গঠন করা একটি প্যানেল ৩১ মার্চ শেষ হতে যাওয়া অর্থ বছরের মধ্যে প্রতিবেদন জমা দেবে বলে আশা করা হচ্ছে- মার্কিন সংবাদমাধ্যম সিএনবিসি-কে এ তথ্য জানিয়েছেন দেশটির অর্থ সচিব এস. সি. গ্র্যাগ। তিনি বলেন, “লেনদেন ব্যবস্থা হিসেবে একে (ক্রিপ্টোকারেন্সি) অবৈধ করতে সরকার প্রয়োজনীয় পদক্ষেপ নেবে।”
সরকার গঠিত ওই প্যানেলের নেতৃত্ব গ্রেগ-ই দিচ্ছেন বলে উল্লেখ করা হয়েছে রয়টার্স-এর প্রতিবেদনে। তিনি বলেন, “আমরা আশা করি চলতি অর্থ বছরের মধ্যে কমিটি তাদের সুপারিশগুলো চূড়ান্ত করবে… নিশ্চিতভাবে এক্ষেত্রে নিয়ন্ত্রক রাখা হবে।”  
ভারত সরকার টেন্ডার-এর জন্য ক্রিপ্টোকারেন্সিকে বৈধ বিবেচনা করে না আর  লেনদেন ব্যবস্থার অংশ হিসেবে কোনো অবৈধ আর্থিক কার্যক্রমে ক্রিপ্টো সম্পদের ব্যবহার বন্ধ করবে- এই খবর প্রকাশের আগের সপ্তাহে বার্ষিক বাজেট উপস্থাপনের সময় পার্লামেন্টে এ কথা বলেন ভারতের অর্থমন্ত্রী অরুন জেটলি।
ডিজিটাল মুদ্রাখাতে বিনিয়োগ-এর বিরুদ্ধে ভারত সরকার একাধিকবার সতর্কর্তা জারি করেছে। কিন্তু দেশটিতে এই খাতে প্রতি মাসে প্রায় দুই লাখ ব্যবহারকারী যুক্ত হচ্ছে বলে প্রতিবেদনে জানানো হয়। 
