টিআরআই অ্যানালাইজার নামের এই ডিভাইসের দাম পড়বে সাড়ে পাঁচশ’ ডলার। এর মাধ্যম ব্যবহারকারীর হাতের মুঠোয় পুরো একটি মেডিকেল পরীক্ষাগার চলে আসবে, বলা হয়েছে প্রযুক্তি সাইট নেক্সট ওয়েব-এর প্রতিবেদনে।
যুক্তরাষ্ট্রের ইউনিভার্সিটি অফ ইলিনয়-এর গবেষকরা ৩ডি প্রিন্টার আর কিছু সুদক্ষ প্রকৌশল ব্যবস্থা ব্যবহারের মাধ্যমে এই ডিভাইস তৈরি করেছে। এই ডিভাইস স্মার্টফোনের ফ্ল্যাশ থেকে আসা আলো ও ক্যামেরা ব্যবহার করে রক্ত, লালা বা মূত্র পরীক্ষা করতে পারে। এই প্রকল্পের অধ্যাপক ব্রায়ান কানিংহাম বলেন, “এটি মেডিকেল খাতে রোগ নির্ণয়ে সবচেয়ে বেশি প্রচলিত তিন ধরনের পরীক্ষা করতে সক্ষম।”
পরীক্ষাগারে যেতে সক্ষম নন এমন রোগীরা এই ডিভাইসের মাধ্যমে পরীক্ষা করে, এর ফলাফল চিকিৎসককে পাঠাতে পারবেন। আবার যেসব ক্লিনিকে সব পরীক্ষা করার জন্য পর্যাপ্ত জায়গা নেই, সেগুলো দামি যন্ত্রপাতি না কিনে এর মাধ্যমেই রোগীদের বাসায় পরীক্ষা করে নিতে পারবে।
