সাইটটিতে বলা হয় নতুন আইফোন ৮ নিয়ে স্যামসাং গ্যালাক্সি এস৮ ও এলজি জি৬-এর সঙ্গে প্রতিযোগিতায় নামবে অ্যাপল। পুরো বেজেলহীন এই আইফোনটির পর্দার অনুপাত উল্লেখ করা হয় ১৮.৫:৯, বলা হয়েছে ভারতীয় সংবাদমাধ্যম আইএএনএস-এর প্রতিবেদনে।
ধারণা করা হচ্ছে আইফোন ৮-এ বড় ধরনের পরিবর্তন আনবে অ্যাপল। চলতি বছরের শেষ দিকে ডিভাইসটি উন্মোচনের কথা রয়েছে প্রতিষ্ঠানটির। এর আগে আইফোন ৭এস উন্মোচন করবে প্রতিষ্ঠানটি। কিন্তু বরাবরের ‘এস’ সিরিজের মতো আইফোন ৭এস-এও বাহ্যিক পরিবর্তন আনা হবে না বলে ধারণা করা হচ্ছে।
এর আগে আইফোন ৬-এর পর নকশায় খুব বেশি পরিবর্তন দেখা যায়নি আইফোনের। কিন্তু আইফোনে ৮-এ অনেক কিছুই পরিবর্তন হবে বলে গুজব রয়েছে।
নতুন ফাঁস হওয়া ছবিতে দেখা গেছে সামনের পুরোটা অংশ জুড়ে পর্দা রাখা হয়েছে। ওপরের দিকে পর্দার কিছুটা অংশ বাদ দিয়ে সেখানে ক্যামেরা ও অন্যান্য সেন্সর বসানো হয়েছে। যেহেতু সামনে থেকে হোম বাটন বাদ দেওয়া হয়েছে তাই ধারণা করা হচ্ছে ওপরের ওই অংশেই নেভিগেশন বাটন রাখা হবে।
প্রাথমিকভাবে ধারণা করা হয়েছিল পর্দার মধ্যেই ফিঙ্গারপ্রিন্ট সেন্সর ব্যবহার করা হবে আইফোন ৮-এর। কিন্তু ফাঁস হওয়া ছবিতে দেখা গেছে ডিভাইসের পেছেন অ্যাপল লোগো-এর নিচে ফিঙ্গারপ্রিন্ট সেন্সর রাখা হয়েছে।
এছাড়া আইফোন ৭-এর মতো ডুয়াল ক্যামেরা দেখা গেছে আইফোন ৮-এ। তবে, আড়াআড়ি না রেখে এবার লম্বালম্বিভাবে ডুয়াল ক্যামেরা বসানো হয়েছে এতে।
