ওজন কমানোর সেবাদাতা প্রতিষ্ঠান নিউট্রিসিস্টেম-এর চালানো জরিপে দেখা গেছে এক তৃতীয়াংশ ব্যক্তি ফোন ছাড়া খাবার শেষ করতে পারেন না। খাবার টেবিলে বিভ্রান্ত থাকার বিষয়ে জানতে মার্কিন যুক্তরাষ্ট্রের প্রাপ্তবয়স্ক দুই হাজার ব্যক্তির ওপর জরিপটি চালানো হয়, বলা হয়েছে ব্রিটিশ ট্যাবলয়েড মিরর-এর প্রতিবেদনে।
জরিপের ফলাফলে দেখা গেছে ২৯ শতাংশ বলছেন প্রতিবার খাবারের সময়ই তাদের সঙ্গে স্মার্টফোন থাকে। অর্ধেকের বেশি ব্যক্তি বলেছেন, বেশির ভাগ সময় তারা খাবার টেবিলে তাদের ডিভাইসটি নিয়ে আসেন।
মাত্র ১৭ শতাংশ অংশগ্রহণকারী জানিয়েছেন খাবারের সময় তারা কখনোই ফোন ব্যবহার করেন না।
খাবারের সময় স্মার্টফোন ব্যবহারের প্রয়োজনবোধ করেন এমন ব্যক্তির সংখ্যাও অনেক। ১৮ থেকে ৩৫ বছর বয়সী ৩৫ শতাংশ ব্যক্তি জানিয়েছেন সব সময়ই ফোন তাদের সঙ্গে থাকে।
জরিপে কাজ করা পুষ্টিবিদ কুার্টনি ম্যাককরমিক বলেন, “আমরা কী খাচ্ছি, কী পরিমাণে এবং কতবার, ওজন কমানোর ক্ষেত্রে এই বিষয়গুলোর কথাই আমরা চিন্তা করি। যে বিষয়টিতে আমরা কম নজর দেই তা হলো আমরা কীভাবে খাচ্ছি।”
“আর এটিও গুরুত্বপূর্ণ। এটি শুরু হয় ফোন রেখে এবং টিভি বন্ধ করার মাধ্যমে,” যোগ করেন তিনি।
