এর আগে তাকে কেন আটক করা হয় তা স্পষ্ট করা হয়নি। এখন তাকে মার্কিন যুক্তরাষ্ট্রের কাছে সমপর্ণ করা হবে কিনা তা আদালত সিদ্ধান্ত নেবে।
চলতি বছর ১০ কোটিরও বেশি লিংকডইন লগইন তথ্য বিক্রির জন্য বিজ্ঞাপন দেওয়া হয়।
এ নিয়ে লিংকডইন বলে, "২০১২ সালে লিংকডইন সদস্যদের তথ্য লঙ্ঘনের পর, আমরা স্বক্রিয়ভাবে এফবিআই-এর সঙ্গে জড়িত ছিলাম, যাতে দায়ীদের ধরা যায়। এই অপরাধ কার্যক্রমে দায়ী হিসেবে বিবেচিতদের শনাক্ত করে আটকের চেষ্টায় এফবিআই-এর কঠোর পরিশ্রম আর ইচ্ছার প্রতি আমরা কৃতজ্ঞ।"
