দেশটির সংস্কৃতি মন্ত্রণালয়ের তথ্যমতে, চলতি বছর জানুয়ারিতে শুরু হওয়া প্রচারণার অংশ হিসেবে ১,০৭৯টি অনলাইন অ্যাকাউন্ট বন্ধ করে দেওয়া হয়েছে। 
সহিংস বা পর্নোগ্রাফিক দৃশ্যগুলোতে পেপা পিগ-এর মতো শিশুদের পছন্দের চরিত্রগুলো দেখানোর অভিযোগে এই ভিডিওগুলো লক্ষ্য করা হয়েছে।
টেনসেন্ট, ইয়োকু আর বাইদু’র মতো চীনা ইন্টারনেট প্রতিষ্ঠানগুলোকে কর্তৃপক্ষের পক্ষ থেকে তাদের কনটেন্ট যাচাই ও তাৎক্ষণিকভাবে এই কনটেন্টগুলো মুছে ফেলতে বলা হয়।
