প্রযুক্তি সাইট ভার্জ-এর প্রতিবেদনে বলা হয়, স্কাইলাইন অ্যাপটিতে ম্যাপবক্স থেকে মানচিত্রের ৩ডি ডেটা নিয়ে ব্যবহার করা হয়েছে। এর মাধ্যমে ব্যবহারকারীর বর্তমান স্থানের ডেটা দিয়ে পুরো বিস্তারিত তথ্য দিয়ে স্মার্টফোনের ওয়ালপেপার বানানো হবে। 
ব্যবহারকারী তার স্মার্টফোন আনলক করলে বা ওয়ালপেপার সোয়াইপ করলেই অ্যাপটি ম্যাপ ডেটা দিয়ে বানানো ওয়ালপেপার সরিয়ে নেবে। ওয়ালপেপারটি প্রদর্শনের সময় স্মার্টফোন ঘুরালে ম্যাপও সেভাবে ঘুরবে। 
গুগল প্লে স্টোর থেকে অ্যাপটি কিনতে ব্যবহারকারীদের গুণতে হবে ১.৯৯ ডলার।
