রয়টার্স জানিয়েছে, ২০১৫ সালে এপ্রিল থেকে জুন প্রান্তিকে প্রতিষ্ঠানটির আয় ছিল ১৭৭০ কোটি ডলার। চলতি বছর একই প্রান্তিকে আয়ের অংকটা ২১.৩ শতাংশ বেড়ে ২১৫০ কোটি ডলারে দাঁড়িয়েছে। 
এই প্রান্তিকে প্রতিষ্ঠানটির মোট লাভ হয়েছে ৪৯০ কোটি ডলার, ২০১৫ সালে একই প্রান্তিকে অংকটা ছিল ৩৯০ কোটি ডলার। এই প্রতিবেদন প্রকাশের পর অ্যালফাবেট-এর শেয়ার মূল্য ৬ শতাংশ বেড়ে যায়।
ভিডিও মার্কেটেও উন্নতি করেছে গুগল। এর ফলে প্রতিষ্ঠানটি বিশ্বের সবচেয়ে বড় সামাজিক যোগাযোগ মাধ্যম ফেইসবুক আর মাইক্রোব্লগিং সাইট টুইটারের সঙ্গে প্রতিযোগিতা শক্ত করেছে।  
গুগল প্রধান সুন্দর পিচাই জানান, তারা ইউটিউব ব্যবহারকারীদের আরও উন্নত ভিডিও সেবা দিতে কৃত্রিম বুদ্ধিমত্তা ব্যবহার করেছেন। 
