শনিবার মার্কিন দৈনিক নিউ ইয়র্ক টাইমস-এর সাইবার নিরাপত্তা প্রতিবেদক নিকোল পার্লরথ প্রযুক্তি সাইট রিকোড-কে বলেন, একটি অ্যাকাউন্ট থেকে ২৪ ঘণ্টায় ১৬৬৮বার টুইট করা হয়েছে, এ হিসাবে টানা ২৪ ঘণ্টা কেউ না ঘুমিয়ে টুইট করতে থাকলেও প্রতি মিনিটে একটিরও বেশি টুইট করলে এতবার করতে পারার কথা।  
নির্বাচনী প্রচারণা থেকে মাক্রোঁ-কে সরানোর উদ্দেশ্যে “বিশাল ও সুশৃংখলভাবে চালানো হ্যাকিং কার্যক্রম”-এর মাধ্যমে হাতিয়ে নেওয়া নথিগুলো সামাজিক মাধ্যমে প্রকাশ করে দেওয়া হয়, বলা হয়েছে আইএএনএস-এর প্রতিবেদনে। 
প্রচারণা কর্মকর্তারা এক বিবৃতিতে বলেন, হ্যাকিংয়ে জড়িত অপরাধীরা রোববার প্রেসিডেন্ট নির্বাচনের ৪৮ ঘণ্টারও কম সময় বাকি থাকতে এই নথিগুলো ফাঁস করে দেয়।
শুক্রবার দুপুর দুইটার আগ পর্যন্ত টেক্সট-শেয়ারিং সাইট পেস্টবিন-এ প্রায় ১৪.৫ গিগাবাইট ইমেইল, ব্যক্তিগত ও ব্যবসায়িক দলিল আর ৭০ হাজারেরও বেশি নথির লিংক পোস্ট করে দেওয়া হয়।
মাক্রোঁ-এর প্রচারণাকারীদের পক্ষ থেকে দাবি করা হয়েছে, ভুল তথ্য ছড়ানোর উদ্দেশ্যে প্রকৃতপক্ষে হ্যাকিংয়ের কবলে পড়া দলিলগুলোর সঙ্গে ভুয়া তথ্য মিশিয়ে দেওয়া হচ্ছে। এ ক্ষেত্রে ফাঁস হওয়া তথ্যের কোন অংশ সঠিক আর কোনটি ভুয়া তা এখনও স্পষ্ট নয়।
গত মার্কিন প্রেসিডেন্ট নির্বাচনে ডেমক্রেট দলে হ্যাকিংয়ে রাশিয়ান সরকারের ঘনিষ্ট 'পন স্টর্ম' নামের দলটি জড়িত ছিল বলে মার্কিন সাইবার নিরাপত্তা প্রতিষ্ঠান ট্রেন্ড মাইক্রোর নিজস্ব তদন্তে বেরিয়ে আসে। এবারের হ্যাকিংয়েও ওই একই নাম খুঁজে পাওয়ায় এর পেছনেও রাশিয়ার হাত আছে বলে ধারণা করা হচ্ছে।
