উন্মোচিত হতে যাওয়া নতুন স্মার্টফোনটির কিছু ছবি ফাঁস করেছে প্রযুক্তি বিষয়ক সাইট ভেনচারবিট। সেই সঙ্গে ফোনের কিছু তথ্যও প্রকাশ করেছে সাইটটি। নতুন এই পিক্সেল স্মার্টফোনটি দুইটি আকারে বাজারে ছাড়া হতে পারে, জানিয়েছে ভার্জ।
৫ ইঞ্চি পর্দার মডেলের নাম বলা হচ্ছে ‘পিক্সেল এক্স’ এবং ৫.৫ ইঞ্চি পর্দার মডেলটির নাম ‘পিক্সেল এক্সএল’। এই ফোন দুইটি গুগলের বর্তমান স্মার্টফোন নেক্সাস ৫এক্স এবং নেক্সাস ৬পি-কে সরাবে বলে ধারণা করা হচ্ছে। এর আগে গুগলের জন্য স্মার্টফোন তৈরি করে আসছিল এলজি, মোটোরলা এবং হুয়াওয়ে। এবার গুগল নিজেই স্মার্টফোন দুইটি তৈরি করছে বলে জানা গেছে।
এ যবত  নেক্সাস নামেই স্মার্টফোন তৈরি করে আসছিল গুগল। গুজব সত্যি হলে এবারই প্রথম নেক্সাসের পরিবর্তে ‘পিক্সেল’ নামে ফোন বাজারে আনতে যাচ্ছে গুগল।
