“৫০ শতাংশ পুরুষ সাজের অংশ হিসেবে গুগলে বিভিন্ন জিনিস খুঁজেছেন। এই তালিকার শীর্ষে রয়েছে ‘শেভিং’ এবং তারপরেই রয়েছে ডিওডরেন্ট,”। শনিবার গুগল-এর ‘ইয়ার ইন সার্চ ২০১৬’ শীর্ষক এক তালিকায় এই তথ্য উন্মোচিত হয়।
জরিপে দেখা যায়, দাড়ির স্টাইলে এখন প্রায় ৮০ শতাংশ পুরুষ শেভার-এর বদলে ট্রিমার বেছে নিতে তিনগুণ বেশি আগ্রহী।
গুগলে সৌন্দর্যবিষয়ক অনুসন্ধানের শীর্ষে রয়েছে ‘চুলের যত্ন’ এবং তারপরে আছে ‘ত্বকের যত্ন’ ও ‘মেইকআপ’।
“সৌন্দর্যবিষয়ক পরামর্শ আর স্টাইলবিষয়ক অনুসন্ধান ২০১৫ সালের চেয়ে প্রায় পাঁচ গুণ বেড়েছে।”
জরিপ অনুসারে, ২০১৬ সালে ডেটিংবিষয়ক সার্চ প্রায় ৫০ শতাংশ বেড়েছে বলে জানিয়েছে সংবাদ সংস্থা আইইএনএস।
“২০১৬ সালে ডেটিং বিষয়ক অনুসন্ধান আর অ্যাপ ডাউনলোড উন্মাদনা ছিল বিশ্বজোড়া। বছরজুড়ে ডেটিং অ্যাপ ব্যবহার প্রায় ৫০ শতাংশ বেড়েছে। সেই সঙ্গে ডেটিং অ্যাপ ডাউনলোডও  প্রায় ৫৩ শতাংশ বেড়েছে,” জরিপে এমন তথ্যই উঠে এসেছে।
