ইন্টারনেট সিকিউরিটি প্রযুক্তির পেটেন্ট লঙ্ঘনের দায়ে ২০১০ সালে অ্যাপলের বিরুদ্ধে মামলা করে ভারনেটএক্স। অ্যাপলের ফেইসটাইম ভিডিও কনফারেন্স অ্যাপসহ অন্যান্য অ্যাপে এই প্রযুক্তি ভারনেটএক্স-এর অনুমতি ছাড়া ব্যবহার করা হয়েছে বলে দাবী করা হয়, জানিয়েছে রয়টার্স।
২০১০ সালে নিরাপদ নেটওয়ার্ক বিষয়ের চারটি পেটেন্ট নিয়ে ইস্টার্ন ডিসট্রিক্ট টেক্সাস ফেডেরাল আদালতে মামলা করে ভারনেটএক্স। ২০১২ সালে ক্ষতিপূরণ হিসেবে ৩৬ কোটি ৮২ লাখ জরিমানা করা হয় অ্যাপলকে। সে সময় ওয়াশিংটন ডিসি এর ফেডারাল সার্কিট আদালতের ইউএস কোর্ট অফ আপিলস এই রায়ে কিছুটা পরিবর্তন আনে। আদালতের পক্ষ থেকে জানানো হয়, ক্ষতিপূরণ হিসাব করতে মামলার বিচারক যেভাবে জুরিদের নির্দেশ দিয়েছেন সেটিতে সমস্যা থাকায় রায় পুনর্বিবেচনা করা হবে।
এ বছরের ফেব্রুয়ারিতে ওই মামলার রায়ে আরও বড় আকারের জরিমানা করা হয় অ্যাপলকে। ৬২ কোটি ৫৬ লাখ ডলারের জরিমানা মার্কিন পেটেন্ট মামলার সবচেয়ে বড় অংকের জরিমানা হিসেবে বিবেচনা করা হয়।
মামলার এমন রায়কে বাতিল করেন টেক্সাস আদালতের বিচারক রবার্ট শ্রোয়েডার। তিনি বলেন, আগের মামলার পুনরাবৃত্তি জুরিদেরকে দ্বিধান্বিত করতে পারে, যেটি অ্যাপলের জন্য অনুচিত হবে। নতুন বিচার প্রক্রিয়ায় জুরিদেরকের ভারনেটএক্স-এর দুইটি পেটেন্টের ক্ষতিপূরণ হিসাব করতে বলা হয়। যে পেটেন্ট দুইটি অ্যাপল লঙ্ঘন করেছে বলে ইতোমধ্যেই চিহ্নিত করা হয়েছে। এ ছাড়া অপর দুইটি পেটেন্ট লঙ্ঘন করা হয়েছে কি না এবং এর ক্ষতিপূরণ কত সেটিও হিসাব করতে বলা হয়েছে।
