অনেক স্মার্টফোনেই একদম মৌলিক স্পেসিফিকেশন আর নিম্নমানের প্রসেসর  ব্যবহার করা হয়, অনেক সময় ব্যবহারকারী ইন্টারনেট সংযোগ ভালো নয় এমন স্থানে থাকতে পারেন। এমন মূহুর্তগুলোতে স্মার্টফোনের কম জায়গা ব্যবহার করেই গো সিরিজের অ্যাপগুলো ব্যবহারকারীদের মূল সেবা প্রদান করবে।
জিমেইল গো ব্যবহারকারীদের একাধিক অ্যাকাউন্ট ব্যবহারের সুযোগ দেবে, স্বয়ংক্রিয়ভাবে সামাজিক ও প্রচারণামূলক ইমেইলগুলো আলাদা করে বন্ধু আর পরিবার সদস্যদের মেইলগুলো প্রাধান্য দিয়ে দেখাবে। এই অ্যাপ নতুন মেইল আদারা নোটিফিকেশনও দেবে। এতে থাকছে ১৫জিবি বিনামূল্যের স্টোরেজ সেবা আর এতে অনলাইন ও অফলাইন দুই অবস্থাতেই মেইল পড়া ও মেইলের জবাব দেওয়া যাবে। তবে স্বয়ংক্রিয়ভাবে ছবি লোড হওয়ার মতো অন্যান্য ‘প্রয়োজনহীন’ ফিচার এতে থাকবে না বলে উল্লেখ করা করা হয়েছে প্রযুক্তি সাইট ভার্জ-এর প্রতিবেদনে। 
জিমেইল গো অ্যাপটি মূল জিমেইল অ্যাপের তুলনায় কম ডেটা খরচ করবে।
