২০১৫ সাল থেকে ১৪ শতাংশ প্রবৃদ্ধি আর প্রতি মাসে ১৪ কোটি ৬০ লাখেরও বেশি ইউনিক ব্যবহারকারী নিয়ে তালিকার শীর্ষস্থান দখল করে আছে ফেইসবুক। তা ছাড়াও প্রযুক্তি সাইট টেকক্রাঞ্চ-এর তথ্যমতে, বছর জুড়ে বিশ্বের সবচেয়ে বড় সামাজিক মাধ্যমটির মালিকাধীন মেসেঞ্জার আর ইনস্টাগ্রাম-এর প্রবৃদ্ধি ছিল ৩৬ শতাংশেরও বেশি। তবে, বছরের শেষভাগে ফেইসবুকের চেয়ে গুগলের অ্যাপগুলোই তালিকার শীর্ষস্থান দখল করে ছিল।
নিয়েলসেন-এর প্রকাশিত তালিকা অনুসারে, সেরা স্মার্টফোন অ্যাপগুলো হল-
১। ফেইসবুক
২। ফেইসবুক মেসেঞ্জার
৩। ইউটিউব
৪। গুগল ম্যাপস
৫। গুগল সার্চ
৬। গুগল প্লে
৭। জিমেইল
৮। ইনস্টাগ্রাম
৯। অ্যাপল মিউজিক
১০। অ্যামাজন অ্যাপ
