রোববার সিএনএন-এর সঙ্গে এক সাক্ষাৎকারে গেটস বলেন, “আমার উচ্চমাত্রায় কর দেওয়া দরকার।” বর্তমানে নয় হাজার কোটি মার্কিন ডলারের বেশি সম্পদ রয়েছে তার।
গেটস বলেন, “আমি বেশি কর দিয়েছি, অন্য যে কারও চেয়ে এক হাজার কোটির বেশি। কিন্তু সরকারের উচিত আমার অবস্থানে থাকা ব্যক্তিদের থেকে উচ্চমাত্রার কর নেওয়া।”
বর্তমানে অ্যামাজন প্রধান জেফ বেজোস-এর পরে বিশ্বের দ্বিতীয় ধনী ব্যক্তি গেটস।
কর্পোরেশনের জন্য কর নিতে রিপাবলিকান কর আইন রয়েছে মার্কিন যুক্তরাষ্ট্রে। এ প্রসঙ্গে গেটস বলেন, “এটি প্রগতিশীল কর রসিদ ছিল না। এটা ছিল প্রত্যাবর্তনশীল কর রসিদ। এর থেকে লাভটা পাবেন ধনকুবের ব্যক্তিরা, যেখানে রিপাবলিকানদের পাশ আইনে বলা হচ্ছে এই কর মার্কিন কর্মজীবী এবং মধ্যবিত্তদের সহায়তা করবে।”
“মধ্যবিত্ত বা গরিবদের চেয়ে বড়লোকরা বেশি লাভবান হবেন এবং আপনি সাধারণত যে রীতি দেখতে চান এটি তার বিরুদ্ধে,” যোগ করেন গেটস।
ইতোমধ্যেই নিজের ব্যক্তিগত সম্পদ থেকে চার হাজার কোটি মার্কিন ডলার দাতব্য সংস্থায় দান করেছেন গেটস। এবিষয়ে তিনি বলেন, “সব গণতান্ত্রিকদের এ বিষয়ে চিন্তা করতে হবে।”
