আগামী ৮ নভেম্বর যুক্তরাষ্ট্রের প্রেসিডেন্ট নির্বাচন অনুষ্ঠিত হওয়ার কথা রয়েছে। সাইবার অপরাধীরা এই নির্বাচনকে প্রভাবিত করার চেষ্টা করছে, এমন বেশ কিছু আশঙ্কা তদন্ত করে দেখছেন দেশটির জাতীয় নিরাপত্তা কর্মকর্তারা, জানিয়েছে রয়টার্স।
ধারণা করা হচ্ছে হ্যাকারদল ইতোমধ্যেই অনেকগুলো অঙ্গরাজ্যের ভোটিং সিস্টেমে প্রবেশ করেছে।
মার্কিন নির্বাচনের রিপাবলিকান প্রার্থী ডোনাল্ড ট্রাম্প এর আগে বারবার অভিযোগ করেছেন যে, যুক্তরাষ্ট্রের নির্বাচনী সিস্টেমে "কারচুপি" করা হয়। এ ছাড়াও কংগ্রেসে শীর্ষস্থানীয় ডেমোক্রেট নেতাগণ অভিযোগ করেছেন উভয় দলের তথ্য এবং ভোটিং সিস্টেমের নিয়ন্ত্রণ নিতে বারবার চেষ্টা চালানো হয়েছে। এর পেছনে রাশিয়ার হাত রয়েছে বলেও ধারণা করছেন তারা।
জনসন এক বিবৃতিতে জানান, "সাম্প্রতিক মাসগুলোতে ক্ষতিকারক সাইবার হামলাকারীরা অনেকগুলো অঙ্গরাজ্যের সিস্টেম স্ক্যান করে আসছে যেগুলো অনধিকার প্রবেশের কারণ হতে পারে। কিছু ক্ষেত্রে আমরা দেখেছি যে ক্ষতিকারক ভাইরাস ভোটিং সিস্টেমে প্রবেশ করেছে। যদিও এই মূহুর্তে আমরা জানিনা কোনো তথ্য পরিবর্তন করা হয়েছে কি না?"
