দুর্গম এলাকায় ইন্টারনেট পৌঁছে দেওয়ার উপযোগী করে এই ড্রোন তৈরি করা হয়েছিল। এর আগেও গরম বাতাসপূর্ণ বেলুন ব্যবহার করে ‘লুন’ নামের একইরকম আরেকটি প্রকল্প হাতে নেওয়া হয়েছিল বলে।
প্রতিষ্ঠানটির প্রকল্পের সৌরচালিত যান কারিগরি সমস্যা আর তহবিল সংগ্রহে চ্যালেঞ্জের সম্মুখীন হচ্ছিল বলে জানানো হয় বিবিসির এক প্রতিবেদনে।
২০১৬ সালের শুরুর দিক থেকেই টাইটান বন্ধ রয়েছে এমন খবর বুধবার ৯টু৫ গুগল ব্লগে প্রকাশ করা হয়। টাইটানের দায়িত্বপ্রাপ্ত গুগল এক্স-এর এক বিবৃতিতে এই খবর নিশ্চিত করা হয়েছে।
প্রতিষ্ঠানের এক বিবৃতিতে বলা হয়, “২০১৫ সালের শেষের দিকে টাইটান-কে এক্স-এ আনা হয়। বেশি উচ্চতায় চলাচলকারী যানবাহনে বেতার ইন্টারনেট সংযোগ স্থাপনের পরই আমরা আমাদের অন্বেষণের সমাপ্তি টেনেছিলাম।”
“আর্থিক আর কারিগরি দিক থেকে আমাদের আগের প্রকল্প লুন বিশ্বের দূরবর্তী স্থানে সংযোগ স্থাপনে তুলনামুলকভাবে বেশি কার্যকর ছিল।”
২০১৪ সালে গুগল এক নিলামে ইন্টারনেট সংযোগদাতা ড্রোন টাইটান অ্যারোস্পেস-কে কিনে নেয়। সে সময় নিলামে ফেইসবুকও অংশ নেয়। কারণ তারাও একই ধরনের প্রকল্পে কাজ করছে।
২০১৫ সালে পরীক্ষামূলক ফ্লাইট শুরু করার পরেই প্রতিবেদনে বলা হয়, টাইটান কারিগরি সমস্যার সম্মুখীন হচ্ছে আর তহবিল সংকটে রয়েছে। একই বছরের মাঝামাঝি সময়ে অ্যারিজনা মরুভূমিতে এর ডানায় ত্রুটির কারণে টাইটান ক্র্যাশ করে।
