ইনটেল, এএমডি আর এআরএম-এর বানানোর চিপগুলোতে ‘গুরুতর নিরাপত্তা ত্রুটি’ আছে বলে জানিয়েছেন গুগল গবেষকরা, খবর বিবিসি’র।
ব্রিটিশ সংবাদমাধ্যমটির প্রতিবেদনে বলা হয়, প্রযুক্তি খাত এই সমস্যা নিয়ে কয়েক মাস যাবৎ অবগত আর এই ত্রুটির বিস্তারিত প্রকাশ হওয়ার আগেই তা সমাধানের আশা করা হচ্ছে।
যুক্তরাজ্যের জাতীয় সাইবার নিরাপত্তা কেন্দ্র (এনসিএসসি)-এর পক্ষ থেক বলা হয়, এই ত্রুটি লঙ্ঘন হয়েছে বলে এখনও কোনো প্রমাণ পাওয়া যায়নি।
সফটওয়্যার আপডেট দিয়েই ঠিক করে ফেলা সম্ভব এমন কিছু সমাধান ইতোমধ্যে নিয়ে আসা হয়েছে বা সামনের কয়েকদিনের মধ্যেই আনা হবে বলে জানিয়েছে চিপ নির্মাতা জায়ান্ট ইনটেল।
