“আমরা পরিবার/কাজ/আর্থিক/হাউজিং সম্পর্কিত সব ‘ভেরিফাইড’ টুইটার অ্যাকাউন্ট দিয়ে একটি অনলাইন ডেটাবেইস তৈরীর চিন্তা করছি।”এক টুইটে জানায় উইকিলিকস টাস্ক ফোর্স, যা পরে মুছে ফেলা হয়।
প্রথম টুইটটি মুছে ফেলার পরপরই ঐ অ্যাকাউন্ট থেকে আবারও একই টুইট করা হয়। তবে, পরেরবার তা কম আক্রমণাত্মক ছিল, বলে জানিয়েছে ভারতীয় সংবাদমাধ্যম আইএএনএস।
অ্যাকাউন্ট থেকে করা টুইটে আরও বলা হয়, "আমরা স্পষ্টত (বাবা/শেয়ার হোল্ডার/পার্টি সদস্য) বিচ্ছিন্ন কিছু খুঁজছি, যা-কে আমাদের এআই (কৃত্রিম বুদ্ধিমত্তা) সফটওয়্যারের মধ্যে রেখে দেওয়া যেতে পারে। এ ব্যাপারে অন্য কোনো পরামর্শ?”
আনুষ্ঠানিকভাবে মাইক্রোব্লগিং সাইটটি দ্বারা নিশ্চিত করার পরই কোনো অ্যাকাউন্ট ‘ভেরিফাইড’ বা ‘যাচাইকৃত’ বলে ধরা হয়।
উইকিলিকসের টুইটের বিষয়ে জানানো প্রতিক্রিয়ায় টুইটারের পক্ষ থেকে বলা হয়, “অন্য ব্যক্তির ব্যক্তিগত এবং গোপন তথ্য পোস্ট করলে টুইটারের নিয়ম লঙ্ঘিত হয়।”
ব্রিটিশ অভিনেতা ইথান লরেন্স, যার টুইটারে ভেরিফাইড অ্যাকাউন্ট রয়েছে তিনি উইকিলিকসের এমন টুইটের কঠোর সমালোচনা করে বলেন, “আমি মনে করি এই পরিকল্পনা খুব রোমাঞ্চকর। আমার মনে হয় তুমি অদ্ভুত। আমি আশা করছি কেউ আপনার ঘর ভেঙ্গে আপনার আসবাবপত্র পুনর্বিন্যাস করুক।”
