সাধারণত বাজারের প্রচলিত গেইমিং নোটবুকগুলো আকারে বেশ বড় এবং ওজনে  ভারী হয়ে থাকে। নতুন আরওজি জেফ্রাস এখন পর্যন্ত বাজারের সবচেয়ে হালকা ও পাতলা হাই-এন্ড গেইমিং ল্যাপটপ বলে দাবী করেছে আসুস।
ক্রেতারা চাইলে এখনই প্রিবুকওআরজি ডটকম থেকে জেফ্রাস নোটবুকটি প্রি-বুক করতে পারবেন বলে আসুস-এর পক্ষ থেকে বলা হয়েছে।
এই গেইমিং ল্যাপটপটিতে রয়েছে এনভিডিয়া জিফোর্স এর সর্বশেষ গ্রাফিক্সকার্ড জিটিএক্স ১০৮০ ম্যাক্স-কিউ। এতে ব্যবহার করা হয়েছে ৭ম প্রজন্মের ইনটেল কোর আই৭ এইচকিউ প্রসেসর আর ২৪ গিগাবাইট র‍্যাম। আর ফাস্ট ডেটা স্টোরেজের জন্য এতে আছে এম২ এসএসডি।
