১৭ অগাস্ট প্রতিষ্ঠানের এক প্রতিবেদনে জানানো হয়, এই প্রান্তিকের আয় যেমনটি ধারণা করা হয়েছিল তার চেয়ে ভালো। প্রত্যাশার তুলনায় আয় বেশি ইলেকট্রনিক পণ্যের 'চ্যালেঞ্জিং পরিবেশের' জন্য বছরের বাকিটা সময় এর বাহ্যিক প্রকাশ কিছুটা কমিয়ে রাখা হয়েছে বলে জানান প্রতিষ্ঠানের প্রধান নির্বাহী ব্রায়ান কর্নেল।
"ইলেকট্রনিক পণ্যের উপর চাপের কারণে দ্বিতীয় প্রান্তিকে গত এক বছরে প্রতিষ্ঠানের খোলা দোকানগুলোতে মোট বিক্রির পরিমাণের উপর ৭০ বেসিস পয়েন্ট কমেছে," বলেন ব্রায়ান।
আর এই চাপের একটি বড় অংশ জুড়ে রয়েছে অ্যাপল পণ্য। এই প্রান্তিকে অ্যাপল পণ্যের বিক্রি কমেছে ২০ শতাংশ। কর্নেল আরও জানান এটি শুধু একটি অ্যাপল পণ্যের দূর্বলতা নয়। এরই মধ্যে বিক্রি বাড়াতে অ্যাপল এবং অংশীদারদের সঙ্গে কাজ করছে টার্গেট।
এ বছরের শুরুতে ব্যপকভাবে কমে যায় আইফোনে বিক্রি। নয় বছরের ইতিহাসে এবারই প্রথম আইফোনের বিক্রি কমেছে বলে স্বীকার করেছে অ্যাপল।
