অলিম্পিক গেইমসের উদ্বোধনী উপলক্ষে ওয়েব জায়ান্ট গুগল তাদের নতুন 'ইন্টারঅ্যাকটিভ' ডুডলের একটি সিরিজ চালু করেছে।
"পরবর্তী কয়েক সপ্তাহ নারকেল, স্ট্রবেরি এবং তরমুজ আর ঘোড়দৌড় এবং অন্যান্য শক্তি এবং অন্যান্য কৌশলও মধ্যে প্রতিদ্বন্দ্বিতা হবে এই ডুডলের মাধ্যমে", নতুন চালু হওয়া ডুডল সম্পর্কে বলে মার্কিন প্রতিষ্ঠানটি।
অ্যান্ড্রয়েড আর আইওএস ডিভাইসে গুগল ডুডলে 'ট্যাপ' করে ব্যবহারকারীরা এসব গেইমে অংশ নিতে পারেন। ডুডলের গেইমগুলো অলিম্পিক গেইমসের গেইমগুলোরই প্রতিফলন।
এতে আছে অলিম্পিক গেইমসের চিরাচরিত ইভেন্ট যেমন- ট্র্যাক অ্যান্ড ফিল্ড, সাঁতার , এবং সাইক্লিংসহ বেশ কিছু প্রতিযোগিতা।
