ওই উপদেষ্টা বলেছেন, গুগলের কোনো ‘স্থায়ী স্থাপনা’ বা কর দেওয়ার জন্য যথেষ্ট উপস্থিতি নেই যার জের ধরে প্রতিষ্ঠানটিকে ১১১.৫ কোটি ইউরো কর পরিশোধের জন্য ধরা যাবে। প্যারিসের আদালতের বিচারকরা চলতি বছর জুলাইয়ের মাঝামাঝি সময়ে এই মামলা নিয়ে রায় দেওয়ার কথা, রয়টার্সকে বলেন আদালতের কর্মকর্তা।
২০১৬ সালের মে মাসে কর জালিয়াতি তদন্তের অংশ হিসেবে অ্যালফাবেট অধীনস্থ গুগলের প্যারিস কার্যালয়ে তল্লাশি চালান ফরাসি অর্থ বিভাগের কর্মকর্তারা। ২৪ মে সকালে ফ্রান্সের প্রায় একশ' জন কর কর্মকর্তা গুগলের ওই কার্যালয়ে প্রবেশ করে। গুগলের বিরুদ্ধে ফ্রান্সে ১৬০ কোটি মার্কন ডলার অপরিশোধিত করের অভিযোগ আনা হয়।
গুগলের ক্ষেত্রে, এর কর ব্যবস্থাপনা প্রতিষ্ঠানের কোনো ব্যবসায় যুক্তরাজ্য সম্পর্কিত হলেও তার জন্য আয়ারল্যান্ডে কর পরিশোধ করা অনুমোদন করে। ২০১৬ সালের জানুয়ারিতে প্রতিষ্ঠানটি যুক্তরাজ্য কর কর্তৃপক্ষের সঙ্গে একটি চুক্তি করে। ওই চুক্তি অনুযায়ী ২০০৫ সালের জন্য প্রতিষ্ঠানটিকে বাড়তি ১৩ কোটি ডলার পরিশোধের জন্য বলা হয়। যদিও চুক্তিটির ব্যাপক সমালোচনা হয় বলে সে সময় বিবিসি’র প্রতিবেদনে উল্লেখ করা হয়।
