একই স্ক্রিনে একই সময়ে দুটি অ্যাপ চালানোর সুযোগ দেবে মোবাইল অপারেটিং সিস্টেম-এর নতুন এই সংস্করণ। সেই সঙ্গে এটি ডিভাইস-কে আগের চেয়ে জটিল থ্রিডি গ্রাফিক্স চালাতে সক্ষমতা দেবে বলে জানিয়েছে বিবিসি।
অ্যান্ড্রয়েডের নতুন সংস্করণ এখনই সব ডিভাইসে পাওয়া যাচ্ছে না। আপাতত এখন শুধু নেক্সাস-ব্র্যান্ডের হ্যান্ডসেট আর ট্যাবলেটে এই আপডেট পাওয়া যাবে।
আসন্ন একটি এলজি হ্যান্ডসেটে আগে থেকেই এই অ্যান্ড্রয়েড সংস্করণ চালু থাকবে বলে জানিয়েছে মার্কিন ওয়েব জায়ান্ট প্রতিষ্ঠানটি। কিন্তু অন্যান্য হ্যান্ডসেট নির্মাতাদের আগে নিজেদের যাচাইয়ের পরই এই অপারেটিং সিস্টেমের জন্য ডিভাইস বানাতে হবে।
