এই রায়ের বিরুদ্ধে আপিল করতে আইরিশ সরকারের নেওয়া সিদ্ধান্তের প্রেক্ষিতে এই আলোচনা করা হবে বলে জানিয়েছে রয়টার্স।
মঙ্গলবার রাতে এই রায় নিয়ে আইরিশ সংসদ সদস্যদের ১৬ পৃষ্ঠার দলিল পাঠিয়েছে দেশটির ডিপার্টমেন্ট অফ ফিনান্স।
এর আগে অ্যাপল-কে অর্থ পরিশোধে ইইউ’র দেওয়া আদেশ প্রকৃত অবস্থা আর প্রচলিত আইনেই হয়েছে বলে দাবি করেছেন ইউরোপিয়ান কমিশন-এর প্রেসিডেন্ট জাঁ-ক্লদ জাঙ্কার। এই সিদ্ধান্ত মার্কিন যুক্তরাষ্ট্রের বিরুদ্ধে উদ্দেশ্য করেও নেওয়া হয়নি বলে রোববার জানিয়েছেন তিনি।
কর ব্যবস্থার উপর ইইউ কমিশন-এর তদন্ত প্রধানত ইউরোপিয়ান প্রতিষ্ঠানগুলোকে লক্ষ্য করেই চালানো হয়েছে বলে জানান জাঙ্কার।
অন্যদিকে, আলাদা এক বিবৃতিতে ওইসিডি সেন্টার ফর ট্যাক্স পলিসি অ্যান্ড অ্যাডমিনিস্ট্রেশন-এর চেয়ারম্যান পাসকাল সেইন্ট-আমানস ও জাঙ্কার-এর সঙ্গে সুর মেলান। তিনি অ্যাপলের কর পরিকল্পনা-কে ‘জঘন্য’ আখ্যা দিয়ে এই রায় বর্তমান নীতিমালা প্রয়োগ করেই হয়েছে বলে মত দেন।
মার্কিন আইনপ্রণেতারা অফশোর আয়ের ব্যবস্থা নিয়ে কয়েক বছর ধরেই বাক-বিতণ্ডা চালাচ্ছেন। জাঙ্কার-এর এমন মন্তব্য মার্কিন আইনপ্রণেতার নিশ্চয়তা প্রদানেই দেওয়া বলেও প্রতিবেদন প্রকাশিত হয়। এখন ইউরোপিয়ান কমিশনের এমন পদক্ষেপে মার্কিন প্রতিষ্ঠানগুলোর লাভের আরও অংশ ইউরোপিয়ান কর ভাণ্ডারে যাওয়ার আশঙ্কা জন্ম নিল।
যুক্তরাষ্ট্রের ভাণ্ডারে থাকা রাজস্ব হাতিয়ে নেওয়ার উদ্দেশ্যে ইউরোপিয়ান ইউনিয়ন এমন রায় দিয়েছে বলেও অভিযোগ তোলে মার্কিন যুক্তরাষ্ট্র। কিন্তু এটি যুক্তরাষ্ট্র-কে উদ্দেশ্য করেই করা, এমন অভিযোগ মানতে নারাজ জাঙ্কার। তিনি বলেন, “এই সিদ্ধান্ত মার্কিন যুক্তরাষ্ট্রের বিরুদ্ধে নয়।”
তার আগে অ্যাপল-কে এই অর্থ পরিশোধের আদেশ দিতে ইউরোপিয়ান কমিশন অধিকার রাখে বলে বুধবার মত দেন ফ্রান্সের অর্থমন্ত্রী মিশেল সাপিন।
অক্টোবরের শেষ মঙ্গলবার কর মামলায় মার্কিন টেক জায়ান্ট অ্যাপলকে ১৩০০ কোটি ইউরো পরিশোধের আদেশ দেয় ইউরোপিয়ান কমিশন। এরই প্রেক্ষিতে অ্যাপলের ওয়েবসাইটে প্রতিষ্ঠান প্রধান টিম কুক-এর একটি বিবৃতি প্রকাশ করা হয়।
বিবৃতিতে ইউরোপিয়ান কমিশনের সিদ্ধান্ত কেন ‘ভুল’ সেটি ব্যাখ্যা করার চেষ্টা করেছে অ্যাপল। কুক যে বিষয়টি স্পষ্ট করতে চেয়েছেন সেটি হল- ইউরোপিয়ান কমিশন ইউরোপের আইন আয়ারল্যান্ডের ওপর ‘চাপিয়ে দেওয়ার চেষ্টা করেছে।’
