মার্কিন দৈনিক ওয়াশিংটন পোস্ট-এর সঙ্গে এক সাক্ষাৎকারে কুক বলেন, অ্যাপল বাস্তব জীবনের উপর ডিজিটাল ছবি চিত্রায়িত করা প্রযুক্তি, অগমেন্টেড রিয়ালিটি নিয়ে “অনেক কিছু করছে”। 
কুক বলেন, “আমি মনে করি, এআর অত্যন্ত চমৎকার আর গুরুত্বপূর্ণ প্রযুক্তি। এ কারণেই, হ্যাঁ, এটি একটি কিছু যা নিয়ে পর্দার আড়ালে আমরা অনেক কিছু করছি।”
অ্যাপল যে এআর-এর প্রতি আগ্রহী, তা নিয়ে কুক এবারই প্রথম ইঙ্গিত দেননি। সম্প্রতি প্রতিষ্ঠানের আর্থিক প্রতিবেদন ঘোষণার আগে অনেকটা বড় পরিসরের শব্দের মাধ্যমে এমন কিছু ইঙ্গিত করেন তিনি। কিন্তু এবারই প্রথম তিনি এআর-এর কথা উল্লেখ করেন এবং জানান যে তার প্রতিষ্ঠান এটি নিয়ে কাজ করছে, জানিয়েছে ব্যবসায়-বাণিজ্যবিষয়ক মার্কিন সাইট বিজনেস ইনসাইডার।
অ্যাপল এআর ক্ষেত্রে অনেক প্রতিষ্ঠান আর বিশেষজ্ঞকে সঙ্গে নিয়েছে। চলতি বছর জানুয়ারিতে অর্থবিষয়ক দৈনিক ফিনান্সিয়াল টাইমস এক প্রতিবেদনে জানায়, অ্যাপল এর একটি বিভাগ রয়েছে, সেখানে শত শত মানুষ এই প্রযুক্তি নিয়ে কাজ করছে।
