বর্তমানে এমন ফিচারের পরীক্ষা চালাচ্ছে ফেইসবুক মালিকানাধীন ছবি শেয়ারিংয়ের এই সাইট। যেসব গ্রাহক এই ফিচার পরীক্ষায় অংশ নিচ্ছেন তাদেরকে সতর্ক বার্তা দেওয়া হচ্ছে যে, পরবর্তীতে বন্ধুর স্টোরি’র স্ক্রিনশট নেওয়া হলে ওই বন্ধু তা দেখতে পারবেন, বলা হয়েছে প্রযুক্তিবিষয়ক সাইট টেকক্রাঞ্চ-এর প্রতিবেদনে।
পরীক্ষায় অংশগ্রহণকারী গ্রাহকরা স্টোরি দেখেছেন এমন বন্ধুর তালিকা থেকে কোন গ্রাহক স্ক্রিনশট নিয়েছেন তা দেখতে পারবেন। যারা স্ক্রিনশট নিয়েছেন তাদের নামের পাশে ক্যামেরা শাটার লোগো দেখানো হবে বলে প্রতিবেদনে উল্লেখ করা হয়েছে।
এক্ষেত্রে যে গ্রাহকের স্টোরির স্ক্রিনশট নেওয়া হয়েছে তাকে সরাসরি কোনো সতর্ক বার্তা দেওয়া হবে না। তিনি স্টোরি দেখেছেন এমন গ্রাহকের তালিকা থেকেই তা বের করতে পারবেন।
