চলতি মাসের শুরুতে আসা বিনামূল্যের নতুন এক টুল পর্নোগ্রাফিক ভিডিওতে চেহারা বদলে দেওয়ার এই প্রক্রিয়া সহজ করে দেয়। এরপরই এ ধরনের ভিডিও আরও প্রচলিত হয়ে উঠে বলে উল্লেখ করা হয় বিবিসি’র প্রতিবেদনে।
এই ধরনের ভিডিও শনাক্ত করার পর সার্ভার থেকে সরিয়ে দিয়েছে কনটেন্ট হোস্টিং সাইট জিফিক্যাট। যুক্তরাষ্ট্রের স্যান ফ্রানসিসকোভিত্তিক এই সাইটটির পক্ষ থেকে বলা হয়, তাদের মতে এই কনটেন্টগুলো “আপত্তিকর”।
এটি করতে বিশ্লেষণার জন্য যার চেহারা বসানো হবে তার কয়েকশ’ ছবি আর যে ভিডিওতে চেহারা বদলানো হবে সেটি দরকার হয়। এর ফলে যে নতুন ভিডিও তৈরি হয় তা ‘ডিপফেইকস’ নামে পরিচিত। চেহারা বদলে দিলেও এই ভিডিও’র মান মূল ভিডিও’র তুলনায় ভিন্ন হয়। কিন্তু কিছু ক্ষেত্রে যার চেহারা বদলানো হবে আর যার চেহারা বসানো হবে তাদের গঠনে যদি মিল থাকে তবে পার্থক্যটা বোঝা যায় না-- বলা হয়েছে প্রতিবেদনটিতে।
কেউ কেউ পর্নোগ্রাফিক নয় এমন কনটেন্ট তৈরিতেও এই প্রযুক্তি ব্যবহার করেছেন। এমন ভিডিওগুলোর মধ্যে একটিতে দেখা যায়, জার্মান চ্যান্সেলর এঙ্গেলা মের্কেল-এর চেহারার জায়গায় মার্কিন প্রেসিডেন্ট ডোনাল্ড ট্রাম্প-এর চেহারা বসানো হয়েছে।
এ ধরনের কনটেন্টের অনেক নির্মাতা তাদের ভিডিও ক্লিপগুলো জিফিক্যাট-এ আপলোড করেছে। ছোট ভিডিওগুলো হোস্ট করতে এই সেবা ব্যবহার করা হয়। জিফিক্যাট প্রাপ্তবয়স্কদের কনটেন্টের অনুমতি দেয় কিন্তু চলতি সপ্তাহের শুরুতে তারা কিছু ডিপফেইক ভিডিও সরানো শুরু করে। এ নিয়ে সবার আগে খবর প্রকাশ করে প্রযুক্তিবিষয়ক সাইট মাদারবোর্ড। 
সংক্ষিপ্ত এক বিবৃতিতে জিফিক্যাট-এর পক্ষ থেকে বলা হয়, “আমাদের শর্তাবলী আমারা যেসব কনটেন্ট আপত্তিকর হিসেবে পাই সেগুলো সরানোর অনুমোদন দেয়। আমরা সক্রিয়ভাবে এসব কনটেন্ট সরাচ্ছি।” 
