মঙ্গল গ্রহে বসতি স্থাপনের প্রকল্প নিয়ে কথা রেডিট-এর সঙ্গে কথোপকথন চলাকালে এই পরিকল্পনার কথা বলেন তিনি। সম্প্রতি মঙ্গল গ্রহে স্থায়ী বসতি স্থাপনের লক্ষ্যে সেখানে প্রথম মানুষ নেওয়ার পরিকল্পনা প্রকাশ করে স্পেসএক্স।
২০২২ সাল থেকেই মঙ্গল গ্রহে মানুষ পাঠানো শুরু করার পরিকল্পনা রয়েছে প্রতিষ্ঠানটির। চলতি বছরের সেপ্টেম্বরে মঙ্গলে বসতি স্থাপনের ব্যাপারে বিস্তারিত পরিকল্পনা উন্মোচন করেন ইলন মাস্ক। এবার এই অনুষ্ঠানে সেখানে মানুষ কিভাবে বসবাস করবেন সেটি নিয়ে কথা বললেন।
মাস্ক জানান, মানুষ সম্ভবত কার্বন ফাইবার ফ্রেমের বিশাল আকৃতির কাঁচের ঘরে বসবাস করবে। আর কারখানা তৈরির জন্য রোবট দিয়ে ভূপৃষ্ঠ খনন করা হবে। মঙ্গলে এই কাঁচের গম্বুজ আকৃতির ঘরগুলোকে বলা হচ্ছে 'এএমএ'। এই ঘরগুলো তৈরিতে সেখানে অনেকগুলো খননকারী রোবট নেওয়া হবে বলেও জানানো হয়।
"পরবর্তীতে আপনি কারখানা চালানোর জন্য বিশাল আকৃতির চাপ নির্ভর জায়গা তৈরি করতে পারেন এবং কাঁচের ঘর ছেড়ে সবুজ স্পেসে বসবাস করতে পারেন," বলেন মাস্ক।
