সংকেতায়িত মেসেজিং সেবাদাতা অ্যাপটিতে সম্প্রতি ব্যবহারকারীদের এমন বার্তা পাঠানো হচ্ছে। দেখতে সত্যিই ক্রীড়া সরঞ্জাম নির্মাতা ও বিক্রেতা জার্মান প্রতিষ্ঠান অ্যাডিডাস কর্তৃপক্ষ পাঠিয়েছে বলে মনে হলেও এই বার্তা আসলে ভুয়া, বলা হয়েছে আইএএনএস-এর প্রতিবেদনে।   
এই লিঙ্কে কেউ ক্লিক করলে ব্যবহারকারীর ব্যক্তিগত তথ্য সাইবার অপরাধীরা হাতিয়ে নিতে পারে বলে সতর্ক করেছেন বিশেষজ্ঞরা।
ইতোমধ্যে প্রতারণার উদ্দেশ্যে ছাড়া এই বার্তা কয়েক হাজার ব্যবহারকারীর কাছে পাঠানো হয়েছে বলে রোববার এক প্রতিবেদনে উল্লেখ করেছে ব্রিটিশ দৈনিক এক্সপ্রেস।
এই বার্তা যে ভুয়া তা নিশ্চিত করেছে অ্যাডিডাস।  
