ইতোমধ্যেই  স্যান হুয়ান-এর একটি শিশু হাসপাতাল ‘হসপিটাল ডেল নিনো’-তে সোলার প্যানেল ও ব্যাটরি বসিয়েছে বৈদ্যুতিক গাড়ি নির্মাতা মার্কিন প্রতিষ্ঠানটি, বলা হয়েছে বিবিসি’র প্রতিবেদনে।
সূর্যের আলো যখন দূর্লভ হবে তখন প্যানেল থেকে শক্তি সরবরাহ করবে ব্যাটারি। এক টুইট বার্তায় টেসলা জানায়, “এমন ধরনের অনেকগুলো প্রকল্পের মধ্যে প্রথমটি চালু হচ্ছে।”
পুয়ের্তো রিকো’র মানবিক অবস্থা বিবেচনায় নিজের অর্থ থেকে আড়াই লাখ মার্কিন ডলার অনুদান দিয়েছেন টেসলা প্রধান ইলন মাস্ক। এখনও অঞ্চলটির অনেক নাগরিক বিদ্যুৎ ছাড়া জীবন যাপন করছেন বলে প্রতিবেদনে উল্লেখ করা হয়।
চলতি মাসের শুরুতে পুয়ের্তো রিকোর শক্তি কাঠামো পুনরায় তৈরি করতে টুইটারের মাধ্যমে প্রস্তাব দেন টেসলা’র সহ-প্রতিষ্ঠাতা। এর জবাবে মার্কিন অঞ্চলটির গভর্নর রিকার্ডো রোজেলো বলেন, “আসুন কথা বলি।”
হাসপাতালে টেসলার প্রকল্প নিয়ে ইতোমধ্যেই টুইটারে ধন্যবাদ জানিয়েছেন রোজেলো।
পুয়ের্তো রিকোর পাওয়ার গ্রিড মেরামত করতে ৩০ কোটি মার্কিন ডলারের চুক্তি করা হয়েছে দেশটির দুই বছর পুরানো প্রতিষ্ঠান হোয়াইটফিশ এনার্জি হোল্ডিংস-এর সঙ্গে। যেখানে প্রতিষ্ঠানের কর্মী রয়েছেন দুইজন।
এ নিয়ে সমালোচনা শুরু হলে চলতি সপ্তাহে এর পক্ষে যুক্তি দিয়েছেন রোজেলা। রোজেলা বলেন, কম মূল্যে পাওয়ার গ্রিড মেরামতে শুধু হোয়াইটফিশ এনার্জি হোল্ডিংস-ই তাদের দাবি মেটাতে পেরেছে।
অন্যদিকে বৈদ্যুতিক গাড়ি তৈরিতেই পরিচিত টেসলা। সাম্প্রতিক সময়ে নবায়নযোগ্য শক্তি খাতেও ব্যবসা বাড়াতে মনযোগ দিয়েছে প্রতিষ্ঠানটি।
অস্ট্রেলিয়াতে ১০০ মেগাওয়াট শক্তি তৈরি লক্ষ্যে পাওয়াপ্যাক ব্যাটারি স্থাপনের কাজ করছে টেসলা। চালু হলে এটি হবে বিশ্বের সবচেয়ে বড় লিথিয়াম আয়ন ব্যাটারি স্টোরেজ প্রকল্প।
