‘বিম বাটন’ নামের এই গ্যাজেটটি স্মার্টফোনের সঙ্গে যুক্ত করতে পারবেন গ্রাহক। এর মাধ্যমে পরিবেশবিষয়ক কোনো তথ্য বা ব্যাঙ্গাত্মক চিত্র এক ঘন্টার জন্য দেখানো যাবে।
স্থির চিত্রের পাশাপাশি স্লাইডশো এবং জিফ দেখাতে পারবেন গ্রাহক, বলা হয়েছে প্রযুক্তিবিষয়ক সাইট এনগ্যাজেট-এর প্রতিবেদনে।
এই পর্দায় শুধু নিজের তৈরি করা কনটেন্টগুলোই দেখানো যাবে না, গ্রাহক চাইলে অন্যের কনটেন্টও দেখাতে পারবেন। কিছু কিছু পেইড কনটেন্টও পাওয়া যাবে এতে। ডিভাইসটির মাধ্যমে গ্রাহক অনুদানও দিতে পারবেন বলে জানানো হয়েছে।
ছবি দেখানোর পাশাপাশি জরুরি অবস্থায় এর মাধ্যমে বার্তাও দেওয়া যাবে। গ্রাহকের সঙ্গে সম্পর্ক রয়েছে এমন চারজন ব্যক্তিকে জরুরি বার্তা ও গ্রাহকের অবস্থান জানাবে ডিভাইসটি।
