ফিঙ্গারপ্রিন্ট যুক্ত স্মার্টফোন বিক্রির ক্ষেত্রে বাজারে নেতৃত্ব দিচ্ছে স্যামসাং, বলা হয়েছে আইএএনএস-এর প্রতিবেদনে। দক্ষিণ কোরীয় ইলেকট্রনিকস জায়ান্ট এই প্রতিষ্ঠানের দখলে আছে বাজারের ১২ শতাংশ। এরপরেই তালিকায় অবস্থান নিয়ে আছে মার্কিন টেক জায়ান্ট অ্যাপল আর চীনা স্মার্টফোন জায়ান্ট হুয়াওয়ে। এই দুই প্রতিষ্ঠান যথাক্রমে ১১ ও আট শতাংশ বাজার দখলে রেখেছে। ২০১৭ সালে দ্বিতীয় প্রান্তিকের এই হিসাব শুক্রবার প্রকাশ করেছে বাজার গবেষণা প্রতিষ্ঠান কাউন্টারপয়েন্ট রিসার্চ। 
ডিজিটাল লেনদেন ও মোবাইল ব্যাংকিংয়ের মতো সেবাগুলো দ্রুত বাড়তে থাকায়, মূল পণ্য নির্মাতাদের কাছে নিরাপত্তার জন্য ফিঙ্গারপ্রিন্ট ফিচার আদর্শ পছন্দ হয়ে উঠছে।
কাউন্টারপয়েন্ট রিসার্চ-এর গবেষণা পরিচালক নিল শাহ্‌ বলেন, “বিক্রি ক্ষেত্রে সব মিলিয়ে হিসাব করলে অ্যাপল আর শিয়াওমি এগিয়ে আছে, এদের পরে আছে হুয়াওয়ে আর অপ্পো।” তিনি আরও বলেন, “স্যামসাং, জেডটিই আর এলজি মোট বিক্রির ক্ষেত্রে তাদের প্রতিদ্বন্দ্বীদের থেকে তুলনামূলক পিছিয়ে আছে।”
