সামনের সপ্তাহে প্রতিষ্ঠানটি তাদের ‘রেড প্রোডাক্ট লাইন’ বিস্তৃত করবে আর অ্যাপল পে-এর মাধ্যমে করা প্রতি লেনদেনের জন্য এক ডলার করে দান করবে, জানিয়েছে রয়টার্স। রেড প্রোডাক্ট হচ্ছে বিশেষ রঙয়ের পণ্য, যা সহযোগী প্রতিষ্ঠানগুলো এইডস নিয়ে সচেতনতা বাড়াতে তৈরি করে। এই পণ্যগুলো বিক্রির মাধ্যমে হওয়া লাভের অর্ধেক এইডস-এর বিরুদ্ধে লড়াইয়ে দান করা হয়। 
ওই সাক্ষাৎকারে কুক বলেন, “এখনও অনেক লোক এইডস-এর কারণে মারা যাচ্ছে, অনেক শিশু এইচআইভি নিয়েই জন্ম নিচ্ছে আর আমরা সত্যিই শক্ত চাপ অব্যাহত রাখছি।”
জাতিসংঘের অধীনে এইচআইভি নিয়ে কাজ করা সংস্থা ইউএনএইডস-এর প্রত্যাশা মতো এখন থেকে প্রতিদিন চারশ’ করে কমিয়ে ২০২০ সালের মধ্যে এইচআইভি নিয়ে জন্ম নেওয়া শিশুর সংখ্যা শূন্যের কাছাকাছি নিয়ে যাওয়া সম্ভব, জানায় অ্যাপল।
কুক রয়টার্স-কে জানান, শুধু একটি চেক লিখে দেওয়ার চেয়ে অ্যাপল তাদের গ্রাহকদের মধ্যে সতর্কতা বাড়িয়ে অনেক বড় প্রভাব রাখতে পারে। “আমরা যখন কোনো কিছুতে আমাদের নিয়ে আসি, এটি অর্থের চেয়ে অনেক বেশি কিছু বোঝায়”, বলেন তিনি।
