চলতি মাসে দুটি আলাদা টিভি চ্যানেল আর ইউটিউবে দেখানো বিজ্ঞাপনে অ্যাপলের পণ্য ব্যবহারে ব্যবহারকারীদের থাকা কিছু সীমাবদ্ধতার কথা তুলে ধরেছে একই দেশের অন্য দুই প্রযুক্তি জায়ান্ট গুগল আর মাইক্রোসফট।
মঙ্গলবার অ্যাপলের 'আইপ্যাড প্রো' আর 'সিরি'-এর সঙ্গে সারফেইস প্রো ৪ ট্যাবলেট আর কর্টানা স্মার্ট অ্যাসিস্ট্যান্স নিয়ে লড়াইয়ে নেমেছে মাইক্রোসফট, ভাষ্য সিএনএন-এর। মাইক্রোসফট-এর নতুন ওই বিজ্ঞাপনে দেখা যায়, 'আইপ্যাড' আর 'সিরি' নতুন কিবোর্ড পেয়ে পার্টির আয়োজন করছে। বিজ্ঞাপনে, সিরি, কর্টানা-কে বলে, "আমি এখন তোমার মতোই একটি কম্পিউটার"। কর্টানা বলে, "তাহলে কি তোমার ইনটেল কোর প্রসেসরের মতো ক্ষমতা আছে?" প্রত্যুত্তরে সিরি জানায়, "আমি বলেছি, আমি শুধুই একটি কিবোর্ড পেয়েছি"।
মাইক্রোসফট তারপর কর্টানার সঙ্গে সারফেইস প্রো ৪-এর কিছু ফিচার প্রদর্শন করে, যা শেষ পর্যন্ত সিরি-কে স্বীকার করতে বাধ্য করে, "মনে হয় পার্টির ধারণা খুব একটা ভাল ছিল না"।
বছরের পর বছর ধরে, অ্যাপল আর মাইক্রোসফট এক অপরের সঙ্গে বিপণন প্রচারণাতেও প্রতিযোগিতা করে আসছে। সেই সঙ্গে অ্যাপল পিসিবিরোধী প্রচারণাও চালাচ্ছে। এরই ধারাবাহিকতায়, জাস্টিন লং এবং জন হগম্যান অভিনীত পিসিবিরোধী একাধিক বিপণন প্রচারণায় অংশ নিচ্ছে ম্যাক নির্মাতারা।
সিএনএন জানিয়েছে, এ বছর মাইক্রোসফট তার বিজ্ঞাপনে "পিসি ম্যাকের চেয়ে বেশি কিছু করতে পারে" - এমন বার্তা তুলে ধরতে চেয়েছে।
গুগল অবশ্য আরেকটু 'ভদ্র' আর 'অমায়িকভাবে' ভাগ বসিয়েছে অ্যাপলের সঙ্গে। অগাস্টের শুরুতেই তারা ৬০ সেকেন্ডের গুগল ফটো অ্যাপ তৈরি করেছে।
তারা প্রচারণার অংশ হিসেবে এক বিজ্ঞাপনে দেখিয়েছে, একটি মেয়ে জন্মদিনে মোমবাতি নেভানোর সময় আর তিমি মাছ পানি থেকে লাফ দেওয়ার সময় ব্যবহারকারী যখন ছবি তুলছেন তখনি একটি পপ-আপ বক্স আসে আর তাতে লেখা থাকে "স্টোরেজ পূর্ণ। আপনার ফোনে পর্যাপ্ত জায়গা নেই।"
