‘@nemuismywife’ নামের অ্যাকাউন্টের ওই ব্যবহারকারী টিভি দেখার সময় একটি মশা তাকে কামড় দিলে এই ঘটনার সূত্রপাত, বিবিসি’র বরাতে আইএএনএস-এর প্রতিবেদনে এ কথা বলা হয়েছে।
ওই ব্যক্তি মশাটিকে মারার পর মৃত মশার একটি ছবি তুলে টুইট করেন। ওই টুইটে তিনি বলেন, “আমি যখন টিভি দেখতে দেখতে বিশ্রামের চেষ্টা করছি তখন তুমি আমাকে কামড়ানোর পর কোথায় যাবে? মর!”
এরপর তিনি টুইটারের কাছ থেকে একটি মেসেজ পান। এতে বলা হয়, তার অ্যাকাউন্ট স্থগিত করে দেওয়া হয়েছে ও এটি পুনরায় চালু করা যাবে না। তিনি ‘@DaydreamMatcha’ নাম দিয়ে নতুন একটি অ্যাকাউন্ট খোলেন। এটি থেকে দেওয়া এক টুইটে তিনি বলেন, “আমি একটি মশা মেরেছি বলার পর আমার আগের অ্যাকাউন্টটি স্থায়ীভাবে বন্ধ করে দেওয়া হয়েছে। এটি কি নীতিমালা লঙ্ঘন?” তার রাগ প্রকাশ করা এই টুইট ৩১ হাজারের বেশি বার রিটুইট করা হয় আর এতে লাইক দেন ২৭ হাজারেরও বেশি ব্যবহারকারী।
