নিনটেনডো জানায় ২০১৭ সালের মার্চ মাসের ৩ তারিখে সুইচ নামের এই কনসোলটি উন্মোচন করবে যা একটি হাইব্রিড হোম কনসোল এবং এটি বহনযোগ্য ডিভাইস। মার্কিন যুক্তরাষ্ট্রে এটির মূল্য হবে ২শ ৯৯ দশমিক ৯৯ ডলার যা নিনটেনডো এর ২০১২ সালে উন্মোচিত হোম ভিডিও গেম কনসোল উই ইউ এর মূল্যের সমান। কিন্তু জাপানে সুইচ এর মূল্য উই ইউ এর থেকে ২০ শতাংশ বেশি এবং মূল্য ২৯,৯৮০ ইয়েন।
নিনটেনডো তাদের আয় বাড়াতে মরিয়া আর প্রতিষ্ঠানটি কনসোল বিক্রির ওপরই অনেকটা নির্ভর করছে।
জাপানভিত্তিক গবেষণা এবং বিনিয়োগকারী প্রতিষ্ঠান ডাল্টন ক্যাপিটাল এর সিনিয়র ফান্ড ম্যানাজার ফুমিও মাতসুমতো জানান, “২৫ হাজার ইয়েন এর মধ্যে মূল্য থাকেলে তা ভালভাবেই গ্রহণযোগ্য হতো কিন্তু মূল্য অনেক বেশির দিকে আছে।”
