ভারতীয় সংবাদমাধ্যম আইএএনএস-এর প্রতিবেদনে বলা হয়, ওয়েব এবং অ্যাপ স্টোর উভয় স্থান থেকেই ম্যাক অ্যাপ সরাতে যাচ্ছে টুইটার।
শুক্রবার @টুইটারসাপোর্ট থেকে এক টুইট বার্তায় বলা হয়, “আমরা প্লাটফর্ম জুড়ে উপযুক্ত টুইটার অভিজ্ঞতা দেওয়ার লক্ষ্যে এগোচ্ছি। তাই আজ থেকে ম্যাক-এর জন্য টুইটার অ্যাপ আর ডাউনলোডের জন্য থাকছে না।”
৩০ দিনের মধ্যে ম্যাক অ্যাপের জন্য সমর্থন দেওয়াও বন্ধ করবে মাইক্রো ব্লগিং সাইটটি। এর মানে গ্রহাককে টুইটার ওয়েবসাইট বা টুইটডেক বা অন্যান্য তৃতীয় পক্ষের অ্যাপ ব্যবহার করতে হবে।
অ্যাপ স্টোর থেকে অ্যাপটি সরানোর আগে এতে গ্রাহকের গড় রেটিং ছিল পাঁচের মধ্যে ১.৭।
