দক্ষিণ কোরিয়ার ফেয়ার ট্রেড কমিশন (কেএফটিসি)- এর  চেয়ারম্যান জিওং জাই -চ্যান রয়টার্সকে বলেছেন তারা পুনরায় পরীক্ষা করে দেখবেন যে অ্যান্ড্রয়েড অপারেটিং সিস্টেমের বাজারে গুগল সঠিক নীতি অবলম্বন করছে কি না। তবে এ ব্যাপারে  বিস্তারিত কোন মন্তব্য করতে রাজি হননি তিনি।
এর আগে ওয়েব জায়ান্ট গুগল নিজ দেশের বাজারে প্রতিযোগিতা টিকিয়ে রাখতে  কোনো আইন ভেঙ্গেছে কি না তা খতিয়ে দেখতে তদন্ত চালিয়েছিল মার্কিন অ্যান্টিট্রাস্ট নিয়ন্ত্রণ কর্তৃপক্ষ।
অ্যান্ড্রয়েড অপারেটিং সিস্টেমে চলে এমন স্মার্টফোনে আগে থেকেই নিজেদের অ্যাপ দিয়ে দেওয়ার বিষয়ে গুগলের বিরুদ্ধে বাজারে প্রতিযোগিতাবিমুখ আচরণের অভিযোগ আছে অনেকদিন ধরেই। এর মানে হচ্ছে গুগলের অপারেটিং সিস্টেম অ্যান্ড্রয়েড চালিত স্মার্টফোনগুলোতে আগে থেকেই গুগলের  নিজস্ব অ্যাপগুলো লোড করা থাকে, এমনকি সার্চের সময় গুগল অ্যাপগুলো আগে প্রদর্শনের অভিযোগও করেছেন কেউ কেউ।
