এই অনুষ্ঠানের বিশেষ অতিথি হিসাবে উপস্থিত ছিলেন অপ্পো বাংলাদেশ কমিউনিকেশন ইকুইপমেন্ট কো. লি. -এর ব্যবস্থাপনা পরিচালক নেভি অয়াই আর বাংলালিংক-এর চিফ স্ট্র্যাটেজি অফিসার শিহাব আহমেদ।
অপ্পো বাংলাদেশ-এর ব্যবস্থাপনা পরিচালক নেভি অয়াই তার বক্তব্যে বলেন, "বাংলাদেশ আমাদের জন্য খুবই গুরুত্বপূর্ণ এক বাজার।"
অনুষ্ঠানে উপস্থিত বাংলালিংক-এর চিফ স্ট্র্যাটেজি অফিসার শিহাব আহমেদ বলেন, "আমরা অত্যন্ত আনন্দিত অপ্পো এবং এই চমৎকার ফোনটির সঙ্গে পার্টনার হতে পেরে। আমরা বিশ্বাস করি এই সেটটি বাংলালিংকের ডিজিটাল কেন্দ্রিক সেবার সঙ্গে সব গ্রাহকদের পরিচয় করিয়ে দেবে। সামনে এমন আরও উদ্যোগ নিয়ে গ্রাহকদের পাশে থাকবে বাংলালিংক।’
ফোনটি অপ্পোর এফ১-এর আরও উন্নত সংস্করন। ফোনটির সামনে আছে ১৬ মেগা পিক্সেল ক্যামেরা। ফোনটিতে আরও থাকছে ০.২২ সেকেন্ড ফিঙ্গারপ্রিন্ট রিডার, ৫.৫ ইঞ্চি ফ্রন্ট ডিসপ্লে, অক্টাকোর প্রসেসর, ৩জিবি র‍্যাম, ৩২ জিবি রম এবং ৩০৭৫ এমএএইচ ব্যাটারি।
