ওয়াচ- ব্যান্ডগুলো কেবল অলিম্পিক গেইম দেখতে যাওয়া দর্শনার্থীরাই কিনতে পারবেন। কারণ, ওয়াচ- ব্যান্ডগুলো কেবল ব্রাজিলের রিও-এর বারা দ্য তিজুকায় অবস্থিত ভিলেজমল'র অ্যাপল স্টোরে পাওয়া যাবে।
বিশেষ ওয়াচ- ব্যান্ড তৈরি এবারই প্রথম নয় অ্যাপলের। চলতি বছরের শুরুতে 'গে প্রাইড' কে সমর্থন আর উদযাপনের জন্য অ্যাপল তার কর্মীদের রংধনু পতাকা সংবলিত ওয়াচ- ব্যান্ড দিয়েছে।
নতুন অলিম্পিক ব্যান্ড -৩২৯ বিআরএল অগাস্টের শুরুতে থেকে বিক্রি শুরু হবে এবং সরবরাহ শেষ না হওয়া পর্যন্ত পাওয়া যাবে বলে জানিয়েছে অ্যাপল।
