কোন নাচে দেহের কোন কোন অংশের মেদ কমায় তা স্বাস্থ্য ও ব্যায়ামবিষয়ক কয়েকটি ওয়েবসাইটে প্রকাশিত প্রতিবেদন অবলম্বনে এই প্রতিবেদনে দেওয়া হল।
বলিউড নাচ: বলিউড নাচ যে সব চেয়ে ভালো ব্যায়াম তা আর বলার অপেক্ষা রাখে না। ভাংরা থেকে রাগ, ক্লাসিক্যাল থেকে ভারতীয় নাচ ইত্যাদি একে অপরের সমন্বয়ে বলিউড নাচের সৃষ্টি যা প্রতিটি পেশিকে সক্রিয় এবং শরীর সুস্থ রাখতে সাহায্য করে।
জুম্বা নৃত্য


হিপ হপ


বেইলি ডেন্স


ছবি: রয়টার্স।
আরও পড়ুন
