বসন্ত ভালোবাসায় কে ক্রাফট


সময় ও পরিবেশ অনুযায়ী পোশাকে রয়েছে ঐতিহ্য ও চলতিসময়ের সমন্বয়।
উৎসবের উজ্জ্বল রং, ফ্লোরাল মোটিফ, জ্যামিতিক নকশা, কাপড়ের ভিন্নতা, সৃজনশীল অলংকরণে তৈরি হয়েছে সালোয়ার-কামিজ, কটি-কামিজ, কুর্তি, লং কুর্তি, সিঙ্গেল কামিজ, কটি-কুর্তি, শাড়ি, পাঞ্জাবি, শার্ট, কটি, স্কার্ট-টপ্স। এছাড়াও শিশুদের জন্য রয়েছে- সালোয়ার-কামিজ, কুর্তি/টপস্, পাঞ্জাবি, কটি-কামিজ ইত্যাদি। 
আর এই পণ্যগুলো পাওয়া যাবে কে ক্রাফট’য়ের সকল বিক্রয়কেন্দ্র এবং অনলাইন স্টোরে।লা রিভ পণ্যে ৭০% পর্যন্ত ছাড়।
- বিজ্ঞপ্তি।
লা রিভ’য়ে ছাড়


পুরুষের সোয়েটশার্ট, শার্ট ও জ্যাকেটে হুডিসহ ক্যাজুয়াল ব্লেজার,জ্যাকেট, ডেনিম, চিনোস ও কার্গো প্যান্টের পাশাপাশি ছাড়ে পাওয়া যাচ্ছে নিয়মিত, সেমি লং ও শর্ট পাঞ্জাবি, বিভিন্ন ধরনের পায়জামা, টি-শার্ট, ট্রাউজার, ফরমাল শার্ট-প্যান্ট এবং বক্সার।
নারীদের জন্য রুচিশীল ঘরোয়া পোশাক থেকে শুরু করে রয়েছে জ্যাকেট, কোট, সোয়েটার, সালওয়ার কামিজ, টিউনিক এবং শ্রাগসহ ডেনিম ও শাল-এর আকর্ষণীয় সমাহার।
এছাড়াও, পরিবারের ছোটমণিদের জন্য লা রিভ কিডস কর্নারে থাকছে জ্যাকেট, সোয়েট শার্ট ও হুডিসহ বিভিন্ন ধরণের প্যান্ট ও পায়জামা।
‘ক্যাশ অন ডেলিভারি’তে দেশব্যাপী ঘরে বসে পণ্য হাতে পেয়ে মূল্য পরিশোধ করার সুযোগের পাশাপাশি তা কেনা যাবে লা রিভের সকল আউটলেট থেকেও।
- বিজ্ঞপ্তি।
অর্ধেক দামে সেইলর পণ্য


শীত পোশাকের পাশাপাশি সেইলরের নির্ধারিত প্রতিটি পোশাকে থাকছে শতকরা ৩০ থেকে ৫০ ভাগ ছাড়ে কেনাকাটার সুযোগ।
স্টক থাকা শর্তে মাফিয়া রিটার্ন শিরোনামে ছাড়ের সুযোগটি সব সেইলর স্টোরেই থাকবে সীমিত সময়ের জন্য।
- বিজ্ঞপ্তি।
ক্যাটস আই’য়ের মেনজ পার্টি কালেকশন


