এই কালো দাগ দূর করার জন্য চিন্তার শেষ নেই। তবে অতিরিক্ত মানসিক চাপ, অনিদ্রা এবং অ্যালার্জির কারণেই চোখের নীচে কালি পড়তে পারে বলে জানান, সোহরাওয়ার্দী মেডিকেল কলেজের চর্মরোগ বিভাগের বিভাগীয় প্রধান এবং অধ্যাপক ডা. রাশেদ মোহাম্মদ খান।
ডা. রাশেদ বলেন, “বংশগত সমস্যা থাকলে খুব ছোট বয়সেই চোখের নীচে কালো দাগ পড়তে পারে। তাছাড়া পর্যাপ্ত পরিমাণে না ঘুমালে, বা মানসিক চাপ বেশি থাকলেও চোখের নীচে কালো দাগ পড়তে পারে।”
এছাড়াও ওষুধের পার্শ্বপ্রতিক্রিয়া, বয়সের ছাপ, যকৃতের সমস্যা ইত্যাদি কারণেও চোখের নীচে কালো দাগ বা ফোলাভাব দেখা যায়।
চোখের নীচের কালো দাগ বা ফোলাভাব স্থায়ীভাবে দূর করার কোনও উপায় নেই। তবে চর্ম বিশেষজ্ঞদের পরামর্শ নিয়ে এই সমস্যা কিছুদিনের জন্য দূর করা যেতে পারে।
ডা. রাশেদ বলেন, “অতিরিক্ত দুশ্চিন্তা না করে, পর্যাপ্ত পরিমাণ ঘুমাতে হবে তাহলেই চোখের নীচের দাগ কিছুটা হালকা হয়ে আসবে”
হেয়ারোবিক্স ব্রাইডাল বিউটি সেলুনের কর্ণধার তানজিমা শারমিন মিউনি জানান, বংশগত ও অ্যালার্জির কারণে হয়ে থাকলে চোখের নীচের কালচেভাব দূর করা যায় না। তবে যদি রোদে পুড়ে, অনিদ্রা বা দুশ্চিন্তা থেকে হলে নিয়মিত পরিচর্যায় দাগ কমে আসতে পারে।
চোখের নীচের দাগ কমিয়ে আনার কিছু উপায় জানালেন মিউনি।
- প্রচুর পরিমাণে পানি পান করতে হবে ও সবুজ শাকসবজি খেতে হবে।
- শসা পাতলা করে কেটে চোখের উপর দিয়ে বিশ্রাম নিতে পারেন। এতে করে চোখের ক্লান্তিও দূর হবে এবং চোখের নীচে কালচেভাব কমে আসবে।
- টি-ব্যাগ ব্যবহারের পর ভেজা টি-ব্যাগটি ফ্রিজে রেখে ঠান্ডা করে চোখের উপর দিয়ে রাখলে উপকার পাওয়া যাবে।
- রোদের কারণেও অনেকের চোখের নীচে কালচে দাগ পড়ে। তাই রোদে বের হলে সানগ্লাস ব্যবহার করা উচিত।
- রাতে নিয়মমতো ঘুমানোর অভ্যাস গড়ে তুলতে হবে।
 
