সম্পর্কের সমস্যা এবং সম্ভাব্য সমাধান নিয়ে সম্পর্কবিষয়ক একটি ওয়েবসাইটে প্রকাশিত প্রতিবেদনে জানানো হয় ৫টি এমন অভ্যাসের কথা যেগুলো এড়িয়ে চললে সহজেই সুন্দর রাখা যায় একটি সম্পর্ক।
ঝগড়া চালিয়ে যাওয়া: অতীতের ভুল বা ঝগড়ার বিষয় গোলাবারুদের মতো ব্যবহার করা এবং সেগুলো মনের মধ্যে পুষে রাখা নানান কারণে ক্ষতিকর। চালিয়ে যাওয়া ঝগড়াগুলো শুধু তিক্ততায় সৃষ্টি করে না, এগুলো আপনার বর্তমান কাজের অগ্রগতিতেও বাধা দেয়।
সম্পর্ককে জিম্মি করা: সামান্য সমস্যা বা ঠুকাঠুকিতেই ছেড়ে চলে যাওয়ার ভয় দেখানো বা ইমোশনাল ব্ল্যাকমেইল সম্পর্কের ক্ষেত্রে খুব লাভজনক কাজ নয়। অহেতুক নাটক তৈরি করা হলে বরং সত্যিকার আবেগ নষ্ট করে দেয়। এর ফলে দূরত্ব বেড়ে যায় এবং সম্পর্কটা আসলেই ভেঙে যায়।
পরোক্ষ আক্রমণ করা: মূল সমস্যা যেটা ঝগড়া বা মন মালিন্যের কারণ তা ঠিকভাবে তুলে না ধরে অন্য বিষয় নিয়ে খোঁচা দেওয়া সম্পর্ক নষ্ট হওয়ার আরেকটি কারণ। এতে অপরপক্ষ সমস্যা বুঝতে পারে না ফলে তিক্ততা অন্য দিকে মোড় নেয়। এসব না করে দুইজন মুখোমুখি বসে সমস্যা আলোচনা করে সমাধান করলে সম্পর্ক তিক্ততায় গড়ায় না।
