জীবনযাপনবিষয়ক একটি ওয়েবসাইটে কাজ সহজ করে তোলার জন্য কিছু বিষয় তুলে ধরা হয়।
প্রয়োজনীয় জিনিস যা কেনা জরুরি তার তালিকা তৈরি: পুরা সপ্তাহে হয়ত বাজারে বা সুপার শপে যাওয়ার সময় হয়ে ওঠে না। তাই সপ্তাহের বাজারের কাজটি তুলে রাখা হয় ছুটির দিনের জন্য। কী কী প্রয়োজন তারই একটি তালিকা তৈরি করে ‍নিন। সম্ভব হলে বৃহস্পতিবার বা সপ্তাহের যে কোনো দিন যদি আগে কাজ শেষ হয়ে যায় তখন এক ফাঁকে জিনিসগুলো কিনে ফেলতে পারেন। এতে ছুটির দিন সকালে তাড়াহুড়া থাকবে না।
ঘুম থেকে উঠেই বিছানা ও সোফা গুছিয়ে ফেলুন: ঘুম থেকে উঠে বিছানা গোছানোর সময় চাদর এবং বালিশের কভার বদলে নিন। সঙ্গে সোফার ও কুশনের কভারও বদলে ফেলতে পারেন। আর বদলানোর পরপরই তা ধুতে দিয়ে দিন। এতে একটি জরুরি কাজ এগিয়ে থাকবে।
ধুলা ঝেরে ফেলুন: সারা সপ্তাহে ঘরের ধুলা ঝারার তেমন সময় অনেকেরই হয় না। তাই সকালের নাস্তা সেরে ঘরের আসবাবে এবং সাজানো জিনিসের উপর পরে থাকা ধুলা ঝেরে নেওয়া উচিত।
