রেসেপি দিয়েছেন রীপা হক
উপকরণ: পানি ১ লিটার। লেবু কয়েকটা, টুকরা করে কাটা (হলুদ রংয়ের লেবু)। পাতলা ফালি করা, কমলা বা মালটা। সবুজ রংয়ের লেবু কয়েকটি স্লাইস। আনারস ছোট করে কাটা। কয়েক টুকরা আম (ছোট করে কাটা)। মধু ৪ টেবিল-চামচ অথবা চিনি স্বাদ মতো। লেবুর রস ২ থেকে ৪ টুকরা লেবু অথবা স্বাদ মতো। বরফকুচি। পুদিনাপাতা পরিমাণ মতো।


