স্বাস্থ্যবিষয়ক একটি ওয়েবসাইটে প্রকাশিত কোলেস্টেরল কমানোর উপায়গুলো এখানে দেওয়া হল।
মাছ খান: সপ্তাহে অন্তত দুই থেকে তিন বার মাছ খাওয়া উচিত। এর মধ্যে স্যামন এবং টুনা মাছ সব থেকে বেশি উপযোগী। কারণ এতে আছে প্রচুর পরিমাণে ওমেগা-থ্রি ফ্যাটি অ্যাসিড। শরীরে কোলেস্টেরলের পরিমাণ কমিয়ে বিভিন্ন ধরনের সমস্যা এড়াতে সাহায্য করে এই উপাদান। তাছাড়া মাছের তেল থেকে তৈরি ক্যাপসুলেও প্রচুর ফ্যাটি অ্যাসিড থাকে।
অ্যালকোহল পরিহার: অ্যালকোহল গ্রহণ শরীরের জন্য অনেকভাবেই ক্ষতিকর। তাছাড়া হৃদপিণ্ডে কোলেস্টেরল জমে গেলে, সেক্ষেত্রে অ্যালকোহল গ্রহণ আরও ঝুঁকিপূর্ণ। কারণ কোলেস্টেরলের মাত্রা বাড়াতে অ্যালকোহল দায়ী।
হাতাশা দূর করুন: মানসিক চাপ শরীর এবং স্বাস্থ্যের জন্য অত্যন্ত ক্ষতিকর। মানসিক চাপ বৃদ্ধি পেলে শরীরে বিশেষ ধরনের রাসায়নিক পদার্থ নিঃসৃত হয় যা রক্তচাপ বৃদ্ধি করে এবং পরে হৃদপিণ্ডে রক্ত সরবারহ কমিয়ে ফেলে। তাই মানসিক চাপ দূর করার জন্য বিভিন্ন উপায় খুঁজে বের করতে হবে।
পুষ্টিকর নাস্তা: দিনের শুরুতে অনেকেই নাস্তা বাদ দিয়ে থাকেন। কিন্তু এটি স্বাস্থ্যের জন্য অত্যন্ত ক্ষতিকর। দিনের শুরুতে পুষ্টিকর খাবার খাওয়া জরুরি।
বিকালের কম চর্বিযুক্ত নাস্তা: দুপুরের খাবার খাওয়ার পর বিকালে হালকা ক্ষুধা অনুভূত হওয়া খুব স্বাভাবিক। এ সময় চর্বি ছাড়া যে কোনো হালকা খাবার খাওয়া উচিত। গাজর, শসা, তাজা ফল ইত্যাদি খাওয়া যেতে পারে।
ক্যাফেইন এড়িয়ে চলুন: ক্যাফেইন গ্রহণ এবং কোলেস্টেরলের পরিমাণ বৃদ্ধির মধ্যে সম্পর্ক রয়েছে। কোলেস্টেরলের পরিমাণ নিয়ন্ত্রণে রাখতে চাইলে দিনে এক কাপের বেশি কফি পান করা উচিত নয়। আর সুস্থ থাকতে চাইলে ক্যাফেইন গ্রহণের পরিমান কমিয়ে আনা উচিত।
ধূমপান এড়িয়ে চলুন: দিনে একটি সিগারেট গ্রহণের ফলে তা শরীরের উপকারী কোলেস্টেরলের পরিমাণ কমিয়ে আনে। তাই
