ক্যাম্পেইনে অংশ নিতে হলে www.unlockjoy.com.bd ওয়েবসাইটে গিয়ে নিবন্ধন করার মাধ্যমে অংশগ্রহণকারীদের কয়েকটি প্রশ্নের সঠিক উত্তর দিয়ে পরবর্তী ধাপে উত্তীর্ণ হতে হবে। তারপর কয়েকটি গেমস খেলার মাধ্যমে মূল গ্র্যান্ড প্রাইজের আরও কাছে যাওয়ার সুযোগ পাবেন অংশগ্রহণকারীরা।
সৌভাগ্যবান বিজয়ী যুগলদের দিনের শুরুতেই বিএমডব্লিউ গাড়ি দিয়ে তাদের বাসা থেকে লা মেরিডিয়ান ঢাকায় নিয়ে যাওয়া হবে। যুগলদের রাতের খাওয়ার জন্য সেখানে সুস্বাদু খাবারের সমাহার থাকবে। সেই সঙ্গে থাকবে রাতে থাকার ব্যবস্থা। পরদিন সকালে তারা সকালের নাস্তা খেয়ে আবারও বিএমডব্লিউ গাড়িতে করে যার যার বাসায় ফেরত যাবেন।   
পহেলা ফেব্রুয়ারি থেকে ৮ ফেব্রুয়ারি পর্যন্ত উল্লেখিত ওয়েবসাইটে গিয়ে নিবন্ধন করার সুযোগ থাকবে। তারপর ভালোবাসা দিবসের দিবাগত রাতে সৌভাগ্যবান যুগলদের নাম ঘোষণা করা হবে।
