বাজার ছেয়ে গেছে কেমিকল মেহেদিতে। ওই মেহেদিগুলো রং গাঢ় হওয়ার দাবী করলেও ত্বকের জন্য অত্যন্ত ক্ষতিকর।
এক্ষেত্রে ঘরে তাজা মেহেদি পাতার সঙ্গে লেবুপাতা বা চা পাতা মিশিয়ে বেটে বা গুঁড়া-মেহেদি গুলিয়ে ঘরেই মেহেদি টিউব তৈরি করে নেওয়া যেতে পারে।
মেহেদির টিউব কীভাবে ঘরেই তৈরি করা যায় তা অনেকেরই অজানা। তাই এখানে ঘরেই টিউব তৈরি করা যায় তার ধাপগুলো ছবিসহ বর্ণণা করা হল।
এখানে কাগজ ব্যবহার করা হলেও মেহেদি টিউব তৈরিতে পানিরোধক কাগজ ব্যবহার করতে হবে।










