কোমল পানীয় পানের অদম্য আগ্রহকে দমাতে এই ধরনের পানীয়র কয়েকটি ক্ষতিকর দিক তুলে ধরেছে স্বাস্থ্যবিষয়ক এক ওয়েবসাইট।
দাঁতের ক্ষতি: চিনি ও অম্লীয় উপাদান দুটোই প্রচুর পরিমাণে থাকে কার্বোনেইটেড পানীয়তে। দুটোই দাঁতের শত্রু। তাই দাঁতের ক্ষয় ও সুস্বাস্থ্য বজায় রাখতে কোমল পানীয় এড়িয়ে চলতে হবে।
ডায়বেটিস ও হৃদরোগ: নিয়মিত কোমল পানীয় পান করলে টাইপ-টু ডায়বেটিসের ঝুঁকি বাড়ায়। আমেরিকান ডায়েট অ্যাসোসিয়েশনের গবেষণা অনুযায়ি, নিয়ন্ত্রিত খাদ্যাভ্যাস মেনে চলার মাধ্যমে এই ঝুঁকি কমানো সম্ভব, তবে পুরোপুরি নাকচ করা সম্ভব হয় না।
একই গবেষণায় আরও জানা যায়, কোমল পানীয় ‘মেটাবলিক সিন্ড্রোম’ বা বিপাকীয় প্রক্রিয়ার বিভিন্ন সমস্যার ঝুঁকি বাড়ায়, যা ক্রমেই ঠেলে দেয় হৃদরোগের দিকে। আছে উচ্চ রক্তপচাপের আশঙ্কাও।
বৃক্ক ও যকৃৎ: প্রতিদিন একবার কার্বোনেইটেড পানীয় খাওয়াই কিডনি বা বৃক্কে পাথর হওয়া এবং অন্যান্য দীর্ঘমেয়াদি রোগে আক্রান্ত করার জন্য যথেষ্ট। যকৃতের বিভিন্ন রোগের জন্যও বিশেষভাবে দায়ি অতিরিক্ত কোমল পানীয়। স্থূলতা এবং হাড়ের ক্ষয়ও অতিরিক্ত কোমল পানীয় পানের পার্শ্ব-প্রতিক্রিয়া।
অর্থের অপচয়: কোমল পানীয়ের দাম বেশি। এর পেছনের অর্থ অপচয় না করে একই খরচে ডাবের পানি, তাজা ফলের শরবত পান করার চেষ্ট করতে হবে। একটু ভিন্ন স্বাদ পেতে চাইলে মসলা চা, গ্রিন টি বেছে নিতে পারেন। এতে একদিকে স্বাস্থ্য ভালো থাকবে, অপরদিকে নিম্নবিত্ত ডাব বিক্রেতা, শরবত বিক্রেতাও উপকৃত হবে।
