রূপচর্চাবিষয়ক ওয়েবসাইটে প্রকাশিত প্রতিবেদন থেকে গরমউপযোগী মেইকআপ সম্পর্কে জানা যায়।
লিপস্টিক: রাতের বেলায় গাঢ় রংয়ের লিপস্টিক এবং দিনের বেলায় রঙিন বাম ব্যবহার করুন। এতে আপনার ঠোঁট আর্দ্র থাকবে এবং উজ্জ্বল লাগবে। এইসময়ে পছন্দ মতো তরমুজ, পিচ, চেরি, পুদিনা বা অন্য যে কোনো ফলের সুগন্ধযুক্ত লিপস্টিক ব্যবহার করতে পারেন।   
'বিবি'-ক্রিম: গরমকালে ভারী ফাউন্ডেসনের পরিবর্তে হালকা বিবি ক্রিম ব্যবহার করতে পারেন। এটি ত্বক আর্দ্র রাখে এবং খানিকটা সানব্লক হিসেবে কাজ করে। বিবি ক্রিম খুব সহজে এবং তাড়াতাড়ি ব্যবহার করা যায়, তাছাড়া এটি ত্বকে মিশাতে খুব বেশি ঝামেলা হয়না বলে যে কেউই এটি ব্যবহার করতে পারে। 
ব্লাশ: গরমকালে পাউডার ব্লাশের পরিবর্তে ক্রিম ব্লাশ ব্যবহার করা বেশি উপযোগী। পাউডার ব্লাশ ব্যবহার করলে ঘামের কারণে নষ্ট হয়ে যেতে পারে। অন্যদিকে ক্রিন ব্লাশ ব্যবহার করলে সারাদিনের জন্য স্থায়ী হয়। যাদের মুখ ঘামে তারা ব্লাশ ব্যবহারের পর টিস্যু দিয়ে হালকা চাপ দিয়ে ঘাম মুখে ফেলবেন। এতে দেখতে ভালো লাগবে।   
