লা মেরিডিয়ান
তাদের ফাভোলা রেস্তোরাঁ সাজবে জনপ্রিয় হলিউডি ধারাবাহিক ‘ফ্রেন্ডস’য়ের ‘সেন্ট্রাল পার্ক ক্যাফে’য়ের সাজে। অতিথিরা বন্ধুদের সঙ্গে সেন্ট্রাল পার্ক ক্যাফের আবহে বসে উপভোগ করতে পারবেন এই ধারাবাহিকের পর্বগুলো। আর পেটপূজাতে আছে জনপ্রতি ১ হাজার ২শ’ টাকায় যত খুশি তত পিৎজা ও এক গ্লাস সফট ড্রিংকস। আয়োজনটি ৭ অগাস্ট পর্যন্ত দুপুর ১২টা থেকে বিকেল ৪টা পর্যন্ত এবং সন্ধ্যা ৬টা থেকে রাত ১২টা পর্যন্ত চলবে।


তাদের ক্যাসকেড লাউঞ্জে থাকছে বন্ধু দিবসের স্পেশাল স্লাইডার বার্গার। মিন্সড চিকেন, ক্রিস্পি চিকেন, চিকেন টিক্কা আর চিকেন তেরিয়াকি ফ্লেইভারের স্লাইডার। চারটি ভিন্ন স্বাদের স্লাইডার একসঙ্গে উপভোগ করতে গুনতে জনপ্রতি ১ হাজার ২শ’ টাকা।
