সাফল্য লাভের জন্য শুধু কর্মই যথেষ্ট নয়। দরকার সঠিক কর্মকৌশল, সহনশীলতা ও কিছু বিষয়ে সচেতনতা। আর তাতেই আপনি আপনার জীবনের প্রতিটি যুক্তিসঙ্গত চাওয়াকে পাওয়ায় রূপান্তর করতে পারেন।
চলতি সপ্তাহে চন্দ্র ও অন্যান্য গ্রহগত অবস্থানের ওপর ভিত্তি করে বিভিন্ন রাশির জাতক জাতিকাদের নানান বিষয়ের শুভাশুভ পূর্বাভাস ও সতর্কতা জানাচ্ছেন বাংলাদেশ অ্যাস্ট্রোলজার্স সোসাইটি (বিএএস)’র কেন্দ্রীয় কার্যনির্বাহী সদস্য অ্যাস্ট্রোলজার অ্যান্ড সাইকিক কনসালটেন্ট ফজলে আজিম।
মেষ রাশি (২১ মার্চ-২০ এপ্রিল) গৃহস্থালী কাজে ব্যস্ততা বাড়বে। দাম্পত্য সম্পর্ক ভালো থাকবে। বিশেষ কোনো কাজে প্রয়োজনে বন্ধুদের সহযোগিতা পাবেন। পারিবারিক সম্পর্ক অনুকূল থাকবে। মাতৃস্বাস্থ্য ভালো যেতে পারে। কোনো আশা পূরণ হতে পারে। আবেগ সংযত রাখুন। প্রেম রোমান্স শুভ নয়। ব্যবসায়িক কোনো সুযোগ পেতে পারেন।
বৃষ রাশি (২১ এপ্রিল-২১ মে) প্রতিবেশীদের সঙ্গে সুসম্পর্ক বজায় থাকবে। প্রয়োজনে তাদের সহযোগিতা কাজে লাগতে পারে। আত্মীয় স্বজনের সঙ্গে যোগাযোগ বাড়তে পারে। ব্যক্তিগত যোগাযোগ ফলপ্রসু হতে পারে। কারও আচরণে মন খারাপ হতে পারে। আবেগ সংযত রাখার চেষ্টা করুন। যাদের কার্ডিয়াক সমস্যা রয়েছে তাদের বিশেষ সতর্কতার প্রয়োজন আছে।
মিথুন রাশি (২২ মে-২১ জুন) প্রথম সাক্ষাতেই কাউকে ভালো লাগতে পারে। নিজের ব্যক্তিত্ব দিয়ে অন্যকে প্রভাবিত করার চেষ্টা করুন। পাওনা আদায় হতে পারে। ভ্রমণে ঝুঁকি এড়িয়ে চলুন। প্রতিবেশীদের সঙ্গে মানিয়ে চলার চেষ্টা করুন। প্রেম রোমান্স শুভ। আনন্দ বিনোদনে সময় কাটানোর সুযোগ পেতে পারেন।
কর্কট রাশি (২২ জুন-২২ জুলাই) শরীর ও মন মোটামুটি ভালো থাকবে। কাজকর্মে উৎসাহ পাবেন। নতুন কোনো সুযোগ হাতে আসতে পারে। রাগ ও জেদ বেড়ে যেতে পারে। কথাবার্তায় সচেতনতার প্রয়োজন আছে। কারও মনে আঘাত দিয়ে কথা বলা থেকে বিরত থাকুন। মনের কোনো আশা পূরণ হতে পারে।
সিংহ রাশি (২৩ জুলাই-২৩ অগাস্ট) মানসিক চাপ বাড়বে। অতীতের কোনো কাজের ফল পেতে পারেন। মামলা মোকদ্দমায় ফল আপনার বিপক্ষে যেতে পারে। কোনো খবরে মানসিক কষ্ট পেতে পারেন। ভ্রমণ ও ব্যক্তিগত যোগাযোগ ফলপ্রসু হবে। হাতে টাকা পয়সা আসতে পারে। চলাফেরায় ঝুঁকি এড়িয়ে চলুন।
কন্যা রাশি (২৪ অগাস্ট-২৩ সেপ্টেম্বর) বন্ধুবান্ধবের সঙ্গে যোগাযোগ হতে পারে। বিশেষ কোনো ক্ষেত্রে তাদের সহযোগিতা কিংবা পরামর্শ কাজে লাগতে পারে। আয় উপার্জনে নতুন কোনো উৎসের সন্ধান পেতে পারেন। বেকারদের জন্যে আশাব্যাঞ্জক কোনো খবর প্রাপ্তির সম্ভাবনা রয়েছে। সম্ভাব্যক্ষেত্রে দূরের যাত্রা শুভ।
তুলা রাশি (২৪ সেপ্টেম্বর-২৩ অক্টোবর) আত্মপ্রতিষ্ঠার চেষ্টায় সাফল্য পেতে পারেন। ব্যবসায়িক সাফল্য ও সামাজিক সুনাম বাড়বে। পিতৃসূত্রে লাভবান হতে পারেন। আয় উপার্জনের পথে কোনো চ্যালেঞ্জ মোকাবেলা করতে হতে পারে। বড় ভাইবোনের কোনো বিষয়ে চিন্তিত হতে পারেন। দায়দায়িত্ব বাড়বে।
বৃশ্চিক রাশি (২৪ অক্টোবর-২২ নভেম্বর) আধ্যাত্মিক চিন্তা ও চেতনায় সমৃদ্ধি আসতে পারে। জীবন ও জগত সম্পর্কে নতুন কোনো ধারণা লাভ করবেন। কারও কারও ক্ষেত্রে তীর্থযাত্রা হতে পারে। পেশাগত দায়দায়িত্ব বাড়বে। রাজনীতির সঙ্গে সম্পৃক্তদের বিশেষভাবে সচেতনতার প্রয়োজন আছে। ব্যয় বাড়বে।
ধনু রাশি (২৩ নভেম্বর-২১ ডিসেম্বর) উত্তরাধিকারসূত্রে প্রাপ্ত সম্পত্তি বিষয়ে আলোচনা হতে পারে। পরধন প্রাপ্তির যোগ রয়েছে। সামাজিকভাবে গ্রহণযোগ্য নয় এমন সম্পর্কের ক্ষেত্রে সচেতনতার প্রয়োজন আছে। ভাগ্যোন্নয়ণে প্রভাবশালী কারও পরামর্শ কিংবা সহযোগিতা আশা করতে পারেন। সামাজিক মর্যাদা বাড়বে।
মকর রাশি (২২ ডিসেম্বর-২০ জানুয়ারি) ব্যবসায়িক ও দাম্পত্য সম্পর্ক ভালো যাবে। মনের ভেতর সন্দেহপ্রবণতা বেড়ে যেতে পারে। শুধু আন্দাজ বা অনুমান করে কথা বলা থেকে বিরত থাকুন। এতে যে কোনো সম্পর্কের ক্ষেত্রে প্রতিকূল পরিবেশ তৈরি হতে পারে। সাময়িক কিছু বাধাবিঘ্ন মোকাবেলার প্রয়োজন হতে পারে। চাকুরিপ্রার্থীরা ভালো কোনো খবর পেতে পারেন।
কুম্ভ রাশি (২১ জানুয়ারি-১৮ ফেব্রুয়ারি) শরীর ও মন কম ভালো যেতে পারে। অধীনস্তদের সহযোগিতায় বিশেষ কোনো কাজে সাফল্য পেতে পারেন। চুক্তিভিত্তিক কোনো কাজে সম্পৃক্ত হওয়ার সুযোগ পেতে পারেন। ব্যবসায়িক দিক ভালো যাবে। অবিবাহিতদের বিয়ের কথা হতে পারে। অন্যায় কামনা বাসনা থেকে নিজেকে মুক্ত রাখার চেষ্টা করুন।
