কারণ ফেইসবুকে আকর্ষণীয় দৈহিক গঠনের ছবিগুলো দেখে মধ্যবয়স্ক নারীরা নিজের প্রতি অসন্তুষ্টিতে ভুগতে পারেন।
তাই তাদেরকে এসব ছবি দেখে বেশি চিন্তিত না হওয়ার পরামর্শ দেওয়া হচ্ছে।
ইউনিভার্সিটি অফ অকল্যান্ডের করা নতুন এক গবেষণা অনুযায়ী, ফেইসবুক ব্যবহারের পর ৩০ থেকে ৪০ বছর বয়সি নারীদের নিজেদের দৈহিক গঠন নিয়ে অসন্তুষ্ট হওয়ার সম্ভাবনা বেড়ে যায়। 
নারী ফেইসবুক ব্যবহারকারীদের ক্ষেত্রে, প্রায় ৩০ বছর বয়সে তাদের শারীরিক গঠনবিষয়ক সন্তুষ্টির মাত্রা কমতে শুরু করে। তবে বয়স বাড়ার পাশাপাশি, যেমন ৫০য়ের কোঠায় গিয়ে তা আবার জেগে ওঠে 
যেসব নারী ফেইসবুক ব্যবহার করেন না, গড় হিসেবে তাদের শারীরিক গঠন নিয়ে সন্তুষ্টির মাত্রা বেশি।
ডক্টরেট প্রার্থী সামান্থা স্ট্রোঞ্জ বলেন, “আগের গবেষণাগুলো থেকে আমারা জানি যে, মিডিয়ার কারণে সাধারণত নারীদের বাহ্যিক সৌন্দর্য নিয়ে খারাপ লাগতে পারে।”
এক বিবৃতিতে তিনি বলেন, “এই গবেষণায় আমরা দেখতে পাই যে ওই ফলাফলগুলোই সোশাল মিডিয়া ব্যবহারকারদের মধ্যে প্রতিফলিত হয়েছে এবং এই ক্ষেত্রে তারা হলেন নিয়মিত ফেইসবুক ব্যবহারকারী নারী।”
গবেষণার ১১ হাজার অংশগ্রহণকারীর ৬২.৫ শতাংশ নারী আর ৩৭.৫ শতাংশ পুরুষ। আর বয়স ছিল ১৮ বছরের বেশি, গড় বয়স ৪৯.২৩ বছর।
ফেইসবুক ব্যবহারকারী ও অব্যবহারকারী উভয়কেই এই গবেষণায় অন্তর্ভুক্ত করা হয়।
নারীদের মধ্যে ৬৯ শতাংশের ফেইসবুক প্রোফাইল রয়েছে এবং এদের মধ্যে ৫৮ শতাংশই গবেষণার কিছুদিন আগেই ব্যবহার করেছেন।
সার্বিকভাবে পুরুষদের তুলনায় নারীরা ফেইসবুক বেশি ব্যবহার করেন। 
গবেষণায় দেখা যায়, অন্যান্য দলের তুলনায় ৩০ থেকে ৪০ বছর বয়সি নারী ফেইসবুক ব্যবহারকারীদের মধ্যে নিজের শরীরের প্রতি সন্তুষ্টির মাত্রা সবচেয়ে কম।
এরমধ্যে ৩৮ বছর বয়সি নিজেদের বাহ্যিক সৌন্দর্য নিয়ে সবচেয়ে বেশি সন্তুষ্ট। 
সার্বিকভাবে পুরুষদের মধ্যে শারীরিক গঠন সম্পর্কে সন্তুষ্টির মাত্রা নারীদের চেয়ে বেশি। তবে ফেইসবুক ব্যবহারকারী পুরুষদের মধ্যে নিজের শারীরিক গঠন নিয়ে সন্তুষ্টির মাত্রা ফেইসবুক ব্যবহার করেন না এমন পুরুষদের তুলনায় কম।  
স্ট্রোঞ্জ ব্যাখ্যা করেন, “নারীদের মতোই, ফেইসবুক ব্যবহারকারী পুরুষদেরও নিজেদের শারীরিক সৌন্দর্য নিয়ে অসন্তুষ্ট থাকার সম্ভাবনা রয়েছে। এথেকে বোঝা যায়, নারী-পুরুষ উভয়ের উপরেই নারীত্ব এবং পুরুষত্বের আদর্শ সংস্করণের প্রভাব একই। ”
“তরুণীদের ক্ষেত্রে- যাদের বয়স ১৮’র মধ্যে, ফেইসবুকের ব্যবহার একটি দৈনন্দিন সাধারণ বিষয়। এরসঙ্গে শারীরিক সন্তুষ্টির কোনো সম্পর্ক নেই। তবে এই বিষয়ে আরও গবেষণা করা দরকার।” বলেন স্ট্রোঞ্জ।
সেক্স রোলস নামক জার্নালে এই গবেষণা প্রকাশিত হয়
 
ছবি: রয়টার্স।
 
বিষয় যখন ‘পরকীয়া’
