ঝুটি বা পনিটেইল তো কম বেশি সবাই করেন। তবে এই একঘেয়েমি হেয়ার স্টাইলেও চাইলেই ভিন্নতা আনা যায়।
পনিটেইলে কিছুটা ভিন্নতা এনে গরমের উপযোগী এবং ফ্যাশনেবলভাবে চুল বাঁধা যায়।
এক্ষেত্রে প্রথমে চুল ভালোভাবে আঁচড়ে নিতে হবে। যেন কোনো জট না থাকে। এবার টিজিং কোম্ব দিয়ে সামনের চুলের ভিতরে খানিকটা টিজ করে একটু ফুলিয়ে নিতে হবে। এবার উপরের চুলগুলো ভালোভাবে সেট করে নিয়ে বেশ উঁচু করে একটি ঝুটি করে নিন।
একটি পাতলা হেয়ারব্যান্ড দিয়ে পনিটেইল আটকে নিতে হবে। এবার খানিকটা চুল আলাদা করে নিয়ে পনিটেইলের ব্যান্ডটি মুড়িয়ে নিতে হবে। এমনভাবে চারপাশে পেঁচিয়ে নিতে হবে যেন ব্যান্ডটি দেখা না যায়।


চাইলে খানিকটা হেয়ার স্প্রে ছড়িয়ে দিলে চুল সারাদিন সেট থাকবে।
মডেল: তৃপ্তি। ছবি: আসাদুজ্জামান প্রামানিক।
কৃতজ্ঞতায়: হেয়ারোবিক্স ব্রাইডাল।
 
ওয়ান সাইড ফ্রেঞ্চ বেণি বাঁধার কৌশল
কেশ সোজা করার ঘরোয়া পদ্ধতি
