ডিটক্স পানীয় যেমন শরীরে জমে থাকা ‘টক্সিন’ দূর করে তেমনি ‘ডিটক্স ফেইসপ্যাক’ ত্বকে জমে থাকা দূষিত উপাদান দূর করতে সাহায্য করে।
রূপচর্চাবিষয়ক একটি ওয়েবসাইটে ত্বকের জন্য উপযোগী ‘ডিটক্স মাক্স’ তৈরির কিছু পদ্ধতি বর্ণনা করা হয়। এখানে সেগুলো তুলে ধরা হল।
কফি মাড মাস্ক: দুই টেবিল-চামচ মুলতানি মাটি ও এক চা-চামচ মিহিগুঁড়া করা কফি এক সঙ্গে নিন। পরিমাণ মতো অ্যাপল সাইডার ভিনিগার মিশিয়ে পেস্ট তৈরি করুন। সংবেদনশীল ত্বকের ক্ষেত্রে অ্যাপল সাইডার ভিনিগারের বদলে পানি বা গোলাপ জল ব্যবহার করা যেতে পারে। মিশ্রণটি মুখে এবং গলায় মেখে শুকিয়ে যাওয়া পর্যন্ত অপেক্ষা করতে হবে। শুকিয়ে গেলে কুসুম গরম পানি দিয়ে ধুয়ে ফেলুন।
মুলতানি মাটি ত্বককে গভীর থেকে পরিষ্কার করে এবং কফিতে রয়েছে অ্যান্টিইনফ্লামাটরি উপাদান যা ত্বকের জন্য উপকারী। পাশাপাশি এটি ত্বক এক্সফলিয়েট করে। অ্যাপল সাইডার ভিনিগার ত্বকের পিএইচ’য়ের ভারসাম্য বজায় রাখতে সাহায্য করে।
গ্রিন টি এবং মধুর মাস্ক: গ্রিন টি’র টি-ব্যাগ কেটে পাতা নিয়ে মধুর সঙ্গে মিশিয়ে পেস্ট তৈরি করে নিতে হবে। মুখে ও গলায় মেখে ১৫ মিনিট রেখে আলতো হাতে মালিশ করে মুখ ধুয়ে ফেলুন। গ্রিন টি’র অ্যান্টিঅক্সিডেন্ট ত্বকের লালচেভাব দূর করে এবং মধু ত্বক কোমল করে।
