আগ্রহীরা অংশ নিতে নিজস্ব রান্নার রেসিপি, তিনটি থ্রি আর  সাইজ ছবি এবং নির্দিষ্ট কিছু প্রশ্নে উত্তর পাঠিয়ে ‘সেরা রাঁধুনী ১৪২৪’ প্রতিযোগিতায় অংশ নিতে পারবেন।
রেসিপি, ছবি ও উত্তর পাঠানোর ঠিকানা: সেরা রাঁধুনী ১৪২৪, স্কয়ার সেন্টার, ৪৮ মহাখালী বা/এ, ঢাকা ১২১২।
ই-মেইল করতে চাইলে sheraradhuni1424@gmail.com।
এছাড়া গুগোল প্লে-স্টোর থেকে ‘রাঁধুনী’ অ্যাপ নামিয়েও যে কেউ খুব সহজেই রেজিস্ট্রেশন করতে পারবেন। নির্দিষ্ট প্রশ্ন এবং অন্যান্য তথ্য ‘রাঁধুনী অ্যাপ’সহ দৈনিক পত্রিকা, সেরা রাঁধুনী’র ওয়েবসাইট www.sheraradhuni1424.com, ফেইসবুক পেইজ www.facebook.com/radhuni.spices -এ পাওয়া যাবে।
আরও তথ্যের প্রয়োজনে ফোন করা যাবে ০৯৬১২১১১৩৩৩ নম্বরে।
গতবারের মতো এবারও প্রতিযোগিতার মাধ্যমে এমন একজন রন্ধনশিল্পী খুঁজে বের করার চেষ্টা করা হবে যিনি শুধু সুস্বাদু রান্না পরিবেশনাতেই দক্ষ হবেন না, বরং একইসঙ্গে বুদ্ধিদীপ্তভাবে উপস্থাপনের মাধ্যমে তার রেসিসি বিপণনেও পারদর্শী হবেন।
