অষ্টমীর সাজ পোশাক নিয়ে পরামর্শ দেন রূপবিশেষজ্ঞ শিবানী দে।
অষ্টমীর সাজে থাকবে ভিন্নতা। দিনে সাজ হালকা হলে তার মধ্যে আভিজাত্য ফুটিয়ে তুলতে হবে। এদিন লাল বা মেরুন রং প্রাধান্য দেওয়া যেতে পারে। সাদা শাড়ি লাল পাড় অষ্টমীর জন্য আদর্শ। চাইলে এক প্যাঁচে শাড়ি পরতে পারেন এদিন সকালে।


হালকা ফাউন্ডেশন, অল্প পরিমাণে কনসিলার লাগিয়ে ব্লেন্ড করে পাউডার দিয়ে সেট করে নিতে হবে। সকালে চোখের সাজ হালকা রেখে ঠোঁটে গাঢ় লিপস্টিক লাগানো যেতে পারে। শাড়ির সঙ্গে কপালে টিপ আর হাতে চুরি না হলে সাজে পূর্ণতাই আসবে না।
মন মতো গয়না পরতে পারেন। তা হতে পারে গোল্ড প্লেটের। চুল বেঁধে রাখাই ভালো, কারণ এতে গরমে অস্বস্তি লাগবে না। চাইলে চুলে গুঁজে নিতে পারেন তাজা ফুল।
অষ্টমীর রাতের সাজ হতে হবে জমকালো। মন মতো বেইজ মেইকআপ করে নিন। কন্টুয়র এবং হাইলাইটস করা যেতে পারে। গালে গোলাপি বা কোরাল শেইডের ব্লাশ লাগিয়ে নিন।


