কারণ পুরানো দিনের স্মৃতি অতিরিক্ত খরচের প্রবণতা বাড়িয়ে দিতে পারে, সাম্প্রতিক এক গবেষণায় এমনটাই জানা গেছে।
যুক্তরাষ্ট্রের ইউনিভার্সিটি অফ মিনেসোটার ক্যাথলিন ভোস বলেন, “স্মৃতিকাতর হলে মানুষের মধ্যে টাকা খরচের প্রবণতা বাড়িয়ে দেয়— এটা সত্যি আমাদের অবাক করেছে। দেখা গেছে স্মৃতিকারতার কারণে মানুষের টাকার প্রতি মায়া কমে যায়।”
এ বিষয়টি প্রমাণের জন্য গবেষকরা ছয় জনের উপর পরীক্ষা চালান। পুরানো দিনের স্মৃতিরমন্থনের কারণে তারা টাকা খরচে বেশি আসক্ত হয়ে পড়ে।
