শরীরের প্রাকৃতিক নিয়ম হল হালকা পাতলা থাকা। তাহলে এত ওজন বা চর্বি কোথা থাকে আসে? কিছু খাবার এত বিষাক্ত হয় যে এগুলো শরীরে চর্বি জমিয়ে শরীরের গঠণ নষ্ট করে ফেলে।
লন্ডন ভিত্তিক ফিটনেস গুরু জেমস ডুগান পরিচ্ছন্ন ও চর্বিহীন থাকার ডায়েট প্ল্যান প্রকাশ করেছেন।
জেমসের মতে, শরীরের মেদ থেকে মুক্তি পেতে হলে প্রথমেই বিষাক্ত কিছু খাবার বাদ দিতে হবে। বিষাক্ত বলার কারণ হচ্ছে, এই খাবারগুলো শরীরকে মেদ জমা করতে উৎসাহীত করে। তাই অ্যালকোহল, চিনি, প্রক্রিয়াজাত খাবার বাদ দিয়ে জেমস তার তালিকায় যুক্ত করেছেন মাছ, চর্বিমুক্ত মাংস এবং জৈব উপায়ে চাষ করা শাকসবজি।
যত দ্রুত খাবারের অভ্যাস বদলে ফেলা যাবে তত তাড়াতাড়ি মেদহীন সুন্দর শরীর পাওয়া যাবে।
১। ক্যাফেইন, সাদা চিনি, অ্যালকোহল ও প্রক্রিয়াজাত খাবার এই চার খাবারে জাতকে তালিকা থেকে পুরোপুরি সরিয়ে দিতে হবে। এরা শরীরে মেদকে আটকে রাখে।
২। তবে প্রতি সপ্তাহে একবার নিজের স্বপ্নের সব খাবার খাওয়া যাবে। জেমসের মতে যদি সপ্তাহে ছয়দিন বিষমুক্ত খাবার খান তবে একদিন সেগুলো খেলে কোনো ক্ষতি তো নেইই, উল্টো শরীরের মেটাবলিজম বৃদ্ধি পেয়ে লাভই হবে।
৩। খাদ্য তালিকায় মাছের তেল যোগ করা, এতে অতিরিক্ত মেদ ঝরে যায় এবং জরুরি ফ্যাটি এসিড খাদ্য তালিকায় যুক্ত হয়।
