১২ থেকে ১৮ নভেম্বর পর্যন্ত মূল্যহ্রাসের এই বিশেষ ব্যবস্থা শর্তসাপেক্ষে লা মেরিডিয়ান ঢাকা’র সকল খাদ্য ও সেবার ক্ষেত্রে প্রযোজ্য হবে।
মূল্যছাড়ের সময় হোটেলে অবস্থানকারী করপোরেট অতিথিরা বিশেষ সেবা পাবেন।
২০১৫ সালের নভেম্বর মাসে ঢাকায় যাত্রা শুরু করা লা মেরিডিয়ান ঢাকা একটি আন্তর্জাতিক চেইন হোটেল। বিভিন্ন সময়ে নানা ধরনের সাংস্কৃতিক আয়োজনের কারণে  হোটেলটি পরিচিতি লাভ করেছে।
