স্বাস্থ্যবিষয়ক এক ওয়েবসাইটে শীতে শরীরকে ভেতর থেকে গরম রাখার পাঁচটি খাবার সম্পর্কে জানিয়েছেন ভারতের অনলাইনভিত্তিক খাবার সরবরাহকারী প্রতিষ্ঠান সাইবারশেফের খাবার বিশেষজ্ঞ শিল্পা গুপ্তা।  
আদা: শরীরে কোলেস্টেরলের মাত্রা কমায় আদা। তাই শীতে শরীর সুস্থ রাখার উপযুক্ত উপায় এটি। পাশাপাশি অ্যান্টিব্যাকটেরিয়াল উপাদান থাকায় এটি সর্দি-কাশির নিরাময়েও সহায়ক। সুপ বা অন্যান্য খাবারের সঙ্গে মিশিয়ে আদা খেতে পারেন। কাঁচাও খাওয়া যায়।
মধু: সর্দি, কাশি, ফ্লু ইত্যাদির বিরুদ্ধে লড়তে অনন্য এক উপাদান মধু। মিষ্টিজাতীয় খাবার হলেও মধুতে নেই বাড়তি ক্যালরির ঝামেলা। এছাড়া শরীর গরম রাখতেও বেশ উপকারী।
বাদাম: বিভিন্ন জাতের বাদাম যেমন, চিনাবাদাম, আখরোট, কাঠবাদাম ইত্যাদি ভালো কোলেস্টেরল, ভিটামিন, ফাইবার ও ওমেগা-থ্রি ফ্যাটি অ্যাসিডের সবচেয়ে ভালো উৎস। গরমজাতীয় খাবার বলে শীতে স্ন্যাকস হিসেবে বাদাম খেতে পারেন।
দারুচিনি: শরীরের তাপমাত্রা কমে যাওয়া থেকে রক্ষা করতে এই মসলা বেশ উপকারী। আলাদা স্বাদ আনতে সুপ, রান্না করা খাবার, সালাদের সঙ্গে দারুচিনি মিশিয়ে নিতে পারেন। গরম পানীয় যেমন, চায়ের সঙ্গে এটি মেশাতে পারেন।
