সম্পর্কবিষয়ক একটি ওয়েবসাইটে বিভিন্ন বিশেষজ্ঞদের মতামত তুলে ধরে বলা হয়, ঝগড়া কোনো খারাপ বিষয় নয়। বরং কথা কাটাকাটি সম্পর্কগুলো আরও দৃঢ় করে। এতে সম্পর্কের ছন্দ ঠিক থাকে, আবার নিজেদের মধ্যে থাকা দ্বিধাও দূর করে দেয়।
তাই যে কোনো সম্পর্কের জন্য ঝগড়া খুবই ভালো। তবে মনোমালিন্য পুষে রাখা বা তর্ক বাড়ে এমন কাজ করা সম্পর্কের জন্য খুবই খারাপ।
কোন কাজগুলো করলে ঝগড়াঝাঁটি সুন্দরভাবে শেষ হতে পারে সেই পন্থাও রয়েছে।
দাবী মীমাংসার আগে সন্ধি নয়: একটা বিচ্ছিরি ঝগড়ার পরে সন্ধি করার আসলেই খুব কষ্টকর। তবে সব দাবীর বিষয়ে একটা সিদ্ধান্তে না আসা পর্যন্ত সন্ধি করলে সেটা আরেকটা ঝগড়ার সূত্রপাত ছাড়া কিছুই হয় না। ঝগড়া যখন আসলেই মিটবে তখন সবগুলো অমীমাংসিত বিষয় মীমাংসা করা হয়েছে এই বিষয়ে নিশ্চিত হতে হবে। সব না মিটিয়ে মিলমিশের পরে সবকিছু ঠিকঠাক দেখা যায় বটে। তবে কোথাও এক জায়গায় ছন্দে অমিল থেকেই যায়।
শান্ত হতে সময় দেওয়া: ঝগড়ার পরে সন্ধি করার কোনো তাড়াহুড়ো করার দরকার নাই। দুই পক্ষকেই শান্ত হতে সময় নিতে হবে। গবেষণায় দেখা গিয়েছে, যে কোনো সমস্যা সময় নিয়ে ভাবলে সেটার সমাধান সহজ এবং গ্রহণযোগ্য সমাধানের পথে আসে। এর পরে মিলমিশের কথা ভাবা প্রয়োজন।
