রেসিপি দিয়েছেন আফরোজ সাইদা।
উপকরণ: বরই ১ কেজি। খেজুরের গুঁড় আধা কেজি। চিনি ১ কাপ। লবণ স্বাদ মতো। আদাবাটা ৩ চা-চামচ। রসুনবাটা ১ চা-চামচ। শুকনা-মরিচ ৫টি (বেশিও দিতে পারেন)। মৌরিগুঁড়া ২ টেবিল-চামচ। সিরকা আধা কাপ। পানি ১ কাপ।
পদ্ধতি: বরইয়ের বোটা ফেলে ধুয়ে পানি ঝরিয়ে মুছে রাখুন। মৌরি ও শুকনামরিচ আলাদা করে টেলে গুঁড়া করুন।


