রেসিপি দিয়েছেন সেরা রাঁধুনি ২০১৫’র প্রতিযোগী অসিত কর্মকার সুজন।
উপকরণ: দুধ দেড় লিটার। আতপ চাল আধা কাপ। গুড় দেড় কাপ(ছোট ছোট করে কেটে রাখবেন)। চিনি স্বাদমতো। লবণ ১ চিমটি। তেজপাতা, এলাচ ও দারুচিনি ১টি করে।
পদ্ধতি: চাল ১০ মিনিট পানিতে ভিজিয়ে রেখে ভালো করে ধুয়ে পানি ঝরিয়ে রাখতে হবে।
এবার একটি পাত্রে দুধ জ্বাল দিন। দুধ ফুটে উঠলে লবণ, চিনি ও চাল দিয়ে ভালো করে নাড়তে হবে। সব উপকরণ আস্তে আস্তে মেশাতে হবে আর নাড়তে হবে।
চাল ভালোভাবে সিদ্ধ হয়ে আসলে আগে থেকে ছোট করে কেটে রাখা গুড় মিশিয়ে দিতে হবে আস্তে আস্তে।
