লাইফস্টাইলবিষয়ক একটি ওয়েবসাইটে গরমে লেন্স পরার ক্ষেত্রে কিছু উল্লেখযোগ্য বিষয় তুলে ধরা হয়।
সানগ্লাস পরুন: চোখ এবং কন্ট্যাক্ট লেন্স শুষ্ক করে ফেলতে পারে অতিরিক্ত রোদ। সে কারণেই সানগ্লাস পরা উচিত। সরাসরি রোদের তাপ থেকে চোখ সুরক্ষিত রাখে সানগ্লাস। ক্ষতিকর ‘ইউভি’ রশ্মি থেকেও বাঁচাবে সানগ্লাস। কন্ট্যাক্ট লেন্স শুষ্ক হয়ে গেলে তা শক্ত হয়ে যায়, যা চোখের জন্য ক্ষতিকর।
একবার ব্যবহারযোগ্য লেন্স: ‘ওয়ান টাইম ইউজ’ লেন্সগুলো গরমে ব্যবহার বেশ ঝুঁকিপূর্ণ।
