রেসিপি দিয়েছেন ফারহানা রহমান।
উপকরণ: ১২টি বড় চিংড়িমাছ। ১টি ডিম। ১ টেবিল-চামচ রসুনবাটা। ১ চা-চামচ গোলমরিচ-গুঁড়া। স্বাদ মতো লবণ। আধা চা-চামচ লেবুর রস। ১ কাপ ময়দা। ১ কাপ পাউরুটির গুঁড়া (পাউরুটি একদম গুঁড়া করা যাবে না। একটু গোটা গোটা থাকবে। তেল পরিমাণ মতো।
পদ্ধতি: চিংড়ির খোসা ছাড়িয়ে পরিষ্কার করে নিন। তবে লেজটা রাখতে হবে। কিচেন টিস্যু দিয়ে চেপে চেপে চিংড়িগুলো একদম শুকনা করে নিন।
লবণ, গোলমরিচ, রসুনবাটা, লেবুর রস দিয়ে চিংড়িগুলো মাখিয়ে নিন।
ডুবো তেলে ভাজতে হবে। তাই সেই পরিমাণ তেল কড়াইতে নিয়ে গরম করুন


সোনালি রং হলে তুলে পরিবেশন করুন।
