রেসিপি দিয়েছেন নদী সিনা।
উপকরণ
দুধ ১ লিটার। চিনি আধা কাপের একটু কম। এলাচগুঁড়া ১ চিমটি। লেবুর রস ১ টেবিল-চামচ। পেস্তাবাদাম সাজানোর জন্য।
পদ্ধতি
প্রথমে হাঁড়িতে দুধ নিয়ে জ্বাল দিন। ফুটে উঠলে তাতে লেবুর রস দিয়ে আস্তে আস্তে নাড়াতে থাকুন। ছানা ও পানি আলাদা হয়ে গেলে ছেঁকে নিন। প্রয়োজন হলে আরও একটু লেবুর রস দিতে পারেন। ছানা থেকে চেপে চেপে পানি বের করে নিন। ছানাতে পানি থেকে গেলে সন্দেশ ভালো হবে না। এরপর ছানা দুই ঘণ্টা খোলা বাতাসে রেখে দিন।
ছানা হাত দিয়ে ভালো করে মথে সঙ্গে চিনি এবং এলাচগুঁড়া মিশিয়ে একটি ননস্টিক প্যানে জ্বাল দিন। ঘনঘন নাড়তে থাকুন।
