ত্বক পরিষ্কারের জন্য ফেইসওয়াশ বা সাবানের ব্যবহার বেশ জনপ্রিয়। তবে বেশিরভাগ সাবান বা ফেইসওয়াশের রাসায়নিক উপাদান ত্বকের বরং ক্ষতিই করে।
তাই ত্বকের যে কোনো সমস্যা এড়াতে ভেষজ পরিষ্কারক বেছে নেওয়া উচিত।
টি ট্রি অয়েল: ত্বক পরিষ্কারক হিসেবে বেশ কার্যকর টি ট্রি অয়েল এবং নারিকেল তেলের মিশ্রণ। টি ট্রি অয়েলে রয়েছে প্রচুর অ্যান্টিঅক্সিডেন্ট, যা ত্বক সুস্থ রাখতে সাহায্য করে এবং নারিকেল তেল ত্বকের আর্দ্রতা ধরে রাখে।
অ্যালোভেরা জেল: বর্ষার সময় ত্বকের নানা ধরনের সমস্যা উপশমে কার্যকর। অ্যালোভেরার জেল রোদে পোড়া ত্বক সারিয়ে তুলতেও উপকারী। শুধু বাহ্যিক ত্বক নয় নিয়মিত খেলে রক্ত পরিষ্কার রাখতেও সাহায্য করে অ্যালোভেরা।
