শরীরচর্চাবিষয়ক এক ওয়েবসাইট জানিয়েছে এমন চারটি স্ট্রেচিং পদ্ধতি।
যোগ ব্যায়ামের পদ্মাসন ভঙ্গিতে বসে দুই হাত সামনের দিকে যতটা সম্ভব বাড়িয়ে দিতে হবে। এ সময় দুই হাতের আঙুলগুলো ভাজে বসিয়ে নিতে হবে। হাতের তালু থাকবে সামনের দিকে। এরপর দুই হাত আস্তে মাথার উপর উঠাতে হবে। পরে কোমর থেকে ডানে ও বামে যতটা সম্ভব কাত হতে হবে।
এ পদ্ধতিতে শরীরের উপরাংশ, কাধ, বাহু ও কোমরের স্ট্রেচিং হয়।
পিঠের ভরে শুয়ে পা উপরে ওঠাতে হবে। পরে এক পায়ের হাঁটু ভাঁজ করে পেটের উপর এনে বিপরীত পাশের হাত দিয়ে চাপ দিতে হবে। এবার হাঁটুকে মেঝের দিকে টানতে হবে এবং কোমরের থেকে পিঠ বাঁকাতে হবে। তবে খেয়াল রাখতে হবে দুই কাঁধ যেন অবশ্যই মেঝেতে লেগে থাকে। একইভাবে দুই পায়ের মাধ্যমে ডানে-বামে ব্যায়ামটি করতে হবে।
এই ব্যায়ামের মাধ্যমে পিঠ, মেরুদণ্ড ও নিতম্বের পেশি স্ট্র্রেচিং হয়।
দুই পা ভাঁজ করে বসে পেছনে দুই হাতের তালু মাটিতে রেখে হাতের উপর শরীরের ওজন দিন। এবার ধীরে মাথা পেছনের দিকে এলিয়ে দিন এবং হাতে ভর দিয়ে কোমর থেকে পুরো শরীর উপরে ওঠাতে হবে। কিছুক্ষণ ধরে রেথে আগের অবস্থায় ফিরে যান। এভাবে কয়েকবার ব্যায়ামটি করতে হবে।
নিতম্ব, পেট ও বুকের পেশি টানটান হয় এই ব্যায়ামে।
