রূপচর্চাবিষয়ক একটি ওয়েবসাইটে সঠিকভাবে টুইজার বা সন ব্যবহার করে ভ্রু তোলার ক্ষেত্রে কিছু বিষয় খেয়াল রাখার পরামর্শ দেওয়া হয়।
- ভ্রু ওঠানোর জন্য অবশ্যই ভালো মানের টুইজার বা সন বেছে নিতে হবে। যার সামনের দিকের অংশ দুটি যথেষ্ট চিকন হবে। যাতে সহজেই ভ্রু’র লোম চেপে ধরা যায়।
- ভ্রু ওঠানোর আগে মুখে ম্যাসাজ ক্রিম দিয়ে খানিকটা মালিশ করে কুসুম গরম পানি দিয়ে ধুয়ে ফেলতে হবে। এতে ত্বক কোমল হবে এবং গরম পানির কারণে ভ্রুর পাপড়ির গোড়াও নরম হয়ে আসবে। এতে চিমটা দিয়ে টেনে ওঠানোর সময় তুলনামূলক কম ব্যথা অনুভূত হবে।
- ভ্রুর যে লোম উঠানো হবে, সেটি ঠিক কোন দিকে উঠেছে তা ভালোভাবে লক্ষ করে ওই একই দিকে টেনে ওঠাতে হবে। এতে পাপড়ি ছিড়ে যাওয়া বা ব্ল্যাকহেডসের সমস্যা এড়ানো সম্ভব হবে।
