স্বাস্থ্যবিষয়ক একটি ওয়েবসাইটে খাবার খাওয়ার টুকিটাকি নিয়ম নিয়ে কিছু বিষয় উল্লেখ করা হয়।
সকালের নাস্তা
- ঘুম থেকে ওঠার আধা ঘণ্টার মধ্যে সকালের নাস্তা খাওয়া উচিত।
- নাস্তা খাওয়ার আদর্শ সময় সকাল ৭টা।
- সকাল ১০টার মধ্যে নাস্তা খেয়ে নিতে হবে।
- সকালের নাস্তায় প্রোটিনজাতীয় খাবার রাখা উচিত।
দুপুরের খাবার


- সকালের নাস্তা ও দুপুরের খাবারের মধ্যে চার ঘণ্টা বিরতি থাকা উচিত।
- বিকাল ৪টার আগেই দুপুরের খাবার খেয়ে নিতে হবে।
রাতের খাবার
- আন্তর্জাতিক সময় হিসেবে সন্ধ্যা ৭টায় রাতের খাবার খাওয়া উচিত। তবে সাধারণত রাতে ঘুমাতে যাওয়ার তিন ঘণ্টা আগে রাতের খাবার খেয়ে নিতে হবে।
- রাত ১০টার পর রাতের খাবার খাওয়া উচিত নয়।
- ঘুমানোর ঠিক আগেই খাবার খেলে ঘুমে ব্যঘাত ঘটতে পারে।


- ওজন ওঠানো ধরনের ব্যায়াম খালি পেটে করা উচিত নয়। তবে একেবারে ভরা পেটেও ব্যায়াম করা যাবে না। খাওয়ার দুই ঘণ্টা পরে ব্যায়াম করা সবচেয়ে ভালো।
