একটি লাইফস্টাইলবিষয়ক ওয়েবসাইটে দিল্লির পুষ্টিবিজ্ঞানী কাভিতা দেভগান জানিয়েছেন, বেগুনের ওজন কমানোর গুণের কথা।
এই সবজি প্রায়ই আমাদের খাদ্য তালিকায় তাকে। তবে যখন স্বাস্থ্য রক্ষা বা ওজন কমানোর বিষয়ে আলোকপাত করা হয় তখন বেগুন গোনায় ধরা হয় না।
অথচ ১০০ গ্রাম বেগুনে মাত্র ২৫ ক্যালোরি থাকে। খাদ্যআঁশে ঠাঁসা একটা সবজি। তাই অনেকগুলো বেগুন খেয়ে ফেললেও ওজন বাড়ার সম্ভাবনা প্রায় নেই বললেই চলে!
এছাড়াও বেগুনে রয়েছে প্রচুর পরিমাণে ভিটামিন বি, ভিটামিন বি সিক্স, রিবোফ্লাভিন, নায়াসিন এবং থায়ামিন। এগুলো আমাদের দেহের ‘মেটাবোলিজম’ সক্রিয় রাখে। ফলে খাবার ভালো হজম হয় এবং শরীরে মেদ জমে না।
অ্যালার্জির সমস্যা না থাকলে আরও অনেক কারণেই বেগুন নিয়মিত পাতে রাখা যেতে পারে —
হৃদপিণ্ডের রক্ষক: বেগুনে ফাইটোকেমিকল অ্যান্থোসায়ানিনস থাকে যার কারণে বেগুনের রংটা এত চমৎকার দেখায়। তবে এটি আমাদের হৃদয়ের রক্ষণাবেক্ষণের কাজও করে। বেগুনে পটাশিয়ামের পরিমাণ বেশি থাকে এবং সোডিয়ামের পরিমাণ অনেক কম থাকে। যা রক্তচাপ নিয়ন্ত্রণে সাহায্য করে। বেগুনে থাকা ক্লোরোজেনিক অ্যাসিড শরীরের জন্য ক্ষতিকর কোলেস্টরেল দমিয়ে রাখে।
ক্যান্সার নিরাময়: অ্যান্থোসায়ানিনস এবং ক্লোরোজেনিক অ্যাসিড ক্যান্সার নিরাময়ে কার্যকর।
ডায়বেটিস প্রতিরোধ: বেগুনে উচ্চ মাত্রায় আঁশ এবং কম পরিমাণে দ্রবণীয় শর্করা থাকে ফলে ডায়বেটিস প্রতিরোধের কাজেও বেগুন ভূমিকা রাখতে পারে।
রোগ প্রতিরোধ ক্ষমতা বৃদ্ধি: বেগুণ একটা ক্ষারধর্মী খাবার। এটি পরিপাক তন্ত্রের অম্ল ও ক্ষারের ভারসাম্য ঠিক থাকে এবং রোগ প্রতিরোধ ক্ষমতা সচল থাকে।
বেগুন রান্নার সঠিক পদ্ধতি
পুষ্টিবিজ্ঞানী কাভিতা দেভগান জানিয়েছে বেগুন শুধু খেলেই হবে না, এই সবজি সঠিক পদ্ধতিতে রান্না করতেও জানতে হবে—


