মিরপুর ১১ নম্বর বাসস্ট্যান্ডের দেশ পলিটেকনিক ইনস্টিটিউটের উল্টাপাশের এই রেস্তোরাঁয় বার্গার সপ্তাহ চলবে ২৫ অগাস্ট পর্যন্ত।
কর্ণধার রাজীব খান বলেন, “জুলাই মাসের ১৪ তারিখ থেকে চালু করেছি রেস্তোরাঁটি। ভেতরে বাইরে মিলিয়ে প্রায় ২০ জনের বসার ব্যবস্থা আছে, আছে ওয়াইফাই। খোলা থাকে সকাল ১১টা থেকে রাত ১১টা পর্যন্ত। বার্গার, সেট মেন্যু আর কোল্ড কফি বিক্রি হয় বেশি।”




