একটি নির্দিষ্ট সময়ে সারাদিন কাজের পর রাতে ক্লান্ত হয়ে ঘুমাতে গেলে, সকালে ঠিক সময়ে ঘুম থেকে উঠতে সাহায্য করে।
তবে অনেকেরই রাত জেগে কাজ করা, সিনেমা দেখার বা ভিডিও গেমস খেলার অভ্যাস আছে। আর এই অভ্যাসগুলো সকাল সকাল বিছানা ছাড়তে বাঁধা সৃষ্টি করে।
হাফিংটনপোস্ট ডটকম তাদের এক প্রতিবেদনে সকাল সকাল ঘুম থেকে উঠার বিষয়ে করণীয় বিষয়গুলো উল্লেখ করেছে।
- প্রতিদিনের কাজের যেমন একটি রুটিন করা হয়, তেমনি দিনে ৭ থেকে ৯ ঘন্টা ঘুমানোর জন্য একটি সময় বেঁধে নেয়া জরুরি। কারণ নিয়মিত পর্যাপ্ত পরিমাণ না ঘুম হলে তা সারাদিনের কাজে ব্যঘাত ঘটাবে। সারাদিন কাজ করে আমরা যতটুকু শক্তি খরচ করি তা ঘুমের মধ্যেই আবারও সঞ্চয় করা যায়।
- শোবার ঘরে টিভি কখনোই রাখা উচিত নয়। যদি থাকেও ঘুমাতে যাওয়ার নির্দিষ্ট সময়ের আগে টিভি বন্ধ করে দেয়া উচিত। ঠিক তেমনি বিছানায় কখনই ল্যাপটপ বা ট্যাব রাখা উচিত নয়। ঘুমাতে যাওয়ার ১ ঘন্টা আগে টিভি বা কম্পিটারের মনিটর থেকে দূরে থাকা উচিত।
