গর্ভাবস্থায় ও মাসিক চলাকালে হাতে-পায়ে ও মুখমণ্ডলে পানি আসতে পারে। এছাড়া অনিয়মিত খাদ্যাভ্যাস, ওষুধের পার্শ্বপ্রতিক্রিয়া, মেনোপজ কিংবা থাইরয়েড, লিভার বা কিডনি সমস্যার লক্ষণও হতে পারে শরীরে পানি জমা। এরজন্য চিকিৎসা নেওয়া প্রয়োজন।  
তবে প্রাথমিকভাবে রেহাই পেতে রয়েছে ঘরোয়া কিছু পন্থা। স্বাস্থ্যবিষয়ক একটি ওয়েবসাইটে এসব উপায় উল্লেখ করা হয়।
প্রচুর পানি পান করুন: যথেষ্ট পরিমাণে পানি পান করলে পানি জমা কমানো যায়। তবে সতর্ক থাকতে হবে যেন সমস্ত দিনের মধ্যে সুষমভাবে পানি পান করা হয়। কারণ একেবারে অধিক পানি পান করলে উল্টো প্রতিক্রিয়া হতে পারে।
লবণ ও চিনি খাওয়া কমান: লবণ কোষে পানি ধরে রাখে এবং লবণের আধিক্য শরীরে জলাবদ্ধতার সৃষ্টি করে। অপর দিকে, চিনি দেহে ইনসুলিনের মাত্রা বাড়িয়ে দেয়, ফলে দেহ থেকে সোডিয়াম তথা লবণ নিষ্কাশন কমিয়ে দেয়।
বেছে নিন প্রাকৃতিক মূত্রবর্ধক: ফার্মেসিতে ছুটে যাওয়ার আগে রান্নাঘরের দিকে একবার নজর দিন। ঘরেই তৈরি করে নিতে পারেন প্রাকৃতিক মূত্রবর্ধক। বাঁধাকপির কাঁচাপাতা, সবুজ চা, অ্যাপেল সাইডার ভিনিগার, ধনিয়াপাতা, জিরা ইত্যাদি হতে পারে ঘরোয়া সমাধান।
রসুন: সকালে খালি পেটে রসুন খেলে উপকার হতে পারে। এটি চর্বি ভাঙতেও সহায়তা করে। 
