রেসিপি দিয়েছেন সাবিনা সুলতানা লিরা।


মণ্ডের জন্য: ময়দা আধা কাপ। সুজি আধা কাপ। গুঁড়াদুধ আধা কাপ। চিনি ২ টেবিল-চামচ। পানি দেড় কাপ। তেল অথবা ঘি পরিমাণ মতো।
পদ্ধতি: দুধ জ্বাল দিয়ে অর্ধেক করে নিন। ঘন হবে। এতে নলেন গুঁড়, নারিকেল কোড়ানো দিয়ে আর‌ও কিছুক্ষণ জ্বাল দিন।
চালের গুঁড়া আধা কাপ দুধে গুলিয়ে এতে ঢেলে দিন। ঘন ঘন নাড়ুন, যাতে তলায় লেগে না যায়।
ঘন থকথকে ক্ষীরসা তৈরি হলে চুলা বন্ধ করে দিন। একটি সমান পাত্রে ঢেলে ক্ষীরসা ঠাণ্ডা করুন।
একটি বাটিতে সুজি, গুঁড়াদুধ, পানি মিলিয়ে ঢেকে ৩০ মিনিট অপেক্ষা করুন। এতে ময়দা ও চিনি ভালো করে মিশিয়ে নিন যেন কোনো জমাট ধরে না থাকে।
একটি ননসিটক তাওয়া গরম করে সামান্য তেল বা ঘি তাওয়ায় দিয়ে পরিষ্কার কাপড়ে মুছে নিন।
এবার ডালের চামচের আধা চামচ গোলা বা মণ্ড একবারে ঢেলে তাওয়া ঘুরিয়ে রুটির মতো বানিয়ে নিন। খেয়াল রাখবেন রুটি যেন পাতলা হয়, মোটা হলে মোড়ানোর সময় ভেঙে যাবে। 
২ টেবিল-চামচ ক্ষীরসা রুটির এক কোনায় দিয়ে রোলের মতো মুড়িয়ে নিয়ে পিঠা তৈরি করে নিন।
এভাবে সবগুলো পাটিসাপটা পিঠা তৈরি করে নিন।
সমন্বয়ে: ইশরাত জে. মৌরি।
আরও রেসিপি
ঝাল পোয়া পিঠা  
