স্বাস্থ্যবিষয়ক একটি ওয়েবসাইটে প্রকাশিত একটি প্রতিবেদন থেকে মানসিক অবসাদ কমানোর কিছু সহজ উপায় সম্পর্কে জানানো হয়।
ধ্যান: প্রাচীনকাল থেকেই মানসিক শান্তির জন্য ধ্যান এবং যোগ ব্যায়াম সবচেয়ে ভালো উপায় হিসেবে বিবেচনা করা হয়। প্রতিদিন ১০ মিনিট ধ্যানের মাধ্যমে সারাদিনের ক্লান্তি অনেকাংশে কমিয়ে আনা সম্ভব। তাই মানসিক অবসাদ ও দুশ্চিন্তা থেকে মুক্তি পেতে প্রতিদিন খানিকটা সময় বের করে ধ্যান করা যেতে পারে।
শরীরচর্চা: ব্যায়াম বাড়তি ওজন কমানোর পাশাপাশি মানসিক অবস্থার উন্নতিতেও সহায়তা করে। শরীরচর্চার ফলে মস্তিষ্কের ডোপামিন ও সেরোটোনিন নামক রাসায়নিক উপাদান নিঃসৃত হয় যা মানসিক অবসাদ দূর করতে সহায়তা করে মনে প্রশান্তি আনে। এমনকি প্রতিদিন ১৫ মিনিট ব্যায়াম মাদক থেকে বিরত থাকাতে সহায়তা করে।
পছন্দের কাজ করা: পছন্দসই কাজ যেমন- গান শোনা, বই পড়া, বাগান করা ইত্যাদি কাজে প্রতিদিন অন্তত ৩০ মিনিট সময় ব্যয় করা উচিত। প্রতিদিন পছন্দের কাজ করে খুব সহজেই মানসিক অবসাদ কাটিয়ে ওঠা সম্ভব। 
