সাধারণ অথচ মারাত্বক জটিলতার ইঙ্গিত হতে পারে এমনই কিছু ব্যথা সম্পর্কে জানিয়েছে স্বাস্থ্যবিষয়ক এক ওয়েবসাইট।
বুক ব্যথা: হার্ট আটাক বা অন্যান্য হৃদরোগের লক্ষণ হতে পারে বুক ব্যথা। এছাড়াও হজম কিংবা গ্যাসের সমস্যা, মানসিক চাপ, সর্দিকাশি, জ্বর ইত্যদির লক্ষণও হতে পারে এটি। শারীরিক এই সমস্যাগুলো সাধারণ মনে হলেও বুকের ব্যথা কখনও অবহেলা করা উচিত নয়। খেয়াল রাখতে হবে, বুক ব্যথার সঙ্গে যদি গলা, চোয়াল, বুকের উপরের অংশে ও বাম কাঁধে ব্যথা অনুভব করেন তবে অবশ্যই একজন হৃদরোহ বিশেষজ্ঞের পরামর্শ নিতে হবে।
মাথাব্যথা: কারণ বলে শেষ করা সম্ভব নয়। তবে নিয়মিত মাথাব্যথার কারণ হতে পারে মস্তিষ্কের টিউমার বা রক্তক্ষরণের উপসর্গ। যদি প্রায়ই আকস্মিকভাবে তীব্র মাথাব্যথা অনুভব করেন তবে দ্রুত ডাক্তারের পরামর্শ নিতে হবে।


তলপেটে ব্যথা: তলপেটে মারাত্বক ব্যথা হতে পারে অ্যাপেনডিক্সের লক্ষণ। পেটে ব্যথা হলেই ভয় পাওয়ার কোনো কারণ নেই। তবে সমস্যা যদি নিয়মিত হয় তা পাকস্থলীতে আলসার, অন্ত্র বন্ধ হয়ে যাওয়া বা অগ্ন্যাশয়ের সমস্যার ইঙ্গিত হতে পারে।

