স্বাস্থ্যবিষয়ক একটি ওয়েবসাইটে দৌড়ানো শুরু করার ক্ষেত্রে কিছু বিষয় উল্লেখ করা হয়। এ বিষয়ে পরামর্শ দিয়েছেন অ্যাডিডাস’য়ের  দৌড় বিশেষজ্ঞ রজত চৌহান ।
- হারানো শারীরিক গঠন ফিরে পাওয়ার জন্য তাড়াহুড়ার প্রয়োজন নেই।  বর্তমান শারীরিক অবস্থার সঙ্গে খাপ খায় এমন গতিতে এবং যতটুকু দূরত্ব সম্ভব ততটুকু দিয়েই দৌড়ানো শুরু করা উচিত। কারো সঙ্গে অযথা প্রতিযোগিতা করার প্রয়োজন নেই। নিজের সামর্থ্য অনুসারে শুরু করুন। অযথা চাপ নিয়ে আঘাত পাওয়ার প্রয়োজন নেই।
- প্রথম কয়েক মাসে দৌড়ানোর সময় কতটুকু দূরত্ব অতিক্রম করা হল এবং গতি নিয়ে মাথা ঘামানোর প্রয়োজন নেই। শুধু খেয়াল রাখুন কতক্ষণ দৌড়ালেন তার দিকে।
- একবার ধীর গতিতে পাঁচ থেকে ছয় মিনিট হাঁটুন তারপর আবার দ্রুত গতিতে পাঁচ থেকে ছয় মিনিট কিছুটা জোরে হাটুন। প্রথম দুই সপ্তাহ এভাবে তিন থেকে ছয় বার করুন। তারপর দৌড়ানো শুরু করতে পারেন।
- দ্রুত গতিতে একটানা পাঁচ থেকে দশ মিনিট হাঁটায় অভ্যস্ত হয়ে যাওয়ার পর এবার হালকা জগিং শুরু করুন। অদল বদল করে দ্রুত হাঁটা আর জগিং করতে হবে পাঁচ মিনিট পরপর। এটাও পুনরাবৃত্তি করুন তিন থেকে ছয় বার।
- দৌড়ানোর মাধ্যমে সবচেয়ে বেশি উপকার পেতে কিছু ‘স্ট্রেন্থ ট্রেইনিং’ এক্সারসাইজ করা প্রয়োজন। ঘরে কিংবা জিমনেশিয়ামে এ ধরনের ব্যয়াম করা যাবে।


- দৌড়ান বা হাঁটুন যাই করুন না কেনো, পাশাপাশি ভালোভাবে শ্বাস-প্রশ্বাসের অভ্যাস গড়ে তোলা জরুরি। হাঁটা শুরু করার সময় লম্বা একটা শ্বাস নিয়ে দুই সেকেন্ড ধরে রাখুন, তারপর দম ছেড়ে দিন। এভাবে অভ্যাস হয়ে গেলে খুব দ্রুত দৌড়ানোর সময়ও একই ভাবে শ্বাস-প্রশ্বাস চালানো যাবে।


- শুরুর দিকে কিছুদিন ক্লান্তিতে শরীর আর চলতে চাইবে না, অস্বস্তিও লাগতে পারে। উপরের পরামর্শ অনুযায়ী প্রথম তিন থেকে চার সপ্তাহ দৌড়ান। শরীরে ব্যথা অনুভূত হতে পারে। তবে দুই দিনের বেশি পায়ে ব্যথা থাকলে ডাক্তারের পরামর্শ নিন।
- অনেকেই খালি পায়ে দৌড়াতে চান। যা মোটেও উচিত নয়। নতুন করে দৌড়ানো শুরু করার ক্ষেত্রে অবশ্যই পায়ে আরামদায়ক এক জোড়া জুতা পরে নেওয়া উচিত। পরে অভ্যস্থ হয়ে যাওয়ার পর যে কোনো জুতা বেছে নেওয়া যেতে পারে।

