প্রতি শুক্র ও শনিবার রাত ৯টায় অনুষ্ঠানটি প্রচারের সময় নির্ধারিত হয়েছে। সারাদেশ থেকে কয়েক হাজার প্রতিযোগী এই প্রতিযোগিতায় অংশ নিয়েছেন। সেখান থেকে যাচাই-বাছাইয়ের পর ৪০ জন প্রতিযোগীকে নিয়ে শুরু হচ্ছে মূল পর্ব।    
স্কয়ার ফুড অ্যান্ড বেভারেজ লিমিটেড আয়োজিত ‘সেরা রাঁধুনী ১৪২৪’য়ের প্রতিযোগিতার অভিজ্ঞ বিচারকমণ্ডলীরা প্রতিযোগীদের ভিন্ন ভিন্ন ঘরানার রান্নায় পারদর্শীতা যাচাইয়ের পাশাপাশি রান্না পরিবেশনা, নিজেকে উপস্থাপন, ব্যক্তিত্ব, বিক্রয় দক্ষতা, নেতৃত্বগুণ, খাবারের ব্যবসা চালানোর ক্ষমতা, বিভিন্ন পরিস্থিতি সামলানোর ক্ষেত্রে তাৎক্ষণিক বুদ্ধি ও দক্ষতা প্রয়োগের ক্ষমতার উপর ভিত্তি করে ‘সেরা রাঁধুনী ১৪২৪’ নির্বাচন করবেন।
অনুষ্ঠানটির স্টুডিও রাউন্ড থেকে উপস্থাপনার দায়িত্বে থাকবেন রুমানা মালিক মুনমুন। ‘সেরা রাঁধুনী ১৪২৪’ পাবেন ১৫ লাখ টাকা। প্রথম ও দ্বিতীয় রানার আপ পাবেন ১০ ও ৫ লাখ টাকা। পুরো আয়োজনটির সার্বিক ব্যবস্থাপনায় আছে মিডিয়াকম লিমিটেড এবং সম্প্রচারের দায়িত্বে রয়েছে মাছরাঙা টেলিভিশন।
