সাজসজ্জাবিষয়ক ওয়েবসাইটে মেইকআপের এমনই কিছু সহজ কৌশল উল্লেখ করা হয়।
- মুখের উঁচু অংশ যেখানে আলো প্রতিফলিত হয় সেখানে হাইলাইটার ব্যবহার করা হয়। এতে চেহারায় আলাদা উজ্জ্বলতা আসে। তবে এই মেইকআপের কৌশল আরও কিছু কাজে ব্যবহার করা যেতে পারে।
লিপস্টিক দেওয়ার আগে হাইলাইটার ছড়িয়ে দিলে ঠোঁট ভরাট দেখাবে। তাছাড়া চোখের সাজ সম্পূর্ণ করতে ভ্রুর নিচেও হাইলাইটার লাগিয়ে দিন। এতে চোখ উজ্জ্বল দেখাবে।
-  ব্লাশ এবং হাইলাইটার ফাউন্ডেশনের উপরে ব্যবহার না করে এর নিচে ব্যবহার করা যেতে পারে। এতে হালকা একটি আভা যুক্ত হবে চেহারায়।
