রেসিপি দিয়েছেন আতিয়া হোসেন তনি।
উপকরণ
১ কাপ কনডেন্সড মিল্ক। দেড় কাপ গুঁড়া দুধ। ৮ টেবিল-চামচ মাখন (লবণ ছাড়া)। সামান্য এলাচগুঁড়া (ইচ্ছা)।
পদ্ধতি


কিছুটা ঠাণ্ডা হলে (হাত দিয়ে ধরা যায় এমন) হাতে তেল মাখিয়ে সঙ্গে ছাঁচগুলোতেও তেল মাখিয়ে সুন্দর করে আকার দিন। পরিবেশন করুন। অনেক দিন রেখে খেতে চাইলে, ‘এয়ার টাইট’ বাক্সে রেখে সংরক্ষণ করতে হবে।
