রেসিপি দিয়েছেন আতিয়া আমজাদ।


উপকরণ
পাঙাশ মাছের মাথা ১টি। ডাটাশাক ৪ কাপ (বেছে নিবেন)। গুঁড়ামরিচ আধা চা-চামচ। হলুদগুঁড়া আধা চা-চামচ। পেঁয়াজকুচি ২ টেবিল-চামচ। আদাবাটা আধা চা-চামচ। রসুনবাটা আধা চা-চামচ। কাঁচামরিচ ৪-৫টি। তেল ২ টেবিল-চামচ। লবণ স্বাদমতো।
পদ্ধতি
মাছের মাথা সামান্য গুঁড়াহলুদ, গুঁড়ামরিচ, লবণ ও আধা কাপ পানি দিয়ে সিদ্ধ করে নিন। যে পাত্রে রান্না করবেন সেটাতে তেল গরম করুন। এবার এতে পেঁয়াজকুচি, আদা্ ও রসুনবাটা, বাকি হলুদ ও মরিচের গুঁড়া দিয়ে মাঝারি আঁচে ২ মিনিটের জন্য কষিয়ে নিন।
এবার মাছের মাথা দিয়ে একটু আধা ভাঙা করে দিন। তারপর শাকগুলো ঢেলে দিয়ে ভালো করে মিশিয়ে দিন। এবার স্বাদমতো লবণ আর কাঁচামরিচ দিন। এককাপ পানি ঢেলে ঢাকনা দিয়ে আরও ১০ মিনিট রান্না করুন।
পুরো রান্নায় আগুনের আঁচ মাঝারি রাখবেন।


উপকরণ
বাটামাছ ৬টি (ভালো করে ধুয়ে নিন)। গুঁড়াহলুদ আধা চা-চামচ।  গুঁড়ামরিচ আধা চা-চামচ। লেবুর রস ১ টেবিল-চামচ। পেঁয়াজকুচি আধা কাপ। কাঁচামরিচ ৫-৬টি। কর্নফ্লাওয়ার ২ টেবিল–চামচ। লবণ স্বাদমতো। সয়াবিন তেল আধা কাপ এবং সরিষার তেল ২ টেবিল-চামচ।
পদ্ধতি
মাছ লেবুর রসে মাখিয়ে ১ ঘণ্টা রেখে দিন। তারপর একে একে সব মসলা দিয়ে মাখাতে হবে।
এবার প্যানে সয়াবিন তেল আর সরিষার তেল দিয়ে গরম করুন। চুলার আঁচ কমিয়ে দিন। মাছগুলো কর্নফ্লাওয়ারে গড়িয়ে তেলের মধ্যে একে একে ছেড়ে দিন। এবার মাছ ভাজে ভাজা হয়ে খয়েরি রং হয়ে আসলে নামিয়ে ফেলুন।
সাবধানে নামাবেন নইলে ভেঙে যাবে।
