বাইরের ধুলাবালি এবং দূষণের কারণে ত্বকে ব্রণসহ নানান ধরনের সমস্যা হতে দেখা যায়। তবে ব্যস্ততার কারণে অনেক ক্ষেত্রেই নিয়মিত যত্ন নেওয়া হয়ে ওঠে না। তবে সুন্দর ত্বক পেতে খুব বেশি কষ্ট করার প্রয়োজন নেই। কিছুটা সচেতন হলেই ত্বক সুস্থ রাখা যায়।
রূপচর্চাবিষয়ক একটি ওয়েবসাইটে ব্রণমুক্ত ত্বকের জন্য করণীয় কিছু বিষয় উল্লেখ করা হয়।
মুখ পরিষ্কার রাখা
মুখে ব্রণ থাকুক আর না থাকুক দিনে অন্তত দুবার মুখ পরিষ্কার করা উচিত। এতে মৃত কোষ ও অতিরিক্ত তেল পরিষ্কার হয়ে যায়।
হাল্কা গরম পানি ও মাইল্ড ফেইস ওয়াশের সাহায্যে মুখ ধোয়া উচিত। মুখে অতিরিক্ত সুগন্ধীযুক্ত ও ক্ষারযুক্ত সাবান ব্যবহার এড়িয়ে চলতে হবে। কারণ এতে ত্বক শুষ্ক হয়ে যেতে পারে।
কাপড়, লুফা ইত্যাদি দিয়ে মুখ ঘষা ঠিক নয়। এক্ষেত্রে পাতলা কাপড় বা হাতের সাহায্যে আলতোভাবে মুখ ধোয়া উচিত।
মুখ পরিষ্কারের ক্ষেত্রে আরেকটি বিষয় মনে রাখা প্রয়োজন আর তা হল , কখন ময়লা তোয়ালে দিয়ে মুখ মোছা যাবেনা। এতে করে মুখে ব্যক্টেরিয়ার সংক্রমন হতে পারে। তাই সব সময় পরিষ্কার তোয়ালে ব্যবহার করা উচিত।   
ত্বক আর্দ্র রাখা
সাধারণত যে ধরনের প্রসাধনী ব্যবহার করা হয় তার অধিকাংশই আমাদের ত্বক শুষ্ক করে ফেলে। এই শুষ্কতা কমানোর জন্য নিয়মিত ময়েশ্চারাইজার ব্যবহার করা উচিত। বাজারে তৈলাক্ত, শুষ্ক ও মিশ্র ত্বকের জন্য আলাদা আলাদা ময়েশ্চারাইজার পাওয়া যায়। ত্বক অনুযায়ী সেখান থেকে ময়েশ্চারাইজার বেছে নিয়ে ব্যবহার করতে হবে। 
ব্রণ কমানোর ওষুধ
বাজারে নানান রকমের ব্রণ কমানোর ওষুধ পাওয়া যায়। তবে যেকোনো ওষুধ ব্যবহারের আগে ডাক্তারের পরামর্শ নেওয়া উচিত।
এই ধরনের ওষুধে রয়েছে বেঞ্জয়েল পারক্সাইড, স্যালিসাইক্লিক এসিড, গ্লাইকোলিক এসিড ও ল্যাক্টিক এসিড যা ত্বকের ব্রণ কমাতে সাহায্য করে।
এই ধরনের ওষুধ ব্যবহারের ক্ষেত্রে প্রথমে অল্প পরিমাণে ব্যবহার করে নিতে হবে। পরে ত্বকের ধরণ ও প্রয়োজন অনুযায়ী ব্যবহার করতে হবে। সংবেদশীল ত্বকে এইসব পণ্য ব্যবহারের ক্ষেত্রে সতর্কতা অবলম্বন করা প্রয়োজন।
মেইকআপের ব্যবহার সচেতন
ত্বকে ব্রণ থাকলে মেইকআপ যত কম ব্যবহার করা যায় ততই ভালো। ফাউন্ডেশন, পাউডার ও ব্লাশন কম ব্যবহার করা উচিত। আর যদি মেইকআপ ব্যবহার করতেই হয় তাহলে অবশ্যই দিনের শেষে তা ভালোভাবে তুলে ফেলতে হবে। যদি সম্ভব হয় তবে তেল, রং ও রাসায়নিক উপাদান মুক্ত প্রসাধনী ব্যবহার করুন।
তাই প্রসাধনী কেনার আগে অবশ্যই পণ্যের গায়ের লেবেল ভালোভাবে পড়ে নেওয়া উচিত। 
চুলের দিকে নজর দিন
মাথার চুলে সুগন্ধি তেল, পমেড বা জেল লাগান ঠিক নয়। কারণ এইসব উপাদান যদি কোনোভাবে মুখে লাগে তবে তা অনেক সময় লোমকূপ বন্ধ করে দিতে পারে, যা ত্বকের জন্য ক্ষতিকর।
তৈলাক্ত চুল থেকে তেল অনেক সময় মুখে লাগে যার কারণে ব্রণ হতে পারে। তাই চুল পরিষ্কার রাখা প্রয়োজন।
আর যদি লম্বা চুলের অধিকারী হন তবে সবসময় মুখের উপর থেকে চুল সরিয়ে রাখুন।  
হাত ব্যবহারে সাবধানতা
যতটা সম্ভব মুখে হাত কম লাগানোর অভ্যাস করতে হবে। কারণ আমাদের হাতে নানান রকম ময়লা ও জীবাণু থাকে। এই হাত মুখে লাগানোর সঙ্গে সঙ্গে মুখের ত্বক জীবাণুর মাধ্যমে আক্রান্ত হয়। ফলে ব্যাকটেরিয়া বৃদ্ধি পেয়ে ব্রণের সৃষ্টি হয়।
মুখে ব্রণ হলে কখনো তা হাত দিয়ে ফাটান উচিত না। এতে ইনফেকশন হওয়ার সম্ভবনা বেড়ে যায়।
সূর্য রশ্মি থেকে দূরে থাকা
সূর্যের অতি বেগুনি রশ্মি ত্বকের জন্য ক্ষতিকর। এর কারণে ত্বক পুড়ে যেতে পারে ও লালচেভাব হতে পারে। তীব্র সূর্য রশ্মির ফলে ত্বকে অতিরিক্ত ব্রণ হয়।
সাধারণত সকাল ১০ টা থেকে দুপুর ২টা পর্যন্ত রোদের তাপ থেকে দূরে থাকা ভালো। এইক্ষেত্রে বড় হাতার পোশাক, ছাতা বা টুপি ব্যবহার করা যেতে পারে।
অন্যদিকে, ব্রণ থাকুক আর না থাকুক নিয়মিত এসপিএফ ৩০ বা এর বেশি মাত্রার সানস্ক্রিন ব্যবহার করা প্রয়োজন। সানস্ক্রিন ব্যবহারের ক্ষেত্রে বাইরে যাওয়ার অন্তত পক্ষে ২০ মিনিট আগে তা লাগাতে হবে।
ত্বকের খাদ্য
অধিকাংশ বিশেষজ্ঞ মনে করেন, কিছু কিছু খাদ্য আছে যা ত্বকে ব্রণ হওয়া থেকে রক্ষা করে এর মধ্যে চকোলেট অন্যতম। অন্যদিকে, তেল–চর্বি সমৃদ্ধ খাবার বা জাঙ্কফুড ত্বকে ব্রণের সৃষ্টি করে।
তাই প্রতিদিনের খাদ্য তালিকায় তাজা ফল ও সবজি সঙ্গে আঁশযুক্ত খাবার রাখা উচিত।
 নিয়মিত শরীর চর্চা
ব্যয়াম করা শুধু শরীরের পক্ষেই ভালো নয়, ত্বকের জন্যেও ভালো। তবে শরীরচর্চার ক্ষেত্রে অল্প কাপড় পরুন এবং যন্ত্রপাতি কম ব্যবহার করুন। এইগুলোর সঙ্গে ত্বকের ঘর্ষণে জ্বালাপোড়া হতে পারে।
ব্যয়াম করার পর ভালোভাবে গোসল করুন।   
আনন্দ
কিছু গবেষণায় দেখা গেছে যে, অতিরিক্ত মানসিক চাপ, হতাশা ও দুশ্চিন্তা ব্রণের জন্ম দেয়। তাই যতটা সম্ভব মনে প্রফুল্লতা রাখা ভালো।
সবকিছুর পরও যদি ব্রণের প্রকোপ না কমে তবে যে কোনো ত্বক বিশেষজ্ঞের পরামর্শ নিন।
ছবি: রয়টার্স।
বরফ দিয়ে ত্বক চর্চা
তৈলাক্ত ত্বকের মাস্ক
