পিটব্যথা নিরাময়ের কয়েকটি গৃহস্থালী উপায় জানিয়েছে স্বাস্থ্যবিষয়ক এক ওয়েবসাইট।
কর্পূর ও নারিকেল তেল: নারিকেল তেলের সঙ্গে কর্পূর মিশিয়ে পাঁচ মিনিট চুলায় রেখে ফুটিয়ে নিতে হবে। পরে একে ঠাণ্ডা করে বোতলে সংরক্ষণ করতে হবে। সপ্তাহে দু্দিন ঘুমানোর আগে এই মিশ্রণ পিঠে মালিশ করতে হবে।
ইউক্যালিপ্টাস অয়েল: এক বালতি কুসুম গরম পানিতে কয়েক ফোঁটা ইউক্যালিপ্টাস ওয়েল মিশিয়ে নিতে হবে। এই মিশ্রিত পানি দিয়ে গোসল করলে পিঠ ব্যথাসহ সারা শরীরের ব্যথা উপশম হবে। পাশাপাশি আপনি থাকবেন মানসিক চাপমুক্ত।
তাপ চিকিৎসা: সোফায় বসে টেলিভিশন দেখার সময় পেছনে হট-ওয়াটার ব্যাগ নিয়ে তাতে পিঠের ভর দিয়ে বসতে পারেন।
সরিষার তেল: গোসলের এক ঘণ্টা আগে এই তেল দিয়ে পিঠ মালিশ করতে পারেন। তবে অবশ্যই গরম পানিতে গোসল করতে হবে।
দুধ, হলুদ ও মধু: এক গ্লাস কুসুম গরম দুধে এক চিমটি হলুদ ও কয়েক ফোঁটা মধু মিশিয়ে নিন। নিয়মিত এই মিশ্রণ পান করার অভ্যাস গড়তে পারলে পিঠব্যথার পাশাপাশি শরীর ব্যথা ও সর্দিকাশিও দূরে থাকবে।
