রেসিপি দিয়েছেন আমেনা আলি মেঘলা।
উপকরণ: স্ট্রবেরি ১০টি৷ হেভি ক্রিম ২ কাপ। কনডেন্সড মিল্ক ১ কাপ। চিনি ২ টেবিল-চামচ (স্বাদমতো)। এক ফোঁটা লাল খাবার রং। ভ্যানিলা এসেন্স অথবা স্ট্রবেরি এসেন্স ১ চা-চামচ।
পদ্ধতি: আস্ত স্ট্রবেরি ও চিনি ব্লেন্ডার ব্লেন্ড করে স্ট্রবেরি পিউরি তৈরি করে নিতে হবে৷
ইলেক্ট্রিক কেক বিটার দিয়ে প্রথমে হেভি ক্রিম আট মিনিট বিট করুন। ক্রিমটা ফোমের মতো হয়ে আসলে কনডেন্সড মিল্ক, ভ্যানিলা এসেন্স এবং স্ট্রবেরি পিউরি দিয়ে দুই মিনিট বিট করে সব একসঙ্গে মিশিয়ে দিতে হবে।
