পূজার কয়েকটি দিন সাজা যাবে ইচ্ছেমতো। দেশি কিংবা পাশ্চাত্য যেই ঢংয়েই পোশাক হোক না কেনো, সাজতে হবে আপনার স্বাচ্ছন্দ্যবোধ, রুচি ও ব্যক্তিত্বের সঙ্গে মিলিয়ে। একেক দিন একেকটি রং।
পাঁচ দিন ভিন্ন ধরনের সাজ। এর মধ্যে আবার রাত-দিনের তফাতটাও মনে রাখতে হবে।
পূজা উৎসবের আমেজ থাকে বেশ কয়েক দিন। সাজার সুযোগটা তাই বেশি— আধুনিক, ঐতিহ্যবাহী, ক্লাসিকল— যে কোনোভাবে নিজেকে সাজিয়ে তোলা যাবে।
সাজসজ্জার খুঁটিনাটি বিষয়গুলো জানিয়েছেন শিবানি’জ অ্যারোমার কর্ণধার শিবানী দে।
সপ্তমীর সকালের সাজ


দিনের বেলায় সালোয়ার কামিজ পরতে পারেন। বেইজ করার জন্য ত্বকের টোনের সঙ্গে মিলিয়ে ট্রান্সলুসেন্ট পাউডার বা খুব হালকা করে ফাউন্ডেশন লাগাতে পারেন। ফাউন্ডেশন হালকা করার জন্য এতে কিছুটা জল মিশিয়ে নিন। খুব অল্প পরিমাণে লাগিয়ে এর ওপর পাউডার বুলিয়ে নিন।
তবে মেইকআপের শুরুতে ক্লিনজিং মিল্ক দিয়ে মুখ পরিষ্কার করে সানস্ক্রিন লোশন লাগাতে ভুলবেন না। দিনে চোখের সাজে অফ হোয়াইট হাইলাইট, কালো ও বাদামি রংয়ের কম্বিনেশনের আইশ্যাডো, পেনসিল আই লাইনার ব্যবহার করতে পারেন। অথবা চাইলে শুধু কাজলের একটা হালকা রেখা টেনে দিন চোখে। মাশকারা পরুন মোটা করে।
ঠোঁটে কোরাল বা হালকা গোলাপি লিপস্টিক অথবা লিপগ্লস লাগাতে পারেন। সঙ্গে হালকা পিংক ব্লাশন। শাড়ি পরলে মানানসই টিপ লাগিয়ে নিতে পারেন।
পরিণীতা হলে সিঁথিতে দিন সিঁদুর। হালকা গয়না পরে নিন। বাইরে বের হওয়ার আগে ভালো মানের পারফিউম ব্যবহার করুন।
সারা দিনের জন্য বের হলে চুলটা এমনভাবে বাঁধুন যাতে বাড়তি ঝামেলা পোহাতে না হয়।
 
সপ্তমীর রাতের সাজ


ফাউন্ডেশন লাগিয়ে তার ওপর ফেইস-পাউডার লাগিয়ে নিন। চোখের ওপর নীল বা ধূসর আইশ্যাডো মিলিয়ে ব্যবহার করতে পারেন। এর ওপর হাইলাইট করুন সিলভার রং দিয়ে। চোখে মোটা করে কাজল পরুন। মাশকারা পরুন কয়েক পরত করে। তাহলে চোখের পাপড়ি দেখতে ঘন লাগবে।
