ক্লান্তি দূর করতে বেশিরভাগ ক্ষেত্রেই চা বা কফি পান করা হয়। তবে এই পানীয়গুলোর ক্যাফেইন সাময়িকভাবে শরীর চাঙ্গা রাখলেও কিছুক্ষণ পর তা আরও ক্লান্ত করে তুলতে পারে।
লাইফস্টাইলবিষয়ক একটি ওয়েবসাইটে ক্লান্তি দূর করার কিছু সহজ এবং উপকারী পদ্ধতি উল্লেখ করা হয়।
বডি ম্যাসাজ: হাত, পা এবং শরীরের বিভিন্ন অংশে ‘প্রেশার পয়েন্ট’ রয়েছে। যেখানে মালিশ করার মাধ্যমে চাপ প্রয়োগের ফলে তা ক্লান্তি দূর করে শক্তি বৃদ্ধিতে সাহায্য করে। পায়ের পাতার উপরের মাঝামাঝি অংশে হাতের আঙুলের সাহায্যে চাপ প্রয়োগ করে কয়েক সেকেন্ড মালিশ করা হলে অবসাদ দূর হয়। তবে অভিজ্ঞ এবং প্রশিক্ষণপ্রাপ্ত ব্যক্তির কাছে এই মালিশ করানো উচিত।
গান শুনুন এবং তাল মেলান: রাস্তায় যানজটে বসে থাকার সময় এবং অতিরিক্ত কাজের চাপে নিজের পছন্দের গান শোনা যেতে পারে বা গুনগুন করে গাইতে পারেন। মনোবিজ্ঞানিরা গবেষণায় দেখছেন, যখন প্রাণ খুলে গান গাওয়া হয় বা পছন্দের গানের সঙ্গে তাল মেলানো হয় তখন শরীরে সুখের হরমোন নিঃসরণের পরিমান বৃদ্ধি পায়। তবে এক্ষেত্রে শুধু শুনলেই চলবে না, ভালো ফল পেতে চাইলে তাল মেলাতে হবে।
চুইংগাম চাবান: গবেষণায় দেখা গেছে চুইংগাম চাবালে শরীরের ক্লান্তি দূর হয় এবং মন ভালো থাকে। তাছাড়া এতে হৃদপিণ্ডের গতিও বৃদ্ধি পায়। এবং শরীরে শক্তি সঞ্চারিত হয়।
হাঁটাহাঁটি করুন: শরীরের ক্লান্তি দূর করে চাঙ্গা হয়ে উঠতে ব্যায়াম বেশ উপযোগী। এক্ষেত্রে সকালে ২০ মিনিট হাঁটলে শক্তি বৃদ্ধি পায়, কারণ এতে করে শরীরে রক্ত সঞ্চালন হয় দ্রুত।
সূর্য স্নান: গবেষণায় দেখা গেছে, যারা ঘরের বাইরে খুব অল্প সময় কাটান এবং বেশিরভাগ সময় চার দেয়ালের মধ্যেই থাকেন তাদের মধ্যে অবসন্নতা বেশি কাজ করে। শরীরের জন্য সূর্যের আলো এবং খোলা বাতাস অত্যন্ত জরুরি। তাই দিনে অন্তত ১৫ থেকে ২০ মিনিট বাইরে সময় কাটানো উচিত।
সবুজ শাকসবজি খান: ভিটামিন এবং খনিজ উপাদানে ভরপুর সবুজ শাকসবজি শরীরের প্রয়োজনীয় পুষ্টির চাহিদা পূরণ করে শক্তি সরবরাহ করে। নিয়মিত সালাদ ও সবজি খেলে ক্লান্তির অনুভূতি কম হয়।
