রেসিপি দিয়েছেন ফারাহ তানজীন সুবর্ণা।
ইলিশ চালকুমড়ার ঝোল
উপকরণ: ইলিশ মাছ ৫ টুকরা। চালকুমড়া ১টি। চালকুমড়ার লম্বালম্বি ৪ ভাগের দেড় ভাগ। পেঁয়াজ ১টি (বড় আকারের, মিহিকুচি করা। হলুদগুঁড়া দেড় চা-চামচ। মরিচগুঁড়া আধা চা-চামচ। ধনেগুঁড়া ১ চা-চামচ। কাঁচামরিচ ৩,৪টি(আস্ত)। লবণ স্বাদ মতো। তেল ৫ টেবিল-চামচ।


প্যানে তেল গরম করে পেঁয়াজ দিয়ে তা সোনালি করে ভেজে তুলে রাখতে হবে। সেই তেলেই হলুদগুঁড়া, শুকনা-মরিচগুঁড়া আর লবণ দিয়ে নেড়েচেড়ে ইলিশের টুকরোগুলো ছেড়ে দিয়ে কষিয়ে নিয়ে তুলে রাখতে হবে।
এবার সেই মসলার মধ্যেই চালকুমড়ার টুকরাগুলো ছেড়ে দিয়ে কষিয়ে প্রয়োজন মতো গরম পানি দিয়ে ঢেকে দিতে হবে।
ভেজে রাখা পেঁয়াজ আর ধনেগুঁড়া একসঙ্গে পাতলা করে বেটে রাখতে হবে। চালকুমড়া সিদ্ধ হয়ে গেলে বেটে রাখা মসলা ও কাঁচামরিচ ফালি ছেড়ে দিয়ে তিন থেকে চার মিনিট রেখে নামিয়ে নিতে হবে।
সর্ষে চালকুমড়ার ছেঁচকি
উপকরণ: চালকুমড়া অর্ধেকটা। পেঁয়াজ ১টি। কালোসরিষা আধা চা-চামচ। হলুদগুঁড়া ১ চা-চামচ। মরিচগুঁড়া আধা চা-চামচ। রসুনবাটা ১/৪ চা-চামচ। আদাবাটা ১/৩ চা-চামচ। চিনি ১/৩ চা-চামচ। কাঁচামরিচ ৩,৪টি। লবণ স্বাদ মতো। সয়াবিন তেল ৩ টেবিল-চামচ। সরিষার তেল ২ চা-চামচ।


তারপর চালকুমড়ায় অল্প হলুদ আর লবণ মেখে প্যানে সবটুকু তেল গরম করে হালকা করে ভেঁজে তুলে রাখুন।
একই তেলে বেটে রাখা মসলা দিয়ে কষিয়ে তাতে ভেজে রাখা চালকুমড়া দিয়ে দুই থেকে তিন মিনিট কষিয়ে প্রয়োজন মতো পানি দিয়ে ঢেকে রান্না করতে হবে।
