

এমন ভাবনা থেকেই বাংলাদেশের পেট্রোলিয়াম জেলি, ভ্যাসলিন সুবিধাবঞ্চিত এলাকার মানুষের ত্বকের সুস্থতায় গত বছর থেকে শুরু করেছে ‘ভ্যাসলিন হিলিং প্রোজেক্ট’। বিশেষ করে উত্তরাঞ্চলের বৈরি আবহাওয়ায় যেসব মানুষ প্রতিদিন জীবিকার তাগিদে কষ্ট করে কাজ করেন, সেসব সুবিধাবঞ্চিত মানুষের পাশে থাকার জন্যই কাজ করে যাচ্ছে।
গত বছর এই প্রোজেক্টের মাধ্যমে সুবিধাবঞ্চিত এলাকার প্রায় পঞ্চাশ হাজার মানুষের মাঝে ভ্যাসলিন পেট্রোলিয়াম জেলি প্রদান করেছে ভ্যাসলিন।
এরই ধারাবহিকতায় এ বছরও উত্তরাঞ্চলের সুবিধাবঞ্চিত মানুষের পাশে দাঁড়িয়ে ত্বকের সুস্থতায় সহায়তা করার উদ্যোগ নিয়েছে ‘ভ্যাসলিন হিলিং প্রোজেক্ট’।  
সুবিধাবঞ্চিত মানুষকে ত্বক সংক্রান্ত প্রাথমিক চিকিৎসা সেবা প্রদানের উদ্দেশ্যে এবার ৩০০ জন ডাক্তার এবং ৬০০ জন নার্সকে প্রশিক্ষণ দেওয়া হবে।
ভ্যাসলিন আয়োজিত এই সামাজিক সচেতনতামূলক কার্যক্রমে প্রথম থেকেই সঙ্গে রয়েছেন অভিনেত্রী ও চিত্রশিল্পী বিপাশা হায়াত।
