কাঁচাকাঁঠাল আর গরুর মাংস দিয়ে তৈরি করুন মজাদার এই পদ। রেসিপি দিয়েছেন ফারহিন রহমান।
উপকরণ
গরুর মাংস আধা কেজি। কাঁচাকাঠাল ৭৫০ গ্রাম (টুকরা করে কেটে নেওয়া)। পেঁয়াজকুচি আধা কাপ কাপ। পেঁয়াজবাটা আধা কাপ। আদাবাটা আড়াই টেবিল-চামচ। রসুনবাটা ২ টেবিল-চামচ। মরিচগুঁড়া ২ চা-চামচ বা স্বাদ মতো। হলুদগুঁড়া ১ চা-চামচ। ধনে ও জিরার গুঁড়া ১ চা-চামচ। ভাজাজিরার গুঁড়া ১ চা-চামচ। সাদা এলাচ ৩,৪টি। কালোএলাচ ১টি। দারুচিনি ২টি। গোলমরিচ ৫,৬টি। তেজপাতা ১,২টি। লবঙ্গ ৩,৪টি। গরম মসলার গুঁড়া আধা চা-চামচ। লবণ স্বাদ মতো। তেল পরিমাণ মতো। আস্ত কাঁচামরিচ ৭,৮টি।
পদ্ধতি
প্যানে তেল গরম করে পেঁয়াজকুচি দিয়ে ভেজে কাঁচামরিচ ও ভাজাজিরার গুঁড়া বাদে একে একে আস্ত মসলা, বাটামসলা, গুঁড়া মসলা ও লবণ দিয়ে একটু কষিয়ে মাংস দিয়ে দিন।
ভালোমত কষিয়ে পরিমাণ মতো পানি দিয়ে রান্না করতে হবে। মাংস সিদ্ধ হয়ে এলে কাঁচাকাঠাল ও আধা চা-চামচ ভাজাজিরার গুঁড়া দিয়ে নেড়েচেড়ে কাঁঠাল সিদ্ধ হওয়া পর্যন্ত ঢেকে দিয়ে রান্না করুন।
রান্না শেষে কাঁচামরিচ ও বাকি ভাজাজিরার গুঁড়া দিয়ে নামিয়ে নিন।
কাঁচাকাঁঠালের নিরামিষ
মজাদার তরকারি
মাংসের নানান পদ
গরুর মাংস
বেগুন দিয়ে গরুর মাংস
গরুর মাংসের খিচুড়ি
