বিভিন্ন পর্যবেক্ষণ আর জরিপে দেখা গেছে বিবাহিত জীবনে যারা সুখী তাদের রোগশোকে ভোগার পরিমাণ কম। মানসিক প্রশান্তি বেশি আর বাঁচেও বেশিদিন।
সম্পর্কবিষয়ক একটি ওয়েবসাইটে এই ধরনের গবেষণার ভিত্তিতে করা প্রকাশিত প্রতিবেদন অবলম্বনে জানা যায়, সুখী বিবাহিত জীবন মানে সুস্বাস্থ্য।
মানসিক চাপ কম


ক্যান্সার থেকে নিরাময়


হৃদরোগ থেকে রক্ষা


তবে উচ্চ মাত্রার কোলেস্টেরল হৃদরোগ এবং অন্যান্য রোগের সঙ্গে সম্পৃক্ত।  
মানসিক অসুস্থতা কম হয়


দীর্ঘায়ু


ইউনিভার্সিটি কলেজ লন্ডনের ইন্সটিটিউট অব এডুকেশন ৯ হাজার ব্যক্তির উপর একটি গবেষণা চালায়। যেখানে দেখা যায়, অবিবাহিতদের তুলনায় বিবাহিত দম্পতিরা বেশি সুস্থ থাকে এবং দীর্ঘদিন বাঁচে।
ছবি: রয়টার্স।
আরও পড়ুন
বিয়ের আগে যা জানা উচিত  
দাম্পত্যে গোপনীয়তা রক্ষা  
