স্বাস্থ্য বিশেষজ্ঞরা জানিয়েছেন, বাজারে এমন অনেক পণ্য পাওয়া যায় যেগুলো পুষ্টিকর হিসেবে দাবি করে। তবে গায়ে লাগানো লেভেল পড়লেই বোঝা যায় সেগুলো মোটেই কোনো ভালো জিনিস দিয়ে তৈরি নয়।
খাবারগুলো শরীরে কোনো উপকার করে তো নাই উল্টা হাসপাতালে পাঠানোর মতো জটিলতা তৈরি করে।
স্বাস্থ্যবিষয়ক একটি ওয়েবসাইট জানিয়েছে সেইসব আপাতদৃষ্টিতে পুষ্টিকর কিন্তু ক্ষতিকর খাবারগুলো কী এবং তা কীভাবে আমাদের শরীরে ক্ষতি করে।
ফলের রস: অনেকে গোটা ফল খাওয়ার চেয়ে ফলের রস খেতে বেশি পছন্দ করেন। তবে বাজারে পাওয়া খুব কম ফলের রসেই ফল থাকে। অধিকাংশ ফলের রসই কৃত্রিম রং ও স্বাদ দিয়ে তৈরি করা হয়। সঙ্গে থাকে প্রচুর পরিমাণে চিনি ও খুব অল্প পরিমাণে ভিটামিন। এমনকি যদি গায়ে লেখা থাকে যে চিনি মুক্ত তবুও তাতে চিনি থাকে। এসব রস খেলে ওজন বৃদ্ধি পায় পাশাপাশি টাইপ টু ডায়াবেটিস, উচ্চ রক্তচাপ, হৃদরোগ ইত্যাদির ঝুঁকিও বেড়ে যায়।
অপরিশোধিত আটা: যদিও লাল আটা খাওয়া সাদা আটা বা ময়দার চেয়ে ভালো তবুও লাল আটা শরীরের জন্য ভালো নয়। একটা গবেষণায় জানা গিয়েছে লাল আটা শরীরের ভিটামিন ডি’র সঞ্চয়কে নিঃশেষ করে দেয়। এছাড়াও লাল আটা রক্তে কোলেস্টেরলের মাত্রা শতকরা ৬০ ভাগ বাড়িয়ে দেয়। যা হৃদপিণ্ডে সমস্যা তৈরি করে। লাল আটাতে প্রচুর পরিমাণে গ্লুটেন থাকে। সবদিক বিবেচনা করলে লাল আটা পরিমিত মাত্রায় খাওয়াই ভালো।
