কাচের বাসন যত্ন নেওয়ার কৌশল সম্পর্কে পরামর্শ দিয়েছেন বাংলাদেশ গার্হস্থ্য অর্থনীতি কলেজের ‘সম্পদ ব্যবস্থাপনা ও এন্ট্রাপ্রেনিউরশিপ’ বিভাগের প্রভাষক ইফফাত জাহান।
কিছু কাচের বাসন নিয়মিত ব্যবহার করা হয়। আর কিছু বিশেষ দিনে। তাই যত্নও নিতে হবে আলাদা ভাবে।
নিয়মিত ব্যবহার করা হয় যেসব কাচের পাত্র তা কাজ শেষে ভালো মতো পরিষ্কার করার জন্য পাতলা কাপড় বা স্পঞ্জ ব্যবহার করুন। এতে থালা, বাটি বা গ্লাসে কোনো রকম দাগের সৃষ্টি হবে না।
কাচ বা সিরামিকের বাসনে ময়লা কম আটকালেও তেলজাতীয় খাবার রাখা হলে তৈলাক্তভাব হয়। সেক্ষেত্রে তরল সাবান বা অন্য কোনো পরিষ্কারক দিয়ে মেজে নিতে হবে। তৈলাক্ত কাচের বাসন পরিষ্কারে লেবু ম্যাজিকের মতো কাজ করে।
হালকা গরম পানিতে লেবুর রস মিশিয়ে সিরামিক বা কাচের পাত্র পরিষ্কার করলে কোনো দাগ ও গন্ধ থাকবে না।
পরিষ্কারক হিসেবে অনেকে ছাই ব্যবহার করেন। কাচ বা সিরামিকে ছাই না ব্যবহার করাই ভালো। তবে একান্ত প্রয়োজন হলে তরল সাবানের সঙ্গে সামান্য পরিমাণে সাদা ছাই ব্যবহার করা যেতে পারে।
পছন্দের ও দামী কাচের পাত্রগুলো সাধারণত উৎসব-অনুষ্ঠানে ব্যবহারের জন্য তোলা থাকে। তাই এগুলো ব্যবহার ও যত্নও করতে হবে বিশেষভাবে।


