অনেকের সঙ্গেই উপরের বিষয়গুলো মিলে যাবে। তবে তুচ্ছ এই বদোভ্যাস কতটা ক্ষতিকর হতে পারে তা তুলে ধরেছে স্বাস্থ্যবিষয়ক এক ওয়েবসাইট।
শৌচাগারে মোবাইল নিলে বিভিন্ন ধরনের জীবাণুর সংস্পর্শে আসে। কারণ ‘কাজ’ শেষে পরিষ্কার হওয়ার সময় ফোন শৌচাগারেই কোথাও রাখতে হয় কিংবা হাতে থাকে। ফলে টয়লেটে থাকা বিভিন্ন জীবাণু যন্ত্রের গায়ে লেগে যায়। পরে ফোন ব্যবহারের সময় আবার হাতে বা গালে লাগে। তাই হাত পরিষ্কার করার কোনো মানেই রইল না।
অফিস, রেস্তোরাঁ, আবাসিক হোটেলের টয়লেট বা গণ-শৌচাগার অনেক মানুষ ব্যবহার করে। সেগুলোতে রোগ জীবাণুর মাত্রা আরও বেশি। তাই এসব স্থানে প্রকৃতির ডাকে সাড়া দেওয়ার সময় ফোনটা পকেটে থাকাই নিরাপদ।
যন্ত্রাংশ বা কোনো ‘অ্যাপ’ চলতে থাকা বা শরীরের সংস্পর্শে থাকার কারণে মোবাইল বেশিরভাগ সময় একটি উষ্ণ তাপমাত্রায় থাকে। যা জীবাণুর বংশবিস্তারের জন্য আদর্শ পরিবেশ। খাওয়ার সময় মোবাইল টেবিলের পাশে থাকলে বা ব্যবহার করলে খাবারের উচ্ছিষ্ট ফোনে লাগার সম্ভাবনা থাকে।
