শীতের আগমন মানেই উৎসবের সমারোহ। আর উৎসবের অন্যতম অংশ হলো ঘর সাজানো। ঘর সাজাতে ফুলের জনপ্রিয়তা নতুন করে বলার কিছু নেই। তাছাড়া শীতের মৌসুমে ফুল উৎপাদন বাড়ে এবং ফুল তাজাও থাকে দীর্ঘসময়, তাই বছরের অন্য সময়ের তুলনায় এ সময় দামটাও থাকে কিছুটা কম।
রাজধানীতে ফুলের জন্য সবচেয়ে জনপ্রিয় শাহবাগ চত্তর এবং কাঁটাবন। এ ছাড়াও বনানী, গুলশান ২, ফার্মগেইট খামারবাড়ি ইত্যাদি স্থানেও রয়েছে ছড়ানো ছিটানো ফুলের দোকান। তবে উৎসব ‍উপলক্ষ্যে এবং কমদামে ও পাইকারিতে ফুল কিনতে সবার পছন্দের তালিকায় শীর্ষে থাকে শাহবাগ এবং এরপর কাঁটাবন।


শাহবাগের দোকানগুলোতে বিয়ের বিভিন্ন অনুষ্ঠানে স্টেজ সাজানোর জন্য অর্ডার নেওয়া হয়। অর্ডার দেওয়ার জন্য দোকানগুলোতে বিভিন্ন ডিজাইনের স্টেজ-এর ছবি ভর্তি অ্যালবাম রয়েছে। সেখান থেকে পছন্দমতো ছবি বাছাই করে দিলে তারা সেই অনুসারে স্টেজ সাজিয়ে দিয়ে থাকে। তাছাড়া নিজের পছন্দের ডিজাইনের ছবি দেওয়া হলেও সেই অনুসারে সাজিয়ে দেওয়ার চেষ্টা করে থাকেন বলে জানান দোকানদাররা।
অর্ডার দিয়ে বিল পরিশোধ করার পর নির্ধারিত সময়ে কারিগর পাঠিয়ে স্টেজ প্রস্তুত করা হয়। ডিজাইনভেদে খরচ বিভিন্ন রকম হয়ে থাকে। তবে সর্বনিম্ন মূল্য দুই হাজার থেকে শুরু হয়।


শাহবাগ মোড়ে অবস্থিত 'শাহজালাল পুষ্পবিতান' এর স্বত্ত্বাধিকারী মোহাম্মদ হেলাল বলেন, “বছরের বিভিন্ন সময় এমন কি সারাদিনে সময়ভেদে ফুলের দাম ওঠানামা করে। এই শীতের মৌসুমে ফুলের উৎপাদন ও মান ভালো থাকায় এখন দাম একটু কম। আরও কিছুদিনের মধ্যে আরও বিভিন্ন ধরনের ফলু উঠবে। এদের মধ্যে আছে বেলী, চন্দ্রমল্লিকা, স্ট্রোমা, স্টাডিজ, জিপসি, ক্রিসেনথিমাম, কার্নিসান ইত্যাদি।”
শোলা বা স্টায়রোফোম
গায়ে হলুদের অনুষ্ঠানের জন্য নকশা করা শোলা পাওয়া যায় যার প্রচলিত নাম কর্কশিট। তবে এক্ষেত্রে সাধারণত নকশার অর্ডার নেওয়া হয় না। বরং বিভিন্ন নকশাদার কর্কশিট থেকে বেছে নিতে হয়। শুধু কেনার সময় তার উপর প্রয়োজনমত নাম লিখিয়ে নিতে হয়। দাম সর্বনিম্ন আড়াইশ টাকা থেকে দুই হাজার টাকা পর্যন্ত।


যেমন- আধা ইঞ্চি পুরু কর্কশিটের দাম দেড়শ থেকে তিনশ টাকা। এক ইঞ্চি পুরু কর্কশিটের দাম হতে পারে আড়াইশ থেকে তিনশ টাকার মধ্যে।
