নানা রকম শীতের সবজি চাষ হয় আড়িয়াল বিলে। তবে এ বিলের বিশেষ আকর্ষণ বিশাল আকৃতির মিষ্টি কুমড়া। পুরো আড়িয়াল বিল জুড়ে শীতে চাষ হয় মিষ্টি কুমড়া। শীত শেষে পাকলে মাঠ থেকে তোলা হয়। এছাড়া শুকনা আড়িয়াল বিলে খাবারের খোঁজে ঘুরে বেড়ায় নানান জাতের ছোট বড় পাখি। ঢাকা থেকে খুব সকালে গিয়ে সন্ধ্যার মধ্যেই ফিরে আসা যায়।
মুন্সীগঞ্জের শ্রীনগর বাজার থেকে একটি সড়ক এঁকেবেঁকে সোজা চলে গেছে আড়িয়াল বিলের দিকে। এ পথে শ্যামসিদ্ধি গ্রাম পেড়িয়ে আরও সামনে গেলে গাদিঘাট। এ পর্যন্ত পিচঢালা পথ। সেখান থেকে কালভার্ট পেরিয়ে আরও সামনে কিছু দূর গেলে সড়কের শেষ।
আড়িয়াল বিলের শুরু মূলত গাদিঘাট থেকেই। সেখান থেকে সর্পিল আঁকাবাঁকা একটি খাল চলে গেছে বিলের ভেতরে। শীতে সে খালের পানি শুকিয়ে তলায় ঠেকে। দূর বিল থেকে নৌকা বোঝাই মিষ্টি কুমড়া নিয়ে আসেন গুন টেনে। গুন টানা বাংলাদেশের গ্রামাঞ্চলে অনেক আগে দেখা যেত। ইঞ্জিনের সহজলভ্যতার কারণে তা হারিয়ে গেলেও এখনো আড়িয়াল বিলে শীতে দেখা যায়।


শীতের শেষে আড়িয়াল বিলে আরও চোখে পড়বে মাছ ধরার দৃশ্য। বিলের মধ্যে খাল ছাড়াও আছে কিছু জলাশয়। এসব জলাশয়ে পানি কমে যাওয়ায় মাছ ধরেন স্থানীয়রা। পানি সেচে মাছ কুড়ানোও দেখা যাবে।
আড়িয়াল বিল থেকে ফেরার পথে দেখে নিতে পারেন শ্যামসিদ্ধির মঠ। শ্রীনগর বাজারের পশ্চিম দিকে শ্যামসিদ্ধি গ্রামে অবস্থিত এ প্রাচীন এ মঠের দক্ষিণ দিকের প্রবেশপথের ওপরে বাংলা শিলালিপি অনুযায়ী ১৮৩৬ সালে বিক্রমপুরের জনৈক ধনাঢ্য ব্যক্তি শম্ভুনাথ মজুমদার এটি নির্মাণ করেন।


অষ্টভুজ আকৃতির এ মঠ দৈর্ঘ্যে ও প্রস্থে ২১ ফুট। চুন-সুরকি দিয়ে তৈরি মঠের দেয়াল বেশ পুরু। মঠের উপরের দিকে বাইরের দেয়াল জুড়ে আছে শত শত খোড়ল। এগুলোতে বাসা বেধেছে শত শত সবুজ টিয়া, ঝুটি শালিক। তাই মঠটি সবসময়ই পাখির কলকাকলিতে মুখর থাকে।
কীভাবে যাবেন
ঢাকার গুলিস্তান থেকে মাওয়াগামী যে কোনো বাসে চড়ে নামতে হবে শ্রীনগরের ভেজবাজার। ভাড়া ৫০ থেকে ৭০ টাকা। এ পথের ভালো বাস ‘ইলিশ’ পরিবহন ও বিআরটিসি। সেখান থেকে ব্যাটারি চালিত রিকশা নিয়ে সোজা যেতে হবে গাদিঘাট। ভাড়া ২৫০ থেকে ৩৫০ টাকা। আড়িয়াল বিলে বেড়িয়ে আবার গাদিঘাটে এসে ফেরার রিকশা পাবেন।


এ সময়ে রোদের তেজ ভালো। ভ্রমণে তাই অবশ্যই ছাতা এবং রোদ টুপি নেবেন। গাদিঘাটের পর বিলের কোথাও দোকান পাট নেই। সঙ্গে অবশ্যই পর্যাপ্ত খাবার পানি ও শুকনা খাবার নিতে ভুলবেন না। অপচনশীল বর্জ্য বিলে ফেলে পরিবেশ ধ্বংসের অংশীদার হবেন না।
আলোকচিত্র: লেখক।
আড়িয়াল বিলের ছবি দেখতে ক্লিক করুন।
আরও পড়ুন
কাপ্তাইয়ের ঝুলন্ত গাড়ি
পাখির স্বর্গ টাঙ্গুয়ার হাওর
সাজেকের পাহাড় চূড়ায়
