আশফি অনাদি, একজন বাংলাদেশি বিউটি ব্লগার। তার নিজস্ব ইউটিউব চ্যানেল (www.youtube.com/channel/UCTu7e1hGecIYniRlWnqL4gw) ছাড়াও রয়েছে ফেইসবুক পেইজ।
তিনি দেখিয়েছেন এই ঈদে নিজেকে হালকা মেইকআপে সাজিয়ে তোলার উপায়।

