বেড়ার ফটক দিয়ে ঢুকেই হাতের বাঁয়ে চোখে পড়বে কাঁচামাটির উঠানে গাছের ডালে ঝোলানো রয়েছে দড়ির তৈরি দোলনা-বিছানা। পাশেই কাঠ আর গুঁড়ি দিয়ে বসার ব্যবস্থা। বেশ একটা আয়েশি আড্ডার পরিবেশ। মন নেচে উঠলেও সংকোচ জাগে, ‘মাটির ঘর’য়ে এসে কি তবে অন্য কারও উঠানে ঢুকে পড়লাম নাতো!




পেটে যদি ‘ছুঁচোর নাচন’ নিয়ে খেতে বসেন, তবে নিশ্চিত থাকেন ‘হাতি পেট’ নিয়ে বের হয়ে আসবেন। খুদের ভাতের চচ্চড়ি কিংবা অন্য কোনো দেশি চালের ভাত। সঙ্গে চার-পাঁচ রকমের ভর্তা-ভাজি। আর মুরগির মাংস ও মাছের রসা।


নাম যাই হোক, স্বাদে অতুলনীয় খাবারে গলা পর্যন্ত খেয়ে ফেলার পরেও চোখের ক্ষিধা মিটবে না। কারণ হয়ত একটাই সবই টাটকা খাবার।




বিপ্লব বলেন, “এমনিতে সকাল ১১টার মধ্যে জানিয়ে দিলে সেই হিসেবে খাবারের আয়োজন করা হয়। তবে কয়েকজনের জন্য বাড়তি খাবারের ব্যবস্থা সবসময়ই থাকে।”
বেশিরভাগ খাবারের দাম ৪০ থেকে ৬০ টাকার মধ্যে।






রাজধানীতে ও আশপাশে যারা থাকেন তারা এই রেস্তোরাঁয় গিয়ে খেয়েদেয়ে সন্ধ্যার মধ্যেই ঘরে ফিরতে পারবেন। তবে রাতের জন্য তাদের কোনো আয়োজন নেই। আর ফেরার আগে মরিচের চায়ের স্বাদ নিতে ভুলবেন না।

