রেসিপি দিয়েছেন নাজিয়া ফারহানা।
উপকরণ: ডিম ২টি। ময়দা ১ কাপ।  তরল
দুধ আধা কাপ। চিনি আধা কাপ। তেল, ভাজার জন্য
পদ্ধতি: প্রথমে পানে ১টা ডিম পোচ করতে হবে। এবার তেল বাদে বাকি সব উপকরণ মিশিয়ে মসৃণ ব্যাটার বা মণ্ড তৈরি করুন।
