বাংলাদেশ গার্হস্থ্য অর্থনীতি কলেজের রিসোর্স ম্যানেজমেন্ট ও ইন্টারপ্রেনরশিপ বিভাগের প্রধান নাসিমা নাসরিন বলেন, “শোবার ঘরের আলো হতে হবে আরামদায়ক এবং চোখের পক্ষে স্বাস্থ্যকর।”
তার মতে, শোবার ঘরের শীতল পরিবেশ রক্ষা ও সাধারণ কাজ কর্মের জন্য ফ্লোরোসেন্ট বাতি ব্যবহার করাই ভালো। এই ধরনের বাতি অনেক বেশি টেকসই হয় এবং বিদ্যুৎ ব্যবহারের তুলনায় আড়াইগুণ বেশি আলো দেয়।
অন্যদিকে এই আলোতে খুব একটা ছায়াপাত না হওয়ায় তা চোখে খুব একটা সমস্যা করে না।
তবে কোনো নির্দিস্ট কাজের জন্য শোবার ঘরে আলাদা আলোর ব্যবস্থা রাখা ভালো। অর্থাৎ শোবার ঘরে যদি পড়া বা সেলাইয়ের কাজ করা হয় তাহলে আলাদা আলোর ব্যবস্থা করা উচিত।
কারও যদি বিছানায় শুয়ে বই পড়ার অভ্যাস থাকে তবে টেবিল ল্যাম্প বা দেয়াল বাতির ব্যবস্থা করা যেতে পাড়ে। তবে এই ক্ষেত্রে দুটি বিষয় খেয়াল রাখার কথা বলেন তিনি। প্রথমত, পড়ার বইয়ের উপরে যেন যথেষ্ট আলো পড়ে। দ্বিতীয়ত, আলোটি যেন সাধারণ ভাবেই ঘরকে আলোকিত করে। তা না হলে অন্ধকার ঘরে ল্যাম্পের আলোর তীব্রতা বৃদ্ধি পাবে যা চোখের জন্য ক্ষতিকর।


