বিকেল-সন্ধ্যায় বন্ধুদের সঙ্গে আড্ডা আর রাস্তার পাশে দাঁড়িয়ে ফুসকা, চটপটি বা ঝালমুড়ি মজা করে খাওয়া। তারপর রাতে হঠাৎ পেট ব্যথা। পাকস্থলিতে ঘটেছে ব্যঘাত। এই সময় করবেন কী?
রাস্তার ধুলাবালি, জীবাণু— খাবার অস্বাস্থ্যকর করে তোলে। তাছাড়া অস্বাস্থ্যকর ও বাসি খাবার খেলে বদ হজমসহ পেটে ব্যথা, ডায়রিয়া, বমি বমিভাব বা বমি, মাথা ব্যথা, মাথা ঘোরা এবং ডায়রিয়া থেকে পানিশূন্যতা হওয়ার আশঙ্কা থেকেই যায়।
এসব উপসর্গ দেখা দিলে অবহেলা না করে ডাক্তারের পরামর্শ নেওয়ার পাশাপাশি প্রাথমিক চিকিৎসা হিসেবে ঘরোয়া পদ্ধতিতে কিছু প্রতিকারের পদক্ষেপ নেওয়া যেতে পারে।
স্বাস্থ্যবিষয়ক একটি ওয়েবসাইটে অবলম্বনে ঘরোয়া কিছু টোটকা এখানে দেওয়া হল।
আপেল


কলা
এই ফলে আছে প্রচুর পরিমাণে পটাশিয়াম যা রোগ নিরাময়ে এবং খাবারের বিষক্রিয়ার প্রভাব কমাতে সাহায্য করে। এক্ষেত্রে কয়েকটি কলা ও আপেল চটকে খেতে পারেন অথবা 'বানানা শেইক' খাওয়া যেতে পারে।
লেবু


আদা
খাবারের স্বাদ বাড়ানোর পাশাপাশি হজম সংক্রান্ত সমস্যা সমাধানে আদা বেশ কার্যকারী। ১ টেবিল-চামচ মধুর সঙ্গে কয়েক ফোঁটা আদার রস মিশিয়ে খেলে খাদ্য বিষক্রিয়া জনিত প্রদাহ ও ব্যথা কমে যায়।
জিরা


বাজিল পাতা
পেট ও গলার সংক্রমণ নিরাময়ে বাজিল পাতা চমৎকার কাজ করে। এক টেবিল-চামচ মধুর সঙ্গে কয়েক ফোটা বাজিলের রস মিশিয়ে খেলে কয়েক ঘণ্টার মধ্যেই সুফল পাওয়া যায়। বাজিল না পেলে তুলসীপাতা ব্যবহার করতে পারেন।
পানি


 
অ্যাপল সাইডার ভিনিগার
ভিনেগারের ক্ষারীয় উপাদান, বিশেষ করে অ্যাপল সাইডার ভিনিগার অন্ত্র উপশমে সাহায্য করে। পাশাপাশি পেটে ব্যাকটেরিয়া বৃদ্ধিতে বাধা দেয় আর সেরে উঠতে সাহায্য করে।
 
সোডার নানান ব্যবহার
