স্বাস্থ্যবিষয়ক একটি ওয়েবসাইটে প্রকাশিত এক প্রতিবেদন থেকে জানা যায় মুক্ত বাতাসে চলাচল ও সাধারণ কিছু অনুশীলনের মাধ্যমেও ওজন নিয়ন্ত্রণে রাখা সম্ভব।  
দৌড়ানো: দৌড়ানো ক্যালরি কমানোর জন্য সবচেয়ে সহজ ও কার্যকর উপায়। ব্যায়ামের ধরন কেমন হবে সেই অনুযায়ী দৌড়ানোর রাস্তা নির্বাচন করতে হবে। দুর্গম পথে দৌড়ানো হলে ক্যালরি বেশি খরচ হয় এবং তা ‘কার্ডিওভাস্কুলার সিস্টেম’ বা হৃদসম্পৃক্ত বিষয়গুলোর উন্নতি ঘটে। ফলে প্রাকৃতিকভাবেই ওজন নিয়ন্ত্রণে থাকে।     
সাইকেল চালানো: যে পরিমাণ অর্থ জিমের জন্য খরচ করা হয় তা দিয়ে একটি রোড বাইক কিনলে বেশি কার্যকর হয়। বর্তমানে আধুনিক সাইকেলগুলোতে উন্নত প্রযুক্তি ব্যবহার করা হয় যার দাম বাজেটের মধ্যই। সোজা রাস্তায় সাইকেল চালানো হলে তা ট্রেডমিলে দৌড়ানোর মতোই ফলাফল দেয়। 
