সাধারণত জিনগত বৈশিষ্ট্যের কারণে চুল বেশি পড়ে। তবে অধিকাংশ ক্ষেত্রেই দৈনন্দিন বিভিন্ন অনিয়মের কারণে এই সমস্যা বৃদ্ধি পেতে পারে।
রূপচর্চাবিষয়ক একটি ওয়েবসাইটে চুল পড়া কমানোর নানা উপায় সম্পর্কে জানা যায়।
নারিকেলের দুধের তৈরি মাস্ক: শুকনা ব্রাশের সাহায্যে এক কাপ নারিকেল দুধ সম্পূর্ণ মাথার ত্বকে লাগাতে হবে। এরপর ৩০ মিনিট মাথায় তোয়ালে পেঁচিয়ে রেখে দিন। পরে শ্যাম্পু করতে হবে। ভালো ফলাফলের জন্য সপ্তাহে দুদিন এই মাস্ক ব্যবহার করা যায়।
