প্রতিবছর মে মাসের প্রথম মঙ্গলবার বিশ্বব্যাপি পালন করা হয়ে থাকে হাঁপানি দিবস। সেই অনুযায়ী এই বছর ৩ মে পালিত হচ্ছে এই আয়োজন।
গ্লোবাল ইনিশিয়েটিভ ফর অ্যাজমা বা জিআইএনএ নামক একটি সংস্থা গোটা মে মাস জুড়ে বিভিন্ন সতর্কীকরণ অনুষ্ঠানের মাধ্যমে পালন করে থাকে হাঁপানিসতর্কতা। ১৯৯৮ সাল থেকে তারা এই আয়োজন করছে আসছে।
পাশাপাশি বাংলাদেশেও এই দিবস পালন করা হয়ে থাকে।
ওয়ার্ল্ড হেলথ অর্গানাইজেশনের তথ্যানুসারে সারা বিশ্বে প্রায় ২৩৫ মিলিয়ন মানুষ এই রোগে ভুগছে। সাধারণত দেখা যায় শিশুদের মধ্যে অ্যাজমার প্রকোপ বেশি।
অ্যাজমা বা হাঁপানি নিয়ে বিস্তারিত জানাচ্ছেন বক্ষব্যধি বিশেষজ্ঞ, ‘লাঙ ইন্ডিয়া’র সম্পাদকীয় পর্ষদের আন্তর্জাতিক সদস্য ডা. মোহাম্মদ আজিজুর রহমান।
হাঁপানিতে কী হয়?
হাঁপানি হল অতি-সংবেদনশীলতা ও উত্তেজনার কারণে শ্বাসনালীর শাখা-প্রশাখাগুলোর সাময়িক সংকোচন। শ্বাসনালীগুলোর দেওয়ালে অনৈচ্ছিক পেশির একটা স্তর থাকে। উত্তেজনায় পেশিগুলো সংকুচিত হয় অর্থাৎ নালীর ভেতরটা সরু হয়ে যায়।
হাঁপানির সঠিক কারণ এখনও জানা যায়নি। এ রোগের জন্য কোনো কিছুকে এককভাবে দায়ী করা যায় না।
গবেষণায় দেখা গেছে, কারও কারও বংশগত কারণে বা পরিবেশগত কারণেও এ রোগ হতে পারে। কারও নিকটাত্মীয় যদি এতে আক্রান্ত থাকেন বা কেউ যদি বিভিন্ন দ্রব্যের প্রতি অতিমাত্রায় অ্যালার্জিক হয়, তাহলে তার হাঁপানি হতে পারে।
হাঁপানির প্রধান উপসর্গ হল —
• শ্বাসকষ্ট • কাশি • বুকে চাপ লাগা • নিঃশ্বাসে সাঁই-সাঁই আওয়াজ। আর প্রায় রাতে শ্বাসকষ্ট বাড়ে।
যে সব উত্তেজক থেকে হাঁপানির আক্রমণ শুরু হতে পারে, সেগুলো এ রকম —
• ঘরের ঝুল-ধুলোয় থাকা ডাস্ট-মাইট বা ধুলার পোকা। • কুকুর-বেড়ালের লোম, পাখীর পালক। • বাতাসে উদ্ভিদের রেণু। • সিগারেট-বিড়ির ধোঁয়া। • সেন্ট, পারফিউম। • কাজের জায়গায় ধোঁয়া ও নানা রাসায়নিক • পরিবেশ দূষণ। • অতিরিক্ত পরিশ্রম। • ঠাণ্ডা হাওয়া। • ভাইরাস বা ব্যাকটেরিয়া-ঘটিত জীবাণুসংক্রমণ। • কিছু কিছু ওষুধ। • মানসিক আবেগ। • পাকস্থলীর অ্যাসিড গ্রাসনালী হয়ে শ্বাসনালীতে আসা।
রোগ-নির্ণয়ে পরীক্ষা-নিরীক্ষা
• সবচেয়ে নির্ভরযোগ্য পরীক্ষা হল, স্পাইরোমিটার দিয়ে ফুসফুসের কর্মক্ষমতা পরীক্ষা করা। প্রথমে পরীক্ষা করে যদি দেখা যায় কর্মক্ষমতা কম, তাহলে সালবুটামল নামক শ্বাসনালী প্রসারক (bronchodilator) দিয়ে নেবুলাইজ করে আবার পরীক্ষা করা হয়।
দ্বিতীয় বার কর্মক্ষমতায় উল্লেখযোগ্য উন্নতি হলে হাঁপানির রোগ-নির্ণয় নিশ্চিত।
হাঁপানির চিকিৎসা
হাঁপানিতে যে ওষুধগুলো ব্যবহার করা হয়, সেগুলোকে দুটো প্রধান ভাগে ভাগ করা হয় — শ্বাসনালী-প্রসারক ও প্রদাহরোধী।
• শ্বাসনালী প্রসারকগুলো শ্বাসনালীর মাংসপেশির সংকোচন প্রতিহত করে শ্বাসনালীর রাস্তাকে চওড়া করে ফুসফুসে বাতাস চলাচলের পরিমাণ বাড়ায়।
• বর্তমানে বলা হয়, প্রদাহরোধী ওষুধগুলো শ্বাসের সঙ্গে নেওয়াই হল হাঁপানির দীর্ঘকালীন চিকিৎসার মূল বিষয়।
হাঁপানি প্রতিরোধ
হাঁপানি শুরুর উত্তেজকগুলোর কথা মনে করুন। সেগুলোকে এড়িয়ে চললেই হাঁপানির টানের সংখ্যা অনেকটা কমানো যায়।
• পশুপাখীর মল ও লোম-পালক এড়িয়ে চলতে হবে। পশু-পাখী না পোষাই ভালো।
• ঘরের ঝুলে থাকা ধুলা-পোকা বা মেঝেতে থাকা ছত্রাক নির্মূল করা মুশকিল। তবু ঘর পরিষ্কার রাখতে হবে। ভেজা স্যাঁতস্যাঁতে আবহাওয়ায় ছত্রাক বাড়ে, তাই ঘরে হাওয়া চলাচলের ব্যবস্থা থাকা চাই।
• পালকের বালিশ, উলের কম্বল ব্যবহার না করা ভালো। সপ্তাহে একদিন গরম পানিতে বালিশের ওয়াড়, চাদর, কম্বল, ইত্যাদি ধুতে হবে।
• ধূমপান করা চলবে না, যেখানে অন্যে ধূমটান করছেন সে পরিবেশও এড়িয়ে চলতে হবে।
• ডিওডরেন্ট, সুগন্ধি প্রসাধনী, কড়া জীবাণুনাশক এবং সব কড়া গন্ধের জিনিস এড়িয়ে চললে ভালো।
হাঁপানি রোগীর ভবিষ্যৎ
• যেসব রোগীর রোগ মৃদু ধরনের এবং ছোট বয়সে শুরু হয়, তাদের সাধারণত বয়স বাড়লে এই রোগ ভালো হয়ে যাওয়ার শতকরা ৫০ থেকে ৮০ ভাগ সম্ভাবনা থাকে।
