তবে অনেকের জন্যই সুন্দরভাবে আইলাইনার ব্যবহার বেশ কঠিন বিষয় হয়ে দাঁড়ায়। রূপচর্চাবিষয়ক একটি ওয়েবসাইটে আইলাইনার ব্যবহারের খুটিনাটি বিষয় উল্লেখ করা হয়।
- যারা লিকুইড লাইনার ব্যবহার করতে পারেন না তারা চিকন ব্রাশের আইলাইনার পেন বেছে নিতে পারেন। পেন্সিল বা খোলা কাজলের তুলনায় চিকন ব্রাশের পেন লাইনার বা জেল লাইনার ব্যবহারে সুন্দরভাবে চোখে লাইনার ব্যবহার করা যায়।


- যদি চোখের মেইকআপে কেউ অতটা পারদর্শী না হন তাহলে আইলাইনারের লাইন টানার আগে ওই লাইনের স্থানে ছোট ফোঁটা দিয়ে একটি কাল্পনিক রেখা এঁকে নেওয়া যেতে পারে। এরপর ফোঁটাগুলো যুক্ত করে নিলেই পছন্দসই লাইন পাওয়া যাবে।
