এই হোটেলের গেস্ট সার্ভিসের ব্যবস্থাপক সামিনা রুপা দাবি করেন যে, এই দেশে তারাই প্রথম মধ্যরাতে বুফে খাবারের আয়োজন করেছেন।
১ নভেম্বর থেকে শুরু হওয়া নিয়মিত এই আয়োজন রাত সাড়ে ১১টা থেকে শুরু হয়ে চলবে রাত সাড়ে তিনটা পর্যন্ত।
বুফে খাবারে স্বাদ নিতে জনপ্রতি খরচ হবে ৬৬৩ টাকা (অন্যান্য সেবা খরচ বাদে)। আসন সংরক্ষণের জন্য চাইলে ফোন করা যাবে 01982700700 নম্বরে।
