জানা নেই, তাই এসব বিষয়গুলো নিয়ে তেমন একটা মাথাও ঘামানো হয় না। স্বাস্থ্যবিষয়ক একটি ওয়েবসাইটে এই বিষয়ের উপর প্রকাশিত প্রতিবেদন অবলম্বনে নিত্যব্যবহৃত এমন কিছু জিনিসের নাম দেওয়া হল।
কিচেন স্পঞ্জ বা মাজুনি


আর ব্যাক্টেরিয়াপূর্ণ মাজুনি বা কাপড় দিয়ে প্রতিবার মোছার সময় ক্ষতিকারক জীবাণু ছড়িয়ে যায় রান্নায় ব্যবহৃত অন্য সব সরঞ্জামেও। তাই জীবাণুর বিস্তার ঠেকাতে প্রতিবার ব্যবহারের পর স্পঞ্জটি সঠিকভাবে পরিষ্কার করে রাখা জরুরি।
পরিষ্কার করা: ব্যবহার শেষে স্পঞ্জ বা কাপড় গরম পানিতে ভিজিয়ে ধুয়ে নিতে হবে। এরপর ভালো মতো চেপে পানি ঝেড়ে শুকিয়ে নিতে হবে। আর মাঝে মাঝেই স্পঞ্জটি গরম পানিতে জীবাণুনাশক উপাদান দিয়ে ভালো করে ধুয়ে নিতে হবে।
রান্নাঘরের সিংক


রান্নাঘরের সিংক বেশিরভাগ সময়ই ভেজা থাকে আর খাবারের অংশ, শাকসবজির টুকরা প্রায়ই পড়ে থাকে যা থেকে ব্যাক্টেরিয়া জন্মায়। তাই রান্নাঘরের সিংক নিয়ম করে পরিষ্কার করা জরুরি।
পরিষ্কার করা: প্রতি সপ্তাহে দুতিনবার রান্নাঘরের সিংক পরিষ্কার করা উচিত। বিশেষ করে রান্নার পর এবং বাসন ধোয়ার পর অবশ্যই সিংক পরিষ্কার করা দরকার। বিশেষ করে বেসিনের পানি যাওয়ার জায়গা ভালো মতো গরম পানি ও জীবাণুনাশক উপাদান দিয়ে পরিষ্কার করা উচিত।
টুথব্রাশ


পরিষ্কার করা: তাই টুথব্রাশ শুকানোর জন্য একটি হোল্ডারে রাখা উচিত। আর সম্ভব হলে বাথরুম থেকে দূরে রাখা উচিত। অসুস্থ হলে সুস্থ হওয়ার সঙ্গে সঙ্গে এবং সাধারণত তিন মাস পরপর ব্রাশ বদলে নেওয়া উচিত।
ইলেকট্রনিক যন্ত্রপাতি


কম্পিউটার ব্যবহার বা টিভি দেখতে দেখতে প্রায়ই স্ন্যাকস বা নাস্তা খাওয়া হয়। ফলে হাত থেকে মাউস, রিমোট বা কিবোর্ডসে তেল বা খাবারের টুকরা লেগে যায়। ভালোমতো পরিষ্কার করা না হলে সেখান থেকেই জন্ম নেয় ব্যাকটেরিয়া।
পরিষ্কার করা: সপ্তাহে একদিন বিদ্যুৎ সংযোগ বন্ধ করে কিবোর্ড, ভিডিও গেইম কন্ট্রোল ডিভাইস, মাউস, রিমোট, ট্যাবলেট, স্মার্টফোন ইত্যাদি পরিষ্কার কাপড় দিয়ে মুছে নেওয়া উচিত।
মনে রাখুন, টাচস্ক্রিন বা কম্পিউটার মনিটর পরিষ্কার করার সময় ময়লাধুলা ভালো করে ঝেরে নিন। না হলে স্ক্রিনে দাগ পড়বে। আর সুতি কাপড় ব্যবহার করুন।
কার্পেট


পরিষ্কার করা: তাই যারা ঘরে কার্পেট বা পাপোশ ব্যবহার করেন তাদের উচিত সপ্তাহে একবার ভ্যাকুয়াম ক্লিনার ব্রাশ লাগিয়ে পরিষ্কার করা তারপর কাপড় জীবাণুমুক্ত করার উপাদান ব্যবহার করা।
 
গোসলের তোয়ালে


পরিষ্কার করা: তাই ভেজা তোয়ালে ভালো মতো শুকানোর ব্যবস্থা করতে হবে। রোদে বা খোলা জায়গার বাতাসে শুকানো সবচেয়ে ভালো। তিন-চার ঘণ্টা ব্যবহারের পর গরম পানিতে ক্লোরিন ব্লিচ মিশিয়ে ধুতে হবে তোয়ালে। আর এসব করেও যদি আঁশটে গন্ধ, যা ছত্রাকের কারণে হয়, সেটা না যায় তবে বুঝতে হবে নতুন তোয়ালে কেনার সময় হয়ে গিয়েছে।
পার্স বা ব্যাগ


