সম্প্রতি ভারতীয়বংশোদ্ভূত এক গবেষকের গবেষণার ফলাফল এই ইঙ্গিত দিয়েছে।
গবেষণায় দেখা গেছে বস্তুগত বিষয়ে অর্থ খরচের চাইতে টাকা খরচ করে কোনো কিছু করা বা অভিজ্ঞতা অর্জন করলে বেশি স্থায়ী সুখ পাওয়া যায়।
গবেষকরা দেখতে পান, কোনো জিনিস পাওয়ার জন্য অপেক্ষা করার চাইতে কোনো কিছুর অভিজ্ঞতা সঞ্চয়ের ক্ষেত্রে আনন্দ, উত্তেজনা ও সুখ বেশি অনুভূত হয়।
প্রধান গবেষক কর্নেল ইউনিভার্সিটির অমিত কুমার ব্যাখ্যা করে বলেন, “বস্তুগত কোনো বিষয়ে অর্থ খরচ করার পরিকল্পনার ব্যাপারে যে অপেক্ষিক অস্থিরতা কাজ করে সেটার চাইতে কোনো অভিজ্ঞতা অর্জনের ক্ষেত্রে অর্থ খরচ করার আনন্দ অনেক বেশি।


সংক্ষেপে বলা যায়, ছুটি কাটানোর পরিকল্পনা, ডিনার পার্টি এবং সামনে হতে যাওয়া কনসার্ট দেখতে যাওয়ার অপেক্ষা থেকে বেশি সুখ পাওয়া যায়।
গবেষণাটি সাইকলজিকল সায়েন্স জার্নালে প্রকাশিত হয়।
 
ছেলেরাও খরচের ব্যাপারে লুকোচুরি করে
একসঙ্গে ঘুমাতে গেলে সম্পর্ক সুখের হয়
