অনলাইন পোশাকের দোকান ফ্যাবঅ্যালি’র সহকারি প্রতিষ্ঠাতা তানভি মালিক জানান, লাল একটি অসাধারণ রং। তবে এটা এছাড়াও অন্যান্য কিছু রং ও ছাপা আছে যা আপনার বিশেষ দিনটিকে আরও বেশি বিশেষ করে তুলতে পারে।




লাইমরোড’য়ের স্টাইলিস্ট নাতাশা টেট দিয়েছেন আরও কিছু টিপস
নীল ভ্যালেন্টাইন: সুন্দর নীল রংয়ের পোশাক আপনার মাঝে আনতে পারে চমৎকার পরিবর্তন। নীল রংয়ের ফোলানো পোশাকে দেখতে বেশ স্টাইলিস্ট লাগে। সঙ্গে নেভি ব্লু হিল ও কালো মুক্তার কানের দুল বেশ মানানসই।
এর সঙ্গে কালো রংয়ের ক্লাচ নিতে পারেন। আর মেইক আপের ক্ষেত্রে স্মোকি আই এবং হালকা রংয়ের লিপস্টিক দেখতে খুব ভালো লাগবে।
রাফল রোমান্স: রাতে বেড়াতে গেলে কালো রংয়ের রাফল বা কুঁচি দেওয়া গলার পোশাকে দেখতে বেশ আবেদনময়ী লাগে। এমন পোশাকের সঙ্গে উঁচু সূঁচালো হিল ও কাজ করা চকচকে ব্যাগ ভালোবাসা দিবসের সঙ্গে চমৎকারভাবে মানানসই।


শপক্লুজ’য়ের জেষ্ঠ্য পরিচালক রিতিকা তানিজা তার পছন্দের কিছু তালিকা দেন।
* ধূসর, সাদা, নিয়ন, ফুলেল ইত্যাদি রংয়ের নতুন শেইড আবিষ্কার করা এবং বেল বটম-ধর্মী প্যান্ট ও শার্ট, পোশাকের সঙ্গে ফুল হাতা জ্যাকেট, ম্যাক্সির মতো পোশাক, লম্বা চাপা স্কার্টের সঙ্গে রাফল টপ আপনার উপস্থিতিকে অনেক বেশি আকর্ষণীয় করবে যা ঐতিহ্যবাহী লাল পোশাককেও ছাপিয়ে যাবে।


বাটা ইন্ডিয়া’র প্রধান কালেকশন ম্যানেজার, মাটেও ল্যামবের্ট পায়ের সৌন্দর্য বাড়ানোর কিছু উপায় সম্পর্কে ধারণা দেন।
* ভালোবাসা দিবসের সাজসজ্জায় পোশাক নিয়ে অতিরিক্ত মাতামাতি না করে কেবল রং নির্বাচনে প্রাধান্য দিতে পারেন। 
