রিপা বলেন, “এই চাটনি গরমে ডালের সঙ্গে খেতে খুব মজা। নাম দিলাম- তেঁতুলে আলু-বেগুন বাহার।”
উপকরণ
দক্ষিণাঞ্চলের ছোট গোল আলু ৫/৬টি। ছোট ডিম বেগুন ৪/৫টি (বড় বেগুন হলে কিউব করে কাটা ৮/৯ পিস)। পাকা তেঁতুল আধা কাপ (দেড় কাপ পানিতে ভিজিয়ে রাখতে হবে)। চিনি ১ টেবিল-চামচ। ৫। লবণ পরিমাণমতো। শুকনামরিচ ৩/৪টি। বাগাড়ের জন্য পেঁয়াজ ও রসুনকুচি, পাঁচফোড়ন এবং জিরা। হলুদ ও শুকনামরিচের গুঁড়া। সরষের তেল। আধা চা-চামচ করে আদা ও জিরাবাটা।
পদ্ধতি
আলু সিদ্ধ করে নিন। বেগুন বোঁটাসহ মাঝ বরাবর কেটে হলুদ, মরিচ, লবণ মেখে হালকা করে ভেজে নিন।
এবার একটি পাত্রে তেঁতুলগোলা-পানি, চিনি ও অল্প লবণ দিয়ে জ্বাল দিন। একটু ঘন হলে নামিয়ে রাখুন। চুলায় সরষের তেল গরম হলে সিদ্ধ আলু, হলুদ, মরিচগুঁড়া, লবণ, আদা ও জিরাবাটা দিয়ে ২/৩ মিনিট কষিয়ে জ্বালিয়ে নেয়া তেঁতুলপানি মেশান। অল্প আঁচে ২ মিনিট রেখে নামিয়ে রাখুন।
