রেসিপিগুলো দিয়েছেন অসিত কর্মকার সুজন।
রংবাহারি জর্দা
উপকরণ: আতপ চাল ২০০ গ্রাম। ঘি পরিমাণ মতো। চিনি স্বাদ মতো। খাবার রং (সবুজ, কমলা, হলুদ)। তেজপাতা, এলাচ ও দারুচিনি ২টি করে। পানি, সিদ্ধ করার জন্য আধা লিটার। লবণ ২ চিমটি। ছানা, চেরি ও কাজুবাদাম সাজানোর জন্য ।
পদ্ধতি: একটি পাত্রে পানি দিয়ে তেজপাতা, এলাচ ও দারুচিনি একসঙ্গে ছোট একটা কাপড়ে বেঁধে তাতে রেখে দিতে হবে।
পানি ফুটে উঠলে আগে থেকে ধুয়ে পানি ঝরিয়ে রাখা আতপ চাল দিয়ে নাড়তে হবে।
চাল আধা সিদ্ধ হলে মাড় আলাদা করে ফেলবেন। চাল যেন একদম ঝরঝরে হয়। পানি ঝরানো চালকে চার ভাগ করে নিন।


ঘি গরম হলে চার ভাগের এক ভাগ আতপ চাল, স্বাদ মতো চিনি, খাবার রং দিয়ে ভালো করে মিশিয়ে নিয়ে নামিয়ে ঠাণ্ডা করুন। এভাবে (সবুজ, কমলা, হলুদ) এই তিন রংয়ের চাল রান্না করুন। বাকি এক ভাগ শুধু রং ছাড়াই রান্না করুন একই পদ্ধতিতে।
এবার ঠাণ্ডা করে ছানা, চেরি ও কাজুবাদাম দিয়ে পছন্দ মতো সাজিয়ে পরিবেশন করুন রংবাহারি জর্দা।
বাহারি সন্দেশ
উপকরণ: বিট (একধরনের লাল রংয়ের ফল, বাজারে পাবেন) কুচি করে কাটা ১ কাপ। গাজরকুচি ১ কাপ। ছানা ১ কাপ। ঘি ১ কাপ। এলাচগুঁড়া ২ টেবিল-চামচ। মাওয়া ১ কাপ। চিনি স্বাদ অনুযায়ী। চেরি-সাজানোর জন্য অল্প।
পদ্ধতি: একটি ফ্রাই প্যানে দুই চা-চামচ ঘি দিয়ে তাতে ছানা, অল্প মাওয়া ও পরিমাণ মতো চিনি দিয়ে ভালো করে নাড়তে হবে।
একটু আঠালো হয়ে আসলে এলাচগুঁড়া দিয়ে নামিয়ে নিয়ে সঙ্গে সঙ্গে একটি ট্রেতে বিছিয়ে দিতে হবে।


