ভারতের ‘অ্যাডভান্সড বিউটি অ্যান্ড কসমেটিক ক্লিনিক’য়ের এক রূপবিশেষজ্ঞ শুষ্ক ত্বকের যত্নের কিছু টিপস উল্লেখ করেন।
ত্বকের আর্দ্রতা ধরে রাখুন: ত্বকের কোমলতা ধরে রাখতে আর্দ্রতা অত্যন্ত জরুরি। যারা অতিরিক্ত ঘামেন তাদের শরীর থেকে প্রয়োজনীয় পানি বের হয়ে যায়। ফলে ত্বক শুষ্ক হয়ে যায়। তাই প্রচুর পরিমাণে পানি পান করতে হবে। আর যাদের ত্বক শুষ্ক তাদের শরীরে পানির প্রয়োজনীয়তা আরও বেশি।
শুষ্ক ত্বকের অধিকারীদের উচিত এই মৌসুমে ক্যাফেইন সমৃদ্ধ পানীয় এড়িয়ে চলা। এর বদলে নারিকেল ও ডাবের পানি, তাজা ফলের জুস ও লেবুর শরবত পান করতে পারেন।
এক্সফলিয়েট: ত্বকের উপরে জমে থাকা মৃত কোষ ও বাড়তি দূষণের পরত দূর করতে এক্সফলিয়েশনের জুড়ি নেই। তাই সপ্তাহে এক থেকে দু’বার ত্বক এক্সফলিয়েট করা জরুরি।
ওটমিল, মধু, লেবু, টক দই, শসা এই প্রতিটি উপাদান ত্বকের জন্য দারুণ উপকারী। আর গরমে এই উপাদানগুলো প্রয়োজন অনুসারে মিশিয়ে এক্সফলিয়েটর তৈরি করে ব্যবহার করা গেলে উপকার পাওয়া যাবে।
ময়েশ্চারাইজার: দিনে নিয়ম করে ত্বকে ময়েশ্চারাইজার ব্যবহার করতে হবে। বিশেষ করে ঘর থেকে বের হওয়ার আগে অবশ্যই ময়েশ্চারাইজার ব্যবহার করা উচিত। এতে ত্বকের আর্দ্রতা বজায় থাকবে এবং সূর্যের তাপের কারণে ত্বক অতিরিক্ত ‍শুষ্ক হওয়ার সমস্যা থাকবে না।
গোসল করা ও মুখ ধোয়ার পর হালকা ময়েশ্চারাইজার লাগিয়ে নিন। এরপর সানস্ক্রিন মেখে ‍নিন। এতে ত্বকের আর্দ্রতাও বজায় থাকবে এবং সূর্যের ক্ষতিকর রশ্মি থেকেও ত্বক সুরক্ষিত থাকবে। রাতে ঘুমানোর আগেও ময়েশ্চারাইজার লাগাতে হবে।
