চিন্তার কিছু নেই, প্রাথমিক অবস্থায় প্রায় সবাই এমনটা করেন। এমন সাধারণ কয়েকটি ভুল সম্পর্কে জানিয়েছে স্বাস্থ্যবিষয়ক এক ওয়েবসাইট।
অতিরিক্ত এনার্জি ড্রিংকস: ঘাম ঝরিয়ে শরীরচর্চা করার পর এনার্জি ড্রিংকসের তৃষ্ণা জাগতে পারে। তাই বলে কয়েক লিটার গিলে ফেললেই বিপদ। এনার্জি ড্রিংকসে প্রচুর ইলেক্ট্রোলাইট থাকে যা শরীরের জন্য প্রয়োজনীয়, তবে কম পরিমাণে। আর অতিরিক্ত সবকিছু্ই ক্ষতিকারক। তৃষ্ণা মেটাতে পানিই যথেষ্ট, পাশাপাশি পানি বাড়তি ক্যালরিও থাকে না।
অতিরিক্ত আমিষ: বাড়তি আমিষ শরীরে চর্বি হিসেবে জমা হয়। খাদ্যাভ্যাসে আমিষ অত্যন্ত গুরুত্বপূর্ণ, তবে অতিরিক্ত আমিষ খেলে তা চর্বি বাড়াবে। এছাড়াও ‘প্রোটিন বার’ এবং ‘প্রোটিন শেইক’য়ে থাকে প্রচুর চিনি যা মেদ কমানোর পথে অন্তরায়।
একই রুটিন প্রতিদিন: শরীর পরিস্থিতির সঙ্গে মানিয়ে নেয়, শরীরচর্চার ক্ষেত্রেও তাই। প্রতিদিন একই রুটিনে ব্যায়াম করলে শরীরের খুব একটা উপকার হয় না। ব্যায়ামের গতি, সময় এমনকি পুরো বায়ামই কিছু দির পর পর পাল্টে নিতে হবে।
