রূপচর্চাবিষয়ক একটি ওয়েবসাইটে ঘরোয়া উপাদান দিয়ে শ্যাম্পু তৈরির কিছু উপায় উল্লেখ করা হয়।
বেইকিং সোডা দিয়ে শ্যাম্পু
মাথার ত্বকে জমে থাকা অতিরিক্ত সিবাম বা তেল এবং খুশকি দূর করতে সাহায্য করে বেইকিং সোডা। এক টেবিল-চামচ বেইকিং সোডা এক কাপ পানির সঙ্গে গুলিয়ে শ্যাম্পুর মতো ব্যবহার করতে হবে।
লেবু ও শসার শ্যাম্পু
শুষ্ক চুলের জন্য দারুণ উপকারী এই শ্যাম্পু। একটি লেবু এবং একটি শসার খোসা ছাড়িয়ে বেটে নিন। এই পেস্ট ভালোভাবে মাথার ত্বকে ঘষে বেশি করে পানি দিয়ে ধুয়ে ফেলতে হবে।
লেবুর আঁশ চুলে আটকে থাকতে পারে, সেক্ষেত্রে মোটা দাঁতের চিরুণি দিয়ে চুল আঁচড়ে নিলেই হবে।
অ্যাপেল সাইডার শ্যাম্পু


নারিকেলের শ্যাম্পু
নারিকেলের দুধ চুলে পুষ্টি জুগিয়ে চুল সুন্দর ও স্বাস্থ্যোজ্জ্বল রাখতে সাহায্য করে। এক কাপের চার ভাগের এক ভাগ নারিকেল দুধ নিয়ে বাকিটুকু বেবি শ্যাম্পু বা ভেষজ শ্যাম্পু নিতে হবে। এর সঙ্গে এক চামচ বাদামতেল ও ১০ ফোঁটা এসেনশিয়াল তেল মিশিয়ে চুলে ব্যবহার করতে হবে।
তেল দিয়ে শ্যাম্পু
এক কাপের চার ভাগের এক ভাগ পানি ও সমপরিমাণ বেবি শ্যাম্পু বা ভেষজ শ্যাম্পুর সঙ্গে আধা চা-চামচ ভেজিটেবল অয়েল মিশিয়ে ব্যবহার করা যাবে।
বিয়ার শ্যাম্পু


মাখনের শ্যাম্পু
কোকড়া চুলের অধিকারীদের জন্য এই শ্যাম্পু আদর্শ। একটি পাত্রে দুই টেবিল-চামচ অ্যালোভেরার জেল, দুই টেবিল-চামচ নারিকেল তেল ও দুই টেবিল-চামচ শিয়া বাটার মিশিয়ে চুলে লাগিয়ে ধুয়ে ফেলতে হবে। এই মিশ্রণ শ্যাম্পুর মতো ব্যবহারে কোকড়া চুল নরম ও সুন্দর হয়।
ডিমের শ্যাম্পু
দুইটি ডিমের সঙ্গে তিন চা-চামচ বেইকিং সোডা, দুই চা-চামচ জলপাইয়ের তেল, দুই চা-চামচ লেবুর রস মিশিয়ে শ্যাম্পুর মতো ব্যবহার করা যায়।
ছবি: রয়টার্স ও বিডিনিউজ টোয়েন্টিফোর ডটকম’য়ের নিজস্ব।
খুশকি মুক্ত চুল
চুল আয়রনের ভুলগুলো
