মানবতাবিরোধী অপরাধে দণ্ডপ্রাপ্ত জামায়াতের আমির মতিউর রহমান নিজামীর ফাঁসির রায় কার্যকর করার প্রতিবাদে দলটির ডাকা হরতাল প্রত্যাখ্যান করে বিক্ষোভ মিছিল করেছে শাহজালাল বিজ্ঞান ও প্রযুক্তি বিশ্ববিদ্যালয় (শাবিপ্রবি) শাখা ছাত্রলীগ।
শাবিপ্রবি: মানবতাবিরোধী অপরাধে দণ্ডপ্রাপ্ত জামায়াতের আমির মতিউর রহমান নিজামীর ফাঁসির রায় কার্যকর করার প্রতিবাদে দলটির ডাকা হরতাল প্রত্যাখ্যান করে বিক্ষোভ মিছিল করেছে শাহজালাল বিজ্ঞান ও প্রযুক্তি বিশ্ববিদ্যালয় (শাবিপ্রবি) শাখা ছাত্রলীগ।
বৃহস্পতিবার (১২ মে) বেলা সাড়ে ১২টায় ফুডকোর্টের সামনে অবস্থান নেন শাবিপ্রবি ছাত্রলীগ নেতাকর্মীরা। এসময় তারা জামায়াত-শিবির ও যুদ্ধাপরাধবিরোধী স্লোগান দেন। পরে দুপুর ১টায় ফুডফোর্ট থেকে হরতালবিরোধী মিছিল বের করা হয়।
শাবিপ্রবি ছাত্রলীগের সভাপতি সঞ্জীবন চক্রবর্তী পার্থ’র সভাপতিত্বে ও সাধারণ সম্পাদক ইমরান খানের সঞ্চালনায় বক্তব্য রাখেন সহসভাপতি অঞ্জন রায়, সিনিয়র যুগ্ম-সাধারণ সম্পাদক সাজিদুল ইসলাম সবুজ,  সাবেক কেন্দ্রীয় সংসদের সদস্য উত্তম কুমার দাশ।
সমাবেশে বক্তারা যুদ্ধাপরাধীদের বিচার সম্পন্ন করায় সন্তোষ প্রকাশ করেন। এসময় সিনিয়র যুগ্ম সম্পাদক সাজিদুল ইসলাম সবুজ ছাত্রলীগের কমিটিতে অনুপ্রবেশকারীদের বিরুদ্ধে কঠোর ব্যবস্থা নেওয়ার হুঁশিয়ারি উচ্চারণ করেন।
