লক্ষ্মীপুর: লক্ষ্মীপুরের রামগতিতে পরীক্ষায় নকল করার দায়ে দুই দাখিল পরীক্ষার্থীকে বহিষ্কার করা হয়েছে।
রোববার (১৯ ফেব্রুয়ারি) দুপুরে গণিত পরীক্ষা চলাকালে আলেকজান্ডার আলিয়া মাদ্রাসা কেন্দ্র থেকে তাদের বহিষ্কার করা হয়।
রামগতি উপজেলা পল্লী উন্নয়ন কর্মকর্তা ও পরীক্ষা কেন্দ্রের তদারকী কর্মকর্তা কামরুল হাসান বিষয়টি নিশ্চিত করেন।
