ঢাকা বিশ্ববিদ্যালয়: ঢাকা বিশ্ববিদালয়ের (ঢাবি) ‘ঘ’ ইউনিটের ভর্তি পরীক্ষায় জালিয়াতির দায়ে ১২ জনকে আটক করা হয়েছে।
শুক্রবার (২০ অক্টোবর) সকালে পরীক্ষা চলাকালে তাদের আটক করা হয়। 
বিশ্ববিদ্যালয়ের ভারপ্রাপ্ত প্রক্টর অধ্যাপক ড. এ এম আমজাদ বাংলানিউজকে এ তথ্য নিশ্চিত করেন।
আটককৃতরা বর্তমানে প্রক্টর অফিসে রয়েছেন। 
