ময়মনসিংহ: ময়মনসিংহের ত্রিশাল জাতীয় কবি কাজী নজরুল ইসলাম বিশ্ববিদ্যালয়ের মানবসম্পদ ব্যবস্থাপনা বিভাগের বিভাগীয় প্রধান মো. আশরাফুল আলম পদত্যাগ করেছেন।
মঙ্গলবার (৩০ মে) বিশ্ববিদ্যালয়ের রেজিস্ট্রার দফতরে পদত্যাগপত্র জমা দেন তিনি।
বুধবার (৩১ মে) দুপুরে বিশ্ববিদ্যালয়ের রেজিস্ট্রার (দায়িত্বপ্রাপ্ত) ড. মো. হুমায়ুন কবীর জানান, ব্যক্তিগত কারণ দেখিয়ে আশরাফুল আলম পদত্যাগপত্র জমা দিয়েছেন।
