গাইবান্ধা: গাইবান্ধায় বন্যার কারণে প্রাথমিক স্তরের দ্বিতীয় সাময়িক পরীক্ষা স্থগিত করা হয়েছে।
বৃহস্পতিবার (১৭ আগস্ট) বিকেলে গাইবান্ধা জেলা প্রাথমিক শিক্ষা অফিসার আমিনুল ইসলাম মণ্ডল বাংলানিউজকে এ তথ্য জানিয়েছেন।
তিনি জানান, শনিবার (১৯ আগস্ট) থেকে প্রাথমিক বিদ্যালয়গুলোতে দ্বিতীয় সাময়িক পরীক্ষা আরম্ভ হওয়ার কথা ছিল। কিন্তু জেলায় প্রবল বন্যা দেখা দেয়ার কারণে পরীক্ষা স্থগিত করা হয়েছে। এছাড়া বন্যায় জেলার ২৫৮টি প্রাথমিক বিদ্যালয়ে পানি ওঠায় বন্ধ ঘোষণা করা হয়েছে।
