হাজী মোহাম্মদ দানেশ বিজ্ঞান ও প্রযুক্তি বিশ্ববিদ্যালয়ে (হাবিপ্রবি) ২০১৬ সেমিস্টারে এমএস কোর্সে ভর্তির ফরম জমাদানের সময় পরিবর্তন করা হয়েছে। পরিবর্তিত সময় অনুযায়ী সংশ্লিষ্ট বিভাগে আবেদনপত্র জমা দেওয়ার শেষ তারিখ ১৪ আগস্ট ২০১৬।
হাবিপ্রবি: হাজী মোহাম্মদ দানেশ বিজ্ঞান ও প্রযুক্তি বিশ্ববিদ্যালয়ে (হাবিপ্রবি) ২০১৬ সেমিস্টারে এমএস কোর্সে ভর্তির ফরম জমাদানের সময় পরিবর্তন করা হয়েছে।
পরিবর্তিত সময় অনুযায়ী সংশ্লিষ্ট বিভাগে আবেদনপত্র জমা দেওয়ার শেষ তারিখ ১৪ আগস্ট ২০১৬।
বৃহস্পতিবার (২১ জুলাই) দুপুরে হাবিপ্রবির জনসংযোগ ও প্রকাশনা শাখার সহকারী পরিচালক মো. মমিনুল ইসলাম বাংলানিউজকে এ তথ্য নিশ্চিত করেন।
এ বিভাগ থেকে পোস্ট গ্র্যাজুয়েট স্ট্যাডিজ অনুষদের অফিসে আবেদনপত্র পাঠানোর তারিখ ১৮ আগস্ট ২০১৬। নির্বাচিত প্রার্থীদের ভর্তির তারিখ ২৩ আগস্ট থেকে ২৪ আগস্ট ২০১৬। ক্লাস শুরুর সম্ভাব্য তারিখ ১৯ সেপ্টেম্বর ২০১৬।
