জাতীয় বিশ্ববিদ্যালয়ের ২০১৬-১৭ শিক্ষাবর্ষে স্নাতক (পাস) ১ম বর্ষের ভর্তি কার্যক্রম আগামী ২০ ডিসেম্বর থেকে শুরু হবে। ওই দিন বিকেল ৪টা থেকে আগামী ১৬ জানুয়ারি রাত ১২টা পর্যন্ত অনলাইনে প্রাথমিক আবেদন করা যাবে।
ঢাকা: জাতীয় বিশ্ববিদ্যালয়ের ২০১৬-১৭ শিক্ষাবর্ষে স্নাতক (পাস) ১ম বর্ষের ভর্তি কার্যক্রম আগামী ২০ ডিসেম্বর থেকে শুরু হবে। ওই দিন বিকেল ৪টা থেকে আগামী ১৬ জানুয়ারি রাত ১২টা পর্যন্ত অনলাইনে প্রাথমিক আবেদন করা যাবে।
আবেদনকারী প্রার্থীদের এসএসসি ও এইচএসসি পরীক্ষার ফলের ভিত্তিতে প্রতিটি কলেজের জন্য আলাদাভাবে মেধা তালিকা প্রণয়ন করা হবে।
ভর্তি সংক্রান্ত বিস্তারিত তথ্য জাতীয় বিশ্ববিদ্যালয়ের ওয়েবসাইট (www.nu.edu.bd/admissions বা admissions.nu.edu.bd) থেকে জানা যাবে।
সোমবার (১২ ডিসেম্বর) এক সংবাদ বিজ্ঞপ্তিতে এসব তথ্য জানানো হয়।
