বরিশাল: বরিশাল শিক্ষা বোর্ডের অধীনে ২০১৭ সালের এইচএসসি পরীক্ষায় পাসের হার ৭০.২৮ শতাংশ।
রোববার (২৩ জুলাই) বেলা ১১টায় বরিশাল শিক্ষাবোর্ডের সভাকক্ষে ফলাফল ঘোষণা করা হয়।
বোর্ডের পরীক্ষা নিয়ন্ত্রক আ‌নোয়ারুল আ‌জিম জানান, এ বছর পাসের হার ৭০.২৮ যা গত বছরে ছিলো ৭০.১৩।
এ বছর ৩শ’ ২৯ কলেজের ১শ’ ১৬ টি সেন্টারে ৬১ হাজার ৯৩২ জন শিক্ষার্থী পরীক্ষা দেয়। এর মধ্যে জিপিএ ৫ পেয়েছে ৮১৫ জন।
এইচএসসি ও সমমান পরীক্ষায় এবার সারাদেশে গড় পাসের হার ৬৮ দশমিক ৯১ শতাংশ।
রোববার (২৩ জুলাই) সকাল ১০টার পর গণভবনে প্রধানমন্ত্রীর হাতে ৮টি সাধারণ শিক্ষা বোর্ড, মাদ্রাসা ও কারিগরি শিক্ষা বোর্ডের ফলাফলের অনুলিপি তুলে দেন শিক্ষামন্ত্রী ও সংশ্লিষ্ট বোর্ড চেয়ারম্যানরা।
