ইসলামী বিশ্ববিদ্যালয়ের (ইবি) শিক্ষক ও শিক্ষার্থী বহনকারী দুই বাসের মধ্যে সংঘর্ষ হয়েছে। এতে ৭ জন আহত হয়েছেন।
ইবি: ইসলামী বিশ্ববিদ্যালয়ের (ইবি) শিক্ষক ও শিক্ষার্থী বহনকারী দুই বাসের মধ্যে সংঘর্ষ হয়েছে। এতে ৭ জন আহত হয়েছেন।
শনিবার (এপ্রিল ৩০) দুপুর ২টায় বিশ্ববিদ্যালয় থেকে ছেড়ে যাওয়া শিক্ষকদের বাসে শিক্ষার্থী বহনকারী ভাড়ায়চালিত একটি বাস পেছন থেকে ধাক্কা দিলে এ দুর্ঘটনা ঘটে।
আহতদের মধ্যে শাহরিয়ার নামে এক শিক্ষার্থীর অবস্থা গুরুতর হওয়ায় তাকে ঝিনাইদহ সদর হাসপাতালে ভর্তি করা হয়েছে।
আহত অন্যদের মধ্যে অর্থনীতি বিভাগের দ্বিতীয় বর্ষের ছাত্র শাহরিয়ার ও ইবির উপাচার্যের ব্যক্তিগত সহকারী মনিরুল ইসলামের নাম জানা গেছে।
