ময়মনসিংহ: ময়মনসিংহের ত্রিশালে প্রতিষ্ঠিত জাতীয় কবি কাজী নজরুল ইসলাম বিশ্ববিদ্যালয়ে গ্রীষ্মকালীন ও ঈদ-উল ফিতরের ছুটি ঘোষণা করেছে বিশ্ববিদ্যালয় কর্তৃপক্ষ।
বৃহস্পতিবার (০১ জুন) দুপুরে বিশ্ববিদ্যালয়ের জনসংযোগ, তথ্য ও প্রকাশনা র্কমর্কতা এসএম হাফিজুর রহমানের পাঠানো এক সংবাদ বিজ্ঞপ্তিতে এ তথ্য জানানো হয়।
বিজ্ঞপ্তিতে বলা হয়, গ্রীষ্মকালীন অবকাশ, শব-ই-কদর, জুমাতুল বিদা ও ঈদ-উল-ফিতর উপলক্ষে জাতীয় কবি কাজী নজরুল ইসলাম বিশ্ববিদ্যালয়ের সব ক্লাস ও পরীক্ষাসমূহ আগামী ৪ জুন (রোববার) থেকে ৬ জুলাই (বৃহস্পতিবার) পর্যন্ত বন্ধ থাকবে।
তবে, বিশ্ববিদ্যালয়ের প্রশাসনিক ক‍ার্যক্রম ২৫ জুন (রোববার) থেকে ৬ জুলাই (বৃহস্পতিবার) পর্যন্ত বন্ধ থাকবে। আগামী ৯ জুলাই (রোববার) বিশ্ববিদ্যালয়ের সব ক্লাস, পরীক্ষা এবং অফিসসমূহ যথারীতি চালু হবে।
