জাহাঙ্গীরনগর বিশ্ববিদ্যালয় (জাবি): দুর্গাপূজা, আশুরা ও লক্ষ্মীপূজা উপলক্ষে ১০ দিনের ছুটি ঘোষণা করেছে জাহাঙ্গীরনগর বিশ্ববিদ্যালয়।
সোমবার (২৫ সেপ্টেম্বর) বিশ্ববিদ্যালয়ের রেজিস্ট্রার আবু বকর সিদ্দিক স্বাক্ষরিত এক প্রেস বিজ্ঞপ্তিতে এ তথ্য জানানো হয়।
এতে বলা হয়েছে, আগামী ২৬ সেপ্টেম্বর (মঙ্গলবার) থেকে ৫ অক্টোবর (বৃহস্পতিবার) পর্যন্ত সব বিভাগের ক্লাস বন্ধ থাকবে।
একই সঙ্গে দুর্গাপুজা উপলক্ষে ৩ দিন, আশুরা ও লক্ষ্মীপূজা উপলক্ষে ১ দিন করে মোট ৫ দিন বিশ্ববিদ্যালয়ে অফিস কার্যক্রম বন্ধ থাকবে।
