ঢাকা বিশ্ববিদ্যালয়: ঢাকা বিশ্ববিদ্যালয়ের (ঢাবি) অনুষদগুলোর ডিন নির্বাচনে আওয়ামী লীগপন্থী নীল দল ৯ অনুষদ ও বিএনপি-জামায়াতপন্থী সাদা দল ১টি অনুষদে জয়লাভ করেছে। এর মধ্যে ৩টিতে বিনা প্রতিদ্বন্দ্বিতায় নির্বাচিত হয়েছেন নীল দলের প্রার্থীরা।
বুধবার ( ১৮ জানুয়ারি ) দুপুরে ঢাকা বিশ্ববিদ্যালয়ের নবাব নওয়াব আলী চৌধুরী সিনেট ভবনে এ নির্বাচনের ফলাফল ঘোষণা করা হয়। এর আগে সকাল ৯টা থেকে দুপুর ১টা পর্যন্ত ভোটগ্রহণ করা হয়।
বিনা প্রতিদ্বন্দ্বিতায় নির্বাচিতরা হলেন- আর্থ অ্যান্ড এনভায়রনমেন্টাল সায়েন্সেস অনুষদে ঢাবি শিক্ষক সমিতির সভাপতি অধ্যাপক এ এস এম মাকসুদ কামাল, আইন অনুষদে শিক্ষক সমিতির সাধারণ সম্পাদক অধ্যাপক রহমত উল্লাহ এবং সামাজিক বিজ্ঞান অনুষদে অধ্যাপক ফরিদ উদ্দিন আহমেদ।
কলা অনুষদে নীল দলের ইতিহাস বিভাগের অধ্যাপক আবু মো. দেলোয়ার হোসেন ১৫৬ ভোট পেয়ে নির্বাচিত হন। নিকটতম প্রতিদ্বন্দ্বী সাদা দলের ইসলামের ইতিহাস ও সংস্কৃতি বিভাগের অধ্যাপক মোহাম্মদ ছিদ্দিকুর রহমান খান পান ৮১ ভোট এবং গোলাপী দলের অধ্যাপক এ কে এম সালাউদ্দিন পান ১২ ভোট।
ব্যবসায় শিক্ষা অনুষদে নীল দলের ব্যাংকিং অ্যান্ড ইন্স্যুরেন্স বিভাগের অধ্যাপক শিবলী রুবাইয়াতুল ইসলাম ১৪৩ ভোট পেয়ে নির্বাচিত হন। তার নিকটতম প্রতিদ্বন্দ্বী সাদা দলের মাকের্টিং বিভাগের অধ্যাপক মো. আশরাফুল ইসলাম চৌধুরী ৪৯ ভোট পান।   বিজ্ঞান অনুষদে নীল দলের রসায়ন বিভাগের অধ্যাপক মো. আব্দুল আজিজ ৮২ ভোট পেয়ে নির্বাচিত হন। নিকটতম প্রতিদ্বন্দ্বী সাদা দলের পরিসংখ্যান, প্রাণ পরিসংখ্যান ও তথ্য পরিসংখ্যান বিভাগের অধ্যাপক মো. লুৎফর রহমান পান ৫৬ ভোট।   জীববিজ্ঞান অনুষদে নীল দলের উদ্ভিদবিজ্ঞান বিভাগের অধ্যাপক ইমদাদুল হক ১২১ ভোট পেয়ে নির্বাচিত হন। নিকটতম প্রতিদ্বন্দ্বী সাদা দলের প্রাণিবিজ্ঞান বিভাগের অধ্যাপক লায়লা নূর ইসলাম ৬৯ ভোট।
ফার্মেসি অনুষদে নীল দলের ক্লিনিক্যাল ফার্মেসি অ্যান্ড ফার্মাকোলজি বিভাগের অধ্যাপক এস এম  আব্দুর রহমান ২৬ ভোট পেয়ে নির্বাচিত হন। নিকটতম প্রতিদ্বন্দ্বী সাদা দলের ওষুধ প্রযুক্তি বিভাগের অধ্যাপক মো. সেলিম রেজা পান ২৫ ভোট।   ইঞ্জিনিয়ারিং অ্যান্ড টেকনোলজি অনুষদে সাদা দলের কম্পিউটার বিজ্ঞান ও প্রকৌশল বিভাগের অধ্যাপক মো. হাসানুজ্জামান ৫২ ভোট পেয়ে নির্বাচিত হন। নিকটতম প্রতিদ্বন্দ্বী নীল দলের ফলিত রসায়ন ও কেমিকৌশল বিভাগের অধ্যাপক রফিকুল ইসলাম পান ২৯ ভোট।
