ফেনী: ফেনীতে এইচএসসি বাংলা দ্বিতীয়পত্র পরীক্ষা চলাকালে নকল করার দায়ে এক শিক্ষার্থীকে বহিষ্কার করা হয়েছে।
মঙ্গলবার (০৪ এপ্রিল) বেলা সাড়ে ১১টার দিকে ফেনীর ফাজিলপুর ডাব্লিউ বি কাদরী স্কুল কেন্দ্র থেকে ওই শিক্ষার্থীকে বহিষ্কার করেন নির্বাহী ম্যাজিস্ট্রেট সোহেল রানা।
সোহেল রানা বাংলানিউজকে জানান, পরীক্ষা চলাকালে এক শিক্ষার্থী বাথরুম থেকে পরীক্ষার হলে ঢোকে। এ সময় পকেট ফোলা থাকায় তাকে তল্লাশি করে চিরকুট পাওয়া যায়।
পরে ম্যাজিস্ট্রেটের নির্দেশে হল পরিদর্শক অসদুপায় অবলম্বনের দায়ে ওই পরীক্ষার্থীকে বহিষ্কার করেন।
