(শাবিপ্রবি): রাজশাহীতে তিন সাংবাদিকের বিরুদ্ধে মিথ্যা মামলার ঘটনায় তীব্র নিন্দা ও প্রতিবাদ জানিয়েছে শাহজালাল বিজ্ঞান ও প্রযুক্তি বিশ্ববিদ্যালয়ে কর্মরত সাংবাদিকদের সংগঠন ‘শাহজালাল বিশ্ববিদ্যালয় প্রেসক্লাব’।
শনিবার (১৮ নভেম্বর) শাবি প্রেসক্লাবের পক্ষ থেকে এক বিবৃতিতে এ নিন্দা ও প্রতিবাদ জানানো হয়।
বিবৃতিতে রাজশাহী বিশ্ববিদ্যালয় সাংবাদিক সমিতির সভাপতি ও দৈনিক যুগান্তরের বিশ্ববিদ্যালয় প্রতিনিধি হাসান আদিব, এসএ টিভির রাজশাহী প্রতিনিধি জিয়াউল গণি সেলিম এবং এসএ টিভির ক্যামেরাপারসন আবু সাঈদের ওপর থেকে অবিলম্বে মিথ্যা, ষড়যন্ত্রমূলক ও উদ্দেশ্যপ্রণোদিত এ মামলা প্রত্যাহারের দাবি জানান শাবি প্রেসক্লাব নেতারা।
বিশবিদ্যালয় প্রেসক্লাবের সভাপতি আব্দুল্লাহ আল মনসুর ও সাধারণ সম্পাদক ফয়জুল্লাহ ওয়াসিফ বিবৃতিতে বলেন, সাংবাদিকদের হয়রানি এবং আইনের আশ্রয় নিয়ে সম্ভাব্য শাস্তি এড়াতে উদ্দেশ্যপ্রণোদিতভাবে এ মামলা দায়ের করা হয়েছে বলে আমরা মনে করি।
বিবৃতিতে অবিলম্বে মিথ্যা, ষড়যন্ত্রমূলক ও উদ্দেশ্যপ্রণোদিত এ মামলা প্রত্যাহার করা এবং ইয়াবা ব্যবসার সঙ্গে জড়িত সকলকে শাস্তির আওতায় আনার দাবি জানানো হয়।
