ঢাকা বিশ্ববিদ্যালয়ের (ঢাবি) ড. সিরাজুল হক ইসলামী গবেষণা কেন্দ্রের উদ্যোগে ‘সন্ত্রাস ও জঙ্গিবাদ প্রতিরোধে ইসলামের ভূমিকা’ শীর্ষক সেমিনার অনুষ্ঠিত হয়েছে।
ঢাবি: ঢাকা বিশ্ববিদ্যালয়ের (ঢাবি) ড. সিরাজুল হক ইসলামী গবেষণা কেন্দ্রের উদ্যোগে ‘সন্ত্রাস ও জঙ্গিবাদ প্রতিরোধে ইসলামের ভূমিকা’ শীর্ষক সেমিনার অনুষ্ঠিত হয়েছে।
মঙ্গলবার (৩০ আগস্ট) বিশ্ববিদ্যালয়ের কলাভবনে এ সেমিনার অনুষ্ঠিত হয়।
সেমিনারে মূল প্রবন্ধ উপস্থাপন করেন- ইসলামিক স্ট্যাডিজ বিভাগের চেয়ারম্যান অধ্যাপক ড. মুহাম্মদ আব্দুর রশীদ।
সেমিনারে সভাপতিত্ব করেন বিশ্ববিদ্যালয়ের প্রো-উপাচার্য (শিক্ষা) ও কেন্দ্রের সভাপতি অধ্যাপক ড. নাসরীন আহমাদ। অংশ নেন- ইসলামিক স্ট্যাডিজ বিভাগের অধ্যাপক ড. মুহা. আব্দুল বাকী। সেমিনার সঞ্চালনা করেন কেন্দ্রের পরিচালক অধ্যাপক ড. মুহাম্মদ আব্দুল লতিফ।
