কতিপয় কর্মকর্তা-কর্মচারীর দুর্নীতির কারণে শিক্ষাক্ষেত্রে অর্জিত সাফল্য ম্লান হওয়া কোনোভাবে মেনে নেওয়া যায় না বলে মন্তব্য করেছেন শিক্ষামন্ত্রী নুরুল ইসলাম নাহিদ।
ঢাকা: কতিপয় কর্মকর্তা-কর্মচারীর দুর্নীতির কারণে শিক্ষাক্ষেত্রে অর্জিত সাফল্য ম্লান হওয়া কোনোভাবে মেনে নেওয়া যায় না বলে মন্তব্য করেছেন শিক্ষামন্ত্রী নুরুল ইসলাম নাহিদ। শিক্ষা বিভাগের দুর্নীতিবাজ কর্মকর্তা-কর্মচারীদের বিরুদ্ধে কঠোর ব্যবস্থা নেওয়ারও ঘোষণা দিয়েছেন মন্ত্রী। বৃহস্পতিবার (৮ সেপ্টেম্বর) ঢাকায় শিক্ষাভবনে মাধ্যমিক ও উচ্চশিক্ষা অধিদপ্তরের (মাউশি) কর্মকর্তাদের সঙ্গে বৈঠকে শিক্ষকদের নিগৃহীত ও নির্যাতিত হওয়ার খবর অত্যন্ত দুঃখজনক বলেও মন্তব্য করেন তিনি।
শিক্ষামন্ত্রী বলেন, শিক্ষাপ্রতিষ্ঠান পরিদর্শন, স্কুল-কলেজ জাতীয়করণ, এমপিওভুক্তি, নিয়োগ-বদলি, বিষয় খোলা, প্রকল্প অনুমোদন, উপবৃত্তি ও বিনামূল্যে পাঠ্যপুস্তক বিতরণের নামে কতিপয় কর্মকর্তা-কর্মচারীর দুর্নীতির কারণে শিক্ষাক্ষেত্রে অর্জিত সাফল্য ম্লান হবে এটা মেনে নেওয়া যায় না।
শিক্ষাভবনে সেবা নিতে আসা শিক্ষকদের নিগৃহীত হওয়ার খবরে দুঃখ প্রকাশ করেন নাহিদ।
শিক্ষামন্ত্রী বলেন, শিক্ষকরা যাতে সম্মানের সঙ্গে তাদের প্রয়োজনীয় সেবা পেতে পারেন মাউশির সে ভাবমূর্তি গড়ে তুলতে কর্মকর্তা-কর্মচারীদের অবশ্যই সততা ও নিষ্ঠার সঙ্গে দায়িত্ব পালন করতে হবে। প্রতিদিনের কাজ প্রতিদিন শেষ করতে হবে। মাউশিতে শিক্ষা ও শিক্ষকবান্ধব পরিবেশ গড়ে তোলার জন্য সংশ্লিষ্টদের প্রতি আহ্বান জানান শিক্ষামন্ত্রী।
মাউশির মহাপরিচালক অধ্যাপক ড. এস এম ওয়াহিদুজ্জামানের সভাপতিত্বে বৈঠকে শিক্ষা মন্ত্রণালয়ের সচিবের দায়িত্বে অতিরিক্ত সচিব এএস মাহমুদ, বিভিন্ন প্রকল্পের পরিচালকসহ ঊর্ধ্বতন কর্মকর্তারা উপস্থিত ছিলেন।
বাংলাদেশ সময়: ১৭০৩ ঘণ্টা, সেপ্টেম্বর ০৮, ২০১৬ এমআইএইচ/এএ
