জবি: জগন্নাথ বিশ্ববিদ্যালয়ের (জবি) ২০১৭-১৮ শিক্ষাবর্ষের স্নাতক (সম্মান) শ্রেণির ভর্তি পরীক্ষা অনুষ্ঠিত হয়েছে।
শুক্রবার (২২ সেপ্টেম্বর) বিকেল ৩টা থেকে ৪টা পর্যন্ত মোট আটটি কেন্দ্রে একযোগে এ পরীক্ষা অনুষ্ঠিত হয়।
এবার ‘বি’ ইউনিটের কলা অনুষদ, সামাজিকবিজ্ঞান অনুষদ, আইন অনুষদ, শিক্ষা ও গবেষণা ইনস্টিটিউট (আইইআর) এবং ইনস্টিটিউট অব মডার্ন ল্যাংগুয়েজেস (আইএমএল) অন্তর্ভুক্ত) ৭৭৮টি আসনের বিপরীতে ১৮,৭৬৩ জন অর্থাৎ প্রতি আসনের বিপরীতে প্রায় ২৪ জন শিক্ষার্থী ভর্তি পরীক্ষার জন্য আবেদন করেছিল।
পরীক্ষা চলাকালে বিশ্ববিদ্যালয়ের উপাচার্য অধ্যাপক ড. মীজানুর রহমান ও ট্রেজারার অধ্যাপক মো. সেলিম ভূঁইয়া পরীক্ষার হল পরিদর্শন করেন। এসময় বিশ্ববিদ্যালয়ের বিভিন্ন অনুষদের ডিন, রেজিস্ট্রার প্রকৌশলী মো. ওহিদুজ্জামান, প্রক্টর ও সহকারী প্রক্টররা উপস্থিত ছিলেন।
‘বি’ ইউনিটের ভর্তি পরীক্ষার ফলাফল শিগগিরই প্রকাশ করা হবে। ফলাফল জগন্নাথ বিশ্ববিদ্যালয়ের ওয়েবসাইট (www.jnu.ac.bd) এ  পাওয়া যাবে।
