বরিশালে শান্তিপূর্ণ পরিবেশে শেষ হয়েছে এইচএসসি দ্বিতীয় দিনের পরীক্ষা। মঙ্গলবার (৫ এপ্রিল) বাংলা দ্বিতীয় পত্র পরীক্ষায় বরিশাল বোর্ডে অনুপস্থিত ছিল ৬৭৩ পরীক্ষার্থী।
বরিশাল: বরিশালে শান্তিপূর্ণ পরিবেশে শেষ হয়েছে এইচএসসি দ্বিতীয় দিনের পরীক্ষা।
 
মঙ্গলবার (৫ এপ্রিল) বাংলা দ্বিতীয় পত্র পরীক্ষায় বরিশাল বোর্ডে অনুপস্থিত ছিল ৬৭৩ পরীক্ষার্থী।
এর মধ্যে বরিশাল জেলায় ৩০২ জন, ঝালকাঠি জেলায় ৪৮ জন, পিরোজপুর জেলায় ৯৬ জন, পটুয়াখালীতে ৯৪ জন, বরগুনায় ৫৭ জন ও ভোলায় ৭৬ জন রয়েছে।
শিক্ষাবোর্ডের দেওয়া তথ্য অনুযায়ী, বরিশাল শিক্ষাবোর্ডে মোট পরীক্ষার্থী সংখ্যা ৬২ হাজার ৪৮১ জন। এর মধ্যে ৩২ হাজার ৬৭৯ জন ছাত্র ও ২৯ হাজার ৮০২ জন ছাত্রী। গতবছর বরিশাল শিক্ষাবোর্ডে পরীক্ষার্থী সংখ্যা ছিল ৫৬ হাজার ৬৬০ জন।
