প্রধানমন্ত্রী শেখ হাসিনার বিশেষ সহকারী, এক সময়ের তুখোড় ও মেধাবী ছাত্রলীগ নেতা মাহবুবুল হক শাকিলের অকাল মৃত্যুতে জাহাঙ্গীরনগর বিশ্ববিদ্যালয়ের (জাবি) উপাচার্য অধ্যাপক ফারজানা ইসলাম গভীর শোক প্রকাশ করেছেন।
জাহাঙ্গীরনগর বিশ্ববিদ্যালয়: প্রধানমন্ত্রী শেখ হাসিনার বিশেষ সহকারী, এক সময়ের তুখোড় ও মেধাবী ছাত্রলীগ নেতা মাহবুবুল হক শাকিলের অকাল মৃত্যুতে জাহাঙ্গীরনগর বিশ্ববিদ্যালয়ের (জাবি) উপাচার্য অধ্যাপক ফারজানা ইসলাম গভীর শোক প্রকাশ করেছেন।
মঙ্গলবার (৬ ডিসেম্বর) সন্ধ্যায় এক বার্তায় এ শোক প্রকাশ করেন তিনি।
শোকবার্তায় উপাচার্য বলেন, মাহবুবুল হক শাকিলের অকাল মৃত্যুতে জাতি একজন মেধাবী ও বহুমুখী প্রতিভার অধিকারী ব্যক্তিকে হারালো। একজন সাবেক ছাত্রনেতা, কবি ও গল্পকার হিসেবে তিনি সমাদৃত ছিলেন। উপাচার্য মরহুমের আত্মার শান্তি কামনা করেন ও মরহুমের পরিবার সদস্যদের প্রতি সমদেনা জ্ঞাপন করেন।
