কওমি মাদ্রাসা শিক্ষা ব্যবস্থা সম্পর্কে ধারণা নিতে বাংলাদেশ কওমি মাদ্রাসা শিক্ষা কমিশন ভারত ও সৌদি আরবে যেতে চায়।  ওই দু’দেশের কওমি শিক্ষা সংক্রান্ত অভিজ্ঞতা বাংলাদেশের কওমি শিক্ষার উন্নয়নে কাজে লাগাতে চায় কমিশন। 
ঢাকা: কওমি মাদ্রাসা শিক্ষা ব্যবস্থা সম্পর্কে ধারণা নিতে বাংলাদেশ কওমি মাদ্রাসা শিক্ষা কমিশন ভারত ও সৌদি আরবে যেতে চায়।  ওই দু’দেশের কওমি শিক্ষা সংক্রান্ত অভিজ্ঞতা বাংলাদেশের কওমি শিক্ষার উন্নয়নে কাজে লাগাতে চায় কমিশন।   ডেইলিএডুকেশনডটনেট-এর এক রিপোর্ট থেকে এ তথ্য জানা গেছে।
রিপোর্টে বলা হয়, সম্প্রতি কমিশনের সদস্য সচিব আল্লামা মুফতি রুহুল আমিনসহ চার সদস্যের একটি প্রতিনিধি দল সৌদি আরব ও ভারতের কওমি মাদ্রাসা শিক্ষা সম্পর্কে ধারণা নিতে ভারত ও সৌদি আরব যেতে সরকারের কাছে আবেদন করেছেন।  
উল্লেখ্য, কওমি শিক্ষা ব্যবস্থা সংস্কার ও আধুনিক করতে গত ১৫ এপ্রিল শিক্ষা মন্ত্রণালয় একটি কমিশন গঠন করেছে। কমিশন শিগগিরই সরকারকে সুপারিশ পেশ করবে।
