ইউনিভার্সিটি অব লিবারেল আর্টস বাংলাদেশের সঙ্গে এশিয়ান ইনস্টিটিউট অব ডিপ্লোমেসি অ্যান্ড ইন্টারন্যাশনালের (এআইডিআইএ) মধ্যে একটি সমঝোতা চুক্তি (এমওইউ) স্বাক্ষরিত হয়েছে।
ঢাকা: ইউনিভার্সিটি অব লিবারেল আর্টস বাংলাদেশের সঙ্গে এশিয়ান ইনস্টিটিউট অব ডিপ্লোমেসি অ্যান্ড ইন্টারন্যাশনালের (এআইডিআইএ) মধ্যে একটি সমঝোতা চুক্তি (এমওইউ) স্বাক্ষরিত হয়েছে।
রোববার (১৭ জুলাই) ইউল্যাব থেকে পাঠানো সংবাদ বিজ্ঞপ্তিতে এ তথ্য জানানো হয়।
ধানমন্ডিস্থ ইউল্যাব ক্যাম্পাসে আয়োজিত অনুষ্ঠানে সমঝোতা চুক্তিতে সই করেন ইউল্যাবের ভাইস চ্যান্সেলর প্রফেসর ইমরান রহমান এবং এআইডিআইএ’র সিইও সুনিল কেসি।
সমঝোতা চুক্তির মূল্য উদ্দেশ্য হচ্ছে- শিক্ষা, জ্ঞান ও গবেষণাগত বিভিন্ন বিষয়াদি আদান-প্রদান এবং প্রতিষ্ঠান দু’টির যৌথ উদ্যোগে বিভিন্ন ধরনের শিক্ষামূলক কার্যক্রম পরিচালনা করা।
চুক্তি স্বাক্ষর অনুষ্ঠানে বোর্ড অব ট্রাস্টিজ সদস্য জুডিথা অহলমাসের, অধ্যাপক ব্রেইন শোস্মিথ, ইউল্যাব প্রো-ভাইস চ্যান্সেলর প্রফেসর এইচ এম জহিরুল হক, ট্রেজারার প্রফেসর মিলন কুমার ভট্টাচার্য, রেজিস্ট্রার লে. কর্নেল ফয়জুল ইসলাম (অব.) সহ দুই প্রতিষ্ঠানের প্রতিনিধিরা উপস্থিত ছিলেন।
