ঢাকা বিশ্ববিদ্যালয়: ১৯৭১ সালের ২৫ মার্চ কালরাতে পাক-হানাদার বাহিনীর আক্রমণে ঢাকা বিশ্ববিদ্যালয়ে নিহত শহীদদের স্মরণে ও গণহত্যা দিবস পালন উপলক্ষে বিস্তারিত কর্মসূচি গ্রহণ করেছে ঢাবি কর্তৃপক্ষ।
২৫ মার্চ (শনিবার) সকাল ১০টায় বিশ্ববিদ্যালয়ের জগন্নাথ হলে কর্মসূচির উদ্বোধন করবেন উপাচার্য অধ্যাপক ড. আ আ ম স আরেফিন সিদ্দিক।
এতে প্রধান অতিথি হিসেবে উপস্থিত থাকবেন মুক্তিযুদ্ধ বিষয়ক মন্ত্রী আ ক ম মোজাম্মেল হক এমপি। বিশেষ অতিথি থাকবেন প্রো-উপাচার্য (শিক্ষা) অধ্যাপক ড. নাসরীন আহমাদ, প্রো-উপাচার্য (প্রশাসন) অধ্যাপক ড. মো. আখতারুজ্জামান ও কোষাধ্যক্ষ অধ্যাপক ড. মো. কামাল উদ্দীন। অনুষ্ঠানে সভাপতিত্ব করবেন জগন্নাথ হলের প্রাধ্যক্ষ অধ্যাপক ড. অসীম সরকার।
