জবি: জগন্নাথ বিশ্ববিদ্যালয়ের (জবি) ২০১৭-১৮ শিক্ষাবর্ষের ১ম বর্ষ স্নাতক (সম্মান) শ্রেণীর ‘ই’ (ঙ) ইউনিটের লিখিত পরীক্ষার ফল প্রকাশিত হয়েছে।
রোববার (১৭ সেপ্টেম্বর) দুপুরে বিশ্ববিদ্যালয়ের জনসংযোগ দপ্তর থেকে পাঠানো এক সংবাদ বিজ্ঞপ্তিতে এ তথ্য জানানো হয়।
এতে বলা হয়, শনিবার (১৬ সেপ্টেম্বর) গৃহিত 'ই' ইউনিটের ফলাফল প্রকাশিত হয়েছে।
এবার ‘ই’ ইউনিটের ১৫০টি (সংগীত বিভাগ-৪০টি, চারুকলা বিভাগ-৪০টি, নাট্যকলা বিভাগ-৪০টি এবং ফিল্ম অ্যান্ড টলিভিশন বিভাগ-৩০টি) আসনের বিপরীতে ৭৫৬ জন পরীক্ষার্থী প্রাথমিকভাবে ভর্তির ন্যূনতম যোগ্যতা অর্জন করেছে। 
