গাজীপুর: ঢাকা প্রকৌশল ও প্রযুক্তি বিশ্ববিদ্যালয়ে (ডুয়েট) ২০১৬-২০১৭ শিক্ষাবর্ষের বিএসসি ইঞ্জিনিয়ারিং এবং বি. আর্ক প্রোগ্রামে প্রথমবর্ষের ভর্তি ২২ অক্টোবর শুরু হবে। চলবে ২৬ অক্টোবর পর্যন্ত।
বুধবার (৪ অক্টোবর) বিকেলে ডুয়েটের পাবলিকেশন কাম ইনফরমেশন অফিসার মো. জিয়াউল হক এক সংবাদ বিজ্ঞপ্তিতে এ তথ্য জানান। 
এ প্রক্রিয়া সংক্রান্ত যাবতীয় নির্দেশনা বিশ্ববিদ্যালয়ের ওয়েবসাইট (http://www.duet.ac.bd)  থেকে জানা যাবে। এছাড়া নোটিশ বোর্ডে বিজ্ঞপ্তি আকারে প্রকাশিত হয়েছে। 
