মাধ্যমিক (এসএসসি) ও সমমানের পরীক্ষার ফল প্রকাশিত হচ্ছে বুধবার (১১ মে)। চলতি বছর এ পরীক্ষায় অংশ নেওয়া সাড়ে ১৬ লাখ শিক্ষার্থী এখন ফলাফলের অপেক্ষায়।
ঢাকা: মাধ্যমিক (এসএসসি) ও সমমানের পরীক্ষার ফল প্রকাশিত হচ্ছে বুধবার (১১ মে)। চলতি বছর এ পরীক্ষায় অংশ নেওয়া সাড়ে ১৬ লাখ শিক্ষার্থী এখন ফলাফলের অপেক্ষায়।
প্রধানমন্ত্রী শেখ হাসিনার কাছে গণভবনে সকাল ১০টায় ফলাফল হস্তান্তরের পর দুপুর ১টায় সচিবালয়ে সংবাদ সম্মেলনে পূর্ণাঙ্গ ফলাফল প্রকাশ করবেন শিক্ষামন্ত্রী নুরুল ইসলাম নাহিদ।   আটটি সাধারণ বোর্ডের অধীনে এসএসসি, মাদ্রাসা বোর্ড দাখিল এবং কারিগরি শিক্ষা বোর্ডের ফল www.educationboardresults.gov.bd ওয়েবসাইটে পাওয়া যাবে।   এছাড়া যেকোনো মোবাইল থেকে এসএমএস করেও ফল পাওয়া যাবে।   এসএসসির ফল পেতে SSC লিখে স্পেস দিয়ে বের্ডের প্রথম তিন অক্ষর লিখে স্পেস দিয়ে রোল নম্বর লিখে স্পেস দিয়ে ২০১৬ লিখে ১৬২২২ নম্বরে পাঠাতে হবে। ফিরতি এসএমএসে ফল পাওয়া  যাবে। (উদাহরণ: SSC DHA 123456 2016)   আর মাদ্রাসা বোর্ডের জন্য DAKHIL স্পেস MAD স্পেস 2016 লিখে ১৬২২২ ও কারিগরি বোর্ডের জন্য SSC স্পেস TEC স্পেস ২০১৬ লিখে ১৬২২২ পাঠালে ফল জানা যাবে।   আন্তঃশিক্ষা বোর্ড সমন্বয় সাব-কমিটি জানিয়েছে, শিক্ষা প্রতিষ্ঠানগুলো www.educationboardresults.gov.bd ওয়েবসাইট থেকে ফল ডাউনলোড করতে পারবে। বোর্ড থেকে ফলাফলের কোনো হার্ডকপি সরবারহ করা হবে না।   তবে বিশেষ প্রয়োজনে জেলা প্রশাসক ও উপজেলা নির্বাহী কর্মকর্তার দফতর থেকে ফলাফলের হার্ডকপি সংগ্রহ করা যাবে।
