জাতীয় বিশ্ববিদ্যালয়ের ২০১৬-১৭ শিক্ষাবর্ষে প্রথম বর্ষ স্নাতক (সম্মান) প্রফেশনাল শ্রেণির ভর্তি আবেদন ফরম পূরণের সময় ২০ ডিসেম্বর রাত ১২টা পর্যন্ত বাড়ানো হয়েছে। 
গাজীপুর: জাতীয় বিশ্ববিদ্যালয়ের ২০১৬-১৭ শিক্ষাবর্ষে প্রথম বর্ষ স্নাতক (সম্মান) প্রফেশনাল শ্রেণির ভর্তি আবেদন ফরম পূরণের সময় ২০ ডিসেম্বর রাত ১২টা পর্যন্ত বাড়ানো হয়েছে। 
রোববার (০৬ নভেম্বর) বিকেলে জাতীয় বিশ্ববিদ্যালয়ের সংবাদ বিজ্ঞপ্তিতে এ তথ্য জানানো হয়।
এ সংক্রান্ত বিস্তারিত তথ্য জাতীয় বিশ্ববিদ্যালয়ের ভর্তি বিষয়ক ওয়েবসাইট পাওয়া যাবে।
বাংলাদেশ সময়: ১৫৫৫ ঘণ্টা, নভেম্বর ০৬, ২০১৬
