পটুয়াখালী: পটুয়াখালী বিজ্ঞান ও প্রযুক্তি বিশ্ববিদ্যালয়ে (পবিপ্রবি) বিজ্ঞান অলিম্পিয়াড- ২০১৮ অনুষ্ঠিত হয়েছে। 
শক্রবার (১২ জানুয়ারি) সকাল ৯টায় বিশ্ববিদ্যালয়ের প্রো-ভাইস চ্যান্সেলর প্রফেসর মোহাম্মদ আলী প্রধান অতিথি হিসেবে উপস্থিত থেকে অলিম্পিয়াডের আনুষ্ঠানিক উদ্বোধন করেন। 
এসময় অনুষ্ঠান উদযাপন কমিটির আহ্বায়ক প্রফেসর ড. ফজলুল হকের সভাপতিত্বে অনুষ্ঠানে বিশেষ অতিথির বক্তব্য রাখেন বাংলাদেশ বিজ্ঞান একাডেমির প্রতিনিধি প্রফেসর ড. কামাল উদ্দীন। 
বিজ্ঞান অলিম্পিয়াডে দুই শতাধিক শিক্ষার্থী অংশ নেয়। প্রতিযোগিতা শেষে বিকেলে বিজয়ীদের মধ্যে পুরস্কার বিতরণ করেন বিশ্ববিদ্যালয়ের প্রো-ভাইস চ্যান্সেলর প্রফেসর মোহাম্মদ আলী।
