গণ বিশ্ববিদ্যালয়ে (গবি) ২০১৫-১৬ শিক্ষাবর্ষের স্নাতক (সম্মান) প্রথম বর্ষ প্রথম সেমিস্টারের সব বিভাগের নবীন শিক্ষার্থীদের ক্লাস ৮ মে (রোববার) থেকে সাভারের স্থায়ী ক্যাম্পাসে শুরু হবে।
গণ বিশ্ববিদ্যালয় (সাভার): গণ বিশ্ববিদ্যালয়ে (গবি) ২০১৫-১৬ শিক্ষাবর্ষের স্নাতক (সম্মান) প্রথম বর্ষ প্রথম সেমিস্টারের সব বিভাগের নবীন শিক্ষার্থীদের ক্লাস ৮ মে (রোববার) থেকে সাভারের স্থায়ী ক্যাম্পাসে শুরু হবে।
বুধবার (৪ মে) সকালে বিশ্ববিদ্যালয়ের রেজিস্ট্রার মো. দেলোয়ার হোসেন বিষয়টি বাংলানিউজকে জানিয়েছেন।
তিনি জানান, সংশ্লিষ্ট শিক্ষার্থীদের যথাসময়ে স্ব-স্ব বিভাগে উপস্থিত থেকে ক্লাসে অংশ নেওয়ার নির্দেশ দেওয়া হয়েছে।
