২৪তম বাংলাদেশ আন্তঃবিশ্ববিদ্যালয় সাঁতার ও ওয়াটারপোলো প্রতিযোগিতায় চ্যাম্পিয়ন হয়েছে রাজশাহী বিশ্ববিদ্যালয় (রাবি)।
রাবি: ২৪তম বাংলাদেশ আন্তঃবিশ্ববিদ্যালয় সাঁতার ও ওয়াটারপোলো প্রতিযোগিতায় চ্যাম্পিয়ন হয়েছে রাজশাহী বিশ্ববিদ্যালয় (রাবি)।
সোমবার (০৬ জুন) দুপুরে বিশ্ববিদ্যালয়ের জনসংযোগ দপ্তর থেকে পাঠানো এক প্রেসবিজ্ঞপ্তিতে এ তথ্য জানানো হয়। বিজ্ঞপ্তিতে জানানো হয়, সাঁতার প্রতিযোগিতায় যশোর বিজ্ঞান ও প্রযুক্তি বিশ্ববিদ্যালয় রানার্স আপ ও চট্টগ্রাম বিশ্ববিদ্যালয় তৃতীয় স্থান অধিকার করেন। ওয়াটারপোলোতে চট্টগ্রাম বিশ্ববিদ্যালয় রানার্স আপ ও বরিশাল বিশ্ববিদ্যালয় তৃতীয় স্থান অধিকার করেন। রোববার (০৫ জুন) বিকেলে বিশ্ববিদ্যালয় সুইমিংপুলে প্রতিযোগিতার সমাপনী অনুষ্ঠানে বিজয়ীদের হাতে পুরস্কার তুলে দেন প্রধান অতিথি বাংলাদেশ বিশ্ববিদ্যালয় পরিষদের সভাপতি অধ্যাপক মো. আলাউদ্দিন।
