পবিত্র ঈদুল আজহা উপলক্ষে রাজশাহী বিশ্ববিদ্যালয় ০৭ সেপ্টেম্বর (বুধবার) থেকে ১৮ সেপ্টেম্বর পর্যন্ত বন্ধ থাকবে।
রাবি (রাজশাহী): পবিত্র ঈদুল আজহা উপলক্ষে রাজশাহী বিশ্ববিদ্যালয় ০৭ সেপ্টেম্বর (বুধবার) থেকে ১৮ সেপ্টেম্বর পর্যন্ত বন্ধ থাকবে।
 
মঙ্গলবার (০৬ সেপ্টেম্বর) দুপুরে বিশ্ববিদ্যালয়ের জনসংযোগ দফতরের প্রশাসক অধ্যাপক মশিহুর রহমান স্বাক্ষরিত সংবাদ বিজ্ঞপ্তির মাধ্যমে এ তথ্য জানানো হয়।
বিজ্ঞপ্তিতে জানানো হয়, ছুটির সময় আবাসিক হল বন্ধ থাকবে। ০৮ সেপ্টেম্বর বিকেল তিনটার মধ্যে শিক্ষার্থীদের হল ছাড়তে হবে এবং ১৮ সেপ্টেম্বর সকাল ৯টায় আবার হলগুলো খুলে দেওয়া হবে।
১৯ সেপ্টেম্বর থেকে যথারীতি বিশ্ববিদ্যালয়ের ক্লাস ও পরীক্ষা শুরু হবে। এছাড়া ১০ সেপ্টেম্বর থেকে ১৭ সেপ্টেম্বর পর্যন্ত বিশ্ববিদ্যালয়ের অফিস বন্ধ থাকবে বলেও জানানো হয়।
