খুলনা বিশ্ববিদ্যালয়ের (খুবি) চারুকলা ইনস্টিটিউটের ২০১৬-২০১৭ শিক্ষাবর্ষের বিএফএ (সম্মান) কোর্সে অপেক্ষমাণ তালিকা থেকে ভর্তি করা হবে সোমবার (২৮ নভেম্বর)।
খুলনা: খুলনা বিশ্ববিদ্যালয়ের (খুবি) চারুকলা ইনস্টিটিউটের ২০১৬-২০১৭ শিক্ষাবর্ষের বিএফএ (সম্মান) কোর্সে অপেক্ষমাণ তালিকা থেকে ভর্তি করা হবে সোমবার (২৮ নভেম্বর)।
ওইদিন দুপুর ১২টা থেকে বিকেল ৪টা পর্যন্ত ছাত্র-ছাত্রী ভর্তি কার্যক্রম চলবে। 
সংশ্লিষ্ট ভর্তি কমিটির সভাপতি ও চারুকলা ইনস্টিটিউটের পরিচালক (ভারপ্রাপ্ত) প্রফেসর ড. আহমেদ আহসানুজ্জামান স্বাক্ষরিত বিজ্ঞপ্তিতে এ তথ্য জানানো হয়েছে।
