রাজশাহী মাধ্যমিক ও উচ্চ মাধ্যমিক শিক্ষা বোর্ডের অধীনে অনুষ্ঠিত এসএসসি পরীক্ষায় এবার পাসের হার ৯৫ দশমিক ৭০ শতাংশ। বুধবার (১১ মে) বেলা সাড়ে ১১টার...
রাজশাহী: রাজশাহী মাধ্যমিক ও উচ্চ মাধ্যমিক শিক্ষা বোর্ডের অধীনে অনুষ্ঠিত এসএসসি পরীক্ষায় এবার পাসের হার ৯৫ দশমিক ৭০ শতাংশ।
বুধবার (১১ মে) বেলা সাড়ে ১১টার দিকে শিক্ষা বোর্ডের পরীক্ষা নিয়ন্ত্রক শামসুল কালাম আজাদ এ তথ্য নিশ্চিত করেছেন। তবে এ সময় তিনি বোর্ডের জিপিএ-৫ প্রাপ্ত শিক্ষার্থীর সংখ্যা জানাতে রাজি হননি। দুপুর সোয়া ১টায় বোর্ডের সভাকক্ষে এ ব্যাপারে সংবাদ সম্মেলন রয়েছে।
ওই সময় ফলাফল ঘোষণা করা হবে বলে জানান তিনি।
এদিকে, রাজশাহী শিক্ষাবোর্ডে এবারের পরীক্ষায় এক লাখ ৫২ হাজার ৫৬৬ জন পরীক্ষার্থী অংশগ্রহণ করেন। যা গতবারের চেয়ে ২৫ হাজার ৪৬ জন বেশি।
এর আগে ২০১৪ সালে এই শিক্ষাবোর্ডের মোট পরীক্ষার্থীর সংখ্যা ছিল এক লাখ ২৭ হাজার ৫২০ জন।
রাজশাহী শিক্ষাবোর্ডের পরীক্ষা নিয়ন্ত্রক সামসুল কালাম আজাদ জানান, এবার শিক্ষাবোর্ডে ২২৭টি কেন্দ্রের মাধ্যমে পরীক্ষা নেওয়া হয়। এবারে নিয়মিত পরীক্ষার্থীর সংখ্যা ছিল এক লাখ ৪৫ হাজার ৬৯৮ জন। এছাড়াও অনিয়মিত পরীক্ষার্থীর সংখ্যা ৬ হাজার ৫৯০ জন। আর জিপিএ উন্নয়ন পরীক্ষার্থী ছিল ৭৮ জন।
