গাজীপুর: জাতীয় বিশ্ববিদ্যালয়ের ২০১৭ সালের স্নাতক (পাস) প্রাইভেট/সার্টিফিকেট কোর্সে রেজিস্ট্রেশন আগামী ৩১ মে (বুধবার) থেকে শুরু হবে। চলবে আগামী ৫ জুলাই পর্যন্ত।
মঙ্গলবার (৩০ মে) দুপুরে জাতীয় বিশ্ববিদ্যালয়ের এক সংবাদ বিজ্ঞপ্তিতে এ তথ্য জানানো হয়েছে।
বিস্তারিত তথ্য জাতীয় বিশ্ববিদ্যালয়ের ওয়েবসাইট (www.admissions.nu.edu.bd অথবা nu.edu.bd/admissions) থেকে জানা যাবে।
