ঢাকা বিশ্ববিদ্যালয়: ঢাকা বিশ্ববিদ্যালয় সাংবাদিক সমিতির (ডুজা) কার্যনির্বাহী পরিষদ ২০১৭-১৮ সেশনে সভাপতি হিসেবে প্রথম আলোর আসিফ ত্বাসীন ও সাধারণ সম্পাদক হিসেবে দৈনিক যুগান্তরের মাহমুদুল হাসান নয়ন নির্বাচিত হয়েছেন।
শুক্রবার (২৪ নভেম্বর) দুপুরে বিশ্ববিদ্যালয়ের ছাত্র-শিক্ষক কেন্দ্র টিএসসিতে সমিতির কার্যালয়ে প্রধান নির্বাচন কমিশনার বোরহানুল হক সম্রাট নতুন কমিটির সদস্যদের নাম ঘোষণা করেন। 
এ সময় উপস্থিত ছিলেন নির্বাচন কমিশনার ও সমিতির সাবেক সভাপতি মাহবুব রনি, সমিতির বিদায়ী কমিটির সভাপতি ফরহাদ উদ্দীন ও সাধারণ সম্পাদক ফররুখ মাহমুদ।
নয় সদস্য বিশিষ্ট কার্যনির্বাহী কমিটির বাকি সদস্যরা হলেন- সহ সভাপতি মীর আরশাদুল হক, যুগ্ম সাধারণ সম্পাদক পদে আব্দুল হাকিম আবির, দফতর সম্পাদক রাইহানুল ইসলাম আবির, অর্থ সম্পাদক আব্দুল করিম, কার্যনির্বাহী কমিটির সদস্য মুনির হোসাইন, মাহদী আল মুহতাসিম এবং দীপক রায়।
