জবি: জগন্নাথ বিশ্ববিদ্যালয়ের (জবি) ২০১৭-১৮ শিক্ষাবর্ষে চার বছর মেয়াদী স্নাতক (সম্মান) ও বিবিএ প্রথম বর্ষ প্রথম সেমিস্টারে ভর্তি পরীক্ষার সময়সূচি নির্ধারণ করা হয়েছে। একই সঙ্গে আবেদনের সময়ও ঘোষণা করেছে বিশ্ববিদ্যালয় কর্তৃপক্ষ।
সোমবার (৭ আগষ্ট) সন্ধায় বিশ্ববিদ্যালয়ের গণসংযোগ দফতর থেকে পাঠানো এক সংবাদ বিজ্ঞপ্তিতে এ তথ্য জানানো হয়।
বিজ্ঞপ্তিতে বলা হয়, আগামী ১৫ সেপ্টেম্বর ‘সি’ ইউনিটের (ব্যবসায় শিক্ষা অনুষদভূক্ত), ১৬ সেপ্টেম্বর ‘ই’ ইউনিটের (নাট্যকলা বিভাগ, সংগীত বিভাগ ও চারুকলা বিভাগ), ২২ সেপ্টেম্বর ‘বি’ ইউনিটের (কলা ও আইন অনুষদভূক্ত), ১৩ অক্টোবর ‘এ’ ইউনিটের (বিজ্ঞান অনুষদ এবং লাইফ এন্ড আর্থ সায়েন্স অনুষদভূক্ত) এবং ২০ অক্টোবর ‘ডি’ (সার্বজনীন) ইউনিটের ভর্তি পরীক্ষা অনুষ্ঠিত হবে।
এছাড়া মঙ্গলবার (৮ আগস্ট) দুপুর ১২টা থেকে ৩১ আগস্ট (বৃহস্পতিবার) রাত ১২টা পর্যন্ত ভর্তির জন্য অনলাইনে (http://admission.jnu.ac.bd অথবা http://admissionjnu.info) আবেদন করা যাবে।
এবার পাঁচটি ইউনিটের ২ হাজার ৭শ’ ৬৫টি আসনের বিপরীতে ভর্তি পরীক্ষা অনুষ্ঠিত হবে। পরীক্ষার্থীরা আবেদন ফি এ বি সি ও ডি ইউনিটের প্রতিটির জন্য সার্ভিস চার্জসহ ৫০৫ টাকা এবং ‘ই’ ইউনিটের জন্য ব্যবহারিক পরীক্ষার ফি ও সার্ভিস চার্জসহ ৬০৬ টাকা ‘বিকাশ,  শিওর ক্যাশ বা রকেট’ মোবাইল ব্যাংকিংয়ের মাধ্যমে পরিশোধ করতে পারবেন।
বিজ্ঞপ্তিতে আরও বলা হয়, যে সকল শিক্ষার্থী ২০১৪ বা ২০১৫ সালে এসএসসি সমমান এবং ২০১৭ সালে এইচএসসি সমমান পরীক্ষায় উত্তীর্ণ হয়েছেন তারা আবেদন করতে পারবেন। ‘এ’ ইউনিটের জন্য ন্যূনতম ৮.৫ জিপিএ, ‘বি’ ইউনিটের জন্য ৮.০ জিপিএ (তবে কোনো পরীক্ষায় ৩.৫ এর নীচে নয়), ‘সি’ ইউনিটের জন্য ৮.৫ জিপিএ, ‘ডি’ ইউনিটের জন্য যোগ্যতা থাকতে হবে এবং এইচএসসি সমমান পরীক্ষায় বাংলা এবং ইংরেজিতে ন্যূনতম ‘এ-’ থাকতে হবে এবং ‘ই’ ইউনিটের জন্য এসএসসি সমমান ও এইচএসসি সমমান উভয় পরীক্ষায় মোট জিপিএ ৭.০ থাকতে হবে। তবে কোনো পরীক্ষায় প্রাপ্ত জিপিএ ৩.০ এর নিচে হলে কোনো ছাত্র-ছাত্রী আবেদন করতে পারবে না।
এছাড়া বাংলাদেশ উন্মুক্ত বিশ্ববিদ্যালয় (বাউবি), ইংলিশ মিডিয়াম অথবা বিদেশ থেকে এইচএসসি সমমানের পরীক্ষায় উত্তীর্ণ শিক্ষার্থীদের উল্লেখিত তারিখের মধ্যে অফিস চলাকালীন অগ্রণী ব্যাংক লি., জগন্নাথ বিশ্ববিদ্যালয় শাখায় ভর্তি পরীক্ষার ফি বাবদ এ বি সি ও ‘ডি’ ইউনিটের প্রতিটির জন্য সার্ভিস চার্জসহ ৫০৫ টাকা এবং ‘ই’ ইউনিটের জন্য ব্যবহারিক পরীক্ষার ফি ও সার্ভিস চার্জসহ ৬০৬ টাকা জমা দিয়ে সভাপতি, সংশ্লিষ্ট ইউনিটে আবেদন করতে হবে।
আবেদনের সঙ্গে দুই কপি পাসপোর্ট সাইজের রঙিন ছবি, এসএসসি সমমান ও এইচএসসি সমমান পরীক্ষার রেজিস্ট্রেশন কার্ড, ট্রান্সক্রিপ্ট/গ্রেডশীট, প্রশংসাপত্র এবং সনদপত্রের প্রত্যেকটির একটি করে অনুলিপি জমা দিয়ে সংশ্লিষ্ট ইউনিট সভাপতির কাছ থেকে ম্যানুয়ালি প্রবেশপত্র সংগ্রহ করতে হবে।
০৩ থেকে ১৩ সেপ্টেম্বর ‘সি’ ইউনিটের, ০৩ থেকে ১৪ সেপ্টেম্বর ‘ই’ ইউনিটের, ১৪ থেকে ২০ সেপ্টেম্বর ‘বি’ ইউনিটের, ১৪ থেকে ১১ অক্টোবর ‘এ’ ইউনিটের এবং ১৪ থেকে ১৮ অক্টোবর পর্যন্ত ‘ডি’ ইউনিটের শিক্ষার্থীরা প্রবেশপত্র সংগ্রহ করতে হবে।
পরীক্ষার সময় পরীক্ষার্থীকে প্রবেশপত্রের দুই কপি (বিশ্ববিদ্যালয়ের কপি এবং শিক্ষার্থীর কপি) প্রিন্ট সঙ্গে আনতে হবে। প্রবেশপত্র ব্যতীত ভর্তি পরীক্ষার হলে প্রবেশ করা যাবে না। তাছাড়া চূড়ান্তভাবে নির্বাচিত হলে প্রবেশপত্র ব্যতীত ভর্তি হওয়া যাবে না বিধায় প্রিন্ট করা প্রবেশপত্র সংরক্ষণ করতে হবে বলেও বিজ্ঞপ্তিতে জানানো হয়।
সকল ইউনিটের ভর্তি পরীক্ষার সময় বিকেল ৩টা থেকে ৪টা পর্যন্ত। ভর্তি সংশ্লিষ্ট বিস্তারিত তথ্য জগন্নাথ বিশ্ববিদ্যালয়ের ওয়েব সাইট (http://admission.jnu.ac.bd এবং http://admissionjnu.info) এ পাওয়া যাবে।
