রাজশাহী বিশ্ববিদ্যালয় (রাবি) ক্যাম্পাসে রক্ত ঢেলে (রাবি) গণযোগাযোগ ও সাংবাদিকতা বিভাগের শিক্ষার্থী মোতালেব হোসেন লিপু হত্যার বিচার দাবি করেছেন শিক্ষার্থীরা।
রাবি: রাজশাহী বিশ্ববিদ্যালয় (রাবি) ক্যাম্পাসে রক্ত ঢেলে (রাবি) গণযোগাযোগ ও সাংবাদিকতা বিভাগের শিক্ষার্থী মোতালেব হোসেন লিপু হত্যার বিচার দাবি করেছেন শিক্ষার্থীরা।
মঙ্গলবার (১৫ নভেম্বর) দুপুর ১২টার দিকে বিশ্ববিদ্যালয়ের প্রশাসন ভবনের সামনে তারা এ কর্মসূচি পালন করেন।
এসময় তারা হত্যা মামলার দ্রুত অগ্রগতি ও সুষ্ঠু বিচার দাবি করেন। বিচার না পাওয়া পর্যন্ত আন্দোলন চালিয়ে যাওয়ার ঘোষণা দেন তারা।
এর আগে বেলা সাড়ে ১১টার দিকে শিক্ষার্থীরা বিভাগের সামনে থেকে বিক্ষোভ মিছিল করেন। মিছিলটি ক্যাম্পাসের বিভিন্ন সড়ক প্রদক্ষিণ করে প্রশাসন ভবনের সামনে গিয়ে শেষ হয়।
