বাংলাদেশ বিশ্ববিদ্যালয় মঞ্জুরি কমিশনের উদ্যোগে সাউথ এশিয়ান ইউনিভার্সিটির (এসএইউ) নবম গভর্নিং বোর্ড মিটিং সোমবার (২৮ নভেম্বর) ঢাকায় অনুষ্ঠিত...
ঢাকা: বাংলাদেশ বিশ্ববিদ্যালয় মঞ্জুরি কমিশনের উদ্যোগে সাউথ এশিয়ান ইউনিভার্সিটির (এসএইউ) নবম গভর্নিং বোর্ড মিটিং সোমবার (২৮ নভেম্বর) ঢাকায় অনুষ্ঠিত হবে। এসএইউ গভর্নিং বোর্ড চেয়ারপারসন, নেপালের শিক্ষাবিদ প্রফেসর ড. প্রাসার প্রসাদ কৈরালা অনুষ্ঠানে সভাপতিত্ব করবেন।
বাংলাদেশ বিশ্ববিদ্যালয় মঞ্জুরি কমিশনের (ইউজিসি) চেয়ারম্যান প্রফেসর আবদুল মান্নান গভর্নিং বোর্ডের একজন সম্মানিত সদস্য হিসেবে অনুষ্ঠানে উপস্থিত থাকবেন।
সাউথ এশিয়ান ইউনিভার্সিটির প্রেসিডেন্ট ড. কবিতা এ শর্মা, আফগানিস্তানের ডেপুটি মিনিস্টার (উচ্চশিক্ষা মন্ত্রণালয়) প্রফেসর ড. বারাই সিদ্দিকী, ভারতের ইউজিসি চেয়ারম্যান প্রফেসর ভেদ প্রকাশ, মালদ্বীপের শিক্ষা প্রতিমন্ত্রী ড. আবদুল্লা নাজির উপস্থিত থাকবেন।
উল্লেখ্য যে, সাউথ এশিয়ান ইউনিভার্সিটি একটি আন্তর্জাতিক বিশ্ববিদ্যালয়। যা সার্কভুক্ত আট দেশের সরকার কর্তৃক প্রতিষ্ঠিত। সার্কভুক্ত দেশসমূহ হলো, আফগানিস্তান, বাংলাদেশ, ভুটান, ভারত, মালদ্বীপ, নেপাল, পাকিস্তান এবং শ্রীলঙ্কা। সাউথ এশিয়ান বিশ্ববিদ্যালয় ২০১০ সাল থেকে শিক্ষা কার্যক্রম শুরু করে আসছে যার ক্যাম্পাস ভারতের নয়াদিল্লিতে অবস্থিত।
