খুলনা: শিক্ষা সাফল্যের ধারাবাহিকতায় নির্দিষ্ট মেয়াদে শেষ হলো খুলনা বিশ্ববিদ্যালয়ের (খুবি) আরও একটি ব্যাচের শিক্ষাকোর্স। যারা ২০১৩ সালে ভর্তি হয়ে ঠিক চার বছরের নির্দিষ্ট সময়ের মধ্যেই তাদের কোর্স শেষ হয়েছে।
এ উপলক্ষ্যে বৃহস্পতিবার (২১ সেপ্টেম্বর) খুলনা বিশ্ববিদ্যালয়ে ১৩তম ব্যাচের শিক্ষার্থীদের তিন দিনব্যাপী শিক্ষা সমাপনী অনুষ্ঠান উৎসব মুখর পরিবেশে শুরু হয়েছে।
বিশ্ববিদ্যালয়ের উপাচার্য প্রফেসর ড. মোহাম্মদ ফায়েক উজ্জামান বেলা ১১টায় এ উৎসবের উদ্বোধন করেন।
উদ্বোধনের সময় উপাচার্য বলেন, এ দিনটি শিক্ষার্থীদের জন্য আনন্দের। উৎসবমূখর পরিবেশে শিক্ষাসমাপনী উদযাপনে নানা কর্মসূচির আয়োজন করা হয়েছে। তবে শিক্ষাসমাপনী উৎসব করতে গিয়ে এমন কিছু যেনো না ঘটে যাতে বিশ্ববিদ্যালয়ের ভাবমূর্তি নষ্ট না হয়।
তিনি আরো বলেন, শিক্ষার্থীরাই পারে বিশ্ববিদ্যালয়ের ভাবমূর্তি উজ্জ্বল করতে। আমরা চাই এ বিশ্ববিদ্যালয়ের শিক্ষার্থীদের কর্মকান্ড খুলনাবাসী তথা বাংলাদেশের মানুষ তাদের প্রসংশা করুক, বিশ্ববিদ্যালয়ের ভাবমূর্তি আরো উজ্জ্বল হোক। তাই তাদেরকে সামগ্রিক পরিবেশ, দেশের সবকিছু সর্ম্পকে অবহিত থাকতে হবে। তিনি শিক্ষাসমাপনীর মাধ্যমে তাদের জীবনের সাফল্য কামনা করেন। 
এ সময় ছাত্রবিষয়ক পরিচালক প্রফেসর ড. আশীষ কুমার দাস সহকারী ছাত্রবিষয়ক পরিচালকরা ও বিপুল সংখ্যক শিক্ষার্থী উপস্থিত ছিলেন।
শিক্ষা সমাপনকারী প্রায় হাজার  শিক্ষার্থীরা শোভাযাত্রাসহকারে ময়লাপোতা মোড় হয়ে শিববাড়ি মোড়, নতুন রাস্তার মোড়, বয়রা বাসস্ট্যান্ড, সোনাডাঙ্গা বাসস্ট্যান্ড, জয়বাংলা মোড় এবং জিরো পয়েন্ট হয়ে বিশ্ববিদ্যালয় ক্যাম্পাসে এসে পৌঁছান। শিক্ষার্থীরা ক্যাম্পাসে ফিরে তারা মেতে ওঠেন আনন্দ উৎসবে। প্রথম দিনের কর্মসূচির মধ্যে ছিলো খুলনা বিশ্ববিদ্যালয় মুক্তমঞ্চে সাংস্কৃতিক অনুষ্ঠান ।
এছাড়া দ্বিতীয় দিন ২২ সেপ্টেম্বর (শুক্রবার) সকাল সাড়ে ৯টায় খুলনা বিশ্ববিদ্যালয়ের আচার্য জগদীশ চন্দ্র বসু একাডেমিক ভবনের সাংবাদিক লিয়াকত আলী মিলনায়তনে অনুষ্ঠান ও স্লাইড শো এবং বিকেল ৪ থেকে রাত ৯টা পর্যন্ত খুলনা বিশ্ববিদ্যালয় মুক্তমঞ্চে সাংস্কৃতিক অনুষ্ঠান। তৃতীয় দিন ২৩ সেপ্টেম্বর শনিবার বিকেল সাড়ে ৪টায় মুক্তমঞ্চে কনসার্ট অনুষ্ঠিত হবে।
