জগন্নাথ বিশ্ববিদ্যালয়ের (জবি) ২০১৬-১৭ শিক্ষাবর্ষের ‘ই’ ইউনিটের ব্যবহারিক পরীক্ষা রোববার (০২ অক্টোবর) থেকে শুরু হচ্ছে।
জগন্নাথ বিশ্ববিদ্যালয়: জগন্নাথ বিশ্ববিদ্যালয়ের (জবি) ২০১৬-১৭ শিক্ষাবর্ষের ‘ই’ ইউনিটের ব্যবহারিক পরীক্ষা রোববার (০২ অক্টোবর) থেকে শুরু হচ্ছে।
শনিবার (০১ আক্টোবর) মধ্যরাতে বিশ্ববিদ্যালয়ের ওয়েবসাইটে এক বিজ্ঞপ্তিতে বিষয়টি জানানো হয়।
এতে বলা হয়, শুরুর প্রথম দিন ‘ই’ ইউনিটের চারুকলার ব্যবহারিক পরীক্ষা ভাষা শহীদ ভবনের ৪০১, ৪০২, ৪০৩ ও ৪০৪ নম্বর কক্ষে দুপুর আড়াইটা থেকে বিকেল সাড়ে ৪টা পর্যন্ত চলবে।
এছাড়া ৩ ও ৪ অক্টোবর সংগীত বিভাগের ব্যবহারিক পরীক্ষা একই ভবনের ৪০১ ও ৪০২ নম্বর কক্ষে সকাল ৯টা থেকে ৭টা পর্যন্ত হবে।
অন্যদিকে ৩ ও ৪ অক্টোবর নাট্যকলা বিভাগের ব্যবহারিক পরীক্ষা ভাষা শহীদ ভবনের ৪০৩ ও ৪০৪ নম্বর কক্ষে পরীক্ষা অনুষ্ঠিত হবে।
