কুষ্টিয়া: কুষ্টিয়ার স্বনামধন্য শিক্ষা প্রতিষ্ঠান আমলা সরকারি ডিগ্রি কলেজ। ১৯৭২ সালের ১ জুলাই মুক্তিযোদ্ধা কৃষক নেতা শহীদ মারফত আলী এলাকায় শিক্ষা বিস্তারের লক্ষ্যে ৬.৩ একর জমিতে প্রতিষ্ঠা করেন কলেজটি। পরবর্তীতে ১৯৮৭ সালের ৩ নভেম্বর জাতীয়করণ করা হয় কলেজটিকে। 
উচ্চ মাধ্যমিক সার্টিফিকেট (এইচএসসি) মানবিক, বিজ্ঞান ও ব্যবসা শাখার পাশাপাশি জাতীয় বিশ্ববিদ্যালয়ের অধীনে ডিগ্রি (পাস) কোর্স চালু রয়েছে কলেজটিতে। তবে নেই সম্মান ও উচ্চশিক্ষার কোনো সুযোগ। এতে হতাশ কলেজের শিক্ষক-শিক্ষার্থী ও সাধারণ অভিভাবকরা।
কুষ্টিয়া শহর থেকে ২৪ কিলোমিটার দূরে ইউনিয়ন পর্যায়ের সরকারি কলেজ এটি। দুই তলা বিশিষ্ট প্রশাসনিক ভবন, তিন তলা বিশিষ্ট বিজ্ঞানভবন, এক তলা বিশিষ্ট কলা ও তিন তলা বিশিষ্ট ডিগ্রিভবন ছাড়াও কলেজটিতে রয়েছে শিক্ষার্থীদের জন্য আবাসিক হোস্টেলের ব্যবস্থা। বর্তমানে কলেজটিতে ১২ শতাধিক শিক্ষার্থী লেখাপড়া করছেন।
ওই কলেজের ডিগ্রি প্রথম বর্ষে অধ্যয়নরত সুমন ইসলাম বাংলানিউজকে জানান, স্বপ্ন ছিলো ভালো কোনো বিষয়ে অনার্সে এ ভর্তি হবো। অর্থের অভাবে সেটা হয়নি। গ্রামের ছেলে তাই শহরে কিংবা বাইরে কোথায় গিয়ে পড়াশোনা করাও সম্ভব হয়ে উঠেনি। তাই বাড়ির কাছে আমলা সরকারি কলেজে ডিগ্রিতে ভর্তি হয়েছি। এখানে যদি অনার্স চালু করা হয় তাহলে আমাদের মতো গরীব ছাত্ররা অনার্স পড়তে পারবে। ভালো কিছু করতে পারবে।   আরেক শিক্ষার্থী শাহিন আলম বাংলানিউজকে জানান, এই কলেজে যদি অনার্স কোর্স চালু থাকতো তাহলে আমাদের অনেক উপকার হতো। যারা এই কলেজ থেকে ভালো রেজাল্ট করে, তারা অন্য কোথাও গিয়ে অনার্স পড়ে। কিন্তু যদি এই কলেজে অনার্স থাকতো তাহলে দূরে যাওয়া লাগতো না।
আমলা কলেজের প্রাক্তন শিক্ষক মোয়াজ্জেম হোসেন বাংলানিউজকে জানান, ১৯৭২ সালে শহীদ মারফত আলী যখন কলেজটি প্রতিষ্ঠা করেন তখন তার স্বপ্ন ছিলো এই অঞ্চলের মানুষের উচ্চ শিক্ষা নিতে যেন দূরে না যাওয়া লাগে। বাড়ি থেকে এসে আমলা কলেজ থেকে উচ্চ শিক্ষা নিয়ে দেশের জন্য কাজ করবে। কিন্তু তার স্বপ্ন আজও বাস্তবায়ন হয়নি। এই কলেজে অনার্স কোর্স চালু হলে এলাকায় উচ্চ শিক্ষার প্রসার ঘটবে।
