খুলনা: উৎসবমুখর পরিবেশে খুলনা বিভাগের ২৬৯৫ প্রতিষ্ঠানে মাধ্যমিক পর্যায়ে স্টুডেন্টস কেবিনেট নির্বাচনের ভোটগ্রহণ সম্পন্ন হয়েছে। এর মধ্যে খুলনা জেলার ৫০১টি প্রতিষ্ঠান রয়েছে।
শনিবার (২৭ জানুয়ারি) সকাল ৯টায় শুরু হয়ে ভোটগ্রহণ শেষ হয় দুপুর ২টায়।
ভোটগ্রহণ শেষে ভোট গণনা চলছে বলে জানান খুলনা মাধ্যমিক ও উচ্চ শিক্ষা অধিদপ্তরের পরিচালক প্রফেসর টিএম জাকির হোসেন।
তিনি বলেন, ফল পেতে ৩/৪ ঘণ্টা সময় লাগবে। ২৯ জানুয়ারি দাখিল মাদ্রাসাগুলোতে অনুরূপ নির্বাচন অনুষ্ঠিত হবে।
