প্রাথমিক শিক্ষা সমাপনী (পিইসি) পরীক্ষায় এ বছর সিরাজগঞ্জ জেলায় পাসের হার ৯৮.৬৮ শতাংশ। অপরদিকে ইবতেদায়ীতে পাসের হার ৯৭.২৬ শতাংশ।
সিরাজগঞ্জ: প্রাথমিক শিক্ষা সমাপনী (পিইসি) পরীক্ষায় এ বছর সিরাজগঞ্জ জেলায় পাসের হার ৯৮.৬৮ শতাংশ। অপরদিকে ইবতেদায়ীতে পাসের হার ৯৭.২৬ শতাংশ।
জেলা প্রাথমিক শিক্ষা অফিসার মো. শহীদুল ইসলাম বাংলানিউজকে এ তথ্য নিশ্চিত করে জানান, প্রাথমিকে এ বছর ৬১ হাজার ৮৪২ জন পরীক্ষার্থী অংশ নেয়। এর মধ্যে বালক ২৭ হাজার ৮২৫ ও বালিকা ৩০ হাজার ১৭ জন।
অপরদিকে ইবতেদায়ীতে বালক ২ হাজার ৬৭৮ জন ও বালিকা ২ হাজার ২৬১ জন অংশ নেয়।
প্রাথমিকে বালকদের পাসের হার ছিল ৯৮.৭১ শতাংশ ও বালিকাদের পাসের হার ৯৮.৬৪ শতাংশ।
তিনি আরও জানান, প্রাথমিকে জিপিএ-৫ পেয়েছে ৬ হাজার ৪৩৪ জন শিক্ষার্থী। এর মধ্যে বালক ৩ হাজার ২৫৯ ও বালিকা ৩ হাজার ১৭৫ জন। ইবতেদায়ীতে জিপিএ-৫ পেয়েছে মোট ৮৫ জন।
