ঢাকা বিশ্ববিদ্যালয়: প্রায় ১৮ হাজার শিক্ষার্থীর অংশগ্রহণের মাধ্যমে আনন্দ-উচ্ছ্বাসে ঢাকা বিশ্ববিদ্যালয়ের (ঢাবি) ৫০তম সমাবর্তন শুরু হয়েছে।
শনিবার (৪ মার্চ) বেলা ১১টা ২৫ মিনিটে বিশ্ববিদ্যালয়ের কার্জন হল প্রাঙ্গণ থেকে সমাবর্তনের শোভাযাত্রা শুরু হয়। এরপর সকাল সাড়ে ১১টায় কেন্দ্রীয় খেলার মাঠে শুরু হয় সমাবর্তনের মূল আনুষ্ঠানিকতা।
সমাবর্তন অনুষ্ঠানের উদ্বোধন ঘোষণা করেন বিশ্ববিদ্যালয়ের আচার্য ও রাষ্ট্রপতি মো. আবদুল হামিদ।
এ সময় উপস্থিত ছিলেন সমাবর্তন বক্তা বাংলাদেশি বংশোদ্ভ‍ূত কানাডার ওয়েস্টার্ন বিশ্ববিদ্যালয়ের প্রেসিডেন্ট এবং উপাচার্য অধ্যাপক অমিত চাকমা। সমাবর্তন বক্তাকে সম্মানসূচক ডক্টরেট অব সায়েন্স ডিগ্রি প্রদান করা হবে। বিশ্ববিদ্যালয়ের উপাচার্য অধ্যাপক ড. আ আ ম স আরেফিন সিদ্দিক, উপ-উপাচার্য (শিক্ষা) অধ্যাপক ড. নাসরিন আহমদ, উপ-উপাচার্য (প্রশাসন) অধ্যাপক ড. আখতারুজ্জামান, ভারপ্রাপ্ত রেজিস্ট্রার এনামউজ্জামান, বিভিন্ন অনুষদের ডিন উদ্বোধনী অনুষ্ঠানে উপস্থিত রয়েছেন।
এদিকে সমাবর্তন উপলক্ষে শিক্ষার্থীরা সকাল থেকে ব্যাপক উৎসাহ উদ্দীপনায় অনুষ্ঠানস্থলে আসতে থাকেন। সবাই বিশ্ববিদ্যালয়ের দেয়া কালো গাউন আর সমাবর্তন ক্যাপ পরে এসেছেন। জীবনের স্মরণীয় মুহ‍ূর্তকে ফ্রেমবন্দি করছেন তারা।
