জনস্বার্থ উপেক্ষা করে প্রাথমিক শিক্ষা সমাপনী (পিইসি) পরীক্ষা বহালের সিদ্ধান্তের বিরুদ্ধে মানববন্ধন করেছে সমাজতান্ত্রিক ছাত্র ফ্রন্ট গাইবান্ধা
গাইবান্ধা: জনস্বার্থ উপেক্ষা করে প্রাথমিক শিক্ষা সমাপনী (পিইসি) পরীক্ষা বহালের সিদ্ধান্তের বিরুদ্ধে মানববন্ধন করেছে সমাজতান্ত্রিক ছাত্র ফ্রন্ট গাইবান্ধা জেলা শাখা।
বৃহস্পতিবার (৩০ জুন) দুপুরে  শহরের ১নং রেলগেট থেকে মিছিলটি বের হয়ে শহরের প্রধান সড়ক প্রদক্ষিণ করে জেলা বাসদ কার্যালয়ে এসে শেষ হয়।
এ সময় উপস্থিত ছিলেন ছাত্র নেতা বজলুর রশিদ, ফাহমিদা রহমান শিল্পি, শাহিন আলম মাহবুবারা মিলন, শামীম আরা মিনা ও বিভিন্ন প্রতিষ্ঠানের শিক্ষার্থীরা। 
