ঢাকা বিশ্ববিদ্যালয়: শিক্ষা ও গবেষণার মান বৃদ্ধির স্বীকৃতিস্বরূপ এশিয়ার সেরা ৩৫০ বিশ্ববিদ্যালয়ের মধ্যে ঢাকা বিশ্ববিদ্যালয় (ঢাবি) স্থান পেয়েছে।
মঙ্গলবার (০৯ জানুয়ারি) বিশ্ববিদ্যালয়ের জনসংযোগ দফতর থেকে সংবাদ বিজ্ঞপ্তিতে এ তথ্য জানানো হয়।
লন্ডনভিত্তিক সংস্থা ‘টাইমস হায়ার এডুকেশন’ এশিয়ার সেরা এ বিশ্ববিদ্যালয় র‌্যাংকিং করেছে। ঢাকা বিশ্ববিদ্যালয় এ র‌্যাংকিংয়ে স্থান পাওয়ায় বিশ্ববিদ্যালয়ের উপাচার্য অধ্যাপক ড. মো. আখতারুজ্জামানকে অভিনন্দন জানিয়ে একটি ফ্যাক্স বার্তা পাঠিয়েছে সংস্থাটি।   বিজ্ঞপ্তিতে বলা হয়, ৫ থেকে ৭ ফেব্রুয়ারি চীনের শেনঝেন শহরে অনুষ্ঠিতব্য ‘টাইমস হায়ার এডুকেশন’-এর এশিয়া ইউনিভার্সিটিজ সামিটে আনুষ্ঠানিকভাবে এশিয়ার সেরা বিশ্ববিদ্যালয়ের র‌্যাংকিং ঘোষণা করা হবে। তিন দিনব্যাপী এ অনুষ্ঠানে এশিয়ার সেরা বিশ্ববিদ্যালয়গুলোর প্রেসিডেন্ট/উপাচার্য অংশগ্রহণ করবেন। এতে অংশগ্রহণের জন্য ঢাকা বিশ্ববিদ্যালয়ের উপাচার্য অধ্যাপক ড. মো. আখতারুজ্জামানকে আমন্ত্রণ জানানো হয়েছে।
