ঢাকা: দেশের বিভিন্ন অঞ্চলে বন্যা পরিস্থিতির কারণে শিক্ষার্থীদের কথা বিবেচনা করে জাতীয় বিশ্ববিদ্যালয়ের অধীনে অনুষ্ঠিত ২০১৫ সালের ডিগ্রি পাস ও ২০১৬ সালের অনার্স চতুর্থ বর্ষের ২৬ থেকে ২৯ আগস্টের পরীক্ষা স্থগিত করা হয়েছে।
বৃহস্পতিবার (২৪ আগস্ট) দুপুরে বিশ্ববিদ্যালয়ের পক্ষ থেকে পাঠানো এক প্রেস বিজ্ঞপ্তিতে এ তথ্য জানানো হয়।
বিজ্ঞপ্তিতে জানানো হয়, স্থগিত এসব পরীক্ষার পরিবর্তিত সময়সূচি শিগগিরিই জানানো হবে।
এরআগে বুধবার (২৩ আগস্ট) দুপুর দেড়টা থেকে ২০১৬ সালের অনার্স চতুর্থ বর্ষের পরীক্ষা শুরু হয়।
