দিনাজপুর: দিনাজপুর শিক্ষাবোর্ডের অধীনে এসএসসি পরীক্ষার ইংরেজি প্রথমপত্রের পরীক্ষায় আট পরীক্ষার্থীকে বহিষ্কার করা হয়েছে।
মঙ্গলবার (০৭ ফেব্রুয়ারি) সকালে অনুষ্ঠিত এ পরীক্ষায় অনুপস্থিত ছিলো ৩২৪ জন।
দিনাজপুর মাধ্যমিক ও উচ্চ মাধ্যমিক শিক্ষা বোর্ডের উপ-পরীক্ষা নিয়ন্ত্রক মো. মানিক হোসেন বাংলানিউজকে জানান, এসএসসি পরীক্ষার তৃতীয় দিনের ইংরেজি প্রথমপত্রের পরীক্ষায় ১ লাখ ৫৩ হাজার ৫২৫ জন পরীক্ষার্থীর মধ্যে ১ লাখ ৫৩ হাজার ২০১ জন পরীক্ষার্থী অংশ নেয়।
পরীক্ষায় অসদুপায় অবলম্বন করায় আট পরীক্ষার্থীকে বহিষ্কার করা হয়েছে। তাদের মধ্যে রংপুরে ১ জন, গাইবান্ধায় ২ জন ও দিনাজপুরে ৫ জন রয়েছে।
এছাড়া দিনাজপুর বোর্ডের অধীনে ৮ জেলার ৩২৪ অনুপস্থিত পরীক্ষার্থীদের মধ্যে- রংপুরে ৫২ জন, গাইবান্ধায় ৩৩, নীলফামারীতে ২৭, কুড়িগ্রামে ৪৪, লালমনিরহাটে ৪৫, দিনাজপুরে ৭৫, ঠাকুরগাঁয়ে ৩১ ও পঞ্চগড় জেলায় ১৭ জন। এছাড়া সুষ্ঠু ও শান্তিপূর্ণভাবে পরীক্ষা অনুষ্ঠিত হয়েছে বলেও জানান তিনি।
এ বছর দিনাজপুর শিক্ষাবোর্ডের অধীনে ৮ জেলার ২ হাজার ৬০৫টি বিদ্যালয় থেকে ২৫২টি কেন্দ্রে ১ লাখ ৬৩ হাজার ৩৮২ জন পরীক্ষার্থী অংশ নিয়েছে।
