কুবি: বাংলাদেশ কৃষি বিশ্ববিদ্যালয় সাংবাদিক সমিতির (বাকৃবিসাস) কার্যনির্বাহী পরিষদকে শুভেচ্ছা ও অভিনন্দন জানিয়েছে কুমিল্লা বিশ্ববিদ্যালয় সাংবাদিক সমিতি (কুবিসাস)।
মঙ্গলবার (১৬ জানুয়ারি) কুমিল্লা বিশ্ববিদ্যালয় সাংবাদিক সমিতির তথ্য ও পাঠাগার সম্পাদক তানভীর সাবিক স্বাক্ষরিত প্রেস বিজ্ঞপ্তিতে এ শুভেচ্ছা ও অভিনন্দন জানানো হয়।
বিজ্ঞপ্তিতে বলা হয় সাংবাদিক সমিতির সভাপতি মুহাম্মাদ শফিউল্লাহ ও সাধারণ সম্পাদক মো. মতিউর রহমান যৌথ বিবৃতিতে বাংলাদেশ কৃষি বিশ্ববিদ্যালয় সাংবাদিক সমিতির নব নির্বাচিত পরিষদকে শুভেচ্ছা ও অভিনন্দন জানিয়েছেন। সে সঙ্গে দুই সাংবাদিক সমিতির মধ্যকার পারস্পরিক সহযোগিতা বজায় থাকবে বলে আশাবাদ ব্যক্ত করা হয়।
