ঢাকা বিশ্ববিদ্যালয়: ঢাকা বিশ্ববিদ্যালয়ের ২০১৭ সালের সিনেট অধিবেশন শুরু হবে আগামী ১৭ জুন।
রোববার (০৪ জুন) বিশ্ববিদ্যালয়ের জনসংযোগ বিভাগ থেকে সংবাদ মাধ্যমে পাঠানো বিজ্ঞাপ্তিতে এ তথ্য জানানো হয়।
এতে বলা হয়, ঢাকা বিশ্ববিদ্যালয় সিনেটের ২০১৭ সালের বার্ষিক অধিবেশন আগামী শনিবার (১৭ জুন) বেলা ১১টায় বিশ্ববিদ্যালয়ের নবাব নওয়াব আলী চৌধুরী সিনেট ভবনে অনুষ্ঠিত হবে।
ঢাকা বিশ্ববিদ্যালয় আদেশ, ১৯৭৩ এর ২১ ধারায় অর্পিত ক্ষমতাবলে বিশ্ববিদ্যালয়ের উপাচার্য অধ্যাপক ড. আ আ ম স আরেফিন সিদ্দিক সিনেটের এ বার্ষিক সভা আহ্বান করেছেন।
