ঢাকা বিশ্ববিদ্যালয়ের (ঢাবি) ২০১৬-২০১৭ শিক্ষাবর্ষে ‘ক’ ইউনিটের অধীনে ১ম বর্ষ সম্মান শ্রেণিতে ভর্তি পরীক্ষা শুরু হয়েছে।
ঢাকা বিশ্ববিদ্যালয়: ঢাকা বিশ্ববিদ্যালয়ের (ঢাবি) ২০১৬-২০১৭ শিক্ষাবর্ষে ‘ক’ ইউনিটের অধীনে ১ম বর্ষ সম্মান শ্রেণিতে ভর্তি পরীক্ষা শুরু হয়েছে।
শুক্রবার (২১ অক্টোবর) সকাল ১০টা থেকে শুরু হয়ে বেলা সাড়ে ১১টা পর্যন্ত চলবে এ পরীক্ষা।
এ বছর ১৭৪৫টি আসনের জন্য ভর্তিচ্ছু আবেদনকারীর সংখ্যা ৯০, ৪২৭ জন। পরীক্ষা বিশ্ববিদ্যালয় ক্যাম্পাস ও ক্যাম্পাসের বাইরের মোট ৮৭টি কেন্দ্রে অনুষ্ঠিত হচ্ছে।
বিশ্ববিদ্যালয়ের হাজারীবাগ এলাকায় লেদার ইঞ্জিনিয়ারিং অ্যান্ড টেকনোলজি ইনস্টিটিউটসহ ক্যাম্পাসের বাইরের কেন্দ্রগুলো হলো গার্হস্থ্য অর্থনীতি কলেজ, বাংলাদেশ প্রকৌশল বিশ্ববিদ্যালয় স্কুল ও কলেজ, বেগম বদরুন্নেসা সরকারি মহিলা কলেজ, ড. শহীদুল্লাহ কলেজ, ইডেন মহিলা কলেজ, আজিমপুর গভর্নমেন্ট গার্লস স্কুল অ্যান্ড কলেজ, অগ্রণী স্কুল অ্যান্ড কলেজ, সরকারি টিচার্স ট্রেনিং কলেজ, গভর্নমেন্ট ল্যাবরেটরী হাই স্কুল, ঢাকা সিটি কলেজ, আইডিয়াল কলেজ, নিউ মডেল ডিগ্রি কলেজ, লালমাটিয়া মহিলা কলেজ, লালমাটিয়া উচ্চ বালিকা বিদ্যালয়, মোহাম্মদপুর কেন্দ্রীয় কলেজ, মোহাম্মদপুর মডেল স্কুল অ্যান্ড কলেজ, উইলস লিটল ফ্লাওয়ার স্কুল অ্যান্ড কলেজ, সিদ্ধেশ্বরী গার্লস কলেজ, নটরডেম কলেজ, মতিঝিল সরকারি বালক উচ্চ বিদ্যালয়, মতিঝিল সরকারি বালিকা উচ্চ বিদ্যালয়, আইডিয়েল স্কুল অ্যান্ড কলেজ, শেখ বোরহানুদ্দীন পোস্ট গ্রাজুয়েট কলেজ, লালবাগ মডেল স্কুল ও কলেজ, ঢাকা মহানগর মহিলা কলেজ, আহমেদ বাওয়ানী একাডেমি স্কুল অ্যান্ড কলেজ, সেগুন বাগিচা হাইস্কুল এবং ফজলুল হক মহিলা বিশ্ববিদ্যালয় কলেজ।
পরীক্ষাটি সুষ্ঠুভাবে সম্পাদনের লক্ষ্যে শিক্ষার্থীদের পরীক্ষার হলে মোবাইল ফোন বা টেলিযোগাযোগ করা যায় এরূপ কোনো ধরনের ইলেক্ট্রনিক ডিভাইস সম্পূর্ণ নিষিদ্ধ করেছে কর্তৃপক্ষ। এছাড়া পরীক্ষা চলাকালে মোবাইল কোর্ট দায়িত্ব পালন করছে।
বাংলাদেশ সময়: ১১৩৭ ঘণ্টা, অক্টোবর ২১, ২০১৬
