দিনাজপুর: দিনাজপুর শিক্ষা বোর্ডের এসএসসি পরীক্ষায় বুধবার (২২ ফেব্রুয়ারি) বিজ্ঞান ও উচ্চতর পরীক্ষায় ২ পরীক্ষার্থীকে বহিষ্কার করা হয়েছে। এছাড়া একইদিন ২২৯ জন পরীক্ষার্থী অনুপস্থিত ছিল।
দিনাজপুর শিক্ষা বোর্ডের উপ-পরীক্ষা নিয়ন্ত্রক মো. মানিক হোসেন জানান, এসএসসি পরীক্ষার বিজ্ঞান ও উচ্চতর গণিত পরীক্ষায় ১ লাখ ৮ হাজার ৫০৪ জন পরীক্ষার্থীর মধ্যে ১ লাখ ৮ হাজার ২৭৫ জন পরীক্ষার্থী অংশগ্রহণ করে। এ পরীক্ষায় রংপুরে ২ পরীক্ষার্থীকে বহিষ্কার করা হয়েছে। ওই পরীক্ষায় ২২৯ পরীক্ষার্থী অনুপস্থিত ছিল।
দিনাজপুর বোর্ডের অধীন ৮ জেলার অনুপস্থিত পরীক্ষার্থীদের মধ্যে রয়েছে রংপুরে ৩৩ জন, গাইবান্ধায় ২৪, নীলফামারীতে ১৬, কুড়িগ্রামে ২৮, লালমনিরহাটে ৪২, দিনাজপুরে ৫৫, ঠাকুরগাঁয়ে ১৪ ও পঞ্চগড় জেলায় ১৭ জন। এছাড়া সুষ্ঠু ও শান্তিপূর্ণভাবে পরীক্ষা অনুষ্ঠিত হয়েছে বলে জানান তিনি।
শিক্ষাবোর্ডের অধীনে ৮টি জেলার ২ হাজার ৬০৫টি বিদ্যালয় থেকে ২৫২টি কেন্দ্রে ১ লাখ ৬৩ হাজার ৩৮২ জন পরীক্ষার্থী অংশগ্রহণ করেছে। এর মধ্যে ছাত্র ৮৪ হাজার ৩৬ জন ও ৭৯ হাজার ৩৪৬ জন ছাত্রী। এসব পরীক্ষার্থীর মধ্যে নিয়মিত ১ লাখ ৪৮ হাজার ৭৩২, অনিয়মিত পরীক্ষার্থী ১৪ হাজার ২৫৮ জন ও জিপিএ উন্নয়ন পরীক্ষার্থী ৩৯২ জন।
