অবহেলার অন্য নাম যেন জগন্নাথ বিশ্ববিদ্যালয়! কলেজ থেকে বিশ্ববিদ্যালয় হওয়ার পর থেকেই অবহেলার শিকার এখানকার বিশ হাজার শিক্ষার্থী সঙ্গে শিক্ষকরাও।  
জবি: অবহেলার অন্য নাম যেন জগন্নাথ বিশ্ববিদ্যালয়! কলেজ থেকে বিশ্ববিদ্যালয় হওয়ার পর থেকেই অবহেলার শিকার এখানকার বিশ হাজার শিক্ষার্থী সঙ্গে শিক্ষকরাও।  যেখানে বিশ্ববিদ্যালয় হবে গবেষণার সূতিকাগার, সেখানে জগন্নাথ বিশ্ববিদ্যালয় ধুঁকছে নানা রকম প্রতিবন্ধকতার বেড়াজালে। এখানে প্রয়োজনীয় যন্ত্রপাতি ও রাসায়নিক দ্রব্যের অভাব রয়েছে।  
দেড় শতাধিক বছরের এ প্রতিষ্ঠানে বেশ কয়েকটি বিভাগে ইতোমধ্যে এমফিল, পিএইচডির কার্যক্রম চালু হয়েছে কিন্তু গবেষণার ক্ষেত্র সৃষ্টি হয়নি।   যেসব গবেষণার ব্যবস্থা এখানে নেই সেগুলোর জন্য শিক্ষার্থীদের যেতে হয় ঢাকা বিশ্ববিদ্যালয়, বেটমিক এনার্জি সেন্টার, বুয়েট ও অন্যান্য রিসার্চ সেন্টারে।   জানা যায়, ইউজিসি থেকে প্রণীত বাজেটে গবেষণা নিয়ে বাজেট হয় খুবই অল্প, ২০১৫-১৬ অর্থবছরে এ খাতে অর্থ বরাদ্দের প্রস্তাব দেওয়া হয় ৬ লাখ টাকা, কিন্তু গবেষণা খাতে পাওয়া গেছে ৪ লাখ টাকা। যা দিয়ে গবেষণার উন্নয়ন সম্ভব নয়।     নাম প্রকাশে অনিচ্ছুক পদার্থ বিজ্ঞানের এক শিক্ষক জানান, আমাদের এখানে গবেষণার জন্য ভাল কোন যন্ত্রপাতি নেই।ভাল একটি যন্ত্রের দাম ৩ লাখ থেকে ১০ লাখ বা তার চেয়েও বেশি। আর আমাদের বাজেটই অনুমোদন হয় এক মেশিনের অর্ধেক তাহলে কিভাবে এর উন্নয়ন হবে?     বিজ্ঞান অনুষদের বিভিন্ন বিভাগ ঘুরে দেখা যায়, নামমাত্র সুবিধা রয়েছে এখানকার ল্যাব গুলোতে, যা দিয়ে শুধু শিক্ষার্থীদের প্রাথমিক ধারণা দেওয়া ছাড়া গবেষণা অসম্ভব! পদার্থবিজ্ঞান বিভাগে মোট ল্যাব রয়েছে ৫টি কিন্তু সবগুলোরই বেহাল দশা, নেই গবেষণার জন্য কোন দামি যন্ত্রপাতি, যেগুলো আছে সেগুলোও বেশিরভাগ নষ্ট।   রসায়ন বিভাগে কিছুদিন আগে নতুন একটি ল্যাব স্থাপন করা হলেও এটি এখনও কোমর তুলে দাঁড়াতে পারেনি। এখানেও অভাব রয়েছে প্রয়োজনীয় যন্ত্রপাতির। নেই দেখাশোনার জন্য অভিজ্ঞ লোক। ৩য়, ৪র্থ বর্ষ ও মাস্টার্সের ‘ফিজিক্যাল ইনগারনিক’ ও ব্যবহারিকের জন্য ‘স্পেক্টোফমিটার’ মেশিন নেই। যা কেনার প্রয়োজন থাকলেও প্রয়োজনীয় বাজেট বা অর্থ নেই।
প্রতি বছর বিভাগের নিজস্ব ফান্ড থেকে কিছু কমদামি যন্ত্রপাতি কেনা হয় এবং নষ্ট যন্ত্র মেরামত করা হয়। প্রাণীবিদ্যা বিভাগের অবস্থা যেন সবগুলোকে ছাড়িয়ে গেছে। যে রুম দু’টিতে ল্যাব স্থাপন করা হয়েছে সেখানকার দেয়াল খোলস ছেড়ে বের হয়ে গেছে, ছাদ থেকে খসে খসে পড়ছে আস্তরণ, রুমের ফ্যানগুলো যেন আদিকালের সাক্ষ্য বহন করে চলেছে। ল্যাবের জানালাগুলোও ভাঙা যা দেখে একজন হেসে বললেন, প্রাণীবিদ্যার ল্যাব তো তাই পাখি আসার ব্যবস্থা করা হয়েছে যাতে সরাসরি গবেষণা করতে পারেন!
