উচ্চ শিক্ষা ও গবেষণা ক্ষেত্রে সহযোগিতার জন্য বাংলাদেশ ইউনিভার্সিটি অব প্রফেশনালাসের (বিইউপি) সঙ্গে আরএ হসপিটাল, এডুকেশন অ্যান্ড ট্রেনিং...
ঢাকা: উচ্চ শিক্ষা ও গবেষণা ক্ষেত্রে সহযোগিতার জন্য বাংলাদেশ ইউনিভার্সিটি অব প্রফেশনালাসের (বিইউপি) সঙ্গে আরএ হসপিটাল, এডুকেশন অ্যান্ড ট্রেনিং ইনস্টিটিউট ঢাকার সমঝোতা স্মারক স্বাক্ষর হয়েছে।
মঙ্গলবার (১৭ মে) মিরপুর সেনানিবাসের বিইউপিতে সমঝোতা স্মারক স্বাক্ষর হয়।
বিইউপির পক্ষে ভাইস-চ্যান্সেলর মেজর জেনারেল শেখ মামুন খালেদ, এবং আরএএইচইটিআইডি’র পক্ষে এর প্রেসিডেন্ট অ্যান্ড সিইও অধ্যাপক রকিবুল আনোয়ার চুক্তিতে স্বাক্ষর করেন।
এসময় বিইউপির প্রো-ভাইস চ্যান্সেলর প্রফেসর ড. নাজমুল আহসান কলিমউল্লাহসহ, উভয় বিশ্ববিদ্যালয়ের ঊর্ধ্বতন কর্মকর্তারা উপস্থিত ছিলেন।
