ঢাকা বিশ্ববিদ্যালয় (ঢাবি): ঢাকা বিশ্ববিদ্যালয়ের (ঢাবি) ২০১৭-১৮ শিক্ষাবর্ষে ‘ঘ’ ইউনিটের অধীনে ১ম বর্ষ সম্মান শ্রেণিতে ভর্তির পরীক্ষা শুক্রবার (২০ অক্টোবর) অনুষ্ঠিত হবে। 
ওইদিন সকাল ১০টা থেকে ১১টা পর্যন্ত বিশ্ববিদ্যালয় ক্যাম্পাসের ৫৩টি ছাড়াও ঢাকা শহরের ৩৩টি স্কুল-কলেজসহ মোট ৮৬টি কেন্দ্রে এক যোগে এ পরীক্ষা হবে। 
বৃহস্পতিবার (১৯ অক্টোবর) দুপুরে বিশ্ববিদ্যালয়ের জনসংযোগ দফতর থেকে পাঠানো এক প্রেসবিজ্ঞপ্তিতে এ তথ্য জানানো হয়। 
বিশ্ববিদ্যালয় সূত্র জানায়, এ বছর ১ হাজার ৬১০টি (বিজ্ঞানে- ১১৪৭টি, বিজনেস স্টাডিজে- ৪১০, মানবিকে- ৫৩টি) আসনের জন্য ভর্তিচ্ছু আবেদনকারীর সংখ্যা ৯৮ হাজার ৫৪জন। হাজারীবাগে বিশ্ববিদ্যালয়ের লেদার ইঞ্জিনিয়ারিং অ্যান্ড টেকনোলজি ইনস্টিটিউটসহ ক্যাম্পাসের বাইরের কেন্দ্রগুলো হচ্ছে-বাংলাদেশ প্রকৌশল বিশ্ববিদ্যালয় স্কুল ও কলেজ, শেখ বোরহানুদ্দীন পোস্ট গ্র্যাজুয়েট কলেজ, আনোয়ারা বেগম মুসলিম গার্লস স্কুল অ্যান্ড কলেজ, বেগম বদরুন্নেসা সরকারি মহিলা কলেজ, ড. শহীদুল্লাহ কলেজ, লালবাগ মডেল স্কুল ও কলেজ, আজিমপুর গার্লস স্কুল অ্যান্ড কলেজ, নতুন পল্টন লাইন স্কুল অ্যান্ড কলেজ, অগ্রণী স্কুল অ্যান্ড কলেজ, ইডেন মহিলা কলেজ, গার্হস্থ্য অর্থনীতি কলেজ, নীলক্ষেত হাই স্কুল, সরকারি টিচার্স ট্রেনিং কলেজ, গভর্নমেন্ট ল্যাবরেটরি হাই স্কুল, আইডিয়াল কলেজ, নিউ মডেল ডিগ্রি কলেজ, ধানমন্ডি গভর্নমেন্ট বয়েজ হাই স্কুল, মোহাম্মদপুর কেন্দ্রীয় কলেজ, মোহাম্মদপুর মডেল স্কুল অ্যান্ড কলেজ, লালমাটিয়া মহিলা কলেজ, লালমাটিয়া উচ্চ বালিকা বিদ্যালয়, শেরে বাংলানগর গভর্নমেন্ট বয়েজ হাই স্কুল, শেরে বাংলানগর গভর্নমেন্ট গার্লস হাই স্কুল, মতিঝিল সরকারি বালক উচ্চ বিদ্যালয়, মতিঝিল সরকারি বালিকা উচ্চ বিদ্যালয়, মতিঝিল আইডিয়েল স্কুল অ্যান্ড কলেজ, সিদ্ধেশ্বরী কলেজ, সিদ্ধেশ্বরী গার্লস কলেজ, হাবিবুল্লাহ বাহার কলেজ, উইলস লিটল ফ্লাওয়ার স্কুল অ্যান্ড কলেজ, টিকাটুলি কামরুন্নেসা গভর্নমেন্ট গার্লস হাই স্কুল, সেন্ট্রাল উইমেন্স কলেজ এবং দনিয়া কলেজ। পরীক্ষাটি সুষ্ঠুভাবে সম্পন্ন করতে হলে মোবাইল ফোন বা টেলিযোগাযোগ করা যায় এরূপ কোনো ইলেক্ট্রনিক ডিভাইস/যন্ত্র সম্পূর্ণ নিষিদ্ধ করেছে কর্তৃপক্ষ। পরীক্ষা চলাকালে ভ্রাম্যমাণ আদালত দায়িত্ব পালন করবে।    ভর্তি পরীক্ষার আসনবিন্যাস বিশ্ববিদ্যালয়ের ওয়েবসাইট admission.eis.du.ac.bd থেকে জানা যাবে।
