ঢাকা: নব স্থাপিত বরিশাল ইঞ্জিনিয়ারিং কলেজে ২০১৭-১৮ শিক্ষাবর্ষে বিএসসি ইঞ্জিনিয়ারিং কোর্স চালু ও শিক্ষার্থী ভর্তি করার অনুমতি দিয়েছে ঢাকা বিশ্ববিদ্যালয় কর্তৃপক্ষ।
বৃহস্পতিবার (১৬ নভেম্বর) শিক্ষা মন্ত্রণালয়ের কারিগরি ও মাদরাসা শিক্ষা বিভাগের উপসচিব সুবোধ চন্দ্র ঢালী বাংলানিউজকে বিষয়টি নিশ্চিত করেন।
তিনি জানান, বিএসসি ইন সিভিল ইঞ্জিনিয়ারিং এবং বিএসসি ইন ইলেক্ট্রিক্যাল অ্যান্ড ইলেক্ট্রনিক্স ইঞ্জিনিয়ারিং কোর্সে ৬০ জন করে শিক্ষার্থী ভর্তি করা হবে। 
এইচএসসি উত্তীর্ণ শিক্ষার্থীরা ভর্তি হতে পারবে বলেও জানান তিনি।
