ঢাকা: শিক্ষা প্রতিষ্ঠানের নাম থেকে ‘ক্যাডেট’ ও ‘ইন্টারন্যাশনাল’ শব্দ দু’টি বাদ দিতে ক্যাডেট মাদ্রাসাগুলোকে নির্দেশ দিয়েছে শিক্ষা মন্ত্রণালয়ের কারিগরি ও মাদ্রাসা শিক্ষা বিভাগ। এছাড়া অননুমোদিতভাবে প্রতিষ্ঠিত মাদ্রাসাগুলোকে তিন মাসের মধ্যে অনুমতি নিতে সময় বেঁধে দিয়েছে শিক্ষা মন্ত্রণালয়।
জাতীয় দিবসগুলো বাধ্যতামূলকভাবে পালন এবং জাতীয় পতাকা উত্তোলন ও জাতীয় সংগীত আবশ্যিকভাবে গাওয়ারও নির্দেশনা দেওয়া হয়েছে।   প্রধানমন্ত্রীর কার্যালয়ের চিঠির প্রেক্ষিতে রোববার (১৬ জুলাই) এ সংক্রান্ত আদেশ জারি করে সিদ্ধান্তগুলো দ্রুত বাস্তবায়নের নির্দেশনা দেওয়া হয়েছে।   নির্দেশনায় বলা হয়েছে, আগামী তিন মাসের মধ্যে অনুমোদন ছাড়া প্রতিষ্ঠিত ক্যাডেট মাদ্রাসাগুলোকে শিক্ষা কার্যক্রম পরিচালনার জন্য সরকারি অনুমতি নিতে হবে। প্রতিষ্ঠানের নামকরণ থেকে ক্যাডেট ও ইন্টারন্যাশনাল শব্দ বাদ দিতে হবে।   এতে জাতীয় শিক্ষাক্রম ও পাঠ্যপুস্তক বোর্ড (এনসিটিবি) এবং মাদ্রাসা শিক্ষা বোর্ড কর্তৃক নির্ধারিত বই পড়া ও পাঠদান নিশ্চিত করতে হবে।   মাদ্রাসা শিক্ষা অধিদপ্তর, মাদ্রাসা শিক্ষা বোর্ড, জেলা প্রশাসক, জেলা শিক্ষা কর্মকর্তা, উপজেলা নির্বাহী কর্মকর্তা ও উপজেলা শিক্ষা কর্মকর্তা এসব প্রতিষ্ঠান নিয়মিত নজরদারি করবেন বলেও নির্দেশনায় উল্লেখ করা হয়েছে।   এতে আরও বলা হয়েছে, মাদ্রাসা ব্যবস্থাপনা কমিটিতে একজন জেলা বা উপজেলা শিক্ষা কর্মকর্তার প্রতিনিধি থাকবেন। জাতীয় পতাকা উত্তোলন ও জাতীয় সংগীত আবশ্যিকভাবে পরিচালনা করতে হবে। জাতীয় দিবসগুলো বাধ্যতামূলকভাবে পালন করতে হবে।   মন্ত্রণালয়ের নির্দেশনায় বলা হয়েছে, মাদ্রাসা শিক্ষা অধিদফতর কর্তৃক সংশ্লিষ্ট প্রতিষ্ঠান নিয়মিত পরিদর্শন ও মনিটরিং করতে হবে।
মাদ্রাসা শিক্ষা বোর্ড থেকে নিবন্ধন নেওয়ার নির্দেশনার পাশাপাশি ছাত্রছাত্রীদের বেতন-ভাতা ও টিউশন ফি মাধ্যমিক শিক্ষা প্রতিষ্ঠানের ন্যায় নির্ধারণপূর্বক পরিশোধ নিশ্চিতের নির্দেশনাও দেওয়া হয়েছে এতে।
