২০১৬-১৭ শিক্ষাবর্ষে ঢাকা বিশ্ববিদ্যালয়ের ব্যবসায় অনুষদে চালু হচ্ছে ‘অর্গানাইজেশন স্ট্রাটেজি অ্যান্ড লিডারশিপ’ (ওএসএল) নামে নতুন বিভাগ।
ঢাকা বিশ্ববিদ্যালয় : ২০১৬-১৭ শিক্ষাবর্ষে ঢাকা বিশ্ববিদ্যালয়ের ব্যবসায় অনুষদে চালু হচ্ছে ‘অর্গানাইজেশন স্ট্রাটেজি অ্যান্ড লিডারশিপ’ (ওএসএল) নামে নতুন বিভাগ।
 
প্রথম বছরে এই বিভাগ ৫০ জন শিক্ষার্থী ভর্তি করবে। এর মধ্যে বিজ্ঞান বিভাগ থেকে ১৫ জন, ব্যবসায় বিভাগ থেকে ৩০ জন এবং সামাজিক বিজ্ঞান বিভাগ থেকে ৫ জন শিক্ষার্থী  ভর্তি হবে ওই বিভাগে। বৃহস্পতিবার ( ৬ অক্টোবর) ব্যবসায় অনুষদের প্রফেসর আব্দুল্লাহ ফারুক কনফারেন্স হলে সাংবাদিকদের সঙ্গে এক মত বিনিময় সভায় এসব তথ্য জানান। গত ৩০ জুন বিশ্ববিদ্যালয় সিন্ডিকেট এই বিভাগের অনুমোদন দেয়। এ সময়  উপস্থিত ছিলেন ব্যবসায় প্রশাসন অনুষদের ডিন শিবলী রুবাইয়াতুল ইসলাম, অর্গানাইজেশন স্ট্রাটেজি অ্যান্ড লিডারশিপ বিভাগের প্রতিষ্ঠাতা সভাপতি অধ্যাপক ড. আব্দুল মঈন, বিভাগের প্রতিষ্ঠাতা সদস্য অধ্যাপক ড. আলতাফ জলিল এবং সহকারী অধ্যাপক মোঃ রাশেদুর রহমান।   শিবলী রুবাইয়াতুল ইসলাম বলেন, কর্মপরিকল্পনা ও নেতৃত্বের গুণাবলী বর্তমান সময়ের ক্রমশই জটিল হয়ে ওঠা বৈশ্বিক বাণিজ্য খাতে গুরুত্বপূর্ণ দুটি উপাদান। ওএসএল বিভাগ এই দুই খাতে ভবিষ্যতের কর্মপরিকল্পনা নির্ধারক, ব্যবসায়ী এবং উদ্যোক্তাদের দক্ষতা শানিয়ে নিতে সহায়ক হবে এবং তাদের ব্যক্তিগত ও প্রাতিষ্ঠানিক লক্ষ্য নির্ধারণে পথনির্দেশ করবে।
