ঢাকা বিশ্ববিদ্যালয় এবং কোরিয়ার কিময়াং বিশ্ববিদ্যালয়ের মধ্যে শিক্ষা ও গবেষণা সংক্রান্ত একটি যৌথ সমঝোতা স্মারক স্বাক্ষরিত হয়েছে।
ঢাবি: ঢাকা বিশ্ববিদ্যালয় এবং কোরিয়ার কিময়াং বিশ্ববিদ্যালয়ের মধ্যে শিক্ষা ও গবেষণা সংক্রান্ত একটি যৌথ সমঝোতা স্মারক স্বাক্ষরিত হয়েছে।
ঢাকা বিশ্ববিদ্যালয়ের উপাচার্য অধ্যাপক ড. আ আ ম স আরেফিন সিদ্দিক এবং কোরিয়ার কিময়াং বিশ্ববিদ্যালয়ের প্রেসিডেন্ট অধ্যাপক সিন ইলহি নিজ নিজ প্রতিষ্ঠানের পক্ষে এ চুক্তিতে স্বাক্ষর করেন। সোমবার সন্ধ্যায় বিশ্ববিদ্যালয়ের জনসংযোগ দফতর থেকে পাঠানো এক সংবাদ বিজ্ঞপ্তিতে এ তথ্য জানানো হয়। বিজ্ঞপ্তিতে বলা হয়, ৪ জানুয়ারি শুক্রবার কোরিয়ার কিময়াং বিশ্ববিদ্যালয়ে আয়োজিত এক অনুষ্ঠানে এ চুক্তিপত্র স্বাক্ষর ও হস্তান্তর করা হয়।
