ঢাকা বিশ্ববিদ্যালয়: ঢাকা বিশ্ববিদ্যালয় শিক্ষক সমিতির ২০১৮ সালের কার্যনির্বাহী পরিষদ নির্বাচনের ভোট গ্রহণ শেষ হয়েছে।
সোমবার (১১ ডিসেম্বর) সকাল ১০ টা থেকে দুপুর ২ টা পর্যন্ত বিশ্ববিদ্যালয় ক্লাব ভবনে এই ভোট গ্রহণ অনুষ্ঠিত হয়।
প্রধান নির্বাচন কমিশনার রসায়ন বিভাগের অধ্যাপক তোফায়েল আহমেদ চৌধুরী বাংলানিউজকে বলেন, নির্বাচনের ভোট গ্রহণ শেষ হয়েছে। বিকাল তিনটার পর ভোট  গণনা শুরু হবে। বিকেল সাড়ে ৪ বা  ৫ টার দিকে নির্বাচনের ফল প্রকাশ করবো।
নির্বাচনে অংশগ্রহণ করেছে আওয়ামী লীগ সমর্থিত শিক্ষকদের প্যানেল নীল দল ও বিএনপি-জামায়াত সমর্থিত শিক্ষকদের প্যানেল সাদা দল। এবার নির্বাচনে ভোটার ২ হাজার ১০ জন।
নীল দলের পক্ষে সভাপতি পদে আর্থ এন্ড এনভায়রনমেন্টাল সায়েন্স অনুষদের ডিন অধ্যাপক ড. এ এস এম মাকসুদ কামাল; সহসভাপতি পদে উদ্ভিদবিজ্ঞান বিভাগের অধ্যাপক ও জীববিজ্ঞান অনুষদের ডিন মো. ইমদাদুল হক; সাধারণ সম্পাদক পদে অধ্যাপক শিবলী রুবাইয়াতুল ইসলাম; যুগ্ম সম্পাদক পদে  ইংরেজি বিভাগের অধ্যাপক তাজিন আজিজ চৌধুরী; কোষাধ্যক্ষ পদে অ্যাকাউন্টিং অ্যান্ড ইনফরমেশন সিস্টেমস বিভাগের অধ্যাপক মমতাজ উদ্দিন  আহমেদ এবং সদস্য পদে যথাক্রমে গণিত বিভাগের অধ্যাপক  চন্দ্রনাথ পোদ্দার, সমাজবিজ্ঞান বিভাগের জিনাত হুদা, সমাজকল্যাণ ও গবেষণা ইনস্টিটিউটের অধ্যাপক মুহাম্মাদ সামাদ, লেদার অ্যান্ড টেকনোলজি অ্যান্ড ইঞ্জিনিয়ারিং ইনস্টিটিউটের পরিচালক অধ্যাপক মো. আফতাব আলী শেখ, ক্রিমিনোলজি বিভাগের অধ্যাপক মো. জিয়াউর রহমান, খাদ্য ও পুষ্টিবিজ্ঞান ইনস্টিটিউটের অধ্যাপক নিজামুল হক ভূঁইয়া, সামাজিক বিজ্ঞান অনুষদের ডিন অধ্যাপক সাদেকা হালিম, অণুজীব বিজ্ঞান বিভাগের অধ্যাপক সাবিতা রিজওয়ানা রহমান, ফলিত রসায়ন ও কেমিকৌশল বিভাগের সৈয়দ মোহাম্মদ শামছুদ্দিন ও বাংলা বিভাগের অধ্যাপক সৌমিত্র শেখর দে প্রতিদ্বন্দ্বিতা করছেন।
অপর দিকে সাদা দলের প্রার্থী হিসেবে সভাপতি পদে পদার্থ বিজ্ঞান বিভাগের অধ্যাপক এ বি এম ওবায়দুল ইসলাম; সহসভাপতি পদে ইসলামের ইতিহাস ও সংস্কৃতি বিভাগের অধ্যাপক মোহাম্মদ ছিদ্দিকুর রহমান খান; সাধারণ সম্পাদক পদে অধ্যাপক মো. লুৎফর রহমান; যুগ্ম সম্পাদক পদে ফার্মাসিউটিক্যাল কেমিস্ট্রি বিভাগের অধ্যাপক মো. আসলাম হোসেন; কোষাধ্যক্ষ পদে মার্কেটিং বিভাগের অধ্যাপক  এ বি এম শহিদুল ইসলাম এবং সদস্য পদে যথাক্রমে প্রাণরসায়ন ও অণুপ্রাণ বিজ্ঞান বিভাগের অধ্যাপক ইয়ারুল কবীর, সমাজবিজ্ঞান বিভাগের অধ্যাপক এ এস এম আমানুল্লাহ, সমাজকল্যাণ ও গবেষণা ইনস্টিটিউটের অধ্যাপক গোলাম রব্বানী, পালি ও বুড্ডিস্ট স্টাডিজ বিভাগের অধ্যাপক দিলীপ কুমার বড়ুয়া, উদ্ভিদবিজ্ঞান বিভাগের মোহাম্মাদ জসীম উদ্দিন, জিন প্রকৌশল ও জীবপ্রযুক্তি বিভাগের চেয়ারম্যান অধ্যাপক মোহাম্মাদ নাজমুল আহসান, গ্রাফিক ডিজাইন বিভাগের মো. ইসরাফিল প্রামাণিক, ফলিত রসায়ন ও কেমিকৌশল বিভাগের চেয়ারম্যান মো. নুরুল আমিন, ব্যবসায় প্রশাসন ইনস্টিটিউটের সহযোগী অধ্যাপক মো. মহিউদ্দিন, ইঞ্জিনিয়ারিং অ্যান্ড টেকনোলজি অনুষদের ডিন ও কম্পিউটার বিজ্ঞান ও প্রকৌশলী বিভাগের অধ্যাপক মো. হাসানুজ্জামান প্রতিদ্বন্দ্বিতা করছেন।
