অবশেষে নতুন বেতন স্কেলে আসন্ন পবিত্র ঈদ-উল ফিতর উপলক্ষে ঈদ বোনাস পাচ্ছেন এমপিওভুক্ত শিক্ষক-কর্মচারীরা।
 
ঢাকা: অবশেষে নতুন বেতন স্কেলে আসন্ন পবিত্র ঈদ-উল ফিতর উপলক্ষে ঈদ বোনাস পাচ্ছেন এমপিওভুক্ত শিক্ষক-কর্মচারীরা।
