ঢাকা বিশ্ববিদ্যালয়: ঢাকা বিশ্ববিদ্যালয়ের ‘ঘ’ ইউনিটের প্রশ্ন ফাঁস নিয়ে বিভিন্ন গণমাধ্যমে প্রকাশিত সংবাদের প্রতিবাদ জানিয়েছেন সামাজিক বিজ্ঞান অনুষদের ভারপ্রাপ্ত ডিন অধ্যাপক ড. সাদেকা হালিম।
শনিবার (২১ অক্টোবর) বিকেলে গণমাধ্যমে পাঠানো এক বিজ্ঞপ্তিতে তিনি এ প্রতিবাদ জানান।
তিনি বলেন, বিভিন্ন গণমাধ্যমে ঢাকা বিশ্ববিদ্যালয়ে ‘ঘ’ ইউনিট-এর ভর্তি পরীক্ষার ‘প্রশ্নপত্র ফাঁস’ শিরোনামে প্রকাশিত সংবাদের প্রতি আমাদের দৃষ্টি আকৃষ্ট হয়েছে। সংবাদে দাবি করা হয়েছে যে, পরীক্ষা অনুষ্ঠানের আগের রাতেই প্রশ্নপত্র বা এর একাংশ ফাঁস হয়েছে। এই দাবি অসত্য ও বাস্তবসম্মত নয়।
