বেরোবি (রংপুর): বেগম রোকেয়া বিশ্ববিদ্যালয়ের (বেরোবি) ২০১৭-১৮ সেশনের স্নাতক (সম্মান) ১ম বর্ষের ভর্তি পরীক্ষার ফলাফল আগামী বৃহস্পতিবার (৭ ডিসেম্বর) ফলাফল প্রকাশ করা হবে।
শনিবার (২ ডিসেম্বর) বিকেলে বিশ্ববিদ্যালয়ের জনসংযোগ দফতর থেকে পাঠানো এক প্রেস বিজ্ঞপ্তিতে এ তথ্য জানানো হয়।
এতে বলা হয়, আগামী বৃহস্পতিবার (৭ ডিসেম্বর) ২০১৭-১৮ শিক্ষাবর্ষের ভর্তি পরীক্ষার ফলাফল প্রকাশ করা হবে এবং উত্তীর্ণ শিক্ষার্থীদের সাক্ষাতকার ও ভর্তি ১৭-১৮ ডিসেম্বর অনুষ্ঠিত হবে। এছাড়া কোটায় ভর্তিচ্ছুকদের আগামী ৭ জানুয়ারি ২০১৮ সময় নির্ধারণ করা হয়েছে।  ভর্তি সংক্রান্ত বিস্তারিত যে কোনো তথ্য বিশ্ববিদ্যালয়ের ওয়েবসাইটে (www.brur.ac.bd) পাওয়া যাবে।
