রাজশাহী: রাজশাহী বিশ্ববিদ্যালয়ের (রাবি) দশম সমাবর্তনের তারিখ নির্ধারিত হয়েছে আগামী ২৪ মার্চ। এতে রাষ্ট্রপতি মোহাম্মদ আবদুল হামিদের প্রতিনিধি হিসেবে সভাপতিত্ব করবেন শিক্ষামন্ত্রী নুরুল ইসলাম নাহিদ। 
শনিবার (৩ ফেব্রুয়ারি) বিশ্ববিদ্যালয়ের উপাচার্য অধ্যাপক ড. এম. আব্দুস সোবহান এ তথ্য নিশ্চিত করেন।
অধ্যাপক আব্দুস সোবহান জানান, বিশ্ববিদ্যালয়ের নতুন প্রশাসন দায়িত্ব নেওয়ার পর দশম সমাবর্তন আয়োজনের পদক্ষেপ নেয়। এ লক্ষ্যে বিশ্ববিদ্যালয়ের চ্যান্সেলরের সম্মতি চেয়ে চিঠি পাঠানো হয়। গত ১ জানুয়ারি রাষ্ট্রপতি তার প্রতিনিধি হিসেবে শিক্ষামন্ত্রীকে সমাবর্তন অনুষ্ঠানে সভাপতিত্ব করার নির্দেশ দিয়ে প্রজ্ঞাপন জারি করেন। শিক্ষামন্ত্রী নুরুল ইসলাম নাহিদ আগামী ২৪ মার্চ সমাবর্তন অনুষ্ঠান আয়োজনের জন্য বিশ্ববিদ্যালয় কর্তৃপক্ষকে নির্দেশ দিয়েছেন।
২০১৬ সালে তৎকালীন ভিসি অধ্যাপক ড. মুহম্মদ মিজানউদ্দিনের মেয়াদকালে দশম সমাবর্তনের রেজিস্ট্রেশন প্রক্রিয়া শুরু হয়। ওইবছর ৩ নভেম্বর থেকে ১০ নভেম্বর পর্যন্ত রেজিস্ট্রেশনের সময় নির্ধারণ করা হয়েছিল। পরে সময়সীমা বাড়িয়ে ১০ ডিসেম্বর পর্যন্ত রেজিস্ট্রেশন প্রক্রিয়া চলে। এতে মোট ৫ হাজার ২৭৫ জন গ্রাজুয়েট রেজিস্ট্রেশন করেন।
২০১৭ সালের ৭ মে নতুন ভিসি হিসেবে দায়িত্ব গ্রহণ করেন অধ্যাপক ড. আব্দুস সোবহান। দায়িত্ব গ্রহণের পর থেকেই সমাবর্তন আয়োজনের কার্যক্রম শুরু করেন তিনি। তার নির্দেশে রেজিস্ট্রেশনে সময়সীমা আরেক দফা বাড়ানো হয়। এতে মোট রেজিস্ট্রেশনকারী গ্রাজুয়েটের সংখ্যা দাঁড়ায় ৬ হাজার ৯ জন।
বিশ্ববিদ্যালয়ের উপ-উপাচার্য অধ্যাপক ড. আনন্দ কুমার সাহা বলেন, আমরা মার্চে সমাবর্তন অনুষ্ঠান আয়োজনের সবরকম প্রস্তুতি নিচ্ছি। আশা করি সবার সহযোগিতা নিয়ে খুব ভালোভাবে সমাবর্তন আয়োজন সম্ভব হবে।
