জাহাঙ্গীরনগর বিশ্ববিদ্যালয়ে (জাবি) গ্রীষ্মকালীন ও রমজানের ছুটি শুরু হয়েছে মঙ্গলবার (০৭ জুন) থেকে। যা চলেবে ১৭ জুলাই পর্যন্ত।
জাহাঙ্গীরনগর বিশ্ববিদ্যালয়: জাহাঙ্গীরনগর বিশ্ববিদ্যালয়ে (জাবি) গ্রীষ্মকালীন ও রমজানের ছুটি শুরু হয়েছে মঙ্গলবার (০৭ জুন) থেকে। যা চলেবে ১৭ জুলাই পর্যন্ত।
মঙ্গলবার (০৭ জুন) বিশ্ববিদ্যালয়ের রেজিস্ট্রার আবু বকর সিদ্দিক স্বাক্ষরিত এক সংবাদ বিজ্ঞপ্তিতে এ তথ্য জানানো হয়।
এতে বলা হয়, ৭ জুন থেকে ১৭ জুলাই পর্যন্ত সকল বিভাগের ক্লাস বন্ধ থাকবে। ১১ জুন থেকে ১৬ জুন পর্যন্ত গ্রীষ্মকালীন ছুটি উপলক্ষে বিভিন্ন অফিসিয়াল কার্যক্রমও বন্ধ থাকবে।
একই সঙ্গে ১ জুলাই থেকে ১৪ জুলাই পর্যন্ত বন্ধ হবে আবাসিক হল।
টানা ছুটি শেষৈ ১৮ জুলাই থেকে ফের  বিশ্ববিদ্যালয়ের কার্যক্রম শুরু হবে।
এদিকে দীর্ঘ ছুটি পেয়ে মা-বাবার সঙ্গে ছুটি কাটাতে এরই মধ্যে হল ছাড়তে শুরু করেছেন শিক্ষার্থীরা।
