নীলফামারী: নীলফামারীতে জেএসসি’র গণিত ও সাধারণ গণিত পরীক্ষায় ৩২৮ পরীক্ষার্থী অনুপস্থিত ছিলো। এছাড়া একজনকে বহিষ্কার করা হয়েছে।
নীলফামারী জেলা প্রশাসনের শিক্ষা শাখার তথ্য কর্মকর্তা আনোয়ারুল ইসলাম মিন্টু বাংলানিউজকে জানান, জুনিয়র স্কুল সার্টিফিকেট (জেএসসি) পরীক্ষার নবম দিন রোববার (১২ নভেম্বর) জেলার ৬টি উপজেলায় ৩২৮ পরীক্ষার্থী অনুপস্থিত ছিলো। এছাড়া ডোমারে পরীক্ষা কেন্দ্রে একজনকে বহিষ্কার করা হয়েছে।
এবারের পরীক্ষায় জেলায় এটিই প্রথম বহিষ্কার বলে জানান তিনি।
