ঢাকা: জাতীয় বিশ্ববিদ্যালয়ের ২০১৫ সালের মাস্টার্স এমএ/এমএসএস/এমবিএস/এমএসসি ও এম মিউজ শেষপর্ব (আইসিটিসহ নিয়মিত, অনিয়মিত, মানোন্নয়ন ও প্রাইভেট) পরীক্ষার আবেদন ফরম পূরণের সময়সীমা আগামী ১৮ জানুয়ারি পর্যন্ত বৃদ্ধি করা হয়েছে।
বৃহস্পতিবার (০৪ জানুয়ারি) বিশ্ববিদ্যালয়ের পক্ষ থেকে পাঠানো এক প্রেস বিজ্ঞপ্তিতে এ তথ্য জানানো হয়।
এতে জানানো হয়, মাস্টার্স শেষপর্ব পরীক্ষার ফরম পূরণের সময় ৮ জানুয়ারি থেকে ১৮ জানুয়ারি পর্যন্ত বৃদ্ধি করা হয়েছে।
এ সংক্রান্ত বিস্তারিত তথ্য জাতীয় বিশ্ববিদ্যালয়ের ওয়েব সাইট www.nubd.info/mf ও www.nu.edu.bd থেকে জানা যাবে।  
