ঢাকা বিশ্ববিদ্যালয়: ঢাকা বিশ্ববিদ্যালয় (ঢাবি) কেন্দ্রীয় ছাত্র সংসদ (ডাকসু) নির্বাচন ২০১৯ সালের মার্চে দেওয়ার লক্ষ্যে কাজ শুরু করেছে বিশ্ববিদ্যালয় কর্তৃপক্ষ।
মঙ্গলবার (২৭ ফেব্রুয়ারি) দিনগত রাতে অনুষ্ঠিত সিন্ডিকেটের সভায় এ নিয়ে আলোচনা হয় বলে বাংলানিউজকে জানিয়েছেন বিশ্ববিদ্যালয়ের উপাচার্য অধ্যাপক ড. মো. আখতারুজ্জামান।
তিনি বলেন, ডাকসু নির্বাচনের জন্য প্রস্তুতি শুরু হয়েছে। এ নির্বাচন নিয়ে আমরা বিভিন্ন ফোরামে আলোচনা করছি। ইতোমধ্যে শিক্ষার্থীদের তালিকা হালনাগাদ করার জন্য প্রাধ্যক্ষদের বলা হয়েছে। এ বিষয়টি প্রভোস্ট কমিটিকে বলা হয়েছে, সিন্ডিকেটকেও মঙ্গলবার বলা হয়েছে। ২০১৯ সালের মার্চ মাসে সব ক্রিয়াশীল ছাত্র সংগঠনকে নিয়ে নির্বাচনটি অনুষ্ঠিত হবে। হল ছাত্র সংসদ ও কেন্দ্রীয় ছাত্র সংসদ করবো আমরা। এগুলো কতগুলো নিয়মনীতির মাধ্যমে হবে। সেগুলো সুশৃঙ্খলভাবে করার লক্ষ্যে আমরা কাজ করছি। সিন্ডিকেটও সম্মতি দিয়েছে। আমরাও এ বিষয়টি নিয়ে ভালোভাবে কাজ করছি।
সিন্ডিকেট সূত্র জানায়, নির্বাচনের পূর্ব প্রস্তুতি হিসেবে ইতোমধ্যে হলগুলোতে শিক্ষার্থীদের নতুন করে ডাটা হালনাগাদ করতে স্ব স্ব হল প্রাধ্যক্ষদের নির্দেশনাও দেওয়া হয়েছে।
