ভোলায় জুনিয়র স্কুল সার্টিফিকেট (জেএসসি) পরীক্ষায় পাসের হার ৯৮.০৪ শতাংশ। মোট পাস করেছে ১৭ হাজার ১৮৩ জন শিক্ষার্থী। এদের মধ্যে ছেলে ৮ হাজার ৩১৯ এবং মেয়ে ৮ হাজার ৮৬৪ জন।
ভোলা: ভোলায় জুনিয়র স্কুল সার্টিফিকেট (জেএসসি) পরীক্ষায় পাসের হার ৯৮.০৪ শতাংশ।
মোট পাস করেছে ১৭ হাজার ১৮৩ জন শিক্ষার্থী। এদের মধ্যে ছেলে ৮ হাজার ৩১৯ এবং মেয়ে ৮ হাজার ৮৬৪ জন। মোট পরীক্ষার্থীর মধ্যে জেলায় জিপিএ-৫ পেয়েছে ২ হাজার ৪৭২ জন। এদের মধ্যে ছাত্র ১ হাজার ৭৮ জন এবং ছাত্রী ১ হাজার ৩৬৪ জন।
ফলাফল বিশ্লেষণে বরিশাল বোর্ডে ভোলা জেলা ২য় স্থান অর্জন করেছে। ফলাফলে ছেলেদের চেয়ে মেয়েরা এগিয়ে রয়েছে।  
এ বছর জেলা থেকে ১৮ হাজার ৩১৩ জন পরীক্ষায় অংশগ্রহণ করেছিলো।
বরিশাল শিক্ষা বোর্ডের কন্ট্রোলার আনোয়ারুল হক এ তথ্য নিশ্চিত করেছেন।
