জুনিয়র স্কুল সার্টিফিকেট (জেএসসি) পরীক্ষার তৃতীয় দিনে বরিশাল মাধ্যমিক ও উচ্চ মাধ্যমিক শিক্ষাবোর্ডের অধীনে ১৬২টি কেন্দ্রে ৩ হাজার ৩৬০ জন পরীক্ষার্থী অনুপস্থিত এবং ৩ জন পরীক্ষার্থী বহিষ্কার হয়েছে।
বরিশাল: জুনিয়র স্কুল সার্টিফিকেট (জেএসসি) পরীক্ষার তৃতীয় দিনে বরিশাল মাধ্যমিক ও উচ্চ মাধ্যমিক শিক্ষাবোর্ডের অধীনে ১৬২টি কেন্দ্রে ৩ হাজার ৩৬০ জন পরীক্ষার্থী অনুপস্থিত এবং ৩ জন পরীক্ষার্থী বহিষ্কার হয়েছে।
বৃহস্পতিবার (০৩ নভেম্বর) ইংরেজি প্রথমপত্র পরীক্ষায় অনুপস্থিত পরীক্ষার্থীদের মধ্যে বরিশাল জেলায় ১০৪৪, ঝালকাঠিতে ৩১১, পিরোজপুরে ৩৮৩, পটুয়াখালীতে ৫৫৯, বরগুনায় ৪০৭, ভোলা জেলায় ৬৫৬ জন রয়েছে।
বহিষ্কৃত পরীক্ষার্থী ৩ জনের মধ্যে বরিশালের মেহেন্দীগঞ্জের লেঙ্গুটিয়ায় ২ জন ও পটুয়াখালীর বগায় ১ জন।
বরিশাল মাধ্যমিক ও উচ্চ মাধ্যমিক শিক্ষাবোর্ডের পরীক্ষা নিয়ন্ত্রক প্রফেসর মুহাম্মদ শাহ্ আলমগীর বাংলানিউজকে এ তথ্য জানান।
এ বছর বরিশাল শিক্ষাবোর্ডের আওতায় ১ লাখ ১৭ হাজার ৪৫৬ জন পরীক্ষার্থী রয়েছে। গত বছর ছিল ১ লাখ ৫ হাজার ৬২০ জন।
চলতি বছরে পরীক্ষার্থীর সংখ্যা বাড়ার পাশাপাশি প্রথম দ্বিতীয় ও তৃতীয় দিনেও পরীক্ষায় অনুপস্থিতির হার বেড়েছে। যা গত বছরের চেয়ে দশমিক ২৮ ভাগ বেশি। গত বছর ইংরেজি প্রথমপত্র পরীক্ষায় ২ হাজার ৮১৯ জন পরীক্ষার্থী অনুপস্থিত ছিল।
