শেরে বাংলা কৃষি বিশ্ববিদ্যালয়ে (শেকৃবি) নতুন উপাচার্য, উপ-উপাচার্য ও কোষাধ্যক্ষ নিয়োগ দিয়েছে সরকার। উপাচার্য হিসেবে নিয়োগ পেয়েছেন অধ্যাপক...
ঢাকা: শেরে বাংলা কৃষি বিশ্ববিদ্যালয়ে (শেকৃবি) নতুন উপাচার্য ও উপ-উপাচার্য নিয়োগ দিয়েছে সরকার। একই সঙ্গে কোষাধ্যক্ষ পদেও নতুন নিয়োগ দেওয়া হয়েছে। 
উপাচার্য হিসেবে নিয়োগ পেয়েছেন উদ্ভিদবিদ্যা বিভাগের অধ্যাপক ড. কামাল উদ্দিন আহমেদ। 
আর অধ্যাপক ড. সেকেন্দার আলীকে উপ-উপাচার্য এবং অধ্যাপক ড. আনোয়ারুল হক বেগকে কোষাধ্যক্ষ পদে নিয়োগ দেওয়া হয়েছে। 
রোববার (১৪ আগস্ট) বিকেলে এ সংক্রান্ত একটি প্রজ্ঞাপন জারি করে শিক্ষা মন্ত্রণালয়। 
সাবেক উপাচার্যের মেয়াদ শেষ হওয়ার ১৩ কার্য দিবসের মাথায় নতুন উপাচার্য নিয়োগ দেওয়া হলো। গত ২৫ জুলাই সাবেক উপাচার্য অধ্যাপক শাদাত উল্লার মেয়াদ শেষ হয়। 
আগামী চার বছরের জন্যে এ নিয়োগ দেওয়া হয়েছে।
