আমি এবার  উত্তরা হাইস্কুল এন্ড কলেজ থেকে এইচএসসি পরীক্ষায় পিএ ৫ পেয়েছি। রেজাল্ট শুনে বাবা ও মার মিষ্টি হাসি দেখে আজ আমি আনন্দিত।
স্বপ্ন পূরণের পথে আজ এগিয়ে গেছি একধাপ। এ বছরের এইচএসসি পরীক্ষায় আমি জিপিএ-৫ পেয়ে উত্তীর্ণ হয়েছি। আমার এই ফলাফলে আমার  পরিবারের সবাই অনেক খুশি।
আমার এই ফলাফলে অগ্রণী ভুমিকা রেখেছেন আমার বাবা। এছাড়াও আমার পরিবারের সবাই এবং আমার শিক্ষকরা। বিশেষভাবে আমার শ্রেণি শিক্ষক নুরুল ইসলাম স্যার।
উত্তরা হাই স্কুল এন্ড কলেজ এর সব শিক্ষক অনেক বন্ধুসুলভ। তারা অনেক সাহায্য করেছেন। আমি বড় হয়ে একজন রসায়নবিদ হতে চাই। সবার কাছে আমি দোয়া প্রত্যাশী।
