যশোর: যশোর মাধ্যমিক ও উচ্চ মাধ্যমিক শিক্ষা বোর্ডে এ বছর পাসের হার ৭০ দশমিক ০২ শতাংশ। ২০১৬ সালে এ বোর্ডে পাসের হার ছিলো ৮৩ দশমিক ৪২ শতাংশ ও ২০১৫ সালে ছিলো ৪৬ দশমিক ৫৯ শতাংশ।
যশোর মাধ্যমিক ও উচ্চ মাধ্যমিক শিক্ষা বোর্ডের পরীক্ষা নিয়ন্ত্রক মাধব চন্দ্র রুদ্র দুপুর ১টায় যশোরে প্রেসক্লাবে সংবাদ সম্মেলনে এ তথ্য জানিয়েছেন। 
প্রকাশিত ফলাফলে দেখা গেছে, বিজ্ঞান বিভাগে পাসের হার ৮০ দশমিক ৬৯ শতাংশ, মানবিক বিভাগে ৬৩ দশমিক ৯৩ শতাংশ এবং বাণিজ্য বিভাগে ৭৮ দশমিক ৫৩ শতাংশ। 
