ঢাকা বিশ্ববিদ্যালয়ে ২০১৬-১৭ শিক্ষাবর্ষে কলা অনুষদভুক্ত ‘খ ’ ইউনিটের অধীনে ১ম বর্ষ সম্মান শ্রেণীতে ভর্তি পরীক্ষা শুক্রবার (২৩ সেপ্টেম্বর) সকাল ১০টা থেকে ১১টা পর্যন্ত অনুষ্ঠিত হবে।
ঢাকা বিশ্ববিদ্যালয়: ঢাকা বিশ্ববিদ্যালয়ে ২০১৬-১৭ শিক্ষাবর্ষে কলা অনুষদভুক্ত ‘খ ’ ইউনিটের অধীনে ১ম বর্ষ সম্মান শ্রেণীতে ভর্তি পরীক্ষা শুক্রবার (২৩ সেপ্টেম্বর) সকাল ১০টা থেকে ১১টা পর্যন্ত অনুষ্ঠিত হবে।
ভর্তি পরীক্ষায় জালিয়াতি ঠেকাতে অতীতের যেকোন সময়ের থেকে কঠোরভাবে পরিচালনা করা হবে মোবাইল কোর্ট।   বৃহস্পতিবার (২২ সেপ্টেম্বর) দুপুরে বিশ্ববিদ্যালয়ের জনসংযোগ দফতর থেকে পাঠানো এক সংবাদ বিজ্ঞপ্তিতে এসব তথ্য জানানো হয়।   এবছর ২ হাজার ২৪১ আসনের জন্য ভর্তিচ্ছু আবেদনকারীর সংখ্যা ৩৪ হাজার ৬০৬ জন। প্রতি আসনের প্রতিদ্বন্দ্বিতা করবে ১৫ শিক্ষার্থী।
ভর্তি পরীক্ষা বিশ্ববিদ্যালয় ক্যাম্পাস ও ক্যাম্পাসের বাইরের মোট ৭৩টি কেন্দ্রে অনুষ্ঠিত হবে। ক্যাম্পাসের বাইরের কেন্দ্রগুলো হলো বাংলাদেশ প্রকৌশল বিশ্ববিদ্যালয় স্কুল ও কলেজ, গার্হস্থ্য অর্থনীতি কলেজ, ঢাকা সিটি কলেজ, আজিমপুর গার্লস স্কুল অ্যান্ড কলেজ এবং বদরুন্নেছা মহিলা কলেজ।    পরীক্ষা সুষ্ঠুভাবে সম্পাদনের লক্ষ্যে ছাত্র-ছাত্রীসহ সংশ্লিষ্ট সবাইকে হলে মোবাইল ফোন বা টেলিযোগাযোগ করা যায় এরূপ কোনো ইলেক্ট্রনিক ডিভাইস বা যন্ত্র সম্পূর্ণ নিষিদ্ধ করেছে বিশ্ববিদ্যালয় কর্তৃপক্ষ।   ভর্তি পরীক্ষার সিট-প্ল্যান বিশ্ববিদ্যালয়ের admission.eis.du.ac.bd -এ ওয়েবসাইট থেকে জানা যাবে।
