ঢাকা: আগামী মঙ্গলবার (১৭ জানুয়ারি) বিকেল ৩টায় বঙ্গবন্ধু আন্তর্জাতিক সম্মেলন কেন্দ্রে জাতীয় বিশ্ববিদ্যালয়ের প্রথম সমাবর্তন অনুষ্ঠিত হবে।
এতে সভাপতি হিসেবে গ্র্যাজুয়েটদের হাতে ডিগ্রি তুলে দেবেন রাষ্ট্রপতি মো. আবদুল হামিদ।
অনুষ্ঠানে প্রধান অতিথি হিসেবে উপস্থিত থাকবেন শিক্ষামন্ত্রী নুরুল ইসলাম নাহিদ ও সমাবর্তন বক্তা বাংলাদেশ বিশ্ববিদ্যালয় মঞ্জুরি কমিশনের (ইউজিসি) চেয়ারম্যান প্রফেসর আবদুল মান্নান।
সমাবর্তনে অংশ নিতে মোট চার হাজার নয়শ’ ৩৪ জন গ্র্যাজুয়েট নিবন্ধন করেছেন। যাদের মধ্যে মেয়ে তিন হাজার একশ’ ৩৭ জন ও ছেলে এক হাজার সাতশ’ ৯৫ জন।
বাংলাদেশ সময়: ১৫৫৬ ঘণ্টা, জানুয়ারি ১৬, ২০১৭
