ঢাকা: ঢাকা বিশ্ববিদ্যালয়ের (ঢাবি) ৫০তম সমাবর্তন আগামী ৪ মার্চ (শনিবার) অনুষ্ঠিত হবে।
বিশ্ববিদ্যালয়ের শারীরিক শিক্ষা কেন্দ্রের খেলার মাঠে সমাবর্তন অনুষ্ঠিত হবে। যাতে সভাপতিত্ব করবেন রাষ্ট্রপতি ও ঢাকা বিশ্ববিদ্যালয়ের আচার্য মো. আবদুল হামিদ। সমাবর্তন বক্তা হিসেবে থাকবেন কানাডার ইউনিভার্সিটি অব ওয়েস্টার্ন অন্টারিও-এর প্রেসিডেন্ট এবং ভাইস চ্যান্সেলর অধ্যাপক অমিত চাকমা। সমাবর্তন অনুষ্ঠানে তাকে ডক্টর অব সায়েন্স ডিগ্রি দেওয়া হবে।
অমিত চাকমা বাংলাদেশি বংশোদ্ভুত রাসায়নিক প্রকৌশলী। তার জন্ম ১৯৫৯ সালে পার্বত্য চট্টগ্রামের চাকমা পরিবারে। তিনি কানাডার ইউনিভার্সিটি অব ওয়েস্টার্ন অন্টারিও-এর ১০ম প্রেসিডেন্ট। বাংলাদেশে উচ্চ মাধ্যমিক পর্যায়ের পড়াশোনা শেষ করার পর তিনি আলজেরীয় সরকারের বৃত্তি নিয়ে আলজেরিয়ার বিশ্ববিদ্যালয়ে পড়তে যান।
সমাবর্তনে ৯৪টি স্বর্ণপদকের জন্য ৮০ জন পদকপ্রাপ্ত, ৬১ জন পিএইচডি, ৪৩ জন এমফিল এবং ১৭,৮৭৫ জন গ্র্যাজুয়েট অংশগ্রহণ করবেন।
