জাল ভোট দেওয়ার অভিযোগে ময়মনসিংহের ফুলবাড়িয়ায় প্রাথমিক বিদ্যালয়ের তিন শিক্ষককে সাময়িক বরখাস্ত করা হয়েছে।
ময়মনসিংহ: জাল ভোট দেওয়ার অভিযোগে ময়মনসিংহের ফুলবাড়িয়ায় প্রাথমিক বিদ্যালয়ের তিন শিক্ষককে সাময়িক বরখাস্ত করা হয়েছে।
বরখাস্ত হওয়া শিক্ষকরা হলেন- আছিম কুটিরা সরকারি প্রাথমিক বিদ্যালয়ের সহকারী শিক্ষক তাজুল ইসলাম, মাহমুদা খাতুন ও স্থানীয় চিতলিয়াঘাট প্রাথমিক বিদ্যালয়ের শিক্ষক মো. ফজলুল হক।
বুধবার (০১ জুন) বিকেলে ফুলবাড়িয়া উপজেলা প্রাথমিক শিক্ষা কর্মকর্তা নূর মোহাম্মদ বাংলানিউজকে এ তথ্য নিশ্চিত করেন।
তিনি জানান, জাল ভোট দেওয়া ও দায়িত্ব অবহেলার অভিযোগে তাদের সাময়িক বরখাস্ত করা হয়। তাদের কাছে বহিষ্কারাদেশের চিঠি হস্তান্তর করা হয়েছে।
প্রসঙ্গত, গত ৭ মে ফুলবাড়িয়া উপজেলার ১৩টি ইউনিয়নে ভোট অনুষ্ঠিত হয়।
