যশোর: যশোর মাধ্যমিক ও উচ্চ মাধ্যমিক শিক্ষাবোর্ডের আওতাধীন চারটি কলেজের কেউ পাস করেনি। এসব কলেজে মোট পরিক্ষার্থী ছিলো ১৫ জন।
প্রতিষ্ঠানগুলো হলো- মেহেরপুর জেলার মড়কা জাগরণ কলেজ, মাগুরার বীরেন শিকদার আইডিয়াল স্কুল অ্যান্ড কলেজ, একই জেলার দক্ষিণ নোয়াপাড়া সম্মিলনী কলেজ ও ঝিনাইদহের ডিজিপিএল মডেল কলেজ।
শিক্ষাবোর্ড সূত্র জানায়, মেহেরপুরের মড়কা জাগরণ কলেজ থেকে দুই শিক্ষার্থী পরীক্ষায় অংশ নিলেও দুজনেই ফেল করেছে। এছাড়াও মাগুরার বীরেন শিকদার আইডিয়াল স্কুল অ্যান্ড কলেজ ছয়জন, দক্ষিণ নোয়াপাড়া সম্মিলনী কলেজ থেকে চারজন এবং ঝিনাইদহের ডিজিপিএল মডেল কলেজ থেকে পরীক্ষায় অংশ নেওয়া তিন শিক্ষার্থীর সবাই ফেল করেছে।
