প্রকৌশল বিজ্ঞান বিষয়ে গবেষণা ও বিভিন্ন প্রতিযোগিতায় শ্রেষ্ঠত্ব অর্জনের স্বীকৃতি হিসেবে স্কুল অব ইঞ্জিনিয়ারিং অ্যান্ড কম্পিউটার সায়েন্স অনুষদের ৪০ জনছাত্র-ছাত্রীকে সম্মাননা দিয়েছে ইন্ডিপেনডেন্ট ইউনির্ভাসিটি, বাংলাদেশ (আইইউবি)।
ঢাকা: প্রকৌশল বিজ্ঞান বিষয়ে গবেষণা ও বিভিন্ন প্রতিযোগিতায় শ্রেষ্ঠত্ব অর্জনের স্বীকৃতি হিসেবে স্কুল অব ইঞ্জিনিয়ারিং অ্যান্ড কম্পিউটার সায়েন্স অনুষদের ৪০ জন ছাত্র-ছাত্রীকে সম্মাননা দিয়েছে ইন্ডিপেনডেন্ট ইউনির্ভাসিটি, বাংলাদেশ (আইইউবি)।
বুধবার (১৬ নভেম্বর) বসুন্ধরা আবাসিক এলাকায় বিশ্ববিদ্যালয়ের স্থায়ী ক্যাম্পাসে আয়োজিত এক অনুষ্ঠানে এ সম্মাননা দেওয়া হয়।
এতে শিক্ষার্থীদের হাতে সম্মাননা স্মারক ও সনদ তুলে দেন আইইউবি’র উপাচার্য অধ্যাপক এম ওমর রহমান ও স্কুল অব ইঞ্জিনিয়ারিং অ্যান্ড কম্পিউটার সায়েন্স অনুষদের ডিন অধ্যাপক শাহরিয়ার খান।
এ সময় বিশ্ববিদ্যালয়ের ভারপ্রাপ্ত উপ-উপাচার্য অধ্যাপক মিলান পাগনসহ  বিভিন্ন বিভাগের প্রধানরা উপস্থিত ছিলেন।
এক সংবাদ বিজ্ঞপ্তিতে জানানো হয়, সম্মাননাপ্রাপ্ত শিক্ষার্থীরা নাসা স্পেস অ্যাপস চ্যালেঞ্জ প্রতিযোগিতায় ২০১৫ সালে চ্যাম্পিয়ন এবং ২০১৬ সালে রানার্স-আপ হয়। এছাড়া ভারতে অনুষ্ঠিত আরসি এয়ারক্রাফট প্রতিযোগিতায় বেস্ট ফ্লাইট অ্যাওয়ার্ড, গ্রিন এনার্জি অ্যান্ড টেকনোলজি বিষয়ক জাতীয় প্রজেক্ট প্রতিযোগিতাতেও প্রথম পুরস্কার পান তারা।
