ম‌তি‌ঝিল আইডিয়াল স্কুল অ্যান্ড ক‌লে‌জে এবা‌র এইচএস‌সি‌তে পাসের হার ৯৮.৮৮ শতাংশ। ক‌লে‌জের এক হাজার ৪৩৪ জন শিক্ষার্থীর ম‌ধ্যে পাস ক‌রে‌ছেন এক হাজার ৪১৮ জন।
ঢাকা: ম‌তি‌ঝিল আইডিয়াল স্কুল অ্যান্ড ক‌লে‌জে এবা‌র এইচএস‌সি‌তে পাসের হার ৯৮.৮৮ শতাংশ। ক‌লে‌জের এক হাজার ৪৩৪ জন শিক্ষার্থীর ম‌ধ্যে পাস ক‌রে‌ছেন এক হাজার ৪১৮ জন। বৃহস্প‌তিবার (১৮ আগস্ট) দুপুরে ক‌লে‌জের ফলাফ‌লের এ তথ্য জানান অধ্যক্ষ ড. শাহান আরা বেগম। ‌তি‌নি জানান, এবার বিজ্ঞা‌ন বিভা‌গে শতভাগ শিক্ষার্থী পাস ক‌রে‌ছে। পা‌সের হার গতবা‌রের চে‌য়ে বে‌ড়ে‌ছে।
এক তৃ‌তীয়াংশ শিক্ষার্থী স্কুল থে‌কে পাস ক‌রে ক‌লে‌জে ভ‌র্তি হ‌য়ে‌ছি‌লো। বা‌কিরা অন্য শিক্ষা প্র‌তিষ্ঠান থে‌কে এ‌সে ভ‌র্তি হ‌য়ে‌ছি‌লো বলেও জানান তিনি।
