ময়মনসিংহ: বয়সের ফেরে ময়মনসিংহের নামি সরকারি মাধ্যমিক বিদ্যালয়গুলোতে ভর্তির সুযোগ থেকে বঞ্চিত হচ্ছিল শিশুরা। ১১ বছর বয়সসীমার বাধ্য-বাধ্যকতার কারণে তাদের শিক্ষাজীবন অনিশ্চয়তার বৃত্তে ঘুরপাক খাচ্ছিলো। তাদের মাঝে নেমে এসেছিল চরম হতাশা। অবশেষে এ জটিলতা নিরসন হয়েছে। 
শিক্ষা মন্ত্রণালয়ের নির্দেশে প্রাথমিক শিক্ষা সমাপনী (পিইসি) পরীক্ষায় উত্তীর্ণ ১০ এর অধিক বয়সী কোমলমতি শিক্ষার্থীরা ৬ষ্ঠ শ্রেণিতে ভর্তির আবেদন করতে পারবে।
মঙ্গলবার (১২ ডিসেম্বর) সন্ধ্যায় ময়মনসিংহ জেলা শিক্ষা কর্মকর্তা রফিকুল ইসলাম বাংলানিউজকে এ তথ্য নিশ্চিত করেন। 
জানা যায়, শিক্ষা মন্ত্রণালয়ের এ নির্দেশনার প্রেক্ষিতে ভর্তি বিজ্ঞপ্তি সংশোধন করেছে নগরীর মাধ্যমিক ময়মনসিংহ জিলা স্কুল, বিদ্যাময়ী সরকারি বালিকা উচ্চ বিদ্যালয় ও সরকারি ল্যাবরেটরি হাইস্কুল। 
গত বুধবার (০৬ ডিসেম্বর) দেশের জনপ্রিয় অনলাইন নিউজপোর্টাল বাংলানিউজে ‘বয়সের ফাঁদে ময়মনসিংহে ভর্তির সুযোগ বঞ্চিত হচ্ছে শিশুরা’ শিরোনামে খবর প্রকাশের পর শিক্ষা মন্ত্রণালয় এ জটিলতা নিরসনের উদ্যোগ নেয়। 
ময়মনসিংহ জেলা শিক্ষা কর্মকর্তা রফিকুল ইসলাম বাংলানিউজকে জানান, ভর্তি পরীক্ষায় উত্তীর্ণ হলে ১০’র অধিক বয়সী শিক্ষার্থীরা সংশ্লিষ্ট বিদ্যালয়ে ভর্তির আবেদন করতে পারবেন। বয়স নিয়ে সৃষ্ট জটিলতা নিরসন হয়েছে।’  
