জাহাঙ্গীরনগর বিশ্ববিদ্যালয়: জাহাঙ্গীরনগর বিশ্ববিদ্যালয় সাংবাদিক সমিতি (জাবিসাস) আয়োজিত তিন মাসব্যাপী ‘সাংবাদিকতা ও ক্যারিয়ার বিষয়ক’ প্রশিক্ষণ কর্মশালা সম্পন্ন হয়েছে।
বুধবার (১৫ ফেব্রুয়ারি) দুপুরে বিশ্ববিদ্যালয় জহির রায়হান মিলনায়তনের সেমিনার কক্ষে এক বর্ণাঢ্য আয়োজনের মাধ্যমে প্রশিক্ষণ কর্মশালার সমাপনী ঘটে।
সমাপনী অনুষ্ঠানে বিশেষ অতিথির বক্তব্যে বাংলাদেশ প্রেস ইন্সটিটিউটের মহাপরিচালক মো. শাহ আলমগীর বলেন, বর্তমানে সাংবাদিকতার নামে অপসাংবাদিকতা অধিকতর গুরুত্ব পাচ্ছে।
সাংবাদিকরা তাদের মূল আর্দশিক জায়গা থেকে দূরে সরে যাচ্ছে। এ কারণে দেশ-জাতি ভয়াবহ ক্ষতির সম্মুখীন হতে যাচ্ছে বলে তিনি শঙ্কা প্রকাশ করেন।
সাংবাদিক সমিতির সাধারণ সম্পাদক মওদুদ আহম্মেদ সুজনের সঞ্চলনায় অনুষ্ঠানে আরও বক্তব্য রাখেন- বিশ্ববিদ্যালয় উপ-উপাচার্য অধ্যাপক মো. আবুল হোসেন, কোষাধ্যক্ষ অধ্যাপক আবুর খায়ের, জাবিসাসের উপদেষ্টা অধ্যাপক মো. শাহেদুর রশিদ, জাবিসাস অ্যালামনাই অ্যাসোসিয়েশনের সভাপতি সৈয়দ শহিদুল হক মঞ্জু, সাংবাদিক সমিতির সাবেক সভাপতি বেলাল হোসাইন রাহাত প্রমুখ।
কর্মশালায় প্রশিক্ষণ গ্রহণকারী মোট ৫৫ জন শিক্ষার্থীদের মাঝে সনদপত্র দেওয়া হয়।
