বরিশাল: বাংলাদেশ উন্মুক্ত বিশ্ববিদ্যালয়ের (বাউবি) ২৫তম প্রতিষ্ঠাবার্ষিকীতে বরিশালে র‌্যালি ও আলোচনা সভা অনুষ্ঠিত হয়েছে। 
বৃহস্পতিবার (২৬ অক্টোবর) দুপুরে উন্মুক্ত বিশ্ববিদ্যালয় বরিশাল আঞ্চলিক কেন্দ্রে এ আলোচনা সভা অনুষ্ঠিত হয়।
সভায় প্রধান অতিথি ছিলেন বরিশাল মাধ্যমিক ও উচ্চ মাধ্যমিক শিক্ষা বোর্ডের চেয়ারম্যান মু. জিয়াউল হক। বিশেষ অতিথি ছিলেন, সরকারি সৈয়দ হাতেম আলী কলেজের অধ্যক্ষ সচীন কুমার রায়।
এর আগে কর্মকর্তা, কর্মচারী ও বাংলাদেশ উন্মুক্ত বিশ্ববিদ্যালয়ের সমন্বয়কারী, টিউটর এবং শিক্ষার্থীদের আয়োজনে আঞ্চলিক কেন্দ্রে থেকে এক র‌্যালি বের করা হয়। র‌্যালিটি প্রধান প্রধান সড়ক প্রদক্ষিণ করে পুনরায় আঞ্চলিক কেন্দ্রে গিয়ে শেষ হয়।
