নোয়াখালী: নোয়াখালী বিজ্ঞান ও প্রযুক্তি বিশ্ববিদ্যালয়ে ছাত্র ও ছাত্রী হলের প্রভোস্ট পরিবর্তন করা হয়েছে।
"বিবি খাদিজা" ছাত্রী হলের প্রভোস্ট হিসেবে দ্বায়িত্ব পেয়েছেন কৃষি বিভাগের চেয়ারম্যান সহযোগী অধ্যাপক ড. মো. আতিকুর রহমান ভুঁঞা এবং একমাত্র ছাত্র হল "ভাষা শহীদ আব্দুস সালাম’র প্রভোস্ট হিসেবে দ্বায়িত্ব পেয়েছেন একই বিভাগের সহযোগী অধ্যাপক ড. মো. গাজী মহসীন।
বিশ্ববিদ্যালয় সূত্রে জানা যায়, উপাচার্য প্রফেসর ড. এম অহিদুজ্জামান মনোনীত এ দুই শিক্ষককে রেজিস্টার অফিস থেকে রোববার (১৭সেপ্টেম্বর) এ সংক্রান্ত একটি আদেশ পাঠানো হয়।
মঙ্গলবার প্রভোস্টদ্বয়ের এ নতুন দায়িত্বে যোগদানের কথা রয়েছে।
এর আগে অধ্যাপক ইউসুফ মিঞা এবং সহকারী অধ্যাপক মো. কামাল উদ্দিন যথাক্রমে ভাষা শহীদ আব্দুস সালাম হল ও বিবি খাদিজা হলের প্রভোস্ট হিসেবে দায়িত্ব পালন করেন।
