রাজধানীর শেরেবাংলা কৃষি বিশ্ববিদ্যালয়ে (শেকৃবি) ঈদের ছুটি শুরু হচ্ছে শুক্রবার (২৪ জুন) থেকে।বিশ্ববিদ্যালয়ের জন সংযোগ কর্মকর্তা জানান, ঈদের এ ছুটি শেষ হবে আগামী ১১ জুলাই। তবে বিশ্ববিদ্যালয়ের দাপ্তরিক কার্যক্রম চলবে ৩০ জুন পর্যন্ত এবং ১ জুলাই থেকে ১০ জুলাই পর্যন্ত  কার্যক্রম বন্ধ থাকবে।
ঢাকা: রাজধানীর শেরেবাংলা কৃষি বিশ্ববিদ্যালয়ে (শেকৃবি) ঈদের ছুটি শুরু হচ্ছে শুক্রবার (২৪ জুন) থেকে।
বিশ্ববিদ্যালয়ের জন সংযোগ কর্মকর্তা জানান, ঈদের এ ছুটি শেষ হবে আগামী ১১ জুলাই। তবে বিশ্ববিদ্যালয়ের দাপ্তরিক কার্যক্রম চলবে ৩০ জুন পর্যন্ত এবং ১ জুলাই থেকে ১০ জুলাই পর্যন্ত  কার্যক্রম বন্ধ থাকবে।
ঈদের ছুটিতে ছাত্রদের আবাসিক হল খোলা থাকলেও ছাত্রী হলগুলো বন্ধ থাকবে বলে সংশ্লিষ্ট সূত্র জানায়।
বাংলাদেশ সময়: ০৫১১ ঘণ্টা, জুন ২৪, ২০১৬
