ঢাকা: জাতীয় বিশ্ববিদ্যালয়ের ২০১৭-১৮ শিক্ষাবর্ষে অন-ক্যাম্পাস শিক্ষা কার্যক্রমের আওতায় মাস্টার অব একচুয়ারিয়াল সায়েন্স (এমএএস), অ্যাডভান্সড এমবিএ, এম ফিল ও পিএইচ ডি প্রোগ্রামে ভর্তির আবেদনের জন্য শনিবার (১৫ জুলাই) পর্যন্ত সময় বাড়ানো হয়েছে।
রোববার (০৯ জুলাই) বিশ্ববিদ্যালয়ের পক্ষ থেকে পাঠানো এক প্রেস বিজ্ঞপ্তিতে এ তথ্য জানানো হয়।
এছাড়া বিশ্ববিদ্যালয়ের ওয়েবসাইট www.nu.edu.bd থেকে বিস্তারিত তথ্য জানা যাবে।
