মৌলভীবাজার: প্রাথমিক ও ইবতেদায়ি শিক্ষা সমাপনী পরীক্ষায় প্রতিদিন  ৩৩৩ জন করে শিক্ষার্থী অনুপস্থিত থাকছে। তিন দিনে মোট সংখ্যা দাঁড়িয়েছে ৯৯৯ জনে।
এবার উপজেলায় মোট ৭ হাজার ৩৯৮ জন খুদে পরীক্ষার্থী উপজেলায় পরীক্ষায় অংশগ্রহণের সুযোগ পেয়েছে। 
রোববার (১৯ নভেম্বর) থেকে শুরু হওয়া এ পরীক্ষা উপজেলার ১৭টি কেন্দ্রে অনুষ্ঠিত হচ্ছে। ১৩৮টি সরকারি প্রাথমিক বিদ্যালয়, বেসরকারি প্রাথমিক বিদ্যালয়সহ শহরের কিন্ডারগার্টেনগুলোর শিক্ষার্থীও রয়েছে পরীক্ষার্থীর তালিকায়।  
উপজেলা সহকারী শিক্ষা অফিসার জ্যোতিষ রঞ্জন দাশ বাংলানিউজকে বলেন, ইংরেজি, বাংলা এবং বাংলাদেশ ও বিশ্বপরিচয় বিষয়ে সারা উপজেলায় প্রতিদিন ৩৩৩ জন করে মোট ৯৯৯ জন শিক্ষার্থী অনুপস্থিত ছিল। 
পড়াশোনার প্রতি আগ্রহ হারিয়ে ফেলা, বাবা-মায়ের উদাসীনতা, শিশুশ্রমের সহজলভ্যতা, শিশুভিত্তিক কর্মসংস্থানের সুযোগ বৃদ্ধি প্রভৃতি কারণ এক্ষেত্রে প্রভাব ফেলছে বলে জানান এই শিক্ষা কর্মকর্তা। 
