ঢাকা: প্রথম সমাবর্তন অনুষ্ঠান উপলক্ষে বুধবার (০৪ জানুয়ারি) সংবাদ সম্মেলনের আয়োজন করেছে জাতীয় বিশ্ববিদ্যালয় কর্তৃপক্ষ। মঙ্গলবার (০৩ জানুয়ারি) বিশ্ববিদ্যালয়ের জনসংযোগ, তথ্য ও পরামর্শ দফতর থেকে পাঠানো বিজ্ঞপ্তিতে এ তথ্য জানানো হয়।
বিজ্ঞপ্তিতে বলা হয়, বুধবার বেলা ১১টায় বিশ্ববিদ্যালয়ের নগর কার্যালয়ে (বাড়ি # ৫৮, রোড # ৮/এ, ধানমণ্ডি, ঢাকা) এ সংবাদ সম্মেলনের আয়োজন করা হয়েছে।
সংবাদ সম্মেলনে সমাবর্তনের বিষয়ে বিস্তারিত জানাবেন বিশ্ববিদ্যালয়ের ভাইস-চ্যান্সেলর ড. হারুন-অর-রশিদ।
