জাতীয় বিশ্ববিদ্যালয়ের অধীনে ডিগ্রি, অনার্স ও মাস্টার্স পরীক্ষার সময়সীমা চার ঘণ্টা পুনর্বহালের দাবিতে মানববন্ধন করেছে মেহেরপুর সরকারি কলেজের শিক্ষার্থীরা।
মেহেরপুর: জাতীয় বিশ্ববিদ্যালয়ের অধীনে ডিগ্রি, অনার্স ও মাস্টার্স পরীক্ষার সময়সীমা চার ঘণ্টা পুনর্বহালের দাবিতে মানববন্ধন করেছে মেহেরপুর সরকারি কলেজের শিক্ষার্থীরা।
বৃহস্পতিবার (১১ আগস্ট) দুপুর দেড়টার দিকে সরকারি কলেজের সামনে এ মানববন্ধন হয়।
মানবন্ধনে বক্তব্য রাখেন- মেহেরপুর সরকারি কলেজের রাস্ট্রবিজ্ঞান বিভাগের ছাত্রী বৃষ্টি জান্নাত, ইসলামের ইতিহাস বিভাগের ছাত্র কুদরত-ই-খোদা রুবেল, বাংলা বিভাগের ছাত্র সানোয়ার হোসেন ও ডিগ্রি দ্বিতীয় বর্ষের ছাত্র মাসুদ রানা প্রমুখ।
