বাকৃবি (ময়মনসিংহ): বাংলাদেশ কৃষি বিশ্ববিদ্যালয়ে (বাকৃবি) বনজ সম্পদ ও জীববৈচিত্র্য ব্যবস্থাপনা বিষয়ক কর্মশালা অনুষ্ঠিত হয়েছে।
বুধবার (৮ ফেব্রুয়ারি) সকাল ১১টার দিকে কৃষি অনুষদের ফসল উদ্ভিদ বিজ্ঞান বিভাগে বাংলাদেশ বিশ্ববিদ্যালয় মঞ্জুরি কমিশন পরিচালিত হাইয়ার এডুকেশন কোয়ালিটি এনহেনসমেন্ট (হেকেপ) প্রজেক্টের আওতায় এ কর্মশালা আয়োজন করা হয়।
ফসল উদ্ভিদ বিজ্ঞান বিভাগের বিভাগীয় প্রধান অধ্যাপক ড.এ কে এম জাকির হোসেনের সভাপতিত্বে কর্মশালায় প্রধান অতিথি হিসেবে উপস্থিত ছিলেন বাকৃবি উপাচার্য অধ্যাপক ড. মো. আলী আকবর।
বিশেষ অতিথি হিসেবে উপস্থিত ছিলেন কৃষি অনুষদের ডিন অধ্যাপক মো. আবদুল কুদ্দুছ। এতে মূল প্রবন্ধ উপস্থাপন করেন ইসতিয়াক উদ্দিন আহমেদ।
