এক যুগ পর ফের এইচএসসি ও সমমানের পরীক্ষায় চালু হলো নম্বর পদ্ধতি। তবে এর সঙ্গে থাকছে গ্রেড পদ্ধতিও।
ঢাকা: এক যুগ পর ফের এইচএসসি ও সমমানের পরীক্ষায় চালু হলো নম্বর পদ্ধতি। তবে এর সঙ্গে থাকছে গ্রেড পদ্ধতিও।
দেখে নেওয়া যাক কতো নম্বর পেলে তার গ্রেড পয়েন্ট কতো এবং লেটার গ্রেড কি।
মাধ্যমিক ও উচ্চ মাধ্যমিক শিক্ষা বোর্ড থেকে প্রাপ্ত নম্বরকে লেটার গ্রেডে রুপান্তরের পদ্ধতি প্রকাশ করা হয়েছে।   ৮০ থেকে ১০০ নম্বর পেলে সেটি এ প্লাস হিসেবে বিবেচিত হবে। এক্ষেত্রে গ্রেড পয়েন্ট ৫।
এ গ্রেডের নম্বর সীমা ৭০ থেকে ৭৯ পর্যন্ত। এক্ষেত্রে গ্রেড পয়েন্ট ৪।
কোনো বিষয়ে ৬০ থেকে ৬৯ নম্বর পেলে সেটি এ মাইনাস হিসেবে বিবেচিত হবে। ৩ দশমিক ৫ গ্রেড পয়েন্ট গণনা হবে এ মাইনাসের জন্য।
লেটার গ্রেড বি এর গ্রেড পয়েন্ট ৩। আর এ লেটার গ্রেডের নম্বর সীমা ৫০ থেকে ৫৯।
সি গ্রেডে শিক্ষার্থীদের ৪০ থেকে ৪৯ নম্বর তুলতে হয়েছে। এক্ষেত্রে গ্রেড পয়েন্ট ২। কৃতকার্য হয়ে নূন্যতম ডি গ্রেড পেলে তার গ্রেড পয়েন্ট ১। আর এ গ্রেডের নম্বর সীমা ৩৩ থেকে ৩৯।
৩৩ এর কম নম্বর পেলেই এফ গ্রেড হিসেবে বিবেচিত হবে। ০ থেকে ৩২ নম্বর কোনো বিষয়ে পেলে এ নম্বর অকৃতকার্য হিসেবেই বিবেচিত হবে। যার কোনো গ্রেড পয়েন্ট নেই।
