ঢাকা বিশ্ববিদ্যালয় (ঢাবি) ২০১৬-২০১৭ শিক্ষাবর্ষে স্নাতক/স্নাতক (সম্মান) শ্রেণিতে প্রথমবর্ষে ভর্তি পরীক্ষার ফিন্যান্স অংশে এটি প্রশ্ন কম।
ঢাকা: ঢাকা বিশ্ববিদ্যালয় (ঢাবি) ২০১৬-২০১৭ শিক্ষাবর্ষে স্নাতক/স্নাতক (সম্মান) শ্রেণিতে প্রথমবর্ষে ভর্তি পরীক্ষার ফিন্যান্স অংশে এটি প্রশ্ন কম।
শুক্রবার (৩০) সকালে ঢাকা বিশ্ববিদ্যালয় ‘গ’ ইউনিটে ভর্তি পরীক্ষার সমন্বয়ক (ডিন) শিবলি রবায়দুল ইসলাম বাংলানিউজকে এ তথ্য জানান। তিনি বলেন, ঢাকা বিশ্ববিদ্যালয় (ঢাবি) ২০১৬-২০১৭ শিক্ষাবর্ষে স্নাতক/স্নাতক (সম্মান) শ্রেণির প্রথমবর্ষে ভর্তি পরীক্ষার ফিন্যান্স অংশের একটি প্রশ্ন কম রয়েছে।
তবে এ প্রশ্নের নম্বর দেওয়া হবে বলে জানান তিনি।
