দেশের সব পাবলিক বিশ্ববিদ্যালয়ের ভর্তি পরীক্ষার সম্ভাব্য সময়সূচি ঘোষণা করেছে পাবলিক বিশ্ববিদ্যালয় সমূহের উপাচার্যদের সংগঠন বাংলাদেশ বিশ্ববিদ্যালয়...
ঢাকা: দেশের সব পাবলিক বিশ্ববিদ্যালয়ের ভর্তি পরীক্ষার সম্ভাব্য সময়সূচি ঘোষণা করেছে পাবলিক বিশ্ববিদ্যালয় সমূহের উপাচার্যদের সংগঠন বাংলাদেশ বিশ্ববিদ্যালয় পরিষদের স্ট্যান্ডিং কমিটি।
মঙ্গলবার (১৯ জুলাই) বেলা ১১টায় শেরেবাংলা কৃষি বিশ্ববিদ্যালয়ের উপাচার্য কনফারেন্স কক্ষে কমিটির ২৪৭তম সভায় ২০১৬-১৭ শিক্ষাবর্ষের ভর্তি পরীক্ষার তারিখ ঘোষণা করা হয়। পাবলিক বিশ্ববিদ্যালয়সমূহে ভর্তি পরীক্ষা নির্বিঘ্নে করতে বাংলাদেশ বিশ্ববিদ্যালয় পরিষদের পক্ষ থেকে স্বরাষ্ট্র মন্ত্রণালয়কে চিঠি পাঠানোরও সিদ্ধান্ত হয়েছে।
বাংলাদেশ বিশ্ববিদ্যালয় পরিষদের সভাপতি ও মাওলানা ভাসানী বিজ্ঞান ও প্রযুক্তি বিশ্ববিদ্যালয়ের উপাচার্য অধ্যাপক ড. মো. আলাউদ্দিন সভায় সভাপতিত্ব করেন।
এতে শেরেবাংলা কৃষি বিশ্ববিদ্যালয়ের উপাচার্য অধ্যাপক মো. শাদাত উল্লা ছাড়াও জাহাঙ্গীরনগর বিশ্ববিদ্যালয়ের উপাচার্য অধ্যাপক ড. ফারজানা ইসলাম, রাজশাহী বিশ্ববিদ্যালয় উপাচার্য মোহাম্মদ মিজান উদ্দিন, বেগম রোকেয়া বিশ্ববিদ্যালয়ের উপাচার্য ড. এ.কে.এম নূর-উন-নবী, কুমিল্লা বিশ্ববিদ্যালয়ের উপাচার্য ড. মো. আলী আশরাফসহ ২৬টি বিশ্ববিদ্যালয়ের উপাচার্যরা উপস্থিত ছিলেন।
পরিষদের পক্ষে শেরেবাংলা বিশ্ববিদ্যালয় থেকে পাঠানো সংবাদ বিজ্ঞপ্তিতে জানানো হয়, সভায় বিশ্ববিদ্যালয় সমূহের ভর্তি পরীক্ষা ও আনুসঙ্গিক বিভিন্ন বিষয় নিয়ে আলোচনা হয়। ভর্তি পরীক্ষার সম্ভাব্য তারিখগুলো হলো-
প্রকৌশল বিশ্ববিদ্যালয়: বাংলাদেশ প্রকৌশল বিশ্ববিদ্যালয়ে (বুয়েট) ২২ অক্টোবর, চট্টগ্রাম প্রকৌশল ও প্রযুক্তি বিশ্ববিদ্যালয়ে ৫ নভেম্বর, রাজশাহী প্রকৌশল ও প্রযুক্তি বিশ্ববিদ্যালয়ে ২৬ অক্টোবর, খুলনা প্রকৌশল ও প্রযুক্তি বিশ্ববিদ্যালয়ে ২৮ অক্টোবর, বাংলাদেশ টেক্সটাইল বিশ্ববিদ্যালয়ে ঢাকা ১৮ নভেম্বর।
কৃষি বিশ্ববিদ্যালয়: ঢাকায় শেরেবাংলা কৃষি বিশ্ববিদ্যালয়ে ৯ ডিসেম্বর, ময়মনসিংহে বাংলাদেশ কৃষি বিশ্ববিদ্যালয়ে ২৯ অক্টোবর, গাজীপুরে বঙ্গবন্ধু শেখ মুজিবুর রহমান কৃষি বিশ্ববিদ্যালয়ে ৮ নভেম্বর, সিলেট কৃষি বিশ্ববিদ্যালয়ে ২৫ নভেম্বর, চট্টগ্রাম ভেটেরিনারি ও অ্যানিমেল সায়েন্সেস বিশ্ববিদ্যালয়ে ৩ ডিসেম্বর ভর্তি পরীক্ষা অনুষ্ঠিত হবে।
বিজ্ঞান ও প্রযুক্তি বিশ্ববিদ্যালয়: সিলেটে শাহজালাল বিজ্ঞান ও প্রযুক্তি বিশ্ববিদ্যালয়ে ২৬ নভেম্বর, দিনাজপুরে হাজী মোহাম্মদ দানেশ বিজ্ঞান ও প্র০যুক্তি বিশ্ববিদ্যালয়ে ১৮ থেকে ২১ ডিসেম্বর, যশোর বিজ্ঞান ও প্রযুক্তি বিশ্ববিদ্যালয়ে ৪-৭ নভেম্বর, টাঙ্গাইলের মাওলানা ভাসানী বিজ্ঞান ও প্রযুক্তি বিশ্ববিদ্যালয়ে ১০ ও ১১ ডিসেম্বর, পটুয়াখালী বিজ্ঞান ও প্রযুক্তি বিশ্ববিদ্যালয়ে ২ ডিসেম্বর, নোয়াখালী বিজ্ঞান ও প্রযুক্তি বিশ্ববিদ্যালয়ে ১১ ও ১২ নভেম্বর এবং পাবনা বিজ্ঞান ও প্রযুক্তি বিশ্ববিদ্যালয় ২৩ ডিসেম্বর।
অন্যান্য বিশ্ববিদ্যালয়: ঢাকা বিশ্ববিদ্যালয়ে ২৩, ২৪ ও ৩০ সেপ্টেম্বর এবং ২১ ও ২৮ অক্টোবর; জগন্নাথ বিশ্ববিদ্যালয়ে ঢাকা বিশ্ববিদ্যালয় দিন বিকেলে, জাহাঙ্গীরনগর বিশ্ববিদ্যালয়ে ১৯ থেকে ২৭ নভম্বের, রাজশাহী বিশ্ববিদ্যালয়ে ২৩-২৭ অক্টোবর, চট্টগ্রাম বিশ্ববিদ্যালয়ে ২৩-৩১ অক্টোবর, খুলনা বিশ্ববিদ্যালয়ে ৩-৫ নভেম্বর, কুষ্টিয়া ইসলামী বিশ্ববিদ্যালয়ে ১৯-২৪ নভেম্বর, ত্রিশালে জাতীয় কবি কাজী নজরুল ইসলাম বিশ্ববিদ্যালয়ে ২৪-২৮ নভেম্বর, বরিশাল বিশ্ববিদ্যালয়ে ১৮ ও ১৯ নভেম্বর, রংপুরে বেগম রোকেয়া বিশ্ববিদ্যালয়ে ১৩-১৭ নভেম্বর, বাংলাদেশ ইউনিভার্সিটি অব প্রফেশনালস ১৪, ১, ২১ ও ২২ অক্টোবর, কুমিল্লা বিশ্ববিদ্যালয়ে ২, ৩ ও ৯ ডিসেম্বর, ইসলামি আরবি বিশ্ববিদ্যালয়ে ২৬ ডিসেম্বর (ফাজিল সম্মান) ৮-২০ জানুয়ারি (ফাজিল পাস)।
