ময়মনসিংহ : ময়মনসিংহে এসএসসি ও দাখিল (ভোকেশনাল) নবম শ্রেণির পরীক্ষার প্রস্তুতিমূলক সভা অনুষ্ঠিত হয়েছে।
মঙ্গলবার (১০ অক্টোবর) বেলা ১১টার দিকে জেলা প্রশাসকের সম্মেলন কক্ষে এ সভা অনুষ্ঠিত হয়।
ময়মনসিংহ জেলা প্রশাসক (ডিসি) খলিলুর রহমান এতে সভাপতিত্ব করেন।
সভায় বক্তব্য রাখেন- অতিরিক্ত জেলা প্রশাসক (এডিসি) এস কে বেলায়েত হোসেন।
সভায় ময়মনসিংহের বিভিন্ন বিদ্যালয়ের প্রধান শিক্ষকরা উপস্থিত ছিলেন।
সভায় জেলা প্রশাসক (ডিসি) খলিলুর রহমান নকলমুক্ত পরিবেশে পরীক্ষা অনুষ্ঠানের নির্দেশ দেন।
