ভারতের আসাম বিশ্ববিদ্যালয় (শিলচর)-এর প্রতিনিধিদল জগন্নাথ বিশ্ববিদ্যালয়ের উপাচার্য অধ্যাপক ড. মীজানুর রহমানের সঙ্গে সৌজন্য সাক্ষাৎ করেছেন।  
জগন্নাথ বিশ্ববিদ্যালয় (জবি): ভারতের আসাম বিশ্ববিদ্যালয় (শিলচর)-এর প্রতিনিধিদল জগন্নাথ বিশ্ববিদ্যালয়ের উপাচার্য অধ্যাপক ড. মীজানুর রহমানের সঙ্গে সৌজন্য সাক্ষাৎ করেছেন।  
রোববার (০৩ মার্চ) জবি উপাচার্যের কার্যালয়ে এ সাক্ষাৎ অনুষ্ঠিত হয়।
সাক্ষাৎ কালে দুটি শিক্ষা প্রতিষ্ঠানের মধ্যে ভার্চুয়াল ক্লাস রুমে শিক্ষা গ্রহণ, মতবিনিময়সহ গবেষণা কার্যক্রম পরিচালনা, ফেলোশিপ, প্রি-ডক্টরেট অ্যাওয়ার্ড প্রদান, একাডেমিক এক্সচেঞ্জ প্রোগ্রাম ইত্যাদি কার্যক্রম সম্পর্কে আলোচনা হয়।
এসময় আসাম বিশ্ববিদ্যালয়ের জওহরলাল নেহেরু অব ম্যানেজমেন্টের ডিন অধ্যাপক ড. অপূর্ব মজুমদার, জগন্নাথ বিশ্ববিদ্যালয়ের ব্যবসায় শিক্ষা অনুষদের ডিন অধ্যাপক ড. মনিরুজ্জামান প্রমুখ উপস্থিত ছিলেন।
