ঢাকা: জাতীয় বিশ্ববিদ্যালয়ের ২০১৬ সালের স্মাতক (সম্মান) তৃতীয়বর্ষের পরীক্ষার ফরম পূরণ অনলাইনে আগামী ৮ জানুয়ারি শুরু হবে। যা চলবে ২৮ জানুয়ারি পর্যন্ত।
বৃহস্পতিবার (০৫ জানুয়ারি) দুপুরে জাতীয় বিশ্ববিদ্যালয়ের পাঠানো এক সংবাদ বিজ্ঞপ্তিতে এ তথ্য ‍জানানো হয়েছে।
এতে বলা হয়, ফরম পূরণসহ অন্যান্য বিস্তারিত তথ্য জাতীয় বিশ্ববিদ্যালয়ের ওয়েবসাইট (www.nu.edu.bd) এবং (www.nubd.info/honours) থেকে জানা যাবে।
বাংলাদেশ সময়: ১৯৪৩ ঘণ্টা, জানুয়ারি ০৫, ২০১৬
