ঈদ-উল আজহা উপলক্ষে সাভারের গণ বিশ্ববিদ্যালয়ে আগামী ১০ সেপ্টেম্বর (শনিবার) থেকে সব ক্লাস ও পরীক্ষা বন্ধ থাকবে।
গণ বিশ্ববিদ্যালয় (সাভার): ঈদ-উল আজহা উপলক্ষে সাভারের গণ বিশ্ববিদ্যালয়ে আগামী ১০ সেপ্টেম্বর (শনিবার) থেকে সব ক্লাস ও পরীক্ষা বন্ধ থাকবে। 
ঈদের ছুটি ১৫ সেপ্টেম্বর (বৃহস্পতিবার) পর্যন্ত চলবে বলে বিশ্ববিদ্যালয়ের রেজিস্ট্রার স্বাক্ষরিত বিজ্ঞপ্তিতে জানানো হয়।   বিজ্ঞপ্তি অনুযায়ী, আগামী ১১ সেপ্টেম্বর থেকে ১৩ সেপ্টেম্বর পর্যন্ত গণ বিশ্ববিদ্যালয়ের সব অফিস বন্ধ থাকবে। ছুটি শেষে ১৭ সেপ্টেম্বর (শনিবার) থেকে বিশ্ববিদ্যালয়ের ক্লাস, পরীক্ষা ও অফিসিয়াল কার্যক্রম শুরু হবে।
