কুষ্টিয়া: কুষ্টিয়ার মিরপুর উপজেলায় এসএসসির রসায়ন বিজ্ঞান পরীক্ষার সেটকোড জালিয়াতির অভিযোগে নয় শিক্ষক ও ১৮ পরীক্ষার্থীকে বহিষ্কার করা হয়েছে। 
বৃহস্পতিবার (১৫ ফেব্রুয়ারি) পরীক্ষা চলাকালে মিরপুর সরকারি বালিকা উচ্চ বিদ্যালয় কেন্দ্রে এ ঘটনা ঘটে। 
পরীক্ষা কেন্দ্রে দায়িত্বরত নির্বাহী ম্যাজিস্ট্রেট ও উপজেলা নির্বাহী কর্মকর্তা (ইউএনও) এস এম জামাল আহমেদ তাদের বহিষ্কার করেন। 
নৈব্যত্তিকের উত্তরপত্রে সেটকোড জালিয়াতির অভিযোগে ১০৯ নম্বর কক্ষ থেকে তিন পরীক্ষার্থী, ১১০ নম্বর কক্ষ থেকে চার ও ১১১ নস্বর কক্ষ থেকে ১১ পরীক্ষার্থীকে বহিষ্কার করা হয়। এছাড়া ওই তিনটি কক্ষের কক্ষ পরিদর্কের দায়িত্বে থাকা নয় শিক্ষককে পরীক্ষার দায়িত্ব থেকে স্থায়ীভাবে বহিষ্কার করা হয়। 
বহিষ্কৃত শিক্ষকরা হলেন-ছতিয়ান মাধ্যমিক বিদ্যালয়ের সহকারী শিক্ষক মহি উদ্দিন, শফি উদ্দিন, বাবুল হোসেন, কুরিপোল আদর্শ মাধ্যমিক বিদ্যালয়ের সহকারী শিক্ষক শামীম আলী, বলিদাপাড়া মাধ্যমিক বালিকা বিদ্যালয়ের সহকারী শিক্ষক নজরুল ইসলাম, নূর আমিন, বরিয়া মাধ্যমিক বিদ্যালয়ের সহকারী শিক্ষক আব্দুল মতিন, ফুলবাড়ীয়া মাধ্যমিক বিদ্যালয়ের সহকারী শিক্ষক ইয়ার আলী ও মেজবাউল হক। 
