জবি: জগন্নাথ বিশ্ববিদ্যালয় (জবি) শিক্ষকদের ব্যবহারের জন্য একটি গাড়ি দেওয়ার সিদ্ধান্ত নিয়েছে ম্যাকসন্স স্পিনিং লিমিটেড।
বুধবার (১১ অক্টোবর) বিশ্ববিদ্যালয়ের তথ্য ও গণসংযোগ দফতর থেকে পাঠানো এক বিজ্ঞপ্তিতে এ তথ্য জানানো হয়।
এতে জানানো হয়, ম্যাকসন্স স্পিনিং লিমিটেডের ৬৪তম বোর্ড সভায় সিএসআর (করপোরেট সোশ্যাল রেসপনসিবিলিটি) কর্মসূচির আওতায় জগন্নাথ বিশ্ববিদ্যালয়কে একটি গাড়ি দেওয়ার সিদ্ধান্ত নেওয়া হয়েছে।
প্রত্যুত্তরে বিশ্ববিদ্যালয় কর্তৃপক্ষ প্রতিষ্ঠানটির পরিচালনা বোর্ড ও সংশ্লিষ্ট সকলকে ধন্যবাদ জ্ঞাপন করে ভবিষ্যতে এ দুই প্রতিষ্ঠানের মাঝে আন্তঃসহযোগিতা বৃদ্ধি পাবে বলে আশাবাদ ব্যক্ত করেন।
