সাভারের গণ বিশ্ববিদ্যালয়ের অনুজীব বিজ্ঞান বিভাগের ৩০তম ব্যাচের নবীনবরণ ও ২২তম ব্যাচের বিদায় সংবর্ধনা অনুষ্ঠিত হয়েছে।
গণ বিশ্ববিদ্যালয় (সাভার): সাভারের গণ বিশ্ববিদ্যালয়ের অনুজীব বিজ্ঞান বিভাগের ৩০তম ব্যাচের নবীনবরণ ও ২২তম ব্যাচের বিদায় সংবর্ধনা অনুষ্ঠিত হয়েছে।
 
বৃহস্পতিবার (৪ আগস্ট) বিশ্ববিদ্যালয়ের ৪১৭ নম্বর কক্ষে অনু জীববিজ্ঞান বিভাগের ২৩তম ব্যাচ এ অনুষ্ঠানের আয়োজন করে।
বিভাগের বিভাগীয় প্রধান অধ্যাপক ড. মো. মোস্তাফিজার রহমানের সভাপতিত্বে অনুষ্ঠানে প্রধান অতিথি ছিলেন বিশ্ববিদ্যালয়ের ভারপ্রাপ্ত উপাচার্য প্রফেসর ডা. মো. দেলোয়ার হোসেন।
বিশেষ অতিথি ছিলেন বিশ্ববিদ্যালয়ের রেজিস্ট্রার মো. দেলোয়ার হোসেন, বিশ্ববিদ্যালয়ের সাবেক ভিসি প্রফেসর ড. মেসবাহউদ্দীন আহমেদ।
উপস্থিত ছিলেন কলা ও সমাজ বিজ্ঞান অনুষদের ডিন ড. মো. নজরুল ইসলাম ও বিভাগের শিক্ষকসহ প্রায় তিন শতাধিক শিক্ষার্থী।
প্রধান অতিথি তার বক্তব্যে জ্ঞান অর্জনের মাধ্যমে ভবিষ্যৎ চ্যালেঞ্জ মোকাবেলার জন্য নবীনদের আহ্বান জানান।
এ সময় তিনি নবীন ও প্রবীণ শিক্ষার্থীদের মঙ্গল কামনা করেন।
দুই পর্বের অনুষ্ঠানে সঞ্চালক ছিলেন বিভাগের শিক্ষার্থী জাকির হোসেন মানিক ও শারমিন ইসলাম।
অনুষ্ঠানের প্রথম পর্ব আলোচনার মাধ্যমে শেষ হয়। দ্বিতীয় পর্বে শিক্ষার্থীদের অংশগ্রহণে কবিতা, নাচ-গান, নাটক  ও সবশেষে সাভারের স্থানীয় ব্যান্ড দলের কনসার্ট অনুষ্ঠিত হয়।
