জাহাঙ্গীরগর বিশ্ববিদ্যালয় (জাবি) ২০১৬-১৭ শিক্ষাবর্ষে প্রথম বর্ষ স্নাতক (সম্মান) শ্রেণিতে ভর্তি পরীক্ষার ‘ডি’ ইউনিটের (জীব বিজ্ঞান অনুষদ) ফল প্রকাশ করা হয়েছে।
জাহাঙ্গীরনগর বিশ্ববিদ্যালয়: জাহাঙ্গীরগর বিশ্ববিদ্যালয় (জাবি) ২০১৬-১৭ শিক্ষাবর্ষে প্রথম বর্ষ স্নাতক (সম্মান) শ্রেণিতে ভর্তি পরীক্ষার ‘ডি’ ইউনিটের (জীব বিজ্ঞান অনুষদ) ফল প্রকাশ করা হয়েছে।
 
সোমবার (২১ নভেম্বর) সন্ধ্যা ৬টায় বিশ্ববিদ্যালয় ওয়েবসাইটে এ ফল প্রকাশ করা হয়। বিশ্ববিদ্যালয়ের ওয়েবসাইট ju-admission.org থেকে বিস্তারিত ফলাফল পাওয়া যাবে।
রেজিস্ট্রার অফিস সূত্রে জানা যায়, ‘ডি’ ইউনিটের (জীব বিজ্ঞান অনুষদ) ৩৭৪টি আসনের বিপরীতে ৫৬ হাজার ৭শ’ শিক্ষার্থী আবেদন করেন।
ফলাফলে সর্বোচ্চ নম্বরের ভিত্তিতে সংশ্লিষ্ট ইউনিটের আসন সংখ্যার সর্বাধিক দশগুন (১০) ছাত্র-ছাত্রীদের পৃথক মেধা তালিকা প্রকাশ করা হয়েছে।
