জাহাঙ্গীরনগর বিশ্ববিদ্যালয় (জাবি) ২০১৬-১৭ শিক্ষাবর্ষে প্রথম বর্ষের স্নাতক (সম্মান) শ্রেণিতে ভর্তি পরীক্ষার ‘এ’ ইউনিটের (গাণিতিক ও পদার্থ বিষয়ক অনুষদ) ফল প্রকাশ করা হয়েছে।
জাহাঙ্গীরনগর বিশ্ববিদ্যালয়: জাহাঙ্গীরনগর বিশ্ববিদ্যালয় (জাবি) ২০১৬-১৭ শিক্ষাবর্ষে প্রথম বর্ষের স্নাতক (সম্মান) শ্রেণিতে ভর্তি পরীক্ষার ‘এ’ ইউনিটের (গাণিতিক ও পদার্থ বিষয়ক অনুষদ) ফল প্রকাশ করা হয়েছে।
রোববার (২০ নভেম্বর) রাত ৯টায় বিশ্ববিদ্যালয় ওয়েবসাইটে এ ফল জানানো হয়।
এছাড়া ভর্তি পরীক্ষার ফল আবেদনকারীর মোবাইল নম্বরে এসএমএস মাধ্যমে জানিয়ে দেওয়া হবে।
রেজিস্ট্রার অফিস সূত্রে জানা যায়, ‘এ’ ইউনিটের ৪৫১টি আসনের বিপরীতে ৪৮ হাজার ৭শ শিক্ষার্থী আবেদন করে। ফলাফলে সর্বোচ্চ নম্বরের ভিত্তিতে সংশ্লিষ্ট ইউনিট-বিভাগের আসন সংখ্যার সর্বাধিক দশগুন শিক্ষার্থীর আলাদা মেধা তালিকা প্রকাশ করা হয়েছে।
