বগুড়ার শাজাহানপুর উপজেলা পরিষদের উদ্যোগে গরিব ও মেধাবী শিক্ষার্থীদের মধ্যে শিক্ষা বৃত্তি দেওয়া হয়েছে। মঙ্গলবার (০৬ সেপ্টেম্বর) বিকেলে উপজেলা পরিষদ অডিটোরিয়ামে এক অনুষ্ঠানের মধ্যে দিয়ে তাদের শিক্ষা বৃত্তি দেওয়া হয়।
বগুড়া: বগুড়ার শাজাহানপুর উপজেলা পরিষদের উদ্যোগে গরিব ও মেধাবী শিক্ষার্থীদের মধ্যে শিক্ষা বৃত্তি দেওয়া হয়েছে।
মঙ্গলবার (০৬ সেপ্টেম্বর) বিকেলে উপজেলা পরিষদ অডিটোরিয়ামে এক অনুষ্ঠানের মধ্যে দিয়ে তাদের শিক্ষা বৃত্তি দেওয়া হয়।
উপজেলা নির্বাহী কর্মকর্তা (ইউএনও) শফিউল ইসলামের সভাপতিত্বে এতে প্রধান অতিথি হিসেবে বক্তব্য রাখেন জেলা প্রশাসক (ডিসি) মো.আশরাফ উদ্দিন।
বিশেষ অতিথি হিসেবে বক্তব্য রাখেন, উপজেলা পরিষদের (ইউপি) চেয়ারম্যান সরকার বাদল, ভাইস চেয়ারম্যান (নারী) কোহিনুর আক্তার, ভাইস চেয়ারম্যান জহুরুল ইসলাম। স্বাগত বক্তব্য রাখেন উপজেলা মাধ্যমিক শিক্ষা কর্মকর্তা গোলাম মাহবুব মোর্শেদ।   অন্যদের মধ্যে বক্তব্য রাখেন- মাঝিড়া মডেল উচ্চ বিদ্যালয়ের প্রধান শিক্ষক মিজানুর রহমান, ডেমাজানী উচ্চ বিদ্যালয়ের প্রধান শিক্ষক আব্দুল্লাহ আহমদ আল মুতী।
এ সময় উপজেলা পরিষদের রাজস্ব তহবিল থেকে বিভিন্ন শিক্ষা প্রতিষ্ঠানের ৬৬ জন গরিব ও মেধাবী শিক্ষার্থীকে ৩ হাজার টাকা করে শিক্ষা বৃত্তি দেওয়া হয়।
পরে প্রধান অতিথি মাঝিড়া মডেল উচ্চ বিদ্যালয়ে ‘ডিজিটাল অ্যাটেনডেন্স’ কর্মসূচিরও উদ্বোধন করেন।
