বরিশাল বিশ্ববিদ্যালয় (ববি) শিক্ষক সমিতির সাধারণ সম্পাদকসহ ৪ জন পদত্যাগ করেছেন। তবে এরমধ্যে শুধু সাধারণ সম্পাদক লিখিতভাবে সংশ্লিস্ট ব্যক্তির কাছে পদত্যাগপত্র জমা দিয়েছেন। বাকী ৩ জন মৌখিকভাবে পদত্যাগ করার বিষয়টি জানিয়েছেন।
বরিশাল: বরিশাল বিশ্ববিদ্যালয় (ববি) শিক্ষক সমিতির সাধারণ সম্পাদকসহ ৪ জন পদত্যাগ করেছেন। তবে এরমধ্যে শুধু সাধারণ সম্পাদক লিখিতভাবে সংশ্লিস্ট ব্যক্তির কাছে পদত্যাগপত্র জমা দিয়েছেন। বাকী ৩ জন মৌখিকভাবে পদত্যাগ করার বিষয়টি জানিয়েছেন।
 
বুধবার (৩০ মার্চ) সকালে সমিতির সভাপতি আরিফ হোসেন বাংলানিউজকে নিশ্চিত করেছেন।
তিনি জানান, সমিতির কার্যকরি পরিষদের সাধারণ সভা গভীর রাতে শেষ হওয়ার পর সম্পাদক পদত্যাগ পত্র দিয়েছেন। এছাড়া কার্যকরি পরিষদের সদস্য রাসেদ মোশারফ, সাদিকুর রহমান ও সঞ্জয় কুমার পদত্যাগ করবেন বলে মৌখিকভাবে জানিয়েছেন। তাদের বুধবার লিখিতভাবে পদত্যাগপত্র জমা দেওয়ার কথা রয়েছে।
এরা সবাই ব্যক্তিগত সমস্যা দেখিয়ে পদত্যাগ করেছেন বলে জানিয়েছেন সভাপতি আরিফ হোসেন।
