বরিশাল: বরিশাল বিশ্ববিদ্যালয়ে (ববি) বীরশ্রেষ্ঠ শহীদ ক্যাপ্টেন মহিউদ্দীন জাহাঙ্গীর একাডেমিক ভবনের তৃতীয় তলায় নব-নির্মিত ছাত্রী মিলনায়তন উদ্বোধন করা হয়েছে।
সোমবার (৭ আগস্ট) বেলা ১১টায় বরিশাল বিশ্ববিদ্যালয়ের উপাচার্য প্রফেসর ড. এস এম ইমামুল হক ছাত্রী মিলনায়তনটি উদ্বোধন করেন।
এসময় উপস্থিত ছিলেন- বিশ্ববিদ্যালয়ের ট্রেজারার অধ্যাপক ড. এ কে এম মাহবুব হাসান, বিভিন্ন অনুষদের ডিন, রেজিস্ট্রার, প্রক্টর, বিভাগীয় প্রধান, প্রভোস্ট, ছাত্রকল্যাণ পরামর্শ কেন্দ্রের পরিচালক, শিক্ষক, শিক্ষক সমিতির সভাপতি, সাধারণ সম্পাদক এবং বিভিন্ন বিভাগের ছাত্রীরা।
এ ছাত্রী মিলনায়তনটি উদ্বোধনের মাধ্যমে শিক্ষার্থীদের একটি দাবি পূরণ হয়েছে।
উপাচার্যের নির্দেশে ছাত্রী মিলনায়তনটি নির্মাণ করে বিশ্ববিদ্যালয় প্রকৌশল শাখা।
