সিলেট: সিলেট কৃষি বিশ্ববিদ্যালয়ের (সিকৃবি) ২০১৬-২০১৭ শিক্ষাবর্ষে ছয়টি অনুষদে স্নাতক লেভেল-১ সেমিস্টার-১ এর দ্বিতীয় অপেক্ষমাণ তালিকা বিশ্ববিদ্যালয়ের ওয়েবসাইটে (www.sau.ac.bd) প্রকাশ করা হয়েছে।
সোমবার (২ জানুয়ারি) বিশ্ববিদ্যালয় গণসংযোগ দফতর থেকে পাঠানো এক সংবাদ বিজ্ঞপ্তিতে এ তথ্য জানানো হয়।
বিজ্ঞপ্তিতে জানানো হয়, রোববার (৮ জানুয়ারি) দ্বিতীয় অপেক্ষমাণ তালিকায় স্থান পাওয়া শিক্ষার্থীদের দুপুর ১২টার মধ্যে বিশ্ববিদ্যালয়ে এসে রিপোর্ট করতে হবে।
এছাড়াও ওরিয়েন্টেশন ৩ জানুয়ারির পরিবর্তে ১৪ জানুয়ারি সকাল ১০টায় অনুষ্ঠিত হবে। ৪ জানুয়ারির পরিবর্তে ক্লাস শুরু হবে ১৫ জানুয়ারিতে।
বাংলাদেশ সময়: ১৬১৮ ঘণ্টা, জানুয়ারি ০২, ২০১৭
