দিনাজপুর: হাজী মোহাম্মদ দানেশ বিজ্ঞান ও প্রযুক্তি বিশ্ববিদ্যালয়ের(হাবিপ্রবি) উপাচার্য(ভিসি) প্রফেসর ড. আবুল কাসেমকে লাঞ্ছিত করার প্রতিবাদে মানববন্ধন অনুষ্ঠিত হয়েছে।
মঙ্গলবার (২১ নভেম্বর)দুপুরে বিশ্ববিদ্যালয় ক্যাম্পাস চত্বরে ভিসি সমর্থিত শিক্ষক-শিক্ষার্থী, কর্মকর্তা-কর্মচারীদের উদ্যোগে এ মানববন্ধন অনুষ্ঠিত হয়।
মানববন্ধনে বক্তব্য রাখেন পোস্টগ্রাজুয়েট স্টাডিজ অনুষদের ডিন প্রফেসর মো. মিজানুর রহমান, ছাত্র পরামর্শ ও নির্দেশনা বিভাগের পরিচালক প্রফেসর ড. মো. শাহাদাৎ হোসেন খান, মুক্তিযুদ্ধের চেতনায় বিশ্বাসী শিক্ষক পরিষদের সাধারণ সম্পাদক ও ভেটেরিনারি অ্যান্ড এনিমেল সায়েন্স অনুষদের ডিন প্রফেসর ডা. মো. ফজলুল হক, সহকারী প্রক্টর সৌরভ পাল চৌধুরী, পিএসটু ভাইস চ্যান্সেলর ও সেকশন কর্মকর্তা মোহাম্মদ সামসুজ্জোহা বাদশা, ফজিলাতুন্নেসা মুজিব হলের সহকারী প্রশাসনিক কর্মকর্তা কাজী নিশাত সুলতানা, কর্মচারী মো. আব্দুর রহিম, শ্রমিক নেতা রাজু আহমেদ, ছাত্রলীগ নেতা ভেটেরিনারি অনুষদের লেভেল-৫ এর ছাত্র মো. মারুফ, কৃষি অনুষদের লেভেল-৪ এর ছাত্র রিয়াদ খান, কৃষি অনুষদের লেভেল-৩ এর সাধারণ শিক্ষার্থী সাদিয়া ইয়াসমিন প্রমুখ।
মানববন্ধনে বক্তারা ভিসিকে লাঞ্ছিত করার ঘটনায় জড়িতদের দৃষ্টান্তমূলক শাস্তি নিশ্চিত করার দাবি জানান।
