ইসলামী বিশ্ববিদ্যালয়ের (ইবি) নিখোঁজ থাকা ৫৩ শিক্ষার্থীর নাম প্রকাশ করেছে বিশ্ববিদ্যালয় কর্তৃপক্ষ।
কুষ্টিয়া: ইসলামী বিশ্ববিদ্যালয়ের (ইবি) নিখোঁজ থাকা ৫৩ শিক্ষার্থীর নাম প্রকাশ করেছে বিশ্ববিদ্যালয় কর্তৃপক্ষ।   শুক্রবার (০৯ সেপ্টেম্বর) দুপুরে বিশ্ববিদ্যালয়ের নিজস্ব ওয়েবসাইটে নিখোঁজ ছাত্র-ছাত্রীদের তালিকা প্রকাশ করা হয়।
এতে ইবির ভারপ্রাপ্ত রেজিস্ট্রার এস এম আব্দুল লতিফ স্বাক্ষর রয়েছে।   নিখোঁজদের মধ্যে রয়েছে ফোকলোর স্টাডিজ বিভাগের ৬ জন, ব্যবস্থাপনা বিভাগের ১১ জন, ফিন্যান্স অ্যান্ড ব্যাংকিং বিভাগের ১৩ জন, মার্কেটিং বিভাগের ৫ জন এবং ফলিত রসায়ন ও রাসায়নিক প্রযুক্তি বিভাগের ১৮ জন রয়েছেন।
