বরিশাল বিশ্ববিদ্যালয়ের (ববি) প্রথম রেজিস্ট্রার হিসেবে নিয়োগ পেয়েছেন মো. মনিরুল ইসলাম। সম্প্রতি অনুষ্ঠিত ববি সিন্ডিকেটের ৩৫তম সভায় রেজিস্ট্রার পদে মো. মনিরুল ইসলামকে নিয়োগের সিদ্ধান্ত হয়।  
বরিশাল: বরিশাল বিশ্ববিদ্যালয়ের (ববি) প্রথম রেজিস্ট্রার হিসেবে নিয়োগ পেয়েছেন মো. মনিরুল ইসলাম।
 
সম্প্রতি অনুষ্ঠিত ববি সিন্ডিকেটের ৩৫তম সভায় রেজিস্ট্রার পদে মো. মনিরুল ইসলামকে নিয়োগের সিদ্ধান্ত হয়।  
মো. মনিরুল ইসলাম ইতোপূর্বে বিশ্ববিদ্যালয়ের ডেপুটি রেজিস্ট্রার ছিলেন। তবে তিনি একই সময়ে রেজিস্ট্রারের চলতি দায়িত্ব এবং বাংলাদেশ ইসলামী আরবি বিশ্ববিদ্যালয়ের রেজিস্ট্রারের দায়িত্ব পালন করেছেন।
