দেশের সকল শিক্ষা প্রতিষ্ঠানে প্রতিদিনের সমাবেশে জাতীয় সঙ্গীত গাওয়া ও এর পূর্বে জঙ্গিবাদ বিরোধী সচেতনতামূলক বক্তব্য দিতে নির্দেশ দিয়েছে সরকার। শিক্ষার্থীদের মাঝে জঙ্গিবাদ ও সন্ত্রাসবাদ বিরোধী সচেতনতা তৈরিই এর লক্ষ্য ও উদ্দেশ্য বলে স্বরাষ্ট্র মন্ত্রণালয়ের চিঠিতে লেখা রয়েছে।
ঢাকা: দেশের সকল শিক্ষা প্রতিষ্ঠানে প্রতিদিনের সমাবেশে জাতীয় সঙ্গীত গাওয়া ও এর পূর্বে জঙ্গিবাদ বিরোধী সচেতনতামূলক বক্তব্য দিতে নির্দেশ দিয়েছে সরকার। শিক্ষার্থীদের মাঝে জঙ্গিবাদ ও সন্ত্রাসবাদ বিরোধী সচেতনতা তৈরিই এর লক্ষ্য ও উদ্দেশ্য বলে স্বরাষ্ট্র মন্ত্রণালয়ের চিঠিতে লেখা রয়েছে। ডেইলিএডুকেশনডটনেট-এর এক প্রতিবেদনে এ কথা বলা হয়েছে।
সম্প্রতি স্বরাষ্ট্র মন্ত্রণালয়ের বৈঠকে নেওয়া জঙ্গিবাদ বিরোধী কতিপয় সিদ্ধান্ত বাস্তবায়ন করতে শিক্ষা মন্ত্রণালয়কে চিঠি দিয়ে অনুরোধ জানানো হয়েছে।
স্বরাষ্ট্র মন্ত্রণালয়ের চিঠি পাবার পর শিক্ষা মন্ত্রণালয় গত ৩০ অক্টোবর সকল শিক্ষা প্রতিষ্ঠানকে প্রতিদিনের সমাবেশে জাতীয় সঙ্গীত গাওয়া এবং এর আগে জঙ্গিবাদ বিরোধী সচেতনামূলক বক্তৃতা দেওয়ার নির্দেশ সংক্রান্ত চিঠি দেয়।
রিপোর্টে বলা হয় স্বরাষ্ট্র ও শিক্ষা মন্ত্রণালয়ের ওই চিঠিতে লেখা আছে, ‘দেশে জঙ্গিবাদ দমনে সামাজিক সচেতনতা বৃদ্ধিসহ উদ্বুদ্ধকরণ কার্যক্রম গ্রহণ ও সমন্বয়ের লক্ষ্যে স্বরাষ্ট্র প্রতিমন্ত্রীর সভাপতিত্বে অনুষ্ঠিত ‘জঙ্গিবাদ প্রতিরোধ এবং প্রতিকার’ কমিটির ১২ তম সভায় শিক্ষা মন্ত্রণালয় সংশ্লিষ্ট দুটি সিদ্ধান্ত গৃহীত হয়’।
প্রথম সিদ্ধান্ত হলো- ‘শিক্ষা প্রতিষ্ঠানসমূহে বিশেষ করে জঙ্গিবাদের ভয়াবহতা ও নেতিবাচক দিক সম্পর্কে আলোচনাসভা/বক্তৃতার আয়োজনের মাধ্যমে শিক্ষার্থীদের মাঝে জঙ্গিবাদ ও সন্ত্রাসবাদ বিরোধী সচেতনতা ও সার্বজনীন মানবিক মূল্যবোধ সৃষ্টির ব্যবস্থা গ্রহণ করতে হবে’।
দ্বিতীয় সিদ্ধান্ত, ‘প্রতিদিনের সমাবেশে জাতীয় সঙ্গীত বাজানো হয় কিনা এবং এর পূর্বে জঙ্গিবাদ বিরোধী সচেতনতামূলক বক্তব্য প্রদান করা হয় কিনা এ বিষয়ে শিক্ষা মন্ত্রণালয় কর্তৃক গঠিত কমিটির মাধ্যমে মাসিক প্রতিবেদন প্রেরণ করবে’।
৩০ অক্টোবর শিক্ষা মন্ত্রণালয়ের সিনিয়র সহকারী সচিব এ জেড এম নূরুল হক স্বাক্ষরিত চিঠিটির একটি কপি বিশ্ববিদ্যালয় মঞ্জুরী কমিশন চেয়ারম্যান অধ্যাপক ড. এ কে আজাদ চৌধুরী ও মাধ্যমিক ও উচ্চশিক্ষা অধিদপ্তরের মহাপরিচালক অধ্যাপক মো. নোমান উর রশীদের কাছে পাঠানো হয়েছে।
