জাহাঙ্গীরগর বিশ্ববিদ্যালয়ের (জাবি) ২০১৬-১৭ সেশনের প্রথমবর্ষ স্নাতক শ্রেণিতে ভর্তি পরীক্ষার ই (বিজনেস স্ট্রাডিজ অনুষদ) এবং এফ (আইন অনুষদ) ইউনিটের ফলাফল...
জাহাঙ্গীরনগর বিশ্ববিদ্যালয়: জাহাঙ্গীরগর বিশ্ববিদ্যালয়ের (জাবি) ২০১৬-১৭ সেশনের প্রথমবর্ষ স্নাতক শ্রেণিতে ভর্তি পরীক্ষার ই (বিজনেস স্ট্রাডিজ অনুষদ) এবং এফ (আইন অনুষদ) ইউনিটের ফলাফল প্রকাশ করা হয়েছে।   মঙ্গলবার (২২ নভেম্বর) রাত সাড়ে ১১টার দিকে বিশ্ববিদ্যালয় ওয়েবসাইটে ফলাফল প্রকাশ করা হয়।   যাতে সর্বোচ্চ নম্বরের ভিত্তিতে সংশ্লিষ্ট বিভাগের আসন সংখ্যার সর্বাধিক দশগুণ (১০) ছাত্র-ছাত্রীদের পৃথক মেধা তালিকা প্রকাশিত হয়েছে।
ভর্তি পরীক্ষার ফলাফল জাবির ওয়েবসাইট ju-admission.org-তে পাওয়া যাচ্ছে।
