ঢাকা বিশ্ববিদ্যালয়: বিএসএস সম্মান পরীক্ষায় অসাধারণ ফলাফল অর্জন করায় ঢাকা বিশ্ববিদ্যালয় (ঢাবি) সামাজিক বিজ্ঞান অনুষদভুক্ত ১০টি বিভাগের ২৮ জন মেধাবী শিক্ষার্থীকে ‘ডিনস্ অ্যাওয়ার্ড’ দেওয়া হয়েছে।
মঙ্গলবার (২২ আগস্ট) বিশ্ববিদ্যালয়ের নবাব নওয়াব আলী চৌধুরী সিনেট ভবনে আয়োজিত অনুষ্ঠানে প্রধান অতিথি ঢাকা বিশ্ববিদ্যালয়ের উপাচার্য অধ্যাপক  ড. আ আ ম স আরেফিন সিদ্দিক কৃতি শিক্ষার্থীদের হাতে এ অ্যাওয়ার্ড তুলে দেন।
সামাজিক বিজ্ঞান অনুষদের ভারপ্রাপ্ত ডিন অধ্যাপক ড. এ জে এম শফিউল আলম ভূইয়ার সভাপতিত্বে অনুষ্ঠানে বিশেষ অতিথি হিসেবে বক্তব্য রাখেন- প্রো-উপাচার্য (প্রশাসন) অধ্যাপক ড. মো. আখতারুজ্জামান এবং কোষাধ্যক্ষ অধ্যাপক ড. মো. কামাল উদ্দীন।
বিভাগীয় চেয়ারম্যানরা অ্যাওয়ার্ড প্রাপ্ত শিক্ষার্থীদের নাম ঘোষণা করেন। কমিউনিকেশন ডিজঅর্ডারস বিভাগের চেয়ারপারসন অধ্যাপক ড. হাকিম আরিফ স্বাগত বক্তব্য দেন।
উপাচার্য অধ্যাপক আরেফিন সিদ্দিক বলেন, তরুণ প্রজন্মের মেধাই হচ্ছে দেশের সবচেয়ে বড় সম্পদ। তিনি এই মেধাসম্পদের যথাযথ সদ্ব্যবহারের মাধ্যমে মানবসভ্যতার উৎকর্ষ সাধনের জন্য শিক্ষার্থীদের প্রতি আহ্বান জানান।
তিনি বলেন, বঙ্গবন্ধুর আদর্শ অনুসরণ করে নতুন প্রজন্মকে পূর্ণাঙ্গ মানুষ হতে হবে। দেশের ইতিহাস ও ঐতিহ্য সম্পর্কে জানতে হবে। ভাল একাডেমিক ফল অর্জনের পাশাপাশি শিক্ষার্থীদের সৎ, দেশপ্রেমিক ও সত্যনিষ্ঠ হতে হবে।
অ্যাওয়ার্ড প্রাপ্ত শিক্ষার্থী হলেন - অর্থনীতি বিভাগের নাহিদ ফেরদৌস পবন, ইসলামুল হক, মাহির এ. রহমান। রাষ্ট্রবিজ্ঞান বিভাগের আবু সুফিয়ান, রুবেল মোল্লা, সানিয়া আকতার। আন্তর্জাতিক সম্পর্ক বিভাগের ফারহানা রাজ্জাক, আবদুল হান্নান, ফাতিমা-তুজ-জোহরা। গণযোগাযোগ ও সাংবাদিকতা বিভাগের জেনিনা ইসলাম আবির, মনিরা বেগম, নওশিন জাহান ইতি। লোক প্রশাসন বিভাগের ম্যাগডানিলা ডি সিলভা, আমজাদ হোসেন, শাহ আজিমুল এহসান। শান্তি ও সংঘর্ষ অধ্যয়ন বিভাগের কামরুন নাহার, আদিবা সুলতানা মিম। উইমেন অ্যান্ড জেন্ডার স্টাডিজ বিভাগের রওশন-ই-ফাতিমা, মাহিরাতুল জান্নাত, হালিমা-তুস-সাদিয়া। ডেভেলপমেন্ট স্টাডিজ বিভাগের সাঈদ ইসলাম, তানজিলা আফরিন, আলভী আল সৃজন, মায়শা সামিহা। নৃ-বিজ্ঞান বিভাগের আনিকা ইন্তেসার, নুশরাত জাহান, উম্মে ফারিহা এবং পপুলেশন সায়েন্সেস বিভাগের জাকিউল আলম।
