নীলফামারী: নীলফামারীর সৈয়দপুরের ১৭১টি শিক্ষা প্রতিষ্ঠান থেকে প্রাথমিক শিক্ষা ও ইবতেদায়ি সমাপনী (পিএসসি) পরীক্ষায় অংশ নেবে চার হাজার ৭৫২ জন শিক্ষার্থী।
রোববার (১৯ নভেম্বর) থেকে শুরু হওয়া ছয় দিনব্যাপী এ পরীক্ষা উপজেলার নয়টি কেন্দ্রে অনুষ্ঠিত হবে।
অংশ নেওয়া পরীক্ষার্থীদের মধ্যে প্রাথমিক সমাপনীতে ১৫২টি প্রতিষ্ঠানের ৪ হাজার ৩৯৬ ও ইবতেদায়ী সমাপনী পরীক্ষায় ১৯টি মাদ্রাসার ৩৫৬ জন শিক্ষার্থী অংশ নেবে। পরীক্ষা সুষ্ঠুভাবে সম্পন্ন করতে প্রতিটি কেন্দ্রে যাবতীয় প্রস্ততি নেওয়া হয়েছে।
