ঢাকা বিশ্ববিদ্যালয়: ঢাকা বিশ্ববিদ্যালয়ের গার্হস্থ্য অর্থনীতি ইউনিটের ২০১৭-১৮ শিক্ষাবর্ষের স্নাতক (সম্মান) প্রথম বর্ষের ভর্তি পরীক্ষা শুক্রবার (১৫ ডিসেম্বর) অনুষ্ঠিত হবে।
বৃহস্পতিবার (১৪ ডিসেম্বর) বিকেলে বিশ্ববিদ্যালয়ের জনসংযোগ দফতর থেকে পাঠানো এক প্রেসবিজ্ঞপ্তিতে এ তথ্য জানানো হয়।
এতে জানানো হয়, শুক্রবার সকাল ১০টা থেকে ১১টা পর্যন্ত এ পরীক্ষা অনুষ্ঠিত হবে। পরীক্ষায় ২ হাজার ২৭৫টি আসনের জন্য ৮ হাজার ৭৩৭ জন ভর্তিচ্ছু পরীক্ষার্থী অংশ নেবেন।
পরীক্ষার কেন্দ্রগুলো হলো: ঢাকা বিশ্ববিদ্যালয় ক্যাম্পাসে গণিত বিভাগ ও কার্জন হল, আজিমপুর গার্হস্থ্য অর্থনীতি কলেজ, কাকরাইল উইলস লিটল ফ্লাওয়ার স্কুল অ্যান্ড কলেজ এবং ইউনিভার্সিটি ল্যাবরেটরি স্কুল অ্যান্ড কলেজ।
ভর্তি পরীক্ষার আসন বিন্যাস বিশ্ববিদ্যালয়ের admission.eis.du.ac.bd ওয়েবসাইট থেকে পাওয়া যাবে।
