ঢাকা: জাতীয় বিশ্ববিদ্যালয়ে ২০১৭-২০১৮ শিক্ষাবর্ষে এমফিল ও পিএইচডি প্রোগ্রামে ভর্তি পরীক্ষায় উত্তীর্ণদের মৌখিক পরীক্ষার সময়সূচি প্রকাশ করা হয়েছে। 
জাতীয় বিশ্ববিদ্যালয়ের পক্ষ থেকে পাঠানো এক প্রেস বিজ্ঞপ্তিতে এ তথ্য জানানো হয়। 
আর্টস গ্রুপ ১২ সেপ্টেম্বর, সোশ্যাল সায়েন্স গ্রুপ ১৩ সেপ্টেম্বর, ন্যাচারাল সায়েন্স গ্রুপ ও লাইফ অ্যান্ড আর্থ সায়েন্স গ্রুপ ১৪ সেপ্টেম্বর এবং বিজনেস স্টাডিজ গ্রুপের মৌখিক পরীক্ষা ১৭ সেপ্টেম্বর প্রতিদিন বেলা ১১টা থেকে গাজীপুর জাতীয় বিশ্ববিদ্যালয় ক্যাম্পাসে অনুষ্ঠিত হবে। 
প্রার্থীদের নির্ধারিত তারিখে তাদের গবেষণা প্রস্তাবনা এবং সব পরীক্ষার সনদ ও নম্বরপত্রসহ উপস্থিত থাকার জন্য অনুরোধ করা হয়েছে।
বাংলাদেশ সময়: ১৫১৯ ঘণ্টা, আগস্ট ২৪, ২০১৭ আরআর
