ঢাকা: অনিবার্য কারণবশত আগামী ১২ অক্টোবর অনুষ্ঠেয় জাতীয় বিশ্ববিদ্যালয়ের শিক্ষা সবাবেশ স্থগিত করা হয়েছে।
শনিবার (০৭ অক্টোবর) দুপুর বিশ্ববিদ্যালয়ের পক্ষ থেকে পাঠানো এক প্রেস বিজ্ঞপ্তিতে এ তথ্য জানানো হয়।
এতে জানানো হয়েছে, অনিবার্য কারণে বিশ্ববিদ্যালয় অধিভুক্ত সব কলেজের অধ্যক্ষ ও আমন্ত্রিত অতিথিদের নিয়ে অনুষ্ঠেয় শিক্ষা সমাবেশ স্থগিত করা হয়েছে। পরবর্তীতে নির্ধারিত সময়সূচি সংশ্লিষ্ট সবাইকে জানিয়ে দেওয়া হবে।
