ছাত্রলীগের কেন্দ্রীয় সংসদের সভাপতি মো. সাইফুর রহমান সোহাগ ও সাধারণ সম্পাদক এস এম জাকির হোসাইন জাহাঙ্গীরনগর বিশ্ববিদ্যালয় সাংবাদিক সমিতির (জাবিসাস) নেতাদের সঙ্গে সৌজন্য সাক্ষাৎ করেছেন।
জাহাঙ্গীরনগর বিশ্ববিদ্যালয়: ছাত্রলীগের কেন্দ্রীয় সংসদের সভাপতি মো. সাইফুর রহমান সোহাগ ও সাধারণ সম্পাদক এস এম জাকির হোসাইন জাহাঙ্গীরনগর বিশ্ববিদ্যালয় সাংবাদিক সমিতির (জাবিসাস) নেতাদের সঙ্গে সৌজন্য সাক্ষাৎ করেছেন।
রোববার (২৮ আগস্ট) বিকেল সাড়ে ৫টার দিকে বিশ্ববিদ্যালয় সাংবাদিক সমিতিতে এ সাক্ষাৎ হয়।
এ সময় ছাত্রলীগ নেতারা বিশ্ববিদ্যালয় পর্যায়ে দেশের প্রথম সাংবাদিক সংগঠন জাহাঙ্গীরনগর বিশ্ববিদ্যালয় সাংবাদিক সমিতির সদস্যদের ভূয়সী প্রশংসা করে ছাত্রলীগের গঠনমূলক সমালোচনা করার আহ্বান জানান।
জাবি সাংবাদিক সমিতির পক্ষ থেকে ছাত্রলীগের সভাপতি ও সাধারণ সম্পাদককে বিশ্ববিদ্যালয়ের ডায়েরি উপহার দেওয়া হয়।
জাবিসাসের সভাপতি বেলাল হোসাইন রাহাত, সাধারণ সম্পাদক মওদুদ আহম্মেদ সুজন, সৈয়দ এলতেফাত হোসাইন, বিশ্ববিদ্যালয় শাখা ছাত্রলীগের সভাপতি মাহমুদুর রহমান জনি ও সাধারণ সম্পাদক রাজিব আহমেদ রাসেল প্রমুখ উপস্থিত ছিলেন।
