ঢাকা বিশ্ববিদ্যালয়: ঢাকা বিশ্ববিদ্যালয়ে (ঢাবি) ২০১৭-২০১৮ শিক্ষাবর্ষে পিএইচডি প্রোগ্রামে ভর্তির জন্য আগ্রহী প্রার্থীদের কাছ থেকে নির্ধারিত ফরমে আবেদনপত্র আহ্বান করা হয়েছে।
রোববার (৯ জুলাই) বিশ্ববিদ্যালয়ের জনসংযোগ থেকে পাঠানো এক সংবাদ বিজ্ঞপ্তিতে এ তথ্য জানানো হয়। রেজিস্ট্রার অফিসের এম.ফিল ও পিএইচডি শাখার ৩২৩ নম্বর কক্ষ থেকে আবেদনপত্র সংগ্রহ করা যাবে।
বিজ্ঞপ্তিতে উল্লেখ করা হয়, এম.ফিল সনদপত্র অথবা সব পরীক্ষা পাসের মূল নম্বরপত্র এবং জনতা ব্যাংক টিএসসি শাখায় ১ হাজার টাকা জমার রশিদ দেখিয়ে প্রার্থী নির্ধারিত আবেদনপত্র সংগ্রহ করতে হবে। আবেদনপত্র যথাযথভাবে পূরণ করে সংশ্লিষ্ট বিভাগের চেয়ারম্যান/ইনস্টিটিউটের পরিচালকের অফিসে জমা দিতে হবে।
আবেদনপত্রের সঙ্গে সব পরীক্ষার নম্বরপত্রের (১) ফটোকপি ও সম্প্রতি তোলা দুই কপি ছবি সংশ্লিষ্ট তত্ত্বাবধায়ক/বিভাগের চেয়ারম্যান/ইনস্টিটিউটের পরিচালক কর্তৃক সত্যায়িত করে জমা দিতে হবে। বিদেশ থেকে অর্জিত ডিগ্রির সমতা নিরূপণের পর ভর্তির আবেদন করতে হবে। পূর্ণাঙ্গ ও সঠিক তথ্য না দিলে ভর্তি বাতিল বলে গণ্য হবে।
পিএইচ.ডি. প্রোগ্রামে ভর্তির জন্য প্রার্থীকে এম.ফিল. পাস অথবা পাবলিক বিশ্ববিদ্যালয় থেকে ৪ বছর মেয়াদী স্নাতক সম্মান ও ১ বছর মেয়াদী মাস্টার্স ডিগ্রি অথবা ৩ বছর মেয়াদী স্নাতক সম্মান ও ১ বছর মেয়াদী মাস্টার্স ডিগ্রির অধিকারী হতে হবে। প্রার্থীদের সব পরীক্ষায় কমপক্ষে ২য় বিভাগ/শ্রেণিসহ ন্যূনতম ৫০ শতাংশ নম্বর থাকতে হবে। সিজিপিএ নিয়মে মাধ্যমিক/সমমান থেকে স্নাতক/স্নাতকোত্তর পর্যন্ত সব পরীক্ষায় সিজিপিএ ৫-এর মধ্যে ৩.৫ অথবা সিজিপিএ ৪-এর মধ্যে ৩ থাকতে হবে।
প্রার্থীদের স্নাতক পর্যায়ে কোনো স্বীকৃত শিক্ষা প্রতিষ্ঠানে কমপক্ষে ২ বছরের শিক্ষকতার অভিজ্ঞতা থাকতে হবে অথবা কোনো স্বীকৃতমানের গবেষণা প্রতিষ্ঠানে কমপক্ষে ২ বছরের গবেষণা সংক্রান্ত কাজের অভিজ্ঞতা থাকতে হবে অথবা সরকারি, বেসরকারি, স্বায়ত্তশাসিত বা আধা-স্বায়ত্তশাসিত প্রতিষ্ঠানে কমপক্ষে ২ বছরের চাকুরির অভিজ্ঞতা থাকতে হবে।
এছাড়া, প্রার্থীদের স্বীকৃতমানের জার্নালে প্রকাশিত কমপক্ষে ২টি গবেষণা প্রবন্ধ থাকতে হবে। কলা অনুষদ, সামাজিক বিজ্ঞান অনুষদ ও বিজনেস স্টাডিজ অনুষদের ক্ষেত্রে অন্তত ১টি গবেষণা প্রকাশনা একক নামে হতে হবে।
দেশের কোনো বেসরকারি বিশ্ববিদ্যালয় থেকে স্নাতক (সম্মান) এবং স্নাতকোত্তর ডিগ্রি অর্জনকারীরা ঢাকা বিশ্ববিদ্যালয়ের পিএইচডি প্রোগ্রামে সরাসরি ভর্তি হতে পারবেন না। পিএইচডি প্রোগ্রামে ভর্তির আগে তাদের ঢাকা বিশ্ববিদ্যালয়ের এমফিল প্রোগ্রামে ভর্তি হতে হবে। বেসরকারি বিশ্ববিদ্যালয় থেকে এমফিল ডিগ্রিধারীদের আবেদনপত্র সংগ্রহের পূর্বে অর্জিত ডিগ্রির সমতা নিরূপণের জন্য সংশ্লিষ্ট কমিটির কাছে দরখাস্ত করতে হবে। এ ব্যাপারে বিস্তারিত তথ্যের জন্য এমফিল-পিএইচডি শাখায় যোগাযোগ করা যাবে।
