পবিত্র আশুরা ও শারদীয় দুর্গাপূজার ছুটি শেষে শাহজালাল বিজ্ঞান ও প্রযুক্তি বিশ্ববিদ্যালয় (শাবিপ্রবি) খুলছে রোববার (১৬ অক্টোবর)। শনিবার (১৫ অক্টোবর) বিশ্ববিদ্যালয়ের অতিরিক্ত রেজিস্ট্রার জুবায়ের...
শাবিপ্রবি: পবিত্র আশুরা ও শারদীয় দুর্গাপূজার ছুটি শেষে শাহজালাল বিজ্ঞান ও প্রযুক্তি বিশ্ববিদ্যালয় (শাবিপ্রবি) খুলছে রোববার (১৬ অক্টোবর)।
শনিবার (১৫ অক্টোবর) বিশ্ববিদ্যালয়ের অতিরিক্ত রেজিস্ট্রার জুবায়ের আহমেদ চৌধুরী’র স্বাক্ষরিত এক বিজ্ঞপ্তিতে এ বিষয়ে জানানো হয়।
এতে বলা হয়, রোববার থেকে যথানিয়মে ক্লাস-পরীক্ষাসহ অফিসিয়াল সব কার্যক্রম অব্যাহত থাকবে।
এদিকে, বাবা-মায়ের সঙ্গে আশুরা ও পূজার ছুটি কাটিয়ে ক্যাম্পাসে ফিরতে শুরু করেছেন শিক্ষার্থীরা।
