দিনাজপুর: দীর্ঘদিন বন্ধ থাকার পর দিনাজপুর হাজী মোহাম্মদ দানেশ বিজ্ঞান ও প্রযুক্তি বিশ্ববিদ্যালয়ের (হাবিপ্রবি) এমবিএ (সান্ধ্য) কোর্সে ভর্তির আবেদনপত্র গ্রহণ শুরু চলছে।
আবেদনপত্র গ্রহণ শুরু হয়েছে বুধবার (০৩ মে) থেকে। আগামী ২৮ মে পর্যন্ত আবেদন করা যাবে। ভর্তি পরীক্ষা অনুষ্ঠিত হবে আগামী ০২ জুন। 
বৃহস্পতিবার (০৪ মে) বিকেলে এমবিএ (সান্ধ্য) এর সমন্বয়ক প্রফেসর ড. জাহাঙ্গীর কবির স্বাক্ষরিত বিজ্ঞপ্তিতে এ তথ্য জানানো হয়। 
বিস্তারিত বিশ্ববিদ্যালয়ের ওয়েবসাইটে (http://www.hstu.ac.bd) পাওয়া যাবে।
