শাহজালাল বিজ্ঞান ও প্রযুক্তি বিশ্ববিদ্যালয়ে (শাবিপ্রবি) গ্রীষ্মকালীন ও পবিত্র ঈদ-উল-ফিতরের ছুটি শুরু হচ্ছে আগামী ১২ জুন (রোববার) থেকে। যা চলবে ১৪ জুলাই পর্যন্ত।
শাবিপ্রবি: শাহজালাল বিজ্ঞান ও প্রযুক্তি বিশ্ববিদ্যালয়ে (শাবিপ্রবি) গ্রীষ্মকালীন ও পবিত্র ঈদ-উল-ফিতরের ছুটি শুরু হচ্ছে আগামী ১২ জুন (রোববার) থেকে। যা চলবে ১৪ জুলাই পর্যন্ত।
মঙ্গলবার (০৭ জুন) বিশ্ববিদ্যালয়ের জনসংযোগ দফতরের কর্মকর্তা শাহাদাত হোসেন শিশির বাংলানিউজকে বিষয়টি নিশ্চিত করেন।
তিনি জানান, ১২ জুন থেকে ছুটি শুরু হলেও ১০ ও ১১ জুন শাবিতে সাপ্তাহিক ছুটি। এক্ষেত্রে বলা যায়, ১০ জুন থেকেই এ ছুটি শুরু হবে।
টানা ৪০ দিন ছুটি শেষে আগামী ১৭ জুলাই বিশ্ববিদ্যালয়ের শিক্ষা কার্যক্রম শুর হবে বলে জানান শিশির।
