দিনাজপুর মাধ্যমিক ও উচ্চ মাধ্যমিক শিক্ষা বোর্ডের অধীনে এইচএসসি পরীক্ষার প্রথম দিন বাংলা প্রথম পত্রের পরীক্ষা অনুষ্ঠিত হয়েছে।
দিনাজপুর: দিনাজপুর মাধ্যমিক ও উচ্চ মাধ্যমিক শিক্ষা বোর্ডের অধীনে এইচএসসি পরীক্ষার প্রথম দিন বাংলা প্রথম পত্রের পরীক্ষা অনুষ্ঠিত হয়েছে।
 
রোববার (০৩ এপ্রিল) অনুষ্ঠিত এ পরীক্ষায় এক হাজার ৪৮ জন পরীক্ষার্থী অনুপস্থিত ছিলেন। এছাড়া অসদুপায় অবলম্বনের দায়ে একজনকে বহিষ্কার করা হয়েছে।
দিনাজপুর শিক্ষা বোর্ডের পরীক্ষা নিয়ন্ত্রক তোফাজ্জুর রহমান এক প্রেস বিজ্ঞপ্তিতে এ তথ্য জানান।
তিনি জানান, বাংলা প্রথম পত্রের পরীক্ষায় মোট ৯০ হাজার ৭২ জন পরীক্ষার্থীর মধ্যে ৮৯ হাজার ২৪ জন পরীক্ষার্থী উপস্থিত ছিল। প্রথম দিন অনুপস্থিতির হার এক দশমিক ১৬ শতাংশ।
