বাংলাদেশ কৃষি বিশ্ববিদ্যালয়ে (বাকৃবি) ভেড়া উৎপাদনের কৃত্রিম প্রজনন বিষয়ে খামারি প্রশিক্ষণ কর্মশালা অনুষ্ঠিত হয়েছে।
বাকৃবি (ময়মনসিংহ): বাংলাদেশ কৃষি বিশ্ববিদ্যালয়ে (বাকৃবি) ভেড়া উৎপাদনের কৃত্রিম প্রজনন বিষয়ে খামারি প্রশিক্ষণ কর্মশালা অনুষ্ঠিত হয়েছে।
 
সোমবার (২৬ ডিসেম্বর) সকাল ১১টার দিকে ময়মনসিংহের বাংলাদেশ কৃষি উন্নয়ন কর্পোরেশনের (বিএডিসি) সম্মেলন কক্ষে এ কর্মশালার আয়োজন করা হয়।  
জেলা প্রাণিসম্পদ কর্মকর্তা ড. মো. আফতাব হোসেনের সভাপতিত্বে কর্মশালায় প্রধান অতিথি হিসেবে উপস্থিত ছিলেন-বাকৃবির ভেটেরিনারি অনুষদের সার্জারি ও অবস্টেট্রিক্স বিভাগের প্রধান অধ্যাপক ড. মো. মাহমুদুল আলম।
বিশেষ অতিথি হিসেবে উপস্থিত ছিলেন-বিএডিসি’র উপ-পরিচালক মো. খোরশেদ আলম।
কর্মশালার সমন্বয়কারী হিসেবে ছিলেন-অপটিমাইজেশন অব এমওইটি শিপ ইন বাংলাদেশের প্রধান গবেষক অধ্যাপক ড. ফরিদা ইয়াসমীন বারি।
