ঢাকা বিশ্ববিদ্যালয়: ঢাকা বিশ্ববিদ্যালয়ের (ঢাকা) ২০১৭-১৮ শিক্ষাবর্ষে চারুকলা অনুষদভুক্ত ‘চ’ ইউনিটের অধীনে প্রথম বর্ষ বিএফএ সম্মান শ্রেণিতে ভর্তি পরীক্ষা (অংকন) শুরু হয়েছে।
শনিবার (২৩ সেপ্টেম্বর) সকাল ১০টা থেকে চারুকলা অনুষদে ভর্তি পরীক্ষা শুরু হয়। চলবে সাড়ে ১১টা পর্যন্ত।
গত ১৬ সেপ্টেম্বর অনুষ্ঠিত ‘চ’ ইউনিটের সাধারণ জ্ঞান পরীক্ষায় উত্তীর্ণ মোট এক হাজার ৫শ’ ৫২জন অংকন পরীক্ষায় অংশ নেয়। ‘চ’ ইউনিটে মোট আসন সংখ্যা রয়েছে ১৩৫টি।
এ অনুষদভুক্ত বিভাগগুলো হচ্ছে অংকন ও চিত্রায়ন, গ্রাফিক্স ডিজাইন, প্রিন্টমেকিং, প্রাচ্যকলা, মৃৎশিল্প, ভাস্কর্য, কারুশিল্প ও শিল্পকলার ইতিহাস।
ভর্তি পরীক্ষার বিস্তারিত তথ্য বিশ্ববিদ্যালয়ের admission.eis.du.ac.bd ওয়েবসাইট থেকে পাওয়া যাবে।
