ঢাকা বিশ্ববিদ্যালয়: ২০১৭-১৮ শিক্ষাবর্ষে ঢাকা বিশ্ববিদ্যালয়ের (ঢাবি)  ঘ ইউনিটের ফল প্রকাশ করা হয়েছে। পাসের হার ১৪ দশমিক ৩৫ শতাংশ।
রোববার (২২ অক্টোবর) দুপুরে বিশ্ববিদ্যালয়ের উপাচার্য অধ্যাপক ড. মো. আখতারুজ্জামান প্রশাসনিক ভবনস্থ কেন্দ্রীয় ভর্তি অফিসে আনুষ্ঠানিকভাবে এই ভর্তি পরীক্ষার ফল প্রকাশ করেন।
‘ঘ' ইউনিটের ভর্তি পরীক্ষায় ফল মোবাইল ফোন ও বিশ্ববিদ্যালয়ের ওয়েবসাইট থেকেও জানা যাবে। মোবাইল ফোনে যেকোনো অপারেটরের মেসেজ অপশনে গিয়ে DU স্পেস  GHA স্পেস (ভর্তি পরীক্ষার রোল নম্বর) লিখে ১৬৩২১ নম্বরে পাঠালে ফিরতি এসএমএসে ফল জানা যাবে। এছাড়া বিশ্ববিদ্যালয়ের ওয়েবসাইট (admission.eis.du.ac.bd) থেকে ফলাফল জানা যাবে।
‘ঘ’ ইউনিটে পাস করা সব শিক্ষার্থীকে আগামী ১৩ নভেম্বর থেকে ২৩ নভেম্বর পর্যন্ত ভর্তি পরীক্ষার ওয়েবসাইটে বিস্তারিত এবং বিষয় পছন্দক্রম ফরম পূরণ করতে বলা হয়েছে।
কোটায় উত্তীর্ণ শিক্ষার্থীদের ২৩ অক্টোবর থেকে ৩০ অক্টোবরের মধ্যে সংশ্লিষ্ট কোটার ফরম ইঞ্জিনিয়ারিং অ্যান্ড টেকনোলজি অনুষদের ডিন অফিস থেকে সংগ্রহ করে সঠিকভাবে পূরণ করে জমা দিতে বলা হয়েছে।
এছাড়া ফল নিরীক্ষণের জন্য ফি প্রদান সাপেক্ষে আগামী ২৬ অক্টোবর পর্যন্ত ডিন অফিসে আবেদন করা যাবে। এর ফলাফল ১ নভেম্বর প্রকাশ করা হবে।
‘ঘ’ ইউনিটের ভর্তি পরীক্ষায় অংশ নেয় ৭১ হাজার ৫৪৯ জন ভর্তিচ্ছু শিক্ষার্থী। তাদের মধ্যে ১০ হাজার ২৬৪ জন শিক্ষার্থী উত্তীর্ণ হয়েছে। উত্তরপত্র বাতিল করা হয়েছে ৬ জনের।
