ঢাকা: জাতীয় বিশ্ববিদ্যালয়ের অধীনে ২০১৪ সালের অনিয়মিত ও মানন্নোয়ন পরীক্ষা এবং ২০১৫ সালের মাস্টার্স ১ম পর্ব পরীক্ষার সময়সূচি প্রকাশ করা হয়েছে। 
বিশ্ববিদ্যালয়ের পক্ষ থেকে এক প্রেস বিজ্ঞপ্তিতে এ সময়সূচি জানানো হয়।
জাতীয় বিশ্ববিদ্যালয়ের অধীনে ২০১৪ সালের অনিয়মিত ও মানন্নোয়ন (পুরাতন সিলেবাস) পরীক্ষা আগামী ১৬ জুলাই থেকে শুরু হবে। পরীক্ষা চলবে ২৪ আগস্ট পর্যন্ত। 
এ পরীক্ষা সংক্রান্ত বিস্তারিত তথ্য জাতীয় বিশ্ববিদ্যালয়ের ওয়েবসাইটে (www.nu.edu.bd)  পাওয়া যাবে।
২০১৫ সালের মাস্টার্স ১ম পর্ব পরীক্ষা আগামী ১৬ জুলাই থেকে শুরু হয়ে ৯ আগস্ট পর্যন্ত চলবে। এ পরীক্ষা সংক্রান্ত বিস্তারিত তথ্য বিবিদ্যালয়ের ওয়েবসাইটে (www.nubd.info/mp) পাওয়া যাবে।
