নোবিপ্রবি: ঈদুল আজহার ছুটি শেষে রোববার ১০ সেপ্টেম্বর খুলছে নোয়াখালী বিজ্ঞান ও প্রযুক্তি বিশ্ববিদ্যালয় (নোবিপ্রবি)।
২৭ আগস্ট থেকে শুরু হওয়া ঈদের ছুটি ৭ সেপ্টেম্বর বৃহস্পতিবার শেষ হয় কিন্তু শুক্র ও শনিবার বিশ্ববিদ্যালয়ের সাপ্তাহিক ছুটি থাকায় তা আরো দুইদিন বৃদ্ধি পায়। 
বিশ্ববিদ্যালয় সূত্রে জানা যায়, রোববার ১০ সেপ্টেম্বর থেকে বিশ্ববিদ্যালয়ের সকল দাপ্তরিক কার্যক্রম, ক্লাস ও পরীক্ষা নির্ধারিত সময়সূচি অনুযায়ী শুরু হবে।
এদিকে দেশের বিভিন্ন প্রান্ত থেকে ফিরতে শুরু করেছেন বিশ্ববিদ্যালয়ের শিক্ষার্থীরা। ছুটিতে ছাত্র হল খোলা থাকায় অনেকেই আগে থেকে ফিরে আসেন। এছাড়াও ছাত্রী হল শনিবার (৯ সেপ্টেম্বর) খোলায় সকাল থেকেই ছাত্রীদের হলে ফিরতে দেখা যায়।
দীর্ঘ এ অবকাশের পর বিশ্ববিদ্যালয়ের লোকবল ফিরে আসায় প্রাণ ফিরে পেতে যাচ্ছে প্রিয় ক্যাম্পাস।
বাংলাদেশ সময়: ২১৪৬ ঘণ্টা, সেপ্টেম্বর ০৯, ২০১৭
