ইংরেজি ও আইসিটি বিষয়ে অকৃতকার্যের সংখ্যাই কমিয়ে দিয়েছে সিলেট শিক্ষা বোর্ডের পাসের সূচক। ইংরেজি প্রথম ও দ্বিতীয় এবং আইসিটি বিষয়ের ৩শ’ নম্বরের দুর্বলতার চিত্র ফুটে ওঠেছে এ ফলাফলে।
সিলেট: ইংরেজি ও আইসিটি বিষয়ে অকৃতকার্যের সংখ্যাই কমিয়ে দিয়েছে সিলেট শিক্ষা বোর্ডের পাসের সূচক। ইংরেজি প্রথম ও দ্বিতীয় এবং আইসিটি বিষয়ের ৩শ’ নম্বরের দুর্বলতার চিত্র ফুটে ওঠেছে এ ফলাফলে।
সিলেট শিক্ষা বোর্ডের পরীক্ষা নিয়ন্ত্রক মো. সামসুল ইসলাম বাংলানিউজকে জানান, ইংরেজি প্রথম ও দ্বিতীয় পত্র এবং আইসিটি এ তিনটি বিষয়ে মোট ১৬ হাজার ৫শ’ ৩৩ জন শিক্ষার্থী অকৃতকার্য হয়েছেন।
এর মধ্যে ইংরেজি প্রথম ও দ্বিতীয় পত্রে প্রায় ১২ হাজার ৮শ’ ৪৬ জন শিক্ষার্থী ফেল করেছেন। আর আইসিটিতে ফেল করেছেন প্রায় ৩ হাজার ৬শ’ ৮৭ জন শিক্ষার্থী।
সিলেট শিক্ষাবোর্ডের অতিরিক্ত পরীক্ষা নিয়ন্ত্রক মঈনুল ইসলাম বাংলানিউজকে বলেন, গুরুত্বপূর্ণ বিষয়গুলোতে বেশি ফেল করা করেছে, আগের বছরের তুলনায় এ বছর ইংরেজির প্রশ্ন কঠিন হওয়ায় অকৃতকার্যের সংখ্যা বেড়েছে।
আইসিটি বিষয়ে শিক্ষার্থীদের সৃজনশীলতা বৃদ্ধি পাচ্ছে। এ বিষয়ে শিক্ষকদের সৃজনশীলতা বৃদ্ধি করা প্রয়োজন। এক্ষেত্রে বোর্ড থেকে তাদের প্রশিক্ষণের ব্যবস্থা নেওয়া যেতে পারে।
আইসিটি বিষয়ে এবার পাসের হার ৯৩ শতাংশ। যা গত বছর ছিলো ৯৭ শতাংশ।  ইংরেজিতে ৭৭ দশমিক ৯৫ শতাংশ পাস করেছে উল্লেখ করে মঈনুল ইসলাম আরও বলেন, গত বছর এ বিষয়ে পাসের হার ছিলো ৮৫ দশমিক ৫৭।
সিলেট শিক্ষা বোর্ডের ভারপ্রাপ্ত চেয়ারম্যান কামাল আহমদ চৌধুরী বাংলানিউজকে বলেন, সৃজনশীল বিষয়গুলোতে শিক্ষার্থীরা ভালো করতে পারেনি। বিশেষ করে ইংরেজি ও আইসিটি বিষয়ে ভালো করতে না পারায় ফলাফল কমেছে।
বেলা ১১টার দিকে আনুষ্ঠানিকভাবে ফলাফল ঘোষণা করা হয়। এ বছর সিলেট বোর্ডের অধীনে ২৪৬টি শিক্ষা প্রতিষ্ঠানের মাধ্যমে মোট ৬৩ হাজার ৯শ’ ৫৯ জন শিক্ষার্থী পরীক্ষায় অংশ নিয়ে পাস করেছেন ৪৩ হাজার ৮শ’ ৭০ জন। এদের মধ্যে ছেলে ২০ হাজার ৭শ’ ৭৯ জন ও ২৩ হাজার ৯১ জন মেয়ে। জিপিএ-৫ পেয়েছেন মোট ১হাজার ৩শ’ ৩০ জন। এর মধ্যে ছেলে ৭৯৪ জন ও মেয়ে ৫৩৬ জন।
আর সিলেট শিক্ষাবোর্ডে এবার শতভাগ ফলাফল অর্জন করেছে ৫টি কলেজ। এগুলো হলো- সিলেট ক্যাডেট কলেজ, জালালাবাদ ক্যান্টনমেন্ট পাবলিক স্কুল অ্যান্ড কলেজ, উইমেন্স মডেল স্কুল অ্যান্ড কলেজ, ভাতরাই স্কুল অ্যান্ড কলেজ ও খাজাঞ্জিবাড়ি স্কুল অ্যান্ড কলেজ।
