জাহাঙ্গীরনগর বিশ্ববিদ্যালয়: বাংলাদেশ ডিবেট ফেডারেশন (বিডিএফ) আয়োজিত আন্তঃবিশ্ববিদ্যালয় বিতর্ক প্রতিযোগিতায় জাহাঙ্গীরনগর বিশ্ববিদ্যালয় চ্যাম্পিয়ন হয়েছে।
শুক্রবার (২৬ জানুয়ারি) জাহাঙ্গীরনগর ইউনিভার্সিটি ডিবেট অর্গানাইজেশনের (জেইউডিও) সাধারণ সম্পাদক ফয়সাল মাহমুদ শান্ত বাংলানিউজকে এ তথ্য নিশ্চিত করেন।
তিনি বলেন, বৃহস্পতিবার (২৫ জানুয়ারি) রাজধানীর বঙ্গবন্ধু আন্তর্জাতিক সম্মেলন কেন্দ্রের (বিআইসিসি) হল অব ফেমে অনুষ্ঠিত হয় ফাইনাল বিতর্ক। অনুষ্ঠিত ফাইনাল বিতর্কের বিষয় ছিলো ‘অভিবাসন প্রক্রিয়ায় দালালদের সেবা প্রদানকে প্রাতিষ্ঠানিকীকরণই পারে প্রতারণা দূর করতে’।
এ বির্তকে জাহাঙ্গীরনগর ইউনিভার্সিটি ডিবেট অর্গানাইজেশনের (জেইউডিও) দল ‘সংশপ্তক’ ঢাকা বিশ্ববিদ্যালয় ডিবেটিং সোসাইটির (ডিইউডিএস) দল ‘অপরাজেয় বাংলা’কে হারিয়ে চ্যাম্পিয়ন হয়।
জাহাঙ্গীরনগর বিশ্ববিদ্যালয়ের দলের হয়ে বিতর্ক করেন মুশফিক উস সালেহীন, মো. সোহানুর রহমান ও  মিনহাজ রাব্বি। এ বিতর্কে মো. সোহানুর রহমান শ্রেষ্ঠ বক্তা নির্বাচিত হয়েছেন।
