ঢাকা: স্বাধীন বাংলা বেতার কেন্দ্রের কণ্ঠশিল্পী একুশে ও স্বাধীনতা পদকপ্রাপ্ত আবদুল জব্বারের মৃত্যুতে গভীর শোক প্রকাশ করেছেন ঢাকা বিশ্ববিদ্যালয়ের (ঢাবি) উপাচার্য আ আ ম স আরে‌ফিন সি‌দ্দিক।
বুধবার (৩০ আগস্ট) এক বার্তায় তিনি এ শোক জানান।
শোক বার্তায় ঢাবির উপাচার্য বলেন, সংগীতজ্ঞ আবদুল জব্বার পাঁচ দশকের বেশি সময় গানের ভুবনের সঙ্গে সম্পৃক্ত ছিলেন। এই শিল্পী বাংলাদেশের মুক্তিযুদ্ধের সময় তার গাওয়া অসংখ্য গান মুক্তিযোদ্ধাসহ দেশবাসীকে অনুপ্রাণিত করেছে। দেশবাসী দেশপ্রমিক এই শিল্পীর অবদান গভীর শ্রদ্ধার সঙ্গে স্মরণ করবে।
উপাচার্য মরহুমের রুহের মাগফেরত কামনা করেন এবং তার পরিবারের শোকসন্তপ্ত সদস্যদের প্রতি গভীর সমাবেদনা জ্ঞাপন করেন।
এর আগে বুধবার সকালে রাজধানীর বঙ্গবন্ধু শেখ মুজিব মেডিকেল বিশ্ববিদ্যালয় হাসপাতালে চিকিৎসাধীন অবস্থায় মারা যান কালজয়ী শিল্পী আবদুল জব্বার। মৃত্যুকালে তার বয়স হয়েছিল ৭৯ বছর।
