রাবি: রাজশাহী বিশ্ববিদ্যালয়ের (রাবি) ২০১৩-১৪ শিক্ষাবর্ষে ১ম স্নাতক/স্নাতক সম্মান শ্রেণীতে ‘এ’ ইউনেটের MCQ পরীক্ষায় উত্তীর্ণ পরীক্ষার্থীদের লিখিত পরীক্ষা ১৫ ফেব্রুয়ারি (বুধবার) অনুষ্ঠিত হবে। 
 
মঙ্গলবার দুপুরে বিশ্ববিদ্যালয়ের জনসংযোগ দপ্তরের প্রশাসক প্রফেসর  ইলিয়াছ হোসেন এ তথ্য জানান।
 
তিনি আরো জানান, ওইদিন সকাল ৯টা থেকে ১০টা পর্যন্ত বাংলা, সকাল ১১টা থেকে ১২টা পর্যন্ত আরবি ও দুপুর ১টা থেকে ২টা পর্যন্ত ইসলামিক স্টাডিজ বিষয়ের পরীক্ষা অনুষ্ঠিত হবে। 
 
চারুকলা এবং নাট্যকলা ও সঙ্গীত বিষয়ের ব্যবহারিক পরীক্ষার তারিখ ১৫ ফেব্রুয়ারির পর সংশ্লিষ্ট বিভাগ থেকে পরীক্ষার্থীদের জেনে নিতে হবে।
 
