বাকৃবি (ময়মনসিংহ): পবিত্র ঈদুল ফিতরের ১২ দিনের ছুটি শেষে বাংলাদেশ কৃষি বিশ্ববিদ্যালয় (বাকৃবি) খুলবে ২ জুলাই। শুক্রবার (৩০ জুন) বিকেল ৫টায় হল খুলে দেওয়া হবে।
বিশ্ববিদ্যালয়ের জনসংযোগ ও প্রকাশনা দপ্তরের এক বিজ্ঞপ্তিতে এ তথ্য জানানো হয়।
বিজ্ঞপ্তিতে বলা হয়, পবিত্র ঈদুর ফিতর উপলক্ষে ২১ জুন থেকে ১ জুলাই পর্যন্ত সব একাডেমিক ও দাপ্তরিক কার্যক্রম বন্ধ থাকবে। ২ জুলাই থেকে নিয়মিতভাবে ক্লাস-পরীক্ষা চালু হবে।
প্রভোস্ট কাউন্সিলের আহ্বায়ক অধ্যাপক মো. সাদিকুল ইসলাম বলেন, ২২ জুন সকাল ১০টার মধ্যে আবাসিক হলের সব কক্ষ তালা দেওয়া হয়। ৩০ জুন বিকেল ৫টায় হল খুলে দেওয়া হবে।
