২০১৫ সালের ডিগ্রি পাস ও সার্টিফিকেট কোর্স ১ম বর্ষ পরীক্ষা সারাদেশে ৬৮৪টি কেন্দ্রে একযোগে শুরু হবে শনিবার (১৩ আগস্ট)।
ঢাকা: ২০১৫ সালের ডিগ্রি পাস ও সার্টিফিকেট কোর্স ১ম বর্ষ পরীক্ষা সারাদেশে ৬৮৪টি কেন্দ্রে একযোগে শুরু হবে শনিবার (১৩ আগস্ট)।
সর্বমোট এক হাজার ৭৮২টি কলেজের দুই লাখ ৯৯ হাজার ৩৪ জন পরীক্ষার্থী এতে অংশগ্রহণ করবেন।
প্রতিদিন দুপুর দেড়টা থেকে শুরু হয়ে পরীক্ষা চলবে বিকেল ৫টা পর্যন্ত। পরীক্ষা গ্রহণের সব প্রস্তুতি ইতোমধ্যে সম্পন্ন হয়েছে।
