খুলনা বিশ্ববিদ্যালয়ের (খুবি) চারুকলা ইনস্টিটিউটের ২০১২-১৩ শিক্ষাবর্ষের সন্মান ১ম বর্ষের ভর্তি পরীক্ষার ফলাফল প্রকাশ করা হয়েছে।
খুলনা: খুলনা বিশ্ববিদ্যালয়ের (খুবি) চারুকলা ইনস্টিটিউটের ২০১২-১৩ শিক্ষাবর্ষের সন্মান ১ম বর্ষের ভর্তি পরীক্ষার ফলাফল প্রকাশ করা হয়েছে।
বৃহস্পতিবার সন্ধ্যায় এ ফলাফল প্রকাশ করা হয়েছে বলে বাংলানিউজকে জানিয়েছেন বিশ্ববিদ্যালয়ের জনসংযোগ ও  প্রকাশনা বিভাগে উপ-পরিচালক এসএম আতিয়ার রহমান।
