জাহাঙ্গীরনগর বিশ্ববিদ্যালয় সাংবাদিক সমিতি (জাবিসাস) আয়োজন করেছে দুই মাসব্যাপী প্রশিক্ষণ কর্মশালা।
জাহাঙ্গীরনগর বিশ্ববিদ্যালয়: জাহাঙ্গীরনগর বিশ্ববিদ্যালয় সাংবাদিক সমিতি (জাবিসাস) আয়োজন করেছে দুই মাসব্যাপী প্রশিক্ষণ কর্মশালা।
সোমবার (২২ আগস্ট) সাংবাদিক সমিতির সভাপতি বেলাল হোসাইন রাহাত বাংলানিউজকে এ তথ্য জানান।
তিনি জানান, নতুন সাংবাদিক তৈরি ও ক্যাম্পাস সাংবাদিকদের দক্ষতা বৃদ্ধির লক্ষ্যে আমরা সাংবাদিক সমিতির পক্ষ থেকে দুই মাসব্যাপী কর্মশালার আয়োজন করেছি। আগামী ২৫ আগস্ট (শুক্রবার) থেকে কর্মশালা শুরু হবে।
যারা অংশগ্রহণ করতে ইচ্ছুক তাদের আগামী ২৪ আগস্টের মধ্যে আবেদন করতে বলা হয়েছে। প্রশিক্ষণ শেষে শিক্ষার্থীদের সনদপত্র প্রদান করা হবে।
