রাজধানীর বাড্ডার স্যার জন উইলসন স্কুলের শিক্ষার্থীদের কাছ থেকে (২০১৬-১৭ শিক্ষবর্ষ) বর্ধিত টার্ম চার্জ, সেশন ও টিউশন ফিসহ অন্যান্য ফি আদায় থেকে বিরত থাকতে নির্দেশ দিয়েছেন হাইকোর্ট।
ঢাকা: রাজধানীর বাড্ডার স্যার জন উইলসন স্কুলের শিক্ষার্থীদের কাছ থেকে (২০১৬-১৭ শিক্ষবর্ষ) বর্ধিত টার্ম চার্জ, সেশন ও টিউশন ফিসহ অন্যান্য ফি আদায় থেকে বিরত থাকতে নির্দেশ দিয়েছেন হাইকোর্ট।
৩৩ অভিভাবকের করা এক রিট আবেদনের প্রাথমিক শুনানি নিয়ে সোমবার (৩০ মে) বিচারপতি সৈয়দ মোহাম্মদ দস্তগীর হোসেন ও বিচারপতি এ কে এম সাহিদুল হকের হাইকোর্ট বেঞ্চ রুলসহ এ আদেশ দেন।
রুলে স্যার জন উইলসন স্কুলকে বেসরকারি (ইংরেজি মাধ্যম) বিদ্যালয় নিবন্ধন নীতিমালা-২০০৭ এর আওতায় আনতে কেন নির্দেশ দেওয়া হবে না তা জানতে চেয়েছেন হাইকোর্ট।
চার সপ্তাহের মধ্যে শিক্ষা সচিব, প্রাথমিক ও গণশিক্ষা সচিব, মাধ্যমিক ও উচ্চ শিক্ষা অধিদপ্তরের মহাপরিচালক, প্রাথমিক শিক্ষা অধিদপ্তরের মহাপরিচালক, ওই স্কুলের অধ্যক্ষ এবং ট্রাস্টি বোর্ডের চেয়ারম্যানকে রুলের জবাব দিতে বলা হয়েছে। আদালতে রিট আবেদনকারীদের পক্ষে শুনানি করেন ব্যারিস্টার অনীক আর হক। রাষ্ট্রপক্ষে ছিলেন সহকারী অ্যাটর্নি জেনারেল অরবিন্দ কুমার রায়।
রিট আবেদনে বলা হয়, গত ২১ বছর ধরে পরিচালনা পর্ষদ ছাড়াই প্রতিষ্ঠানটি চলছে। পরিচালনা পর্ষদ ভর্তি ও টিউশন ফি নির্ধারণ করে থাকে। অথচ ট্রাস্ট্রি বোর্ডের মাধ্যমে প্রতিষ্ঠানের মালিক স্বেচ্ছাচারীভাবে ভর্তি ফি, বুক ফি ও সেশন ফি নির্ধারণ ও আদায় করেছে, যা বেসরকারি (ইংরেজি মাধ্যম) বিদ্যালয় নিবন্ধন নীতিমালা-২০০৭ এর ৭, ৯, ১৭ ও ২০ ধারা পরিপন্থী।
এ স্কুলে ২০১২ সালে একজন শিক্ষার্থীকে স্কুলে ভর্তি হতে এক লাখ ২৭ হাজার ৭৮০ টাকা দিতে হতো। চার বছরের ব্যবধানে চলতি শিক্ষাবর্ষে (২০১৬-২০১৭) তা নির্ধারণ করা হয়েছে এক লাখ ৯২ হাজার ৮ টাকা। ট্রাস্টি বোর্ড এটি নির্ধারণ করতে পারে না।
স্কুলের এসব সিদ্ধান্তের বৈধতা চ্যালেঞ্জ করে ২৫ মে ৩৩ অভিভাবক রিট করেন।
