ঢাকা: পঞ্চম শ্রেণির শিক্ষার্থীদের প্রাথমিক ও ইবতেদায়ি শিক্ষা সমাপনী পরীক্ষা শুরু হচ্ছে রোববার (১৯ নভেম্বর)। এই পরীক্ষায় এ বছর ৩০ লাখ ৯৬ হাজার ৭৫ জন অংশ নেবে। এর মধ্যে প্রাথমিক সমাপনীতে পরীক্ষার্থীদের সংখ্যা ২৮ লাখ চার হাজার ৫০৯ জন এবং ইবতেদায়িতে দুই লাখ ৯১ হাজার ৫৬৬ জন।
দেশের সাত হাজার ২৬৭টি এবং বিদেশের ১২টি কেন্দ্রে মোট ৬টি বিষয়ে প্রতিটিতে ১০০ করে মোট ৬০০ নম্বরে এই পরীক্ষা অনুষ্ঠিত হবে। প্রথম দিন সকাল ১১টা থেকে দেড়টা পর্যন্ত ইংরেজি বিষয়ের পরীক্ষা অনুষ্ঠিত হবে।
প্রাথমিক ও গণশিক্ষা মন্ত্রী মোস্তাফিজুর রহমান রাজধানীর মতিঝিলে আইডিয়াল সরকারি প্রাথমিক বিদ্যালয় পরীক্ষা কেন্দ্র পরিদর্শন করবেন বলে জানিয়েছেন মন্ত্রণালয়ের জনসংযোগ কর্মকর্তা রবীন্দ্রনাথ রায়।
১৯ নভেম্বর এই পরীক্ষা শুরু হয়ে শেষ হবে ২৬ নভেম্বর। ডিসেম্বরের শেষ সপ্তাহে ফল প্রকাশের সম্ভাব্য সময় নির্ধারণ করা হয়েছে।
প্রাথমিক শিক্ষা সমাপনীতে অংশ নেয়া পরীক্ষার্থীদের মধ্যে ছাত্র ১২ লাখ ৯৯ হাজার ৯৮৫ জন ও ছাত্রী ১৫ লাখ ৪ হাজার ৫২৪ জন। আর ইবতেদায়িতে ছাত্রসংখ্যা ১ লাখ ৫৩ হাজার ১৫২ জন এবং ছাত্রী ১ লাখ ৩৮ হাজার ৪১৪ জন।
প্রাথমিক শিক্ষায় ২ হাজার ৯৫৩ জন এবং ইবতেদায়ি শিক্ষায় ৩৭৯ জনসহ মোট ৩ হাজার ৩৩২ জন বিশেষ চাহিদা সম্পন্ন পরীক্ষার্থী এ পরীক্ষায় অংশগ্রহণ করবে। তারা অতিরিক্ত ২০ মিনিট সময় পাবে।
পরীক্ষার দায়িত্ব পালনে ন্যূনতম অবহেলা বা অনিয়মের বিষয়ে ‘জিরো টলারেন্স নীতি গ্রহণ করা হয়েছে বলে পরীক্ষা প্রস্তুতি নিয়ে এর আগে আয়োজিত এক সংবাদ সম্মেলনে জানিয়েছিলেন মন্ত্রী।
পঞ্চম শ্রেণির শিক্ষার্থীদের জন্য ২০০৯ সাল থেকে প্রাথমিক সমাপনী পরীক্ষা শুরু হয়। আর ইবতেদায়িতে এই পরীক্ষা হচ্ছে ২০১০ সাল থেকে।
প্রথম দুই বছর বিভাগভিত্তিক ফল দেওয়া হলেও ২০১১ সাল থেকে গ্রেডিং পদ্ধতিতে ক্ষুদে শিক্ষার্থীদের সমাপনীর ফল দেওয়া হচ্ছে।
আগে এই পরীক্ষার সময় দুই ঘণ্টা থাকলেও ২০১৩ সাল থেকে পরীক্ষার সময় আধা ঘণ্টা বাড়িয়ে আড়াই ঘণ্টা করা হয়।
প্রশ্ন ফাঁস ঠেকাতে গত বছর থেকে দেশের ৬৪ জেলাকে বিশেষ আটটি অঞ্চলে ভাগ করে আট সেট প্রশ্ন ছাপিয়ে প্রাথমিক ও ইবেতেদায়ি শিক্ষা সমাপনী পরীক্ষা নিচ্ছে সরকার।
প্রতি বছরের মতো প্রাথমিক ও গণশিক্ষা মন্ত্রণালয় এবং প্রাথমিক শিক্ষা অধিদপ্তরের কর্মকর্তাদের সমন্বয়ে প্রতি জেলায় পরীক্ষা কার্যক্রম পরিদর্শনের জন্য ভিজিলেন্স টিম গঠন করা হয়েছে। মন্ত্রণালয় এবং অধিদপ্তরে পরীক্ষা নিয়ন্ত্রণ কক্ষ খোলা হয়েছে।
মন্ত্রণালয়ের পরীক্ষা নিয়ন্ত্রণ কক্ষের টেলিফোন নম্বর ৯৫১৫৯৭৭ এবং অধিদপ্তরের নিয়ন্ত্রণ কক্ষের টেলিফোন নম্বর ০২-৫৫০৭৪৯১৭, ০১৯১৩৪৮১৬৭২, ০১৭১২৪১৩১০০। এছাড়া ই-মেইল (ddestabdpe@gmail.com). সমাপনী পরীক্ষা সংক্রান্ত সকল তথ্য এই নিয়ন্ত্রণ কক্ষ থেকে জানা যাবে।
পরীক্ষা সূচি
প্রাথমিক সমাপনী পরীক্ষায় ১৯ নভেম্বর ইংরেজি, ২০ নভেম্বর বাংলা, ২১ নভেম্বর বাংলাদেশ ও বিশ্ব পরিচয়, ২২ নভেম্বর প্রাথমিক বিজ্ঞান, ২৩ নভেম্বর ধর্ম ও নৈতিক শিক্ষা এবং ২৬ নভেম্বর গণিত পরীক্ষা অনুষ্ঠিত হবে।
আর ইবতেদায়িতে ১৯ নভেম্বর ইংরেজি, ২০ নভেম্বর বাংলা, ২১ নভেম্বর বাংলাদেশ ও বিশ্ব পরিচয় এবং বিজ্ঞান, ২২ নভেম্বর আরবি, ২৩ নভেম্বর কুরআন ও তাজবিদ এবং ২৬ নভেম্বর গণিত পরীক্ষা অনুষ্ঠিত হবে।
