শাবিপ্রবি: সিলেটের শাহজালাল বিজ্ঞান ও প্রযুক্তি বিশ্ববিদ্যালয়ে বিশ্ব পর্যটন দিবস উদযাপিত হয়েছে। বুধবার (২৭ সেপ্টেম্বর) দুপুর ১টায় বিশ্ববিদ্যালয়ের পর্যটন বিষয়ক সংগঠন ‘টুরিস্ট ক্লাব সাস্ট এর উদ্যোগে দিবসটি উদযাপন করা হয়।
এ উপলক্ষে সংগঠনের পক্ষ থেকে শোভা যাত্রার আয়োজন করা হয়। র‌্যালিটি কেন্দ্রীয় গ্রন্থাগারের সামনে থেকে শুরু হয়ে বিশ্ববিদ্যালয়ের প্রধান সড়ক প্রদক্ষিণ করে একই স্থানে এসে মিলিত হয়।
এ সময় উপস্থিত ছিলেন ক্লাবের যুগ্ম সাধারণ সম্পাদক ইনামুল আসিফ, চ্যারিটি উইং এর প্রধান মো. রাকিব মিয়া, সহ-সাংগঠনিক সম্পাদক সোহানুর রহমান সোহানসহ অন্যান্য সদস্যরা। 
র‌্যালি শেষে কেন্দ্রীয় গ্রন্থাগার ভবনের সামনে কেক কাটার আয়োজন করে সংগঠনটি।
