দুর্যোগপূর্ণ আবহাওয়ার কারণে মাদ্রাসা বোর্ডের অধীনে জুনিয়র দাখিল সার্টিফিকেটের (জেডিসি) ইংরেজি প্রথমপত্রের পরীক্ষা পেছানো হয়েছে। একই সঙ্গে পরিবর্তন করা হয়েছে বরিশাল শিক্ষা বোর্ডের ইংরেজি দ্বিতীয় পত্রের পরীক্ষার সূচিও।
ঢাকা: দুর্যোগপূর্ণ আবহাওয়ার কারণে মাদ্রাসা বোর্ডের অধীনে জুনিয়র দাখিল সার্টিফিকেটের (জেডিসি) ইংরেজি প্রথমপত্রের পরীক্ষা পেছানো হয়েছে। একই সঙ্গে পরিবর্তন করা হয়েছে বরিশাল শিক্ষা বোর্ডের ইংরেজি দ্বিতীয় পত্রের পরীক্ষার সূচিও।
নতুন সূচি অনুযায়ী রোববার (০৬ নভেম্বর) অনুষ্ঠেয় মাদ্রাসা শিক্ষা বোর্ডের ইংরেজি প্রথমপত্রের পরীক্ষা অনুষ্ঠিত হবে আগামী ১৯ নভেম্বর (শনিবার)। আর বরিশাল শিক্ষা বোর্ডের ইংরেজি দ্বিতীয়পত্রের পরীক্ষা হবে ১২ নভেম্বর (শনিবার)।
শনিবার (০৫ নভেম্বর) রাতে বাংলাদেশ আন্তঃশিক্ষা বোর্ড সমন্বয় সাব-কমিটির সভাপতি ও ঢাকা শিক্ষা বোর্ডের চেয়ারম্যান ড. মাহবুবুর রহমান বাংলানিউজকে বিয়ষটি নিশ্চিত করেছেন।
