ঢাকা: আন্তর্জাতিক পর্যায়ে গবেষণা করার সুযোগ করে দিতে জাপানের স্বনামধন্য বিশ্ববিদ্যালয় হিতোতসুবাসি ইউনিভার্সিটি জাপানের সঙ্গে সামসুল হক খান স্কুল অ্যান্ড কলেজ একটি চুক্তি সই হয়েছে।
সোমবার (৫ ফেব্রুয়ারি) ‘ইনোভেশন ল্যাব ও একচেঞ্জ প্রোগ্রামের উপর এ চুক্তির মধ্য দিয়ে প্রতিষ্ঠানটির শিক্ষার্থী ও শিক্ষকমণ্ডলী স্কিল ডেভোলপমেন্টে জাপানের ওই বিশ্ববিদ্যালয়ে বিভিন্ন আইটি ট্রেনিং ও তথ্যপ্রযুক্তি ভিত্তিক বিভিন্ন গবেষণায় সুযোগ পাবেন। পাশাপাশি জাপানের শিক্ষার্থীও বাংলাদেশের কালচার ও বিভিন্ন বিষয়ে স্টাডি করতে পারবেন ও প্রতিষ্ঠানটিতে একটি ইনোভেশন ল্যাব প্রতিষ্ঠিত হবে।
চুক্তিটিতে সই করেন মিস্টার সিইচিরো ইউনেকুরা (পিএইচডি) প্রফেসর ইন্সটিটিউশন অফ ইনোভেশন রিসার্চ, হিতোতসুবাসি ইউনিভার্সিটি জাপান ও সামসুল হক খান স্কুল অ্যান্ড কলেজের অধ্যক্ষ ড. মাহবুবুর রহমান মোল্লা। এ সময় উপস্থিত ছিলেন জাপানের একটি প্রতিনিধি দল ও দু’দেশের কো-অরডিনেটর ব্যাকবন লিমিটেডের সিইও মিস্টার মাহিন মতিন।
