রাজধানীর শেরেবাংলা কৃষি বিশ্ববিদ্যালয়ের ২০১৬-১৭ শিক্ষাবর্ষে স্নাতক প্রথম বর্ষের ভর্তি শুরু হচ্ছে সোমবার (২৬ ডিসেম্বর)। চলবে ২৯ ডিসেম্বর পযর্ন্ত।
ঢাকা: রাজধানীর শেরেবাংলা কৃষি বিশ্ববিদ্যালয়ের ২০১৬-১৭ শিক্ষাবর্ষে স্নাতক প্রথম বর্ষের ভর্তি শুরু হচ্ছে সোমবার (২৬ ডিসেম্বর)। চলবে ২৯ ডিসেম্বর পযর্ন্ত।
মূল মেধা তালিকা থেকে ভর্তি ২৬ ও ২৭ ডিসেম্বর এবং অপেক্ষমান তালিকা থেকে ভর্তি ২৯ ডিসেম্বর।
অপেক্ষমান তালিকা থেকে ভর্তিচ্ছু প্রার্থীদের ২৮ ডিসেম্বর বেলা ২টার মধ্যে স্ব-শরীরে উপস্থিত হয়ে রেজিস্ট্রার কার্যালয়ে প্রবেশপত্র জমা দিতে হবে এবং একই দিন মেধাক্রম অনুসারে ভর্তিযোগ্য প্রার্থীদের তালিকা প্রকাশ করা হবে।
রোববার (২৫ ডিসেম্বর) বিশ্ববিদ্যালয়ের জনসংযোগ কর্মকর্তা বশিরুল ইসলাম এসব তথ্য নিশ্চিত করেন।
বিশ্ববিদ্যালয় প্রশাসন সূত্র জানায়, ভর্তির সময় শিক্ষাগত যোগ্যতার সকল মূল গ্রেডসীট, ৩ কপি সত্যায়িত রঙিন ছবি, মুক্তিযোদ্ধার কোটার ক্ষেত্রে মুক্তিযোদ্ধা বিষয়ক মন্ত্রণালয় কর্তৃক ইস্যুকৃত সনদপত্র অথবা ১৯৯৭ থেকে ২০০১ পর্যন্ত বাংলাদেশের মুক্তিযোদ্ধা সংসদের অধীনে তৎকালীন প্রধানমন্ত্রী কর্তৃক প্রতিস্বাক্ষরিত মুক্তিযোদ্ধার সার্টিফিকেট এবং নাতি নাতনির ক্ষেত্রে মুক্তিযোদ্ধার সহিত আত্মীয়তার সম্পর্ক প্রমাণের জন্য ইউনিয়ন পরিষদ/ওয়ার্ড কমিশনার এর সার্টিফিকেট। ওয়ার্ড  (পোষ্য) কোটার ক্ষেত্রে শেরেবাংলা কৃষি বিশ্ববিদ্যালয়ের সংশ্লিষ্ট বিভাগ/দপ্তর প্রধানের সুপারিশের আলোকে রেজিস্ট্রার কর্তৃক প্রদত্ত প্রত্যায়ন পত্র।  উপজাতি, আদিবাসী, ওযার্ড (পোষ্য), হরিজন ও দলিত সম্প্রদায় কোটার ক্ষেত্রে উপযুক্ত প্রমাণপত্রের মূল কপি জমা দিতে হবে।
প্রার্থী কর্তৃক সরবরাহকৃত কোনো তথ্য ভূল বা অসত্য প্রমাণিত হলে ভর্তির অযোগ্য বলে গণ্য হবে। এমনকি ভর্তির পরেও কোন তথ্যগত ভুল বা অসত্য প্রমাণিত হলে ভর্তি বাতিল বলে গণ্য হবে।  
ভর্তির জন্য ন্যূনতম ১৯ হাজার টাকা লাগবে, তবে এগ্রিবিজনেস ম্যানেজমেন্ট অনুষদে ভর্তির জন্য অতিরিক্ত ২ হাজার এবং এনিম্যাল সায়েন্স অ্যান্ড ভেটেরিনারি মেডিসিন অনুষদে জন্য অতিরিক্ত ৪ হাজার ১শত ৭৫ টাকা লাগবে।
৪টি অনুষদে মোট আসন সংখ্যা ৫৪০। কৃষি অনুষদে ৩৫০, এগ্রিবিজনেস ম্যানেজমেন্ট অনুষদে ৭৫, এনিম্যাল সায়েন্স ও ভেটেরিনারি মেডিসিন অনুষদ ৯০ এবং ফিসারিজ ও একোয়াকালচার অনুষদে ২৫। ভর্তি বিষয়ে বিশ্ববিদ্যালয়ের ওয়েবসাইট- www.sau.edu.bd থেকে বিস্তারিত জানা যাবে।
