সিলেটের শাহজালাল বিজ্ঞান ও প্রযুক্তি বিশ্ববিদ্যালয়(শাবিপ্রবি) শিক্ষক সমিতির নির্বাচনে আওয়ামী সমর্থিত সৈয়দ সামসুল আলম-মস্তাবুর রহমান প্যানেল ১১টি পদের ৯ টিতেই জয়লাভ করেছে।
সিলেট: সিলেটের শাহজালাল বিজ্ঞান ও প্রযুক্তি বিশ্ববিদ্যালয়(শাবিপ্রবি) শিক্ষক সমিতির নির্বাচনে আওয়ামী সমর্থিত সৈয়দ সামসুল আলম-মস্তাবুর রহমান প্যানেল ১১টি পদের ৯ টিতেই জয়লাভ করেছে।
অপর দিকে বিএনপি-জামায়াত সমর্থিত সাজেদুল-জাকারিয়া পরিষদ থেকে সদস্য পদে ১ জন জয়লাভ করেছেন। উভয় পরিষদ থেকে দুই প্রার্থী সমান ভোট পাওয়ায় দুজনকেই বিজয়ী ঘোষণা করা হয়।
সোমবার রাত ১১টায় নির্বাচনের ফলাফল ঘোষণা করেন প্রধান নির্বাচন কমিশনার অধ্যাপক ড. নিয়াজ আহমেদ। মোট  ৪২০ জন ভোটারের মধ্যে ৩০১ জন ভোটার ভোট প্রদান করেন।
সহকারী নির্বাচন কমিশনার হিসেবে দায়িত্ব পালন করেন রসায়ন বিভাগের অধ্যাপক ড. মিজানুর রহমান ও ইংরেজী বিভাগের সহযোগী অধ্যাপক ড. সাহেদ আহমদ।
