ঢাকা: দেশের পাবলিক বিশ্ববিদ্যালয়গুলোর চলতি শিক্ষাবর্ষে (২০১৭-১৮) ভর্তি পরীক্ষার সম্ভাব্য তারিখ নির্ধারণ করা হয়েছে।
শনিবার (১৫ জুলাই) শেরেবাংলা কৃষি বিশ্ববিদ্যালয়ের (শেকৃবি) উপাচার্যের  সম্মেলন কক্ষে পাবলিক বিশ্ববিদ্যালয়ের উপাচার্যদের সংগঠন ‘বাংলাদেশ বিশ্ববিদ্যালয় পরিষদ’র স্ট্যান্ডিং কমিটির ২৫২তম সভায় এ সিদ্ধান্ত নেয়া হয়।
পটুয়াখালী বিজ্ঞান ও প্রযুক্তি বিশ্ববিদ্যালয়ের উপাচার্য অধ্যাপক ড. মো. হারুনর রশিদ সভাপতিত্বে এ সভায় ২৮টি বিশ্ববিদ্যালয়ের উপাচার্যরা উপস্থিত ছিলেন।
সভায় বিশ্ববিদ্যালয়গুলোর ভর্তি পরীক্ষা ও আনুষাঙ্গিক বিভিন্ন বিষয় নিয়েও আলোচনা হয়। এতে পাবলিক বিশ্ববিদ্যালয়গুলোর ২০১৭-১৮ শিক্ষাবর্ষে  ১ম বর্ষে  স্নাতক  পর্যায়ে  ভর্র্তি  পরীক্ষার  তারিখ  সমন্বয়  ও সম্ভাব তারিখ নির্ধারণ করা হয়।   পাবলিক বিশ্ববিদ্যালয়গুলোর সম্ভাব্য ভর্তি পরীক্ষার সূচি   প্রকৌশল বিশ্ববিদ্যালয় বাংলাদেশ প্রকৌশল বিশ্ববিদ্যালয় (বুয়েট) ১৪ অক্টোবর, চট্টগ্রাম প্রকৌশল ও প্রযুক্তি বিশ্ববিদ্যালয় ২১ অক্টোবর, রাজশাহী প্রকৌশল ও প্রযুক্তি বিশ্ববিদ্যালয় ১৭ নভেম্বর, খুলনা প্রকৌশল ও প্রযুক্তি বিশ্ববিদ্যালয় ২০ অক্টোবর, বাংলাদেশ টেক্সটাইল বিশ্ববিদ্যালয়, তেজগাঁও, ঢাকা ২৬ নভেম্বর।   কৃষি বিশ্ববিদ্যালয় শেরেবাংলা কৃষি বিশ্ববিদ্যালয়, ঢাকা ০১ ডিসেম্বর, বাংলাদেশ কৃষি বিশ্ববিদ্যালয়, ময়মনসিংহ ০৪ নভেম্বর, বঙ্গবন্ধু শেখ মুজিবুর রহমান কৃষি বিশ্ববিদ্যালয়, গাজীপুর ০৮ নভেম্বর, সিলেট কৃষি বিশ্ববিদ্যালয় ১৭ নভেম্বর, চট্টগ্রাম ভেটেরিনারি ও অ্যানিমেল সায়েন্সেস বিশ্ববিদ্যালয় ২ ডিসেম্বের।   বিজ্ঞান ও প্রযুক্তি বিশ্ববিদ্যালয় হাজী মোহাম্মদ দানেশ বিজ্ঞান ও প্রযুক্তি বিশ্ববিদ্যালয়, দিনাজপুর ৫ থেকে ৮ নভেম্বর, শাহজালাল বিজ্ঞান ও প্রযুক্তি বিশ্ববিদ্যালয়, সিলেট  ১৮ নভেম্বর, যশোর বিজ্ঞান ও প্রযুক্তি বিশ্ববিদ্যালয় ৯ ও ১০ নভেম্বর পাবনা বিজ্ঞান ও প্রযুক্তি বিশ্ববিদ্যালয় ২৭ অক্টোবর, পটুয়াখালী বিজ্ঞান ও প্রযুক্তি বিশ্ববিদ্যালয় ২০ ও ২১ ডিসেম্বর, নোয়াখালী বিজ্ঞান ও প্রযুক্তি বিশ্ববিদ্যালয় ৩ ও ৪ নভেম্বর, রাঙ্গামাটি বিজ্ঞান ও প্রযুক্তি বিশ্ববিদ্যালয় ২০১৮ সালের মার্চের শেষ সপ্তাহে।   অন্যান্য বিশ্ববিদ্যালয় জাহাঙ্গীরনগর বিশ্ববিদ্যালয় ৮ থেকে ১৮ অক্টোবর, রাজশাহী বিশ্ববিদ্যালয় ২২ থেকে ২৬ অক্টোবর, চট্টগ্রাম বিশ্ববিদ্যালয় ২২ থেকে ৩০ অক্টোবর, কুষ্টিয়া ইসলামী বিশ্ববিদ্যালয় ২৫ থেকে ২৯ নভেম্বর, বাংলাদেশ ইউনিভার্সিটি অব প্রফেশনালস ২৪ ও ২৫ নভম্বের, কুমিল্লা বিশ্ববিদ্যালয়, ১৭ ও ১৮ নভম্বের, জাতীয় কবি কাজী নজরুল ইসলাম বিশ্ববিদ্যালয় ১৯ থেকে ২৩ নভেম্বর, বরিশাল বিশ্ববিদ্যালয় ২৪ ও ২৫ নভেম্বর, বেগম রোকেয়া বিশ্ববিদ্যালয় ২৬ থেকে ৩০ নভেম্বর, খুলনা বিশ্ববিদ্যালয় ১১ নভম্বের। বঙ্গবন্ধু শেখ মুজিবুর রহমান মেরিটাইম ৮ ডিসেম্বর, বাংলাদেশ উন্মুক্ত বিশ্ববিদ্যালয় ৫ নভেম্বর।
এছাড়া জাতীয় বিশ্ববিদ্যালয় ২৪ আগস্ট থেকে আবদেন শুরু হবে।
