‘বোঝার ওপর শাকের আঁটি’- প্রবাদ বাক্যেরই যেন প্রতিফলন ঘটছে দেশের মেরিন শিক্ষাখাতে। দেশের সরকারি-বেসরকারি ১৯টি মেরিন একাডেমি যখন চলতি বছরে সব মিলিয়ে ১০০ জন শিক্ষার্থীও পায়নি, তখন বেসরকারি প্রতিষ্ঠানগুলোতে ধরা পড়ছে নানা ত্রুটি-বিচ্যুতিও।
ঢাকা: ‘বোঝার ওপর শাকের আঁটি’- প্রবাদ বাক্যেরই যেন প্রতিফলন ঘটছে দেশের মেরিন শিক্ষাখাতে। দেশের সরকারি-বেসরকারি ১৯টি মেরিন একাডেমি যখন চলতি বছরে সব মিলিয়ে ১০০ জন শিক্ষার্থীও পায়নি, তখন বেসরকারি প্রতিষ্ঠানগুলোতে ধরা পড়ছে নানা ত্রুটি-বিচ্যুতিও।
পরিদর্শন করে এসব ত্রুটি-বিচ্যুতির প্রমাণ পেয়ে ৫টি বেসরকারি মেরিন একাডেমির কার্যক্রম সাময়িক সময়ের জন্য স্থগিত করে দিয়েছে বাংলাদেশ সমুদ্র পরিবহন অধিদপ্তর। কার্যক্রম স্থগিত রাখা মেরিন একাডেমিগুলোর মধ্যে উল্লেখযোগ্য তিনটি হচ্ছে- বে মেরিন একাডেমি, মিস্ট মেরিন একাডেমি ও ম্যাস মেরিন একাডেমি। পুরো পরিদর্শন কার্যক্রম শেষ হওয়ার পর এ তালিকা আরো দীর্ঘ হবে বলে জানিয়েছে বাংলাদেশ সমুদ্র পরিবহন অধিদপ্তর সূত্র।
সূত্রটি বাংলানিউজকে জানায়, পাঁচটি বেসরকারি মেরিন একাডেমিকে সম্প্রতি বিএসসি থেকে চিঠি দিয়ে সাময়িক সময়ের জন্য কার্যক্রম বন্ধের নোটিশ দেওয়া হয়েছে।
গত প্রায় এক বছর আগে বেসরকারি মেরিন একাডেমিগুলোতে বিএসসি’র এ পরিদর্শন কার্যক্রম শুরু হয়। এ পর্যন্ত ৯টি বেসরকারি মেরিন একাডেমিতে পরিদর্শন কার্যক্রম শেষ হয়েছে। কোনোটির কার্যক্রমেই সন্তুষ্ট নন পরিদর্শকরা। এর মধ্যে পাঁচটি বেসরকারি মেরিন একাডেমিকে চিঠি দিয়ে কার্যক্রম সাময়িক সময়ের জন্য বন্ধ রাখার নির্দেশনা দেওয়া হয়েছে। বাংলাদেশ সমুদ্র পরিবহন অধিদপ্তর’র মহাপরিচালক কমোডর এইচ আর ভূঁইয়া বাংলানিউজকে বলেন, ত্রুটি থাকার কারণে কিছু প্রতিষ্ঠানের কার্যক্রম সাময়িক সময়ের জন্য বন্ধ রাখার বিষয়ে আমাদের পক্ষ থেকে নির্দেশনা দেওয়া হয়েছে। এখনও চলছে পরিদর্শন কার্যক্রম।
