ভোলা: ভোলায় বাল্যবিয়ে প্রতিরোধে স্কুল ভিত্তিক কুইজ প্রতিযোগিতা অনুষ্ঠিত হয়েছে।
বুধবার (০৮ নভেম্বর) দুপুরে ভোলা টগবী মাধ্যমিক বিদ্যালয়ে এ কুইজ প্রতিযোগিতা অনুষ্ঠিত হয়।
বেসরকারি উন্নয়ন সংগঠন কোস্ট ট্রাস্টের আইইসিএম প্রকল্পের আয়োজনে ইউনিসেফের সহযোগিতায় কুইজ প্রতিযোগিতায় স্কুলের কয়েকশ’ শিক্ষার্থী অংশ নেয়।
