কুমিল্লা: কুমিল্লা বিশ্ববিদ্যালয়ে কম্পিউটার বিজ্ঞান ও প্রকৌশল বিভাগের আয়োজনে ‘সিএসই ফেস্ট-২০১৭’র উদ্বোধন করা হয়েছে। এতে সারা দেশের প্রায় ১৫টি সরকারি ও বেসরকারি বিশ্ববিদ্যালয় অংশগ্রহণ করবে।
সোমবার (৪ ডিসেম্বর) সকাল ১০টায় বিশ্ববিদ্যালয় প্রশাসনিক ভবনের ৪১১ নম্বরে এ অনুষ্ঠান উদ্বোধন করা হয়।
উদ্বোধনী অনুষ্ঠানে উপস্থিত ছিলেন-বিশ্ববিদ্যালয় রেজিস্ট্রার মো. মজিবুর রহমান মজুমদার, কম্পিউটার বিজ্ঞান ও প্রকৌশল বিভাগের চেয়ারম্যান মো. কামাল হোসেন চৌধুরী, রসায়ন বিভাগের অধ্যাপক ড. মোহাম্মদ সৈয়দুর রহমান। দুই দিনব্যাপী (৪ ও ৫ ডিসেম্বর) এ আয়োজনে থাকছে, আন্ত‍ঃবিশ্ববিদ্যালয় প্রোগ্রামিং কন্টেস্ট, গেমিং কন্টেস্ট, প্রজেক্ট শোকেজিংসহ আরও অন্যান্য ইভেন্ট।
কম্পিউটার বিজ্ঞান ও প্রকৌশল বিভাগের সহকারী অধ্যাপক মাহমুদুল হাছানের উপস্থাপনায় বক্তারা প্রোগ্রামিং এর বিভিন্ন সম্ভাবনাময় দিক এবং প্রোগ্রামারদের উদ্দেশে বিভিন্ন দিক নির্দেশনা ও উৎসাহমূলক বক্তব্য রাখেন।
