ঢাকা: জাতীয় বিশ্ববিদ্যালয়ের ২০১৫ সালের মাস্টার্স শেষ পর্ব পরীক্ষা শনিবার (২৪ ফেব্রুয়ারি) থেকে শুরু হচ্ছে। 
সারাদেশের  ১৪৪ কলেজের ১১০টি কেন্দ্রে সর্বমোট ১ লাখ ৬৬ হাজার ১২১ জন পরীক্ষার্থী ৩১টি বিষয়ে পরীক্ষায় অংশগ্রহণ করবেন।
পরীক্ষা অনুষ্ঠানের লক্ষ্যে সব প্রস্তুতি ইতোমধ্যে শেষ করা হয়েছে।
জাতীয় বিশ্ববিদ্যালয় কর্তৃপক্ষ সুষ্ঠুভাবে পরীক্ষা অনুষ্ঠানে প্রশাসন, সংশ্লিষ্ঠ কলেজ, শিক্ষক, শিক্ষার্থী এবং অভিভাবকদের সহযোগিতা কামনা করছে।
