আশুলিয়া (ঢাকা): ব্যবসায় প্রশাসন বিভাগের বিশ্ববিদ্যালয় মঞ্জুরি কমিশনের (ইউজিসি) অনুমোদন না থাকায় সাভারের আশুলিয়ায় গণ বিশ্ববিদ্যালয়ের শিক্ষার্থীদের আন্দোলন অব্যাহত রয়েছে। আন্দোলনে বন্ধ পাঁচ হাজার শিক্ষার্থীর শিক্ষা কার্যক্রমসহ প্রশাসনিক সব কাজ।
বুধবার (২০ ডিসেম্বর) দুপুরে আশুলিয়ার নলাম এলাকায় গণ বিশ্ববিদ্যালয়ের ব্যবসায় প্রশাসন বিভাগের মূল ফটকের সামনে চলছে আন্দোলন।
বেশ কয়েকদিন থেকেই শিক্ষার্থীদের এ আন্দোলন চলছে। বিশ্ববিদ্যালয়ের প্রধান ফটকসহ প্রশাসনিক ভবনে তালা ঝুলিয়ে সব ধরনের কার্যক্রম বন্ধ করে দিয়েছে শিক্ষার্থীরা।
