রাবি: রাজশাহী বিশ্ববিদ্যালয়ে (রাবি) ২৭ আগস্ট থেকে ঈদুল আযহার ছুটি শুরু হবে। চলবে ৭ সেপ্টেম্বর পর্যন্ত। এছাড়া ২৯ আগস্ট বিকেল ৫টার মধ্যে শিক্ষার্থীদের হল ত্যাগ করতে হবে।
বুধবার (২৩ আগস্ট) সন্ধ্যায় বিশ্ববিদ্যালয়ের জনসংযোগ দফতরের প্রশাসক অধ্যাপক প্রভাষ কুমার কর্মকার এ তথ্য জানান।
তিনি জানান, ২৭ আগস্ট থেকে ৭ সেপ্টেম্বর পর্যন্ত বিশ্ববিদ্যালয়ের ক্লাস-পরীক্ষা বন্ধ থাকবে। পরদিন ৮ ও ৯ সেপ্টেম্বর সরকারি ছুটি থাকায় ১০ সেপ্টেম্বর থেকে ক্লাস পুনরায় শুরু হবে। এর মধ্যে ২৯ আগস্ট বিকেল ৫টার মধ্যে শিক্ষার্থীদের আবাসিক হল ত্যাগ করতে হবে এবং ৯ সেপ্টেম্বর সকাল ৯টায় পুনরায় হল খুলে দেয়া হবে।
এছাড়া ৩০ আগস্ট থেকে ৭ সেপ্টেম্বর পর্যন্ত বিশ্ববিদ্যালয়ের অফিসসমূহ বন্ধ থাকবে।
