শিক্ষামন্ত্রী নুরুল ইলাম নাহিদ বলেছেন, জঙ্গিরা তাদের কৌশল পাল্টেছে। এখন মেধাবী শিক্ষক ও শিক্ষার্থীদের নিয়োগ দিচ্ছে। তাই দৃষ্টি রাখতে হবে, যে তাদের আচরণের কোনো পরিবর্তন আসছে কি না।
ঢাকা: শিক্ষামন্ত্রী নুরুল ইলাম নাহিদ বলেছেন, জঙ্গিরা তাদের কৌশল পাল্টেছে। এখন মেধাবী শিক্ষক ও শিক্ষার্থীদের নিয়োগ দিচ্ছে। তাই দৃষ্টি রাখতে হবে, যে তাদের আচরণের কোনো পরিবর্তন আসছে কি না।
 
রোববার (২১ আগস্ট) ইডেন মহিলা কলেজ মিলনায়তনে প্রতিষ্ঠানটি আয়োজিত এক আলোচনা সভায় প্রধান অতিথির বক্তব্যে তিনি এসব কথা বলেন।
