ইবি: সারাদেশে বন্যার কারণে স্থগিত হওয়া ইসলামী বিশ্ববিদ্যালয়ের (ইবি) আওতাধীন ফাজিল (স্নাতক) ১ম, ২য় ও ৩য় বর্ষের পরীক্ষার নতুন সময়সূচি প্রকাশ করা হয়েছে।
রোববার (১০ সেপ্টেম্বর) বিকেল সাড়ে ৩টায় বিশ্ববিদ্যালয়ের পরীক্ষা নিয়ন্ত্রক দপ্তর থেকে প্রেরিত এক প্রেস বিজ্ঞপ্তির মাধ্যমে এ তথ্য জানানো হয়।
জানা যায়, সারাদেশে বয়ে যাওয়া বন্যার কারণে গত ১৬, ২০, ২১, ২২ ও ২৩ আগস্ট অনুষ্ঠিতব্য এবং ১৩ আগস্ট শুধু কুড়িগ্রাম জেলার ফাজিল পরীক্ষা স্থগিত করা হয়।
স্থগিত হওয়া পরীক্ষাগুলো যথাক্রমে ২১ ও ২৭ সেপ্টেম্বর ও ০৫, ১২ এবং ১৮ অক্টোবর অনুষ্ঠিত হবে। এছাড়াও ২৬ অক্টোবর শুধুমাত্র কুড়িগ্রাম জেলার স্থগিত হওয়া পরীক্ষা অনুষ্ঠিত হবে বলে জানা গেছে।
স্থগিত হওয়া পরীক্ষার পূর্ণাঙ্গ সময়সূচি বিশ্ববিদ্যালয়ের নিজস্ব ওয়েবসাইটে (www.iu ac.bd) পাওয়া যাবে।
বাংলাদেশ সময়: ১৭৩১ ঘণ্টা, সেপ্টেম্বর ১০, ২০১৭
