ঢাকা বিশ্ববিদ্যালয়: বাংলা নববর্ষ-১৪২৪ সুষ্ঠুভাবে উদযাপনের লক্ষ্যে ঢাকা বিশ্ববিদ্যালয়ে (ঢাবি) প্রস্তুতি সভা অনুষ্ঠিত হয়েছে। প্রতি বছরের মতো এবারও গঠন করা হয়েছে বিভিন্ন কমিটি।
সোমবার (০৩ এপ্রিল) বিশ্ববিদ্যালয়ের নবাব নওয়াব আলী চৌধুরী সিনেট ভবনে উপাচার্য অধ্যাপক ড. আ আ ম স আরেফিন সিদ্দিকের সভাপতিত্বে সভা অনুষ্ঠিত হয়। 
সভায় বিশ্ববিদ্যালয়ের প্রো-উপাচার্য (শিক্ষা) অধ্যাপক ড. নাসরীন আহমাদ, প্রো-উপাচার্য (প্রশাসন) অধ্যাপক ড. মো. আখতারুজ্জামান, কোষাধ্যক্ষ অধ্যাপক ড. মো. কামাল উদ্দীন, বিভিন্ন অনুষদের ডিন, হলের প্রভোস্ট, বিভাগীয় চেয়ারম্যান, ইনস্টিটিউটের পরিচালক, সিনেট-সিন্ডিকেট সদস্য, বিশ্ববিদ্যালয়ের প্রক্টর, অফিস প্রধান এবং বিভিন্ন সমিতির প্রতিনিধিরা উপস্থিত ছিলেন।
সভাপতির বক্তব্যে উপাচার্য বলেন, মঙ্গল শোভাযাত্রা ইউনেস্কো কর্তৃক ‘ইনট্যানজিবল কালচারাল হেরিটেজ অব হিউম্যানিটি’ ঘোষণা করায় এ বছর নববর্ষ আয়োজনের এক বৈশ্বিক গুরুত্ব রয়েছে। বিশ্ববিদ্যালয়ের মর্যাদা ও শৃঙ্খলার কথা বিবেচনা করে সতর্কতার সঙ্গে নববর্ষ উদযাপনের প্রস্তুতি গ্রহণ এবং নববর্ষ উদযাপনের জন্য উপাচার্য সবার প্রতি আহ্বান জানান।   বাংলা নববর্ষ উদযাপনের কর্মসূচি সুষ্ঠুভাবে পরিচালনার উদ্দেশ্যে সভায় প্রো-উপাচার্য (প্রশাসন) অধ্যাপক ড. মো. আখতারুজ্জামানকে আহ্বায়ক করে ৩৩ সদস্যবিশিষ্ট কেন্দ্রীয় সমন্বয় কমিটি গঠন করা হয়েছে। চারুকলা অনুষদের ডিন অধ্যাপক নিসার হোসেন এ কমিটির সদস্য-সচিবের দায়িত্ব পালন করবেন। 
সভায় কেন্দ্রীয় কমিটি ছাড়াও সুষ্ঠু ও শান্তিপূর্ণভাবে নববর্ষ উদযাপনের লক্ষ্যে শৃঙ্খলা ও মঙ্গল শোভাযাত্রা উপ-কমিটি গঠন করা হয়। ৩৯ সদস্যবিশিষ্ট শৃঙ্খলা উপ-কমিটির আহ্বায়ক বিশ্ববিদ্যালয়ের প্রক্টর অধ্যাপক ড. এ এম আমজাদ এবং সদস্য-সচিব সহকারী প্রক্টর অধ্যাপক মো. ফজলুর রহমান। 
