গোপালগঞ্জের বঙ্গবন্ধু শেখ মুজিবুর রহমান বিজ্ঞান ও প্রযুক্তি বিশ্ববিদ্যালয়ে (বশেমুরবিপ্রবি) আগামী ২৪ জুন থেকে ২৩ দিনের ছুটি শুরু হচ্ছে।
বশেমুরবিপ্রবি: গোপালগঞ্জের বঙ্গবন্ধু শেখ মুজিবুর রহমান বিজ্ঞান ও প্রযুক্তি বিশ্ববিদ্যালয়ে (বশেমুরবিপ্রবি) আগামী ২৪ জুন থেকে ২৩ দিনের ছুটি শুরু হচ্ছে।
গ্রীষ্মকালীন, রমজান ও ঈদ-উল ফিতর উপলক্ষে দীর্ঘদিনের এ ছুটি পাচ্ছেন বিশ্ববিদ্যালয়ের শিক্ষার্থীরা।
বিশ্ববিদ্যালয়ের একাডেমিক ক্যালেন্ডার অনুযায়ী, আগামী ২৪ জুন থেকে ছুটি শুরু হয়ে ১৬ জুলাই পর্যন্ত কার্যকর থাকবে। ১৭ জুলাই থেকে যথারীতি ক্লাস-পরীক্ষা চলবে।
