বাগেরহাট: বাগেরহাটে জেলা পর্যায়ে দুই দিনব্যাপী প্রাথমিক শিক্ষা মেলা শুরু হয়েছে। শুক্রবার (৩ ফেব্রুয়ারি) সকালে শহরের প্রাইমারী টিচার ট্রেনিং ইনস্টিটিউট (পিটিআই) চত্বরে মেলার উদ্বোধন করেন বাগেরহাট অতিরিক্ত জেলা প্রশাসক (সার্বিক) মোহাম্মদ মামুন-উল-হাসান।
জেলা শিক্ষা কর্মকর্তা অশোক কুমার সমাদ্ধারের সভাপতিত্বে উদ্বোধনী অনুষ্ঠানে বক্তব্য রাখেন- পিটিআই'র সুপার আবু তোহিদ ও সদর উপজেলা শিক্ষা কর্মকর্তা আব্দুল মান্নান প্রমুখ।
জেলা প্রাথমিক অফিসের আয়োজনে মেলায় জেলার ৯টি উপজেলা প্রাথমিক শিক্ষা অফিসের ১০টি স্টল অংশ নিচ্ছে।
