‘মানসম্মত শিক্ষার বিকল্প নেই। শিক্ষার সুষ্ঠু পরিবেশ বজায় রাখতে শিক্ষাকে পুঁজি করে কাউকে ব্যবসার সুযোগ দেওয়া হবে না। শিক্ষার মান ধরে রাখতে সব ধরনের পদক্ষেপ নেবে সরকার।’
সাভার (ঢাকা): ‘মানসম্মত শিক্ষার বিকল্প নেই। শিক্ষার সুষ্ঠু পরিবেশ বজায় রাখতে শিক্ষাকে পুঁজি করে কাউকে ব্যবসার সুযোগ দেওয়া হবে না। শিক্ষার মান ধরে রাখতে সব ধরনের পদক্ষেপ নেবে সরকার।’
রোববার (০২ অক্টোবর) দুপুরে আশুলিয়ার বিভিন্ন সরকারি প্রাথমিক বিদ্যালয় পরিদর্শনে এসে সাংবাদিকদের এক প্রশ্নের জবাবে একথা বলেন প্রাথমিক ও গণশিক্ষামন্ত্রী অ্যাডভোকেট মোস্তাফিজুর রহমান।
মন্ত্রী বলেন, অনেকের সহজ কর্মসংস্থান ও ব্যবসার টাগের্ট এখন বেসরকারি স্কুল। তবে মানসম্মত শিক্ষার পরিবেশ বজায় রাখতে সরকার বদ্ধপরিকর।
এ সময় মন্ত্রী শিক্ষার্থীদের পড়ালেখার খোঁজখবর নেন। পাশাপাশি শিক্ষকদের পাঠদানের বিষয়ে নানা পরামর্শ দেন।
স্কুল পরিদর্শনকালে মন্ত্রীর সঙ্গে ছিলেন সেভ দ্য চিলড্রেনের কান্ট্রি ডিরেক্টর মার্ক পিয়ার্স, স্থানীয় ইউনিয়ন চেয়ারম্যান শাহাব উদ্দিন মাদবর, সাভার উপজেলা প্রাথমিক শিক্ষা কর্মকর্তা সরকার আবুল কালাম আজাদ প্রমুখ।
