জাহাঙ্গীরনগর বিশ্ববিদ্যালয়ে (জাবি) বনায়নের মাধ্যমে সৌন্দর্য বৃদ্ধি ও পরিবেশের ভারসাম্য রক্ষায় বনায়ন কর্মসূচি গ্রহণ করা হয়েছে...
জাহাঙ্গীরনগর বিশ্ববিদ্যালয় (সাভার): জাহাঙ্গীরনগর বিশ্ববিদ্যালয়ে (জাবি) বনায়নের মাধ্যমে সৌন্দর্য বৃদ্ধি ও পরিবেশের ভারসাম্য রক্ষায় বনায়ন কর্মসূচি গ্রহণ করা হয়েছে।
বুধবার (০৯ আগস্ট) বিশ্ববিদ্যালয় রেজিস্ট্রার স্বাক্ষরিত এক প্রেস বিজ্ঞপ্তিতে এ তথ্য জানানো হয়। যাতে বলা হয়েছে, জাতীয় বৃক্ষরোপণ অভিযান উপলক্ষে আগামী ১০ আগস্ট (বুধবার) সকাল ১১টায় বিশ্ববিদ্যালয় অগ্রণী ব্যাংক লিমিটেডের দক্ষিণ পাশে দুর্লভ প্রজাতির গাছের চারা রোপণের মাধ্যমে ‘বৃক্ষরোপণ কর্মসূচি- ২০১৬’ উদ্বোধন করা হবে।
অনুষ্ঠানে প্রধান অতিথি হিসেবে উপস্থিত থাকবেন বিশ্ববিদ্যালয় উপাচার্য অধ্যাপক ফারজানা ইসলাম, বিশেষ অতিথি হিসেবে থাকবেন বিশ্ববিদ্যালয় উপ-উপাচার্য অধ্যাপক মো. আবুল হোসেন, কোষাধ্যক্ষ অধ্যাপক আবুল খায়ের।
