জাতীয় বিশ্ববিদ্যালয়ের ২০১৩ সালের মাস্টার্স শেষপর্ব পরীক্ষার ফল প্রকাশ করা হয়েছে। এবার পাসের হার ৯৩ দশমিক ৪৪ শতাংশ। রোববার (৯ অক্টোবর) বিশ্ববিদ্যালয়ের জনসংযোগ, তথ্য ও পরামর্শ দফতরের পরিচালক...
ঢাকা: জাতীয় বিশ্ববিদ্যালয়ের ২০১৩ সালের মাস্টার্স শেষপর্ব পরীক্ষার ফল প্রকাশ করা হয়েছে। এবার পাসের হার ৯৩ দশমিক ৪৪ শতাংশ।
রোববার (৯ অক্টোবর) বিশ্ববিদ্যালয়ের জনসংযোগ, তথ্য ও পরামর্শ দফতরের পরিচালক (ভারপ্রাপ্ত) মো. ফয়জুল করিমের পাঠানো এক বিজ্ঞপ্তিতে এ তথ্য জানানো হয়।
এতে বলা হয়, পরীক্ষায় ৩০টি বিষয়ে সারাদেশে ১৩১টি কলেজের ১ লাখ ৯৬ হাজার ৫শ ৭২ জন পরীক্ষার্থী মোট ১১৪টি কেন্দ্রে অংশ নিয়ে ১ লাখ ৮৩ হাজার ৬শ ৮০ জন উত্তীর্ণ হয়েছেন।
এর মধ্যে প্রথম শ্রেণি পেয়েছেন ৩৭ হাজার ৭শ ৫০জন, দ্বিতীয় শ্রেণি ১ লাখ ৪২ হাজার ৬শ ৭৮জন, তৃতীয় শ্রেণি ৩ হাজার ২শ ৫২ জন।
রোববার সন্ধ্যা ৬টা থেকে প্রকাশিত ফল বিশ্ববিদ্যালয়ের ওয়েবসাইট www.nu.edu.bd  এবং www.nubd.info  থেকে পাওয়া যাবে।
এছাড়া যে কোনো মোবাইলে এসএমএসয়ের মাধ্যমে nu<space>mf<space> Roll  লিখে 16222 নম্বরে Send করলে ফল‍ জানা যাবে।
