জাতীয় বিশ্ববিদ্যালয়ের ২০১৬-২০১৭ শিক্ষাবর্ষে প্রথম বর্ষ স্নাতক (সম্মান) ভর্তি কার্যক্রমের প্রথম মেধা তালিকা মঙ্গলবার (০১ নভেম্বর) প্রকাশিত হবে।
ঢাকা: জাতীয় বিশ্ববিদ্যালয়ের ২০১৬-২০১৭ শিক্ষাবর্ষে প্রথম বর্ষ স্নাতক (সম্মান) ভর্তি কার্যক্রমের প্রথম মেধা তালিকা মঙ্গলবার (০১ নভেম্বর) প্রকাশিত হবে।
সোমবার (৩১ অক্টোবর) জাতীয় বিশ্ববিদ্যালয় পাঠানো এক সংবাদ বিজ্ঞপ্তিতে এ তথ্য জানানো হয়েছে।
বিজ্ঞপ্তিতে বলা হয়, যে কোনো মোবাইল থেকে মেসেজ অপশনে গিয়ে nu<space>athn<space>roll লিখে ১৬২২২ নম্বরে পাঠালে ফল জানা যাবে।
এসএমএসের মাধ্যমে মঙ্গলবার বিকেল ৪টা থেকে ফল জানা যাবে। এছাড়াও রাত ৯টায় ওয়েবসাইট (www.nu.edu.bdadmissions অথবা admissions.nu.edu.bd) থেকে বিস্তারিত ফল পাওয়া যাবে।   এছাড়া ভর্তি সংক্রান্ত বিস্তারিত তথ্য পাওয়া যাবে জাতীয় বিশ্ববিদ্যালয়ের ওয়েবসাইট (www.nu.edu.bd/admissions) থেকে।
