ইবি: ইসলামী বিশ্ববিদ্যালয়ের (ইবি) উপ-উপাচার্য হিসেবে অধ্যাপক ড. শাহিনুর রহমান দ্বিতীয় বারের মতো নিয়োগ পেয়েছেন। এর আগে একই পদে ৪ বছরের জন্য দায়িত্ব পালন করে ২০ ফেব্রুয়ারি মেয়াদ পূর্ণ করেন তিনি।
রাষ্ট্রপতি ও ইসলামী বিশ্ববিদ্যালয়ের চ্যান্সেলর অ্যাডভোকেট আবদুল হামিদ তাকে আবারো ৪ বছরের জন্য এই পদে নিয়োগ দিয়েছেন বলে জানা গেছে।
বুধবার শিক্ষা মন্ত্রণালয়ের সরকারি বিশ্ববিদ্যালয়-১ এর সহকারী সচিব আবদুস সাত্তার মিয়া স্বাক্ষরিত এক ফ্যাক্স বার্তার মাধ্যমে এসব তথ্য জানা যায়।
ফ্যাক্স বার্তায় বলা হয়, রাষ্ট্রপতি ও চ্যান্সেলর ইসলামী বিশ্ববিদ্যালয় আইন, ১৯৮০ (সংশোধিত আইন, ২০১০ এর ১১(ক) (১) ধারা অনুযায়ী অধ্যাপক ড. শাহিনুর রহমানকে দ্বিতীয় মেয়াদে উপ উপাচার্য হিসেবে নিয়োগ দিতে সম্মত হয়েছেন। এই নিয়োগ ড. শাহিনুর রহমানের যোগদানের দিন থেকে কার্যকর হবে বলেও ফ্যাক্স বার্তায় উল্লেখ রয়েছে।
এর আগে ২০১৩ সালের ২০ ফেব্রুয়ারি ইসলামী বিশ্ববিদ্যালয়ে উপ-উপাচার্য হিসেবে যোগদান করেন বিশ্ববিদ্যালয়ের ইংরেজি বিভাগের এই অধ্যাপক। শনিবার (২০ ফেব্রুয়ারি, ২০১৭) সফলতার সঙ্গে তিনি তার দায়িত্বের (৪ বছর) মেয়াদকাল পূর্ণ করেন।
তিনিই প্রথম ইসলামী বিশ্ববিদ্যালয়ের ঊর্ধ্বতন প্রশাসক হিসেবে ৪ বছরের মেয়াদ পূর্ণ করেন। এর আগে এই বিশ্ববিদ্যালয়ের ১১ জন উপাচার্য ও ১জন উপ উপাচার্যের কেউই তাদের মেয়াদ পূর্ণ করতে পারেননি বলে জানা গেছে।
ড. শাহিনুর রহমান উপ উপাচার্য হিসেবে দায়িত্ব পালনকালে বিশ্ববিদ্যালয়ের ফোকলোর স্টাডিস বিভাগের প্রতিষ্ঠাতা সভাপতি হিসেবে দায়িত্ব পালন করেন। একইসঙ্গে তিনি বিশ্ববিদ্যালয়ের পরিকল্পনা ও উন্নয়নের প্রধান হিসেবে দায়িত্ব পালন করেছেন।
এর আগে ইসলামী বিশ্ববিদ্যালয়ের ইংরেজি বিভাগের সভাপতি, খুলনা বিশ্ববিদ্যালয়, জাহাঙ্গীরনগর বিশ্ববিদ্যালয় ও জগন্নাথ বিশ্ববিদ্যালয়ের ইংরেজি বিভাগেও শিক্ষকতা করেন ড. শাহিন।
নিয়োগের বিষয়ে ড. শাহিনুর রহমান বলেন, ‘আমি বিগত দিনের মতো সততা এবং নিষ্ঠার সঙ্গে সরকারের দেওয়া দায়িত্ব পালন করে ইসলামী বিশ্ববিদ্যালয়ের মানকে সমুন্নত রাখার জন্য কাজ করে যাবো।’
একইসঙ্গে দ্বিতীয় মেয়াদে তাকে আবারো উপ-উপাচার্য হিসেবে নিয়োগ দেওয়ায় প্রধানমন্ত্রী ও রাষ্ট্রপতির কাছে কৃতজ্ঞতা প্রকাশ করেন তিনি।
