ঢাকা বিশ্ববিদ্যালয়: রেস্টুরেন্টে সিটে বসা নিয়ে ঢাকা বিশ্ববিদ্যালয় (ঢাবি) ও ঢাকা মেডিকেল কলেজ (ঢামেক) হাসপাতালের শিক্ষার্থীদের মধ্যে মারামারির ঘটনা ঘটেছে।
মঙ্গলবার (১৬ জানুয়ারি) রাত সাড়ে ১০টার দিকে এ ঘটনা ঘটে।
প্রত্যক্ষদর্শীরা জানান, বকশিবাজার পেনাং রেস্টুরেন্টে ঢামেকে দুই শিক্ষার্থী খাওয়া শেষ করে টেবিলে ফোন রেখে হাত ধুতে যান। চেয়ার ফাঁকা পেয়ে ঢাবির এসএম হলের ছাত্ররা বসেন। পরে ঢামেক শিক্ষার্থীরা চেয়ার বসার কারণ জিজ্ঞাসা করলে কথা কাটাকাটি হয়। এরই এক পর্যায়ে তাদের মধ্যে মারামারি বাধে। এতে রিয়াজ নামে এক ছাত্র মারাত্মক আহত হন। পরে আইনশৃঙ্খলা রক্ষাকারী বাহিনী পরিস্থিতি নিয়ন্ত্রণে আনে।
ঢাবির এসএম হল শাখা ছাত্রলীগের সাধারণ সম্পাদক মেহেদী হাসান তাপস বাংলানিউজকে বলেন, মারামারির ঘটনায় আমার হলের এক ছাত্র মারাত্মক আহত হয়েছেন।
