গ্রীষ্ম, রমজান ও ঈদুল ফিতর উপলক্ষে রাজশাহী প্রকৌশল ও প্রযুক্তি বিশ্ববিদ্যালয়ে (রুয়েট) আগামী ১ জুন থেকে ছুটি শুরু হচ্ছে। রুয়েট বন্ধ থাকবে ১০ জুলাই পর্যন্ত।
রাবি: গ্রীষ্ম, রমজান ও ঈদুল ফিতর উপলক্ষে রাজশাহী প্রকৌশল ও প্রযুক্তি বিশ্ববিদ্যালয়ে (রুয়েট) আগামী ১ জুন থেকে ছুটি শুরু হচ্ছে। রুয়েট বন্ধ থাকবে ১০ জুলাই পর্যন্ত।
তবে ছুটিতে বিশ্ববিদ্যালয়ের আবাসিক হলগুলো খোলা থাকবে।
সোমবার (৩০ মে) সন্ধ্যায় রুয়েটের জনসংযোগ দফতরের পাঠানো এক সংবাদ বিজ্ঞপ্তিতে এ তথ্য জানানো হয়।
বিজ্ঞপ্তিতে বলা হয়, আগামী ১ জুন থেকে ৫ জুন পর্যন্ত গ্রীষ্মকালীন ছুটি উপলক্ষে রুয়েটের সব কার্যক্রম বন্ধ থাকবে। তবে বিভাগসমূহের জরুরি কাজ চলবে। ৬ জুন থেকে ১০ জুলাই পর্যন্ত রমজান ও ঈদের ছুটি থাকবে। তবে এ সময় পূর্বনির্ধারিত বিভিন্ন বিভাগের পরীক্ষা অনুষ্ঠিত হবে।
বিজ্ঞপ্তিতে আরো জানানো হয়, রমজানের ছুটির সময় বিশ্ববিদ্যালয়ের অফিস খোলা থাকবে সকাল সাড়ে ৯টা থেকে দুপুর আড়াইটা পর্যন্ত।
