বাংলাদেশ প্রকৌশল বিশ্ববিদ্যালয়ের (বুয়েট) প্রথম বর্ষের ভর্তি পরীক্ষা আগামী পহেলা ডিসেম্বর অনুষ্ঠিত হবে।সোমবার বুয়েটের একাডেমিক কাউন্সিলের সভায় এ সিদ্ধান্ত নেওয়া হয়েছে।
ঢাকা: বাংলাদেশ প্রকৌশল বিশ্ববিদ্যালয়ের (বুয়েট) প্রথম বর্ষের ভর্তি পরীক্ষা আগামী পহেলা ডিসেম্বর অনুষ্ঠিত হবে।সোমবার বুয়েটের একাডেমিক কাউন্সিলের সভায় এ সিদ্ধান্ত নেওয়া হয়েছে।
সভার সিদ্ধান্ত অনুযায়ী আগামী ১০ অক্টোবর থেকে অনলাইনে ভর্তির আবেদনপত্র পাওয়া যাবে। আবেদন করার শেষ তারিখ ২২ অক্টোবর। তবে যেসব শিক্ষার্থী আবেদন করতে গিয়ে সমস্যার সম্মুখীন হবেন তাদের আবেদনপত্র ২৩ তারিখ পর্যন্ত জমা নেওয়া হবে। উপাচার্য অধ্যাপক এসএম নজরুল ইসলাম বাংলানিউজকে বিষয়টি নিশ্চিত করেছেন। বুয়েটের একাডেমিক কাউন্সিল সূত্র জানায়, এবছর আসন সংখ্যা বাড়ানো হয়নি। আগের বছরের মতই এক হাজার আসনের বিপরীতে পরীক্ষা নেওয়া হবে। আবেদনকারীদের এসএসসি পরীক্ষায় কমপক্ষে জিপিএ-৪ এবং এইচএসসি পরীক্ষায় পদার্থ, রসায়ন, গণিত এবং ইংরেজিতে জিপিএ-৫ করে পেতে হবে।
