বিশ্ববিদ্যালয়ের জ্যেষ্ঠ শিক্ষকদের মধ্য থেকে উপাচার্য নিয়োগ ও ক্যাম্পাস সম্প্রসারণের দাবি জানিয়েছে ঢাকা প্রকৌশল ও প্রযুক্তি বিশ্ববিদ্যালয় (ডুয়েট) শিক্ষক সমিতি।
ঢাকা: বিশ্ববিদ্যালয়ের জ্যেষ্ঠ শিক্ষকদের মধ্য থেকে উপাচার্য নিয়োগ ও ক্যাম্পাস সম্প্রসারণের দাবি জানিয়েছে ঢাকা প্রকৌশল ও প্রযুক্তি বিশ্ববিদ্যালয় (ডুয়েট) শিক্ষক সমিতি। শনিবার দুপুরে জাতীয় প্রেসক্লাবের কনফারেন্স লাউঞ্জে আয়োজিত সংবাদ সম্মেলনে শিক্ষক নেতৃবৃন্দ এ দাবি জানান। এতে লিখিত বক্তব্য উপস্থাপন করেন সমিতির সাধারণ সম্পাদক অধ্যাপক ড. মো. কামরুজ্জামান। বক্তব্যে বলা হয়,  ইঞ্জিনিয়ারিং কলেজগুলোকে ১৯৮৬ সালে বাংলাদেশ ইনস্টিটিউট অব টেকনোলজি (বিআইটি) রুপান্তর করা হয়। সেই হিসেবে বিআইটিগুলোর নামে বিভাগীয় শহরের নাম রেখে নামকরণ করা হয় বাংলাদেশ ইনস্টিটিউট অব টেকনোলজি (বিআইটি) ঢাকা।
সেই সময় গাজীপুর ঢাকা বিভাগের অর্ন্তভূক্ত একটি মহকুমা ছিল। বর্তমানে দেশের ৪৯টি সরকারি পলিটেকনিক ও প্রায় ২শ টি বেসরকারি পলিটেকনিকের প্রতিনিধিত্বকারী উচ্চ শিক্ষার একমাত্র প্রতিষ্ঠান ডুয়েট। গুরুত্বপূর্ণ এই পাবলিক বিশ্ববিদ্যালয়টি মাত্র ২০ একর জমির উপর প্রতিষ্ঠিত।
