ঢাকা: জাতীয় বিশ্ববিদ্যালয়ের ২০১৭-১৮ শিক্ষাবর্ষের প্রথম বর্ষ স্নাতক (সম্মান) ভর্তি কার্যক্রমে প্রথম রিলিজ স্লিপের অনলাইন আবেদন আগামী রোববার (৫ নভেম্বর) থেকে শুরু হবে। চলবে ১১ নভেম্বর দিবাগত রাত ১২টা পর্যন্ত।
বৃহস্পতিবার (২ নভেম্বর) জাতীয় বিশ্ববিদ্যালয়ের জনসংযোগ, তথ্য ও পরামর্শ দফতর থেকে পাঠানো এক সংবাদ বিজ্ঞপ্তিতে এ তথ্য জানানো হয়।
বিজ্ঞপ্তিতে বলা হয়, ভর্তি কার্যক্রমে যেসব প্রার্থী- মেধা তালিকায় স্থান পায়নি, মেধা তালিকায় স্থান পেয়েও ভর্তি হয়নি এবং ভর্তি বাতিল করেছে সেসব প্রার্থীদের প্রথম রিলিজ স্লিপে আবেদন করতে পারবেন। 
বিস্তারিত জাতীয় বিশ্ববিদ্যালয়ে নির্দিষ্ট ওয়েবসাইট (www. admissions.nu.edu.bd  অথবা  nu.edu.bd/admissions) থেকে জানা যাবে বলেও বিজ্ঞপ্তিতে জানানো হয়েছে।
