ইসলামী বিশ্ববিদ্যালয়ের (ইবি) ইংরেজি বিভাগে বঙ্গবন্ধুর অসমাপ্ত আত্মজীবনী পাঠ ও আলোচনা সভা অনুষ্ঠিত হয়েছে।
ইবি: ইসলামী বিশ্ববিদ্যালয়ের (ইবি) ইংরেজি বিভাগে বঙ্গবন্ধুর অসমাপ্ত আত্মজীবনী পাঠ ও আলোচনা সভা অনুষ্ঠিত হয়েছে।
শনিবার (১৯ নভেম্বর) সকালে বিশ্ববিদ্যালয় শাখা ছাত্রলীগ এর আয়োজন করে।
এ সময় ছাত্রলীগের পক্ষ থেকে বিভাগে দু’টি অসমাপ্ত আত্মজীবনী বই উপহার দেওয়া হয়।
পর্যায়ক্রমে সব বিভাগে দু’টি করে বঙ্গবন্ধুর অসমাপ্ত আত্মজীবনী বইটি দেওয়ার ঘোষণা দেয় ছাত্রলীগ।
সভায় ইবি শাখা ছাত্রলীগের যুগ্ম সাধারণ সম্পাদক আনিচুর রহমান আনিচের সঞ্চালনায় বঙ্গবন্ধুর অসমাপ্ত আত্মজীবনীর উপর আলোচনা করেন সাধারণ সম্পাদক অমিত কুমার দাস, সহ সভাপতি বিপ্লব কর্মকর, আবুল খায়ের ও সাংগঠনিক সম্পাদক শিশির ইসলাম বাবু।
