কুবি: কুমিল্লা বিশ্ববিদ্যালয়ের (কুবি) নৃবিজ্ঞান বিভাগের ‘অ্যানথ্রোপলজি সোসাইটি’র তৃতীয় কার্যনির্বাহী পরিষদ গঠন করা হয়েছে। 
সোমবার (১১ ডিসম্বের) সোসাইটির এক সাধারণ সভায় কার্যনির্বাহী পরিষদের নির্বাচনের ফলাফল ঘোষণা করেন সোসাইটির মডারেটর মো. আসাদুজ্জামান।
এতে সহ-সভাপতি (ভিপি) নির্বাচিত হয়েছেন বিভাগের ৩য় ব্যাচের শিক্ষার্থী ফজলে শাহারিয়ার ও সাধারণ সম্পাদক (জিএস) নির্বাচিত হয়েছেন চতুর্থ ব্যাচের শিক্ষার্থী বিথী আক্তার।
কার্যনির্বাহী পরিষদের অন্য সদস্যরা হলেন- কোষাধ্যক্ষ মো. আল আমিন রাকিব (৫ম ব্যাচ), সহকারী সাধারণ সম্পাদক সুমাইয়া আক্তার (ষষ্ঠ ব্যাচ), ক্রীড়া ও সংস্কৃতি বিষয়ক সম্পাদক অর্ক গোস্বামী (সপ্তম ব্যাচ), কার্যনির্বাহী সদস্য মো. মহসিন (তৃতীয় ব্যাচ), সালমা আক্তার ঊর্মি (চতুর্থ ব্যাচ), রেদওয়ানুল ইসলাম (পঞ্চম ব্যাচ), দুর্জয় পাল (ষষ্ঠ ব্যাচ), কাশপিয়া কামাল (সপ্তম ব্যাচ) এবং সুব্রত দাস (অষ্টম ব্যাচ)। 
তৃতীয় কার্যনির্বাহী পরিষদের মডারেটর মনোনীত হয়েছেন বিভাগের সাবেক সভাপতি মো. আইনুল হক। এছাড়াও বিভাগের সহকারী অধ্যাপক মো. আবদুর রহমান ও রাবেয়া খাতুন পরিষদের উপদেষ্টা মনোনীত হয়েছেন।
