কুমিল্লা ভিক্টোরিয়া কলেজের ছাত্রী সোহাগী জাহান তনু হত্যার বিচার দাবিতে রাজশাহী বিশ্ববিদ্যালয়ে (রাবি) মশাল মিছিল করেছে ছাত্র ইউনিয়ন। মঙ্গলবার (২৯ মাচৃ) সন্ধ্যায় ক্যাম্পাসে ছাত্র ইউনিয়নের দলীয় টেন্ট থেকে মিছিল শুরু হয়।
রাবি: কুমিল্লা ভিক্টোরিয়া কলেজের ছাত্রী সোহাগী জাহান তনু হত্যার বিচার দাবিতে রাজশাহী বিশ্ববিদ্যালয়ে (রাবি) মশাল মিছিল করেছে ছাত্র ইউনিয়ন।
মঙ্গলবার (২৯ মাচৃ) সন্ধ্যায় ক্যাম্পাসে ছাত্র ইউনিয়নের দলীয় টেন্ট থেকে মিছিল শুরু হয়। পরে মিছিলটি বিশ্ববিদ্যালয়ের শহীদ মিনার মুক্তমঞ্চে গিয়ে সমাবেশে মিলিত হয়।
রাবি ছাত্র ইউনিয়নের সাধারণ সম্পাদক সাইদুজ্জামান সুহানের সঞ্চালনায় সমাবেশে বক্তব্য রাখেন, রাবি শাখার সভাপতি মিনহাজুল আবেদীন, রাজশাহী মহানগর শাখার আহ্বায়ক জুয়েল খান, উদীচীর রাবি শাখার সাধারণ সম্পাদক রিপন কর্মকার প্রমুখ।
সমাবেশে বক্তারা জড়িতদের দ্রুত আইনের আওতায় এনে দৃষ্টান্তমূলক শাস্তির দাবি জানান।
