ঢাকা: ইসলামী আরবি বিশ্ববিদ্যালয়ের অধীনে মাদ্রাসার ২০১৫-১৬ সেশনের ফাজিল অনার্স প্রথম বর্ষ পরীক্ষার ফল রোববার (০৯ জুলাই) প্রকাশ করা হবে।
শুক্রবার (০৭ জুলাই) বিশ্ববিদ্যালয়ের পক্ষ থেকে পাঠানো এক প্রেস বিজ্ঞপ্তিতে এ তথ্য জানানো হয়।
এছাড়া ফলাফল বিশ্ববিদ্যালয়ের ওয়েবসাইট www.iau.edu.bd এ পাওয়া যাবে।
