সিলেট (শাবিপ্রবি): দেশের বন্যাদুর্গত অসহায় মানুষদের সহায়তায় এগিয়ে এসেছে শাহজালাল বিজ্ঞান ও প্রযুক্তি বিশ্ববিদ্যালয়ের (শাবিপ্রবি) শিক্ষার্থী ও সংস্কৃতি কর্মীরা।
বিশ্ববিদ্যালয়ের সম্মিলিত সাংস্কৃতিক জোটের উদ্যোগে বন্যাদুর্গতদের পাশে ‘সাস্টিয়ান’ শিরোনামে এ চ্যারিটি তহবিল সংগ্রহ করা হয়।
সোমবার (২৮ আগস্ট) জোটের সমন্বয়ক জুয়েল রানার পাঠানো এক সংবাদ বিজ্ঞপ্তিতে এ তথ্য জানানো হয়।
বিজ্ঞপ্তিতে বলা হয়, বিশ্ববিদ্যালয়ের শিক্ষক, সাবেক ও বর্তমান শিক্ষার্থী, কর্মকর্তা, কর্মচারীসহ অন্যান্যদের সহায়তায় ৩ লাখ ৭ হাজার টাকা সংগ্রহ করে। পরে তা বিভিন্ন আঞ্চলিক সংগঠনের প্রতিনিধিদের কাছে হস্তান্তর করা হয়।
