রাবি: রাজশাহী বিশ্ববিদ্যালয়ের (রাবি) পদার্থ বিজ্ঞান বিভাগের রুহুল কুদ্দুস মীর ফরহাদ আলী নামে এক শিক্ষার্থী ছয় মাস ধরে নিখোঁজ রয়েছেন।
ফরহাদের মা ফাহিমা খাতুন অভিযোগ করে বাংলানিউজকে বলেন, চলতি বছরের ১৪ ফেব্রুয়ারি বিশ্ববিদ্যালয়ে যাবার পথে নগরীর ডিঙ্গাডোবা মোড় থেকে ফরহাদকে র‌্যাব পরিচয়ে কয়েকজন একটি গাড়িতে করে তুলে নিয়ে যায়। এ ঘটনায় থানায় জিডি করার পর চারমাস পার হলেও এখনও কোনও খোঁজ দিতে পারেনি পুলিশ।
তিনি আরও বলেন, ফরহাদ রাজশাহী বিশ্ববিদ্যালয়ের মাস্টার্সের শিক্ষার্থী। তার বাবা মীর ফজলুল করিম স্থানীয় সরকার প্রকৌশল অধিদপ্তরের হিসাব সহকারী পদে অবসর গ্রহণ করেছেন।
রাজপাড়া থানার ভারপ্রাপ্ত কর্মকর্তা (ওসি) হাফিজুর রহমান বাংলানিউজকে বলেন, আমি থানায় নতুন জয়েন করেছি। এ বিষয়ে কিছু জানি না। খোঁজ নিয়ে দেখছি।
