জগন্নাথ বিশ্ববিদ্যালয়ে (জবি) ৩২টি বিভাগের ৩২টি দল নিয়ে আন্তঃবিভাগ ফুটবল টুর্নামেন্ট-২০১৬ শুরু হয়েছে।
জগন্নাথ বিশ্ববিদ্যালয়ে: জগন্নাথ বিশ্ববিদ্যালয়ে (জবি) ৩২টি বিভাগের ৩২টি দল নিয়ে আন্তঃবিভাগ ফুটবল টুর্নামেন্ট-২০১৬ শুরু হয়েছে।
সোমবার (২৪ অক্টোবর) দুপুরে বিশ্ববিদ্যালয়ের কেন্দ্রীয় খেলার মাঠে (ধূপখোলা মাঠ) এ প্রতিযোগিতার উদ্বোধন করেন জবি উপাচার্য অধ্যাপক ড. মীজানুর রহমান।
উদ্বোধনী অনুষ্ঠানে ফুটবল ক্রীড়া উপ-কমিটির আহ্বায়ক ড. মোহাম্মদ আব্দুল বাকীর সভাপতিত্বে বিশেষ অতিথি হিসেবে উপস্থিত ছিলেন ক্রীড়া কমিটির আহ্বায়ক অধ্যাপক ড. মো. আলী নূর।
এছাড়া, আরও উপস্থিত ছিলেন- জবি শিক্ষক সমিতির সাধারণ সম্পাদক অধ্যাপক ড. মো. নূরে আলম আব্দুল্লাহ, লোক প্রশাসন বিভাগের চেয়ারম্যান ড. আছমা বিনতে ইকবাল প্রমুখ।
আগামী ১০ নভেম্বর (বৃহস্পতিবার) প্রতিযোগিতার সমাপনী অনুষ্ঠান ও ফাইনাল খেলা অনুষ্ঠিত হবে।
