কুমিল্লা সরকারি ভিক্টোরিয়া কলেজের ছাত্রী ও নাট্যকর্মী সোহাগী জাহান তনু হত্যার বিচার দাবিতে মানববন্ধন করেছে জাতীয় বিশ্ববিদ্যালয়ের শিক্ষক, কর্মকর্তা-কর্মচারী ও শিক্ষার্থীরা।
গাজীপুর: কুমিল্লা সরকারি ভিক্টোরিয়া কলেজের ছাত্রী ও নাট্যকর্মী সোহাগী জাহান তনু হত্যার বিচার দাবিতে মানববন্ধন করেছে জাতীয় বিশ্ববিদ্যালয়ের শিক্ষক, কর্মকর্তা-কর্মচারী ও শিক্ষার্থীরা।
 
রোববার (৩ এপ্রিল) বেলা ১১টায় গাজীপুরে জাতীয় বিশ্ববিদ্যালয়ের প্রধান ফটকের সামনে ঢাকা-ময়মনসিংহ মহাসড়কে এ মানববন্ধন অনুষ্ঠিত হয়।
মানববন্ধনে তনুর হত্যাকারীদের অবিলম্বে গ্রেফতার ও দৃষ্টান্তমূলক শাস্তির দাবি জানানো হয়।
এতে জাতীয় বিশ্ববিদ্যালয়ের উপাচার্য প্রফেসর ড. হারুন-অর রশিদ, আইইউটি’র উপাচার্য প্রফেসর ড. মুনাজ আহমেদ নূর, জাতীয় বিশ্ববিদ্যালয়ের কোষাধ্যক্ষ প্রফেসর মো. নোমান উর রশীদসহ বিশ্ববিদ্যালয়ের শিক্ষক কর্মকর্তা-কর্মচারী ও শিক্ষার্থীরা অংশ নেন।
