শিক্ষা মন্ত্রণালয়ের কোনো কাজের জন্য কাউকে এক পয়সাও না দেওয়ার অনুরোধ জানিয়ে কেউ অর্থ চাইলে তাকে ধরে থানায় সোপর্দ করার জন্য বলেছে শিক্ষা মন্ত্রণালয়।
ঢাকা: শিক্ষা মন্ত্রণালয়ের কোনো কাজের জন্য কাউকে এক পয়সাও না দেওয়ার অনুরোধ জানিয়ে কেউ অর্থ চাইলে তাকে ধরে থানায় সোপর্দ করার জন্য বলেছে শিক্ষা মন্ত্রণালয়।
কর্মকর্তাদের নাম ভাঙিয়ে প্রতারণা করে বিভিন্ন স্থানে অর্থ দাবির পরিপ্রেক্ষিতে সরকারি ছুটির দিন রোববার (০৩ জুলাই) শিক্ষা মন্ত্রণালয় এক বিজ্ঞপ্তিতে এ আহ্বান জানিয়েছে।
বিজ্ঞপ্তিতে বলা হয়েছে, শিক্ষা মন্ত্রণালয়ের বিভিন্ন কাজের কথা বলে একটি প্রতারক চক্র মন্ত্রণালয়ের কর্মকর্তাদের নাম ভাঙিয়ে দেশের বিভিন্ন স্থানে শিক্ষাপ্রতিষ্ঠানসহ সংশ্লিষ্টদের কাছ থেকে অর্থ দাবি করছে বলে অভিযোগ পাওয়া যাচ্ছে। অনেক ক্ষেত্রে মন্ত্রণালয়ে স্বাভাবিক নিয়মে সম্পন্ন বিভিন্ন কাজকে নিজেদের কৃতিত্ব হিসেবে জাহির করে এসব প্রতারক নানা কৌশলে টাকা-পয়সা হাতিয়ে নিচ্ছে বলে উত্থাপিত অভিযোগ থেকে দেখা যাচ্ছে।
‘এসব প্রতারককে ধরে নিকটস্থ থানায় সোপর্দ করার জন্য শিক্ষা মন্ত্রণালয়ের পক্ষ থেকে অনুরোধ জানানো হচ্ছে।’
বিজ্ঞপ্তিতে আরও বলা হয়, শিক্ষাপ্রতিষ্ঠান জাতীয়করণ, ভবন নির্মাণ, এমপিওভুক্তি, বিষয় খোলা, প্রকল্প অনুমোদন প্রভৃতি শিক্ষা মন্ত্রণালয়ের রুটিন কাজ; যা নির্দিষ্ট প্রক্রিয়া অনুসরণ করে স্বাভাবিক নিয়মে সম্পন্ন হয়। এ ধরনের সরকারি কাজের জন্য অর্থ আদায়ের কোনো বিধান নেই। মন্ত্রণালয়ের কর্মকর্তা বা কর্মচারীরা কোনো কাজের জন্যই কখনো অর্থ দাবি করতে পারেন না।
শিক্ষা মন্ত্রণালয় বা এর অধীন দপ্তরে কর্মরত কেউ এ ধরনের কাজের জন্য অর্থ দাবি বা গ্রহণ করেছেন এমন কিছু প্রমাণিত হলে তার বিরুদ্ধে কঠোর ব্যবস্থা গ্রহণ করা হবে।
শিক্ষা মন্ত্রণালয়ের কোনো কাজের জন্য কাউকে এক পয়সাও না দেওয়ার জন্য শিক্ষাপ্রতিষ্ঠানসহ সংশ্লিষ্ট সবার প্রতি মন্ত্রণালয়ের পক্ষ থেকে বিজ্ঞপ্তির মাধ্যমে অনুরোধ জানানো হয়েছে।
