ময়মনসিংহ: ময়মনসিংহের ত্রিশাল উপজেলা মুক্ত দিবস উপলক্ষে জাতীয় কবি কাজী নজরুল ইসলাম বিশ্ববিদ্যালয়ে বিজয় শোভাযাত্রা অনুষ্ঠিত হয়েছে। 
শনিবার (৯ ডিসেম্বর) বেলা ১১টার দিকে বিশ্ববিদ্যালয় ক্যাম্পাস থেকে এ শোভাযাত্রা বের করা হয়। এতে নেতৃত্ব দেন বিশ্ববিদ্যালয়ের নতুন উপাচার্য অধ্যাপক ড. এ এইচ এম মোস্তাফিজুর রহমান। 
বিশ্ববিদ্যালয়ের সামাজিক বিজ্ঞান অনুষদের ডিন অধ্যাপক ড. মো. নজরুল ইসলাম, শিক্ষক সমিতির সাধারণ সম্পাদক মো. শফিকুল ইসলাম, রেজিস্ট্রার (ভারপ্রাপ্ত) ড. মো. হুমায়ুন কবীর, দোলন-চাঁপা হলের প্রভোস্ট জান্নাতুল ফেরদৌস, কর্মকর্তা পরিষদের সাধারণ সম্পাদক মো. মাহমুদুল হাসানসহ বিভিন্ন বিভাগের শিক্ষক, কর্মকর্তা-কর্মচারী ও শিক্ষার্থীরা বিজয় শোভাযাত্রায় অংশ নেয়। 
এর আগে বিশ্ববিদ্যালয়ের উপাচার্য অধ্যাপক ড. এ এইচ এম মোস্তাফিজুর রহমান বঙ্গবন্ধু শেখ মুজিবুর রহমানের প্রতিকৃতিতে পুস্পস্তবক অর্পণের মধ্যে দিয়ে দিবসটির কর্মসূচি শুরু করেন।
শোভাযাত্রা শেষে বিশ্ববিদ্যালয়ের প্রশাসনিক ভবনের সামনে জাতির বীর শহীদদের প্রতি গভীর শ্রদ্ধা নিবেদন করে উপাচার্য বলেন, ত্রিশালকে মুক্ত করতে গিয়ে যারা শহীদ হয়েছেন তাদের এবং যারা এখনও জীবিত আছেন তাদের একটি তালিকা তৈরি করতে হবে। যারা জীবিত আছেন তাদের খোঁজ-খবর নিতে হবে এবং তাদের কোনো সমস্যা থাকলে তার সমাধান করে দিতে হবে। 
এটি করতে পারলেই কেবল আজকের দিনটি উদযাপনের স্বার্থকতা আসবে বলেও তিনি মনে করেন।
