ঢাকা: জাতীয় বিশ্ববিদ্যালয়ের ২০১৪-১৫ শিক্ষাবর্ষে মাস্টার্স (নিয়মিত) ভর্তি কার্যক্রমে রিলিজ স্লিপের অনলাইন আবেদন ২১ মার্চ বিকেল ৪টা থেকে শুরু হয়ে ৩০ মার্চ রাত ১২টা পর্যন্ত চলবে।
সোমবার (২০ মার্চ) দুপুরে জনসংযোগ, তথ্য ও পরামর্শ দফতরের পরিচালক (ভারপ্রাপ্ত) মো. ফয়জুল করিম স্বাক্ষরিত এক সংবাদ বিজ্ঞপ্তিতে এ তথ্য জানানো হয়।
বিশ্ববিদ্যালয়ের যেসব শিক্ষার্থী আবেদন করতে পারবেন ক) মেধা তালিকায় স্থান পাননি অথবা স্থান পেয়েও ভর্তি হননি খ) ভর্তি বাতিল করেছেন গ) যেসব প্রার্থীর প্রাথমিক আবেদন কলেজ থেকে নিশ্চিত করা হয়েছে, সেসব শিক্ষার্থী রিলিজ স্লিপে আবেদন করতে পারবেন।
এ সংক্রান্ত বিস্তারিত তথ্য বিশ্ববিদ্যালয়ের নির্দিষ্ট ওয়েবসাইট পাওয়া যাবে (www.nu.edu.bd/admissions অথবা admissions.nu.edu.bd)।
