বরিশাল: পাঁচ দফা দাবি আদায়ের লক্ষ্যে শান্তিপূর্ণ মানববন্ধন করেছে বরিশাল নার্সিং কলেজের শিক্ষার্থীরা।
মঙ্গলবার (১৮ জুলাই) দুপুরে বান্দরোডে বরিশাল স্টুডেন্ট নার্সেস ওয়েলফেয়ার অরগানাইজেশনের (বিএসএনডব্লিউও) আয়োজনে এ মানববন্ধন কর্মসূচির পালন করা হয়।
সংগঠনটির সভাপতি গৌতম কুমার সাহা জাহান বাংলানিউজকে জানান, তাদের কেন্দ্রীয় সংগঠনের আয়োজনে নার্সিং কলেজের শিক্ষার্থীদের অংশগ্রহণে সারাদেশে মোট ৮টি কলেজে এ কর্মসূচি একযোগে পালিত হয়েছে।
মানববন্ধনে নার্সেস স্টুডেন্টদের পাঁচ দফা দাবিগুলো হলো- নার্সিং পেশায় স্বতন্ত্র প্রফেসনাল বিসিএস ক্যাডার সার্ভিস চালু করা, বর্তমান বেতন কাঠামো ও দ্রব্যমূল্যের সঙ্গে সামঞ্জস্য রেখে ইন্টার্নশিপ ভাতা ৬ হাজার টাকা থেকে ১৫ হাজার টাকা এবং প্রত্যেক মাসে শিক্ষার্থীদের বৃত্তি ভাতা, সামাজিক ও সংস্কৃতি মূল্যেবোধের সঙ্গে সামঞ্জস্য রেখে মার্জিত পোশাক নির্ধারণ, নার্সিং শিক্ষার মান সুনিশ্চিত করতে নার্সিং কলেজগুলোতে লেকচারার, সহকারী ও সহযোগী অধ্যাপক এবং ভাইস প্রিন্সিপাল পদসমূহ সৃজনপূর্বক অতিসত্বর নিয়োগ এবং প্রত্যেক নার্সিং কলেজের ছাত্রদের জন্য ছাত্রাবাস নির্মাণসহ নার্সিং বিশ্ববিদ্যালয় প্রতিষ্ঠা।
ঘণ্টাব্যাপী অনুষ্ঠিত এ মানববন্ধনে বক্তব্য রাখেন আয়োজনকারী সংগঠনটির নেতারা।
