বাকৃবি (ময়মনসিংহ): বাংলাদেশ কৃষি বিশ্ববিদ্যালয়ের (বাকৃবি) মেধাবী শিক্ষার্থী শওকত, ওয়ালী ও মোহসীনের মৃত্যুবার্ষিকী উপলক্ষে শোক র‌্যালি ও পুস্পস্তবক অর্পণ করেছে বিশ্ববিদ্যালয়ের শাখা ছাত্রলীগ।
বৃহস্পতিবার (১২ জানুয়ারি) দুপুর দেড়টার দিকে বাকৃবি ছাত্রলীগের কার্যালয় থেকে একটি র‌্যালি বের করা হয়।
র‌্যালিটি বিশ্ববিদ্যালয়ের প্রধান প্রধান সড়ক প্রদক্ষিণ করে শওকত, ওয়ালী ও মোহসীন স্মৃতি স্মরণে নির্মিত ঝরাফুল স্মৃতিস্তম্ভে গিয়ে শেষ হয়। সেখানে এক সংক্ষিপ্ত সমাবেশে বক্তব্য রাখেন- বাকৃবি শাখা ছাত্রলীগের সভাপতি মো. সবুজ কাজী ও সাধারণ সম্পাদক মিয়া মোহাম্মদ রুবেল।
