ঢাকা বিশ্ববিদ্যালয়: ঢাকা বিশ্ববিদ্যালয়ের অধিভুক্ত গার্হস্থ্য অর্থনীতি কলেজসমূহে ২০১৭-২০১৮ শিক্ষাবর্ষে ১ম বর্ষ স্নাতক সম্মান শ্রেণিতে ভর্তির আবেদন প্রক্রিয়া ১০ অক্টোবর থেকে শুরু হবে।
বুধবার (২৭ সেপ্টেম্বর) দুপুরে বিশ্ববিদ্যালয়ের জনসংযোগ দফতর থেকে পাঠানো এক সংবাদ বিজ্ঞপ্তিতে এ তথ্য জানানো হয়। এতে বলা হয়, ‘শুধুমাত্র নারী প্রার্থীদের নিকট থেকে অনলাইনের মাধ্যমে ভর্তির আবেদন প্রক্রিয়া ১০ অক্টোবর (মঙ্গলবার) থেকে শুরু হবে এবং ১২ নভেম্বর (রবিবার) দুপুর ২টা পর্যন্ত অব্যাহত থাকবে।
ঢাকা বিশ্ববিদ্যালয়ের ভর্তি ওয়েবসাইটে (http://admission.eis.du.ac.bd) ভর্তির সাধারণ নিয়মাবলী ও ভর্তির নির্দেশিকা পাওয়া যাবে।
