ঢাকা বিশ্ববিদ্যালয়: অমর একুশে ফেব্রুয়ারি আন্তর্জাতিক মাতৃভাষা দিবসকে কেন্দ্র করে ঢাকা বিশ্ববিদ্যালয় এলাকার দেয়ালগুলোতে সব ধরনের ছবি, ব্যানার ও পোস্টার লাগানোর উপর নিষেধাজ্ঞা জারি করেছে বিশ্ববিদ্যালয় প্রশাসন।
শুক্রবার (১৬ ফেব্রুয়ারি) বিশ্ববিদ্যালয়ের জনসংযোগ দপ্তর থেকে পাঠানো এক বিজ্ঞপ্তিতে এ তথ্য নিশ্চিত করা হয়েছে।
বিজ্ঞপ্তিতে বলা হয়, মহান মাতৃভাষা দিবস সুষ্ঠুভাবে উদযাপনের লক্ষ্যে ঢাকা বিশ্ববিদ্যালয়ে গঠিত ‘একুশে উদযাপন কেন্দ্রীয় সমন্বয় কমিটি’র সভার সিদ্ধান্ত অনুযায়ী আগামী ১৮ ফেব্রুয়ারি থেকে পরিষ্কার-পরিচ্ছন্নতা, রং ও সাজ-সজ্জার কাজ শুরু হবে। এ সময় শহীদ মিনারে কোনো সংগঠন কোনো ধরনের অনুষ্ঠানের আয়োজন করতে পারবে না। অমর একুশের ভাবগাম্ভীর্য এবং সৌন্দর্য রক্ষার্থে বিশ্ববিদ্যালয় এলাকার দেয়ালগুলোতে কোনো ছবি, পোস্টার ও ব্যানার না লাগানোর জন্য সবার প্রতি অনুরোধ জানানো যাচ্ছে। 
এছাড়া বিভিন্ন উপ-কমিটির উপর অর্পিত দায়িত্ব সুষ্ঠুভাবে পালন করার জন্য সংশ্লিষ্ট সবার প্রতি অনুরোধ জানানো হয়েছে বিজ্ঞপ্তিতে।
