এমপিওভুক্তির দাবিতে পঞ্চম দিনের মতো ধমর্ঘট পালন করছেন এমপিওবঞ্চিত আইসিটি শিক্ষক সংগঠনের নেতারা।
ঢাকা: এমপিওভুক্তির দাবিতে পঞ্চম দিনের মতো ধমর্ঘট পালন করছেন এমপিওবঞ্চিত আইসিটি শিক্ষক সংগঠনের নেতারা।
বৃহস্পতিবার (১৯ মে) সকালে জাতীয় প্রেসক্লাবের সামনে চলা ‍অনির্দিষ্টকালের এ ধর্মঘটে শিক্ষকরা বলেন, আইসিটি শিক্ষকরা প্রতিটি বিদ্যালয়ে মাল্টিমিডিয়া প্রজেক্টরের মাধ্যমে শ্রেণিকক্ষে পাঠদান করান। অথচ তারা এখনও এমপিওভুক্ত নন। আমাদের দাবি মেনে না নিলে ধমর্ঘট চলতে থাকবে।
বাংলাদেশ এমপিওবঞ্চিত আইসিটি শিক্ষক সংগঠনের সভাপতি আশিকুজ্জামান বলেন, সরকার আমাদের দাবি মেনে না নেওয়া পর্যন্ত এ ধমর্ঘট চলবে।
কমর্সূচি পালন করতে এসে ছয় শিক্ষক অসুস্থ হয়ে পড়েন। বতর্মানে তারা বিভিন্ন মেডিক্যালে চিকিৎসা নিচ্ছেন।
বাংলাদেশ সময়: ১২৪২ ঘণ্টা, মে ১৯, ২০১৬ এএ
