রাজশাহী মাধ্যমিক ও উচ্চ মাধ্যমিক শিক্ষা বোর্ডের অধীনে এইচএসসি ও সমমানের পরীক্ষার ঘোষিত ফলাফলে পাসের হারে মেয়েরা ভালো করলেও জিপিএ-৫ প্রাপ্তির দিকে এগিয়ে ছেলেরা।
রাজশাহী: রাজশাহী মাধ্যমিক ও উচ্চ মাধ্যমিক শিক্ষা বোর্ডের অধীনে এইচএসসি ও সমমানের পরীক্ষার ঘোষিত ফলাফলে পাসের হারে মেয়েরা ভালো করলেও জিপিএ-৫ প্রাপ্তির দিকে এগিয়ে ছেলেরা।
এবার রাজশাহী বোর্ডে পাসের হার ৭৫ দশমিক ৪০ শতাংশ। মোট এক লাখ ১৫ হাজার ৭৮০ জন পরীক্ষার্থী পরীক্ষায় অংশ নিয়েছিলেন। যাদের মধ্যে পাস করেছেন ৮৭ হাজার ৩০১ জন শিক্ষার্থী। পাস করা শিক্ষার্থীদের মধ্যে ৪৬ হাজার ৩১৮ জন ছেলে এবং ৪০ হাজার ৯৮৩ জন মেয়ে রয়েছেন।
এসব শিক্ষার্থীদের মধ্যে পাসের হারে এগিয়ে আছে মেয়েরা। ছাত্রীদের পাসের হার ৭৮ দশমিক ৭০ শতাংশ। সেই তুলনায় অনেক পিছিয়ে ছেলেরা। তাদের পাসের হার ৭২ দশমিক ৭১ শতাংশ।
তবে জিপিএ-৫ প্রাপ্তির দিকে দিয়ে এগিয়ে আছে ছেলেরা। মোট ফলাফলে জিপিএ-৫ পেয়েছে ৬ হাজার ৭৩ জন শিক্ষার্থী। এর মধ্যে তিন হাজার ৫৮০ জন ছেলে জিপিএ-৫ পয়েছে। জিপিএ-৫ পাওয়া মেয়েদের সংখ্যা দুই হাজার ৪৯৩ জন।
বৃহস্পতিবার (১৮ আগস্ট) দুপুরে রাজশাহী মাধ্যমিক ও উচ্চ মাধ্যমিক শিক্ষা বোর্ডের পরীক্ষা নিয়ন্ত্রক শামসুল কালাম আজাদ সংবাদ সম্মেলন করে এ ফলাফল ঘোষণা করেন।
এ সময় অন্যদের মধ্যে উপস্থিত ছিলেন- রাজশাহী শিক্ষা বোর্ডের কলেজ পরিদর্শক তরুণ কুমার সরকার, বিদ্যালয় পরিদর্শক দেবাশীষ রঞ্জন রায়, প্রধান মূল্যায়ন অফিসার (চলতি দায়িত্ব) এস.এম. গোলাম আজম, সিনিয়র সিস্টেম এনালিস্ট (চলতি দায়িত্ব) প্রকৌশলী শফিকুল ইসলাম, উপ-সচিব (প্রশাসন) ওয়ালিদ হোসেন (চলতি দায়িত্ব), প্রোগ্রামার (১) মুহাম্মদ শামীম আল আমিন ও (২) সিরাজুল ইসলাম ও তথ্য ও গণসংযোগ অফিসার এ.এফ.এম খায়রুল আলম।
