গণ বিশ্ববিদ্যালয় (সাভার): মহান বিজয় দিবসে সাভার জাতীয় স্মৃতিসৌধে মুক্তিযুদ্ধে শহীদদের প্রতি শ্রদ্ধা নিবেদন করেছেন সাভারের গণ বিশ্ববিদ্যালয় (গণবি) সাংবাদিক সমিতি (গবিসাস)।
সমিতির যুগ্ম-সম্পাদক বিধান মূখার্জী ও সাংগঠনিক সম্পাদক মো. রিফাত মেহেদীর  নেতৃত্বে শনিবার (১৬ ডিসেম্বর) সকাল ৯টায় পুষ্পস্তবক অর্পণ করে শহীদদের প্রতি শ্রদ্ধা জানান ক্যাম্পাসে কর্মরত সাংবাদিকরা।
এ সময় উপস্থিত ছিলেন- গবিসাসের প্রতিষ্ঠাতা সভাপতি আসিফ আল আজাদ ও উপদেষ্টা আব্দুল্লাহ আল কাউসার মিলন প্রমুখ।
