ঢাকা বিশ্ববিদ্যালয়: ঢাকা বিশ্ববিদ্যালয় (ঢাবি) অধিভুক্ত সাত সরকারি কলেজের বাণিজ্য ইউনিটের ভর্তি পরীক্ষার তারিখ পরিবর্তন করা হয়েছে।
মঙ্গলবার (১৪ নভেম্বর) সন্ধ্যায় বিশ্ববিদ্যালয়ের ব্যবসায় শিক্ষা অনুষদের ডিন এবং সাত কলেজ অনলাইন ভর্তি কমিটির আহ্বায়ক অধ্যাপক শিবলী রুবাইয়াতুল ইসলাম বাংলানিউজকে এ তথ্য নিশ্চিত করেন।
তিনি জানান, ঈদে মিলাদুন নবী উপলক্ষে এ পরীক্ষাটির তারিখ পরিবর্তন করা হয়েছে। ২ ডিসেম্বর বাণিজ্য ইউনিটের ভর্তি পরীক্ষা ৯ ডিসেম্বর অনুষ্ঠিত হবে। তবে নির্ধারিত সময়সূচি অনুযায়ী বাকি পরীক্ষাগুলো অনুষ্ঠিত হবে বলেও জানান তিনি।
