টাঙ্গাইল: মাওলানা ভাসানী বিজ্ঞান ও প্রযুক্তি বিশ্ববিদ্যালয়ে (মাভাবিপ্রবি) দুই দিনব্যাপী কম্পিউটার সায়েন্স অ্যান্ড ইঞ্জিনিয়ারিং (সিএসই) কার্নিভাল-২০১৭ অনুষ্ঠিত হয়েছে।
শনিবার (১১ ফেব্রুয়ারি) দুপুরে টাঙ্গাইল সদর আসনের সংসদ সদস্য ও বিশ্ববিদ্যালয়ের রিজেন্ট বোর্ড সদস্য মো. ছানোয়ার হোসেন প্রধান অতিথি হিসেবে উপস্থিত থেকে প্রতিযোগিতার সমাপনী ঘোষণা করেন।
কম্পিউটার সায়েন্স অ্যান্ড ইঞ্জিনিয়ারিং বিভাগের উদ্যোগে প্রথমবারের এ প্রতিযোগিতার আয়োজন করা হয়। এতে দেশের ৪৫টি পাবলিক ও প্রাইভেট বিশ্ববিদ্যালয়ের ১২০টি দল রেজিস্ট্রেশন করে প্রতিযোগিতায় অংশ নেয় ১০৭টি দল।
এতে প্রজেক্ট প্রদর্শনী, গেমিং প্রতিযোগিতা, গণিত অলিম্পিয়ার্ড এবং CSE Study and Extracurricular activities শীর্ষক সেমিনার অনুষ্ঠিত হয়। সেমিনারে আলোচনা করেন বাংলাদেশ প্রকৌশল বিশ্ববিদ্যালয়ের সিএসই বিভাগের অধ্যাপক ড. মো. কায়কোবাদ।
সমাপনী দিনে অনুষ্ঠিত হয় আন্তঃবিশ্ববিদ্যালয় প্রোগ্রামিং প্রতিযোগিতা ও পুরস্কার বিতরণ। পুরস্কার বিতরণ করেন টাঙ্গাইল সদর আসনের সংসদ সদস্য ও বিশ্ববিদ্যালয়ের রিজেন্ট বোর্ড সদস্য মো. ছানোয়ার হোসেন ও বাংলাদেশ প্রকৌশল বিশ্ববিদ্যালয়ের সিএসই বিভাগের অধ্যাপক ড. মো. কায়কোবাদ।
বিশ্ববিদ্যালয়ের ভাইস-চ্যান্সেলর প্রফেসর ড. মো. আলাউদ্দিনের সভাপতিত্বে অনুষ্ঠানে বিশেষ অতিথি হিসেবে উপস্থিত ছিলেন বিশ্ববিদ্যালয়ের ইঞ্জিনিয়ারিং অনুষদের ডিন ও সিএসই বিভাগের চেয়ারম্যান ড. মোহাম্মদ মতিউর রহমান, লাইফ সায়েন্স অনুষদের ডিন প্রফেসর ড. মো. সিরাজুল ইসলাম ও সায়েন্স অনুষদের ডিন ড. পিনাকী দে।
প্রতিযোগিতায় বাংলাদেশ প্রকৌশল বিশ্ববিদ্যালয়, জাহাঙ্গীরনগর বিশ্ববিদ্যালয়, আইইউটি, রাজশাহী বিশ্ববিদ্যালয়, রাজশাহী প্রকৌশল বিশ্ববিদ্যালয়, খুলনা প্রকৌশল বিশ্ববিদ্যালয়, শাহজালাল বিজ্ঞান ও প্রযুক্তি বিশ্ববিদ্যালয়, ব্র্যাক, ইস্ট ওয়েস্ট, সাউথ ইস্ট, এনএসইউ, বিইউপিসহ মোট ৪৫টি বিশ্ববিদ্যালয়ের ১০৭টি দল অংশ নেয়।
