জাহাঙ্গীরনগর বিশ্ববিদ্যালয়ের ৩৩তম ব্যাচের একযুগ পূর্তি উদযাপন অনুষ্ঠান আগামী ২১ অক্টোবর (শুক্রবার) অনুষ্ঠিত হতে যাচ্ছে।
জাহাঙ্গীরনগর বিশ্ববিদ্যালয়: জাহাঙ্গীরনগর বিশ্ববিদ্যালয়ের ৩৩তম ব্যাচের একযুগ পূর্তি উদযাপন অনুষ্ঠান আগামী ২১ অক্টোবর (শুক্রবার) অনুষ্ঠিত হতে যাচ্ছে।
 
বুধবার (১৯ অক্টোবর) অনুষ্ঠানের আহ্বায়ক এটিএম রেজাউল হক দেহলভী স্বাক্ষরিত এক সংবাদ বিজ্ঞপ্তিতে এ তথ্য জানানো হয়।
এতে বলা হয়, জাবির ৩৩তম ব্যাচের এক যুগপূতি উপলক্ষে দিনব্যাপী বর্ণাঢ্য অনুষ্ঠানের আয়োজন করা হয়েছে।
দিনব্যাপী অনুষ্ঠান কর্মসূচির মধ্যে রয়েছে, বর্ণাঢ্য র‌্যালি, কুপন ও গিফট বিতরণ, আড্ডা, নিজস্ব সাংস্কৃতিক অনুষ্ঠান, স্মৃতিচারণ, র‌্যাফেল ড্র, সম্মাননা প্রদানসহ সন্ধ্যায় জনপ্রিয় ব্যান্ড দল সোলসের পরিবেশনায় থাকছে সাংষ্কৃতিক অনুষ্ঠান।
এতে প্রধান অতিথি হিসেবে অনুষ্ঠানের উদ্বোধন করবেন বিশ্ববিদ্যালয় উপাচার্য অধ্যাপক ফারজানা ইসলাম।
