আমি প্রাথমিক শিক্ষা সমাপনী (পিইসি) পরীক্ষায় এ প্লাস পেয়েছি। মা বাবাও অনেক খুশি, আমি খুব খুশি। সাংবাদিক বাবা বাদশাহ শাহজাহান ব্যস্ত থাকায় মা নাছিমা আক্তার আমার পড়া দেখাশোনা করেন। আমি ছবি আঁকতে ভালোবাসি। আমার পড়াশোনা ও ছবি আঁকার কাজে মা সব সময় উৎসাহ দেন।
আমার ফল প্রকাশ নিয়ে আমার থেকে মায়ের বেশি টেনশন ছিলো। আমার জিপিএ-৫ পাওয়ার পেছনে মায়ের অবদান অনেক বেশি। স্কুলের শিক্ষকরা অনেক কষ্ট করেছেন। আমি আমার স্কুলে পিইসি পরীক্ষার্থীর মধ্যে প্রথম হয়েছি।
আমি বাবা-মাকে অনেক ভালোবাসি। তাদের আনন্দ দিয়ে আমার অনেক ভালো লাগছে। আমার আরও দুই বোন তারাও অনেক খুশি হয়েছে। আমি ইঞ্জিনিয়ার হতে চাই। ভালো মানুষ হতে চাই। সবাই আমার জন্য দোয়া করবেন। আমি যেন সবসময় ভালো রেজাল্ট করতে পারি।
আমি আল্লাহর কাছে, আমার এমন রেজাল্ট হওয়ায় শুকরিয়া আদায় করছি।
নীলফামারীর জলঢাকা উপজেলার বিয়াম ল্যাবরেটরি স্কুল থেকে প্রাথমিক শিক্ষা সমাপনী (পিইসি) পরীক্ষায় অংশ নিয়েছিরো ইশরাত জাহান এশামনি।
