চলতি শিক্ষাবর্ষে একাদশ শ্রেণিতে ভর্তির সময়সীমা বৃদ্ধি করেছে সরকার। আগামী ২৩ আগস্ট পর্যন্ত শিক্ষার্থীরা ভর্তি হতে পারবে।
ঢাকা: চলতি শিক্ষাবর্ষে একাদশ শ্রেণিতে ভর্তির সময়সীমা বৃদ্ধি করেছে সরকার। আগামী ২৩ আগস্ট পর্যন্ত শিক্ষার্থীরা ভর্তি হতে পারবে। এইচএসসির ফল প্রকাশ উপলক্ষে বৃহস্পতিবার (১৮ আগস্ট) দুপুরে সচিবালয়ে সংবাদ সম্মেলনে শিক্ষামন্ত্রী নুরুল ইসলাম নাহিদ এ তথ্য জানান।
শিক্ষামন্ত্রী বলেন, নানাবিধ কারণে এইচএসসি পর্যায়ের ৪০০ শিক্ষার্থী নির্ধারিত সময়ের মধ্যে কলেজে ভর্তি হতে পারেনি। এসব শিক্ষার্থী আগামী ২১ থেকে ২৩ আগস্ট পর্যন্ত কলেজে ভর্তি হতে পারবে।   নির্ধারিত সময়ের মধ্যে কলেজে ভর্তি হতে না পারার কারণ হিসেবে শিক্ষার্থীদের দারিদ্র্য, বিয়ে ও বিদেশে চাকরি খুঁজতে যাওয়াকে দায়ী করেন মন্ত্রী।
