কিশোরগঞ্জ জেলার হাওর উপজেলা ইটনায় অবস্থিত রাষ্ট্রপতি আবদুল হামিদ কলেজ জাতীয়করণ করায় আনন্দ মিছিল করেছে উপজেলার সব শ্রেণীপেশার মানুষ।
কিশোরগঞ্জ: কিশোরগঞ্জ জেলার হাওর উপজেলা ইটনায় অবস্থিত রাষ্ট্রপতি আবদুল হামিদ কলেজ জাতীয়করণ করায় আনন্দ মিছিল করেছে উপজেলার সব শ্রেণীপেশার মানুষ।
বুধবার (১৩ এপ্রিল) দুপুরে একটি বর্ণাঢ্য মিছিল বের করা হয়। মিছিলটি উপজেলা সদরের বিভিন্ন সড়ক প্রদক্ষিণ করে কলেজে গিয়ে শেষ হয়।
মিছিলে উপস্থিত ছিলেন কিশোরগঞ্জ-৪ আসনের সংসদ সদস্য রেজওয়ান আহাম্মদ তৌফিক, উপজেলা পরিষদের চেয়ারম্যান কামরুল হাসান চৌধুরী, কলেজের অধ্যক্ষ, শিক্ষক-শিক্ষিকা, ছাত্র-ছাত্রী  ও সব শ্রেণীপেশার মানুষ।
২৭ মার্চ থেকে রাষ্ট্রপতি আবদুল হামিদ কলেজ জাতীয়করণ করা হয়।
