ঢাকা: জাতীয় বিশ্ববিদ্যালয়ের অধীনে অনুষ্ঠিত ২০১৫ সালের অনার্স চতুর্থ বর্ষের ফল প্রকাশিত হবে রোববার (১৪ মে)।
শনিবার (১৩ মে) বিশ্ববিদ্যায়ের জনসংযোগ, তথ্য ও পরামর্শ দফতর থেকে পাঠানো বিজ্ঞপ্তিতে এ তথ্য জানানো হয়।
এতে বলা হয়, বিকেল ৪টা থেকে যে কোনো মোবাইলের Message অপশনে গিয়ে nu H4 Roll No লিখে ১৬২২২ নম্বরে Send  করলে পরীক্ষার ফলাফল জানা যাবে।
এছাড়া সন্ধ্যা ৬টা থেকে বিশ্ববিদ্যালয়ের ওয়েবসাইট  www.nu.edu.bd এবং  www.nubd.info গিয়েও ফল পাওয়া যাবে ।
