গাজীপুর: জাতীয় বিশ্ববিদ্যালয়ের ২০১৭-২০১৮ শিক্ষাবর্ষে এমফিল ও পিএইচডি প্রোগ্রামে ভর্তির জন্য নির্ধারিত আগামী ২৬ ও ২৭ জুলাইয়ের লিখিত পরীক্ষা/সাক্ষাৎকার অনিবার্য কারণবশতঃ স্থগিত করা হয়েছে। 
সোমবার (২৪ জুলাই) বিকেলে জাতীয় বিশ্ববিদ্যালয়ের জনসংযোগ, তথ্য ও পরামর্শ দফতর থেকে পাঠানো এক সংবাদ বিজ্ঞপ্তিতে এ তথ্য জানানো হয়। 
পরিবর্তিত সময়সূচি পরে জানানো হবে বলে বিজ্ঞপ্তিতে জানানো হয়েছে। 
