বাংলাদেশ ছাত্রলীগ বগুড়া সরকারি মুজিবুর রহমান মহিলা কলেজ শাখার ৬১ সদস্য বিশিষ্ট কমিটি বিলুপ্ত ঘোষণা করা হয়েছে।
বগুড়া: বাংলাদেশ ছাত্রলীগ বগুড়া সরকারি মুজিবুর রহমান মহিলা কলেজ শাখার ৬১ সদস্য বিশিষ্ট কমিটি বিলুপ্ত ঘোষণা করা হয়েছে।
বৃহস্পতিবার (৩০ জুন) বিকেলে জেলা ছাত্রলীগের জরুরি সভায় এই বিলুপ্তির ঘোষণা দেওয়া হয়।
জেলা ছাত্রলীগের সভাপতি নাঈমুর রাজ্জাক তিতাস বাংলানিউজকে জানান, সাংগঠনিক আচরণবিধি লঙ্ঘন ও কলেজে বিশৃঙ্খল পরিবেশ সৃষ্টি করায় কমিটি বিলুপ্ত করা হয়েছে।
এর বাইরে তিনি আর কোনো মন্তব্য করতে রাজি হননি।   
বাংলাদেশ সময়: ২১৫০ ঘণ্টা, জুন ৩০, ২০১৬ এমবিএইচ/টিআই  
