ঢাকা: ঢাকা কলেজে ছাত্রদের মধ্যে দুই গ্রুপের সংঘর্ষে তিনজন আহত হয়েছেন। আহত তিন শিক্ষার্থী হলেন- রাসেল, মামুন ও কাজল।
শনিবার (২১ জানুয়ারি) রাত পৌনে ৮টার দিকে কলেজ ক্যাম্পসে এ ঘটনা ঘটে। তবে এ সংঘর্ষের কারণ সম্পর্কে তাৎক্ষণিকভাবে কিছু জানা যায়নি। আহত তিনজনকে ঢামেক হাসপাতালে পাঠানো হয়েছে।
নিউমার্কেট থানার ভারপ্রাপ্ত কর্মকর্তা (ওসি) আতিকুর রহমান বাংলানিউজকে জানান, সংঘর্ষের খবর পেয়ে ঢাকা কলেজ ক্যাম্পাসে পুলিশ মোতায়েন করা হয়েছে এবং বিষয়টি খতিয়ে দেখা হচ্ছে।
