ময়মনসিংহের ফুলবাড়ীয়া কলেজ সরকারিকরণের দাবিতে ফুলবাড়ীয়া-ময়মনসিংহ সড়ক অবরোধ  করেছে প্রতিষ্ঠানের শিক্ষক  ও শিক্ষার্থীরা।
ময়মনসিংহ: ময়মনসিংহের ফুলবাড়ীয়া কলেজ সরকারিকরণের দাবিতে ফুলবাড়ীয়া-ময়মনসিংহ সড়ক অবরোধ  করেছে প্রতিষ্ঠানের শিক্ষক  ও শিক্ষার্থীরা।
শনিবার (০৫ নভেম্বর) ভোর ৬টা থেকে এ অবরোধ কর্মসূচি শুরু হয়। চলবে সন্ধ্যা ৬টা পর্যন্ত।
অবরোধের ফলে ফুলবাড়ীয়া-ময়মনসিংহ সড়কে সকল প্রকার যান চরাচল বন্ধ রয়েছে। পাশাপাশি এসব এলাকার ব্যবসা প্রতিষ্ঠানও বন্ধ রয়েছে।
অবরোধের সমর্থনে উপজেলার বিভিন্ন মোড়ে মোড়ে অবস্থান নিয়েছেন প্রতিষ্ঠানের শিক্ষক-শিক্ষার্থীরা।
এদিকে শনিবার সকালে স্থানীয় আন্ধারিয়াপাড়া মারকাজে আখেরি মোনাজাতের মাধ্যমে তিনদিনের ইজতেমা শেষ হলেও অবরোধের কারণে আটক‍া পড়েছেন দূর দূরান্ত থেকে আসা হাজার হাজার মুসল্লি।
এর মধ্যে যাদের বাড়ি কাছাকাছি তার‍া পায়ে হেঁটে বাড়ির উদ্দেশ্যে রওনা দেন। দূরের লোকজন সন্ধ্যার অপেক্ষা করছেন।
আন্দোলনকারীরা জানিয়েছেন, অবরোধ চলাকালে ফায়ার সার্ভিসের গাড়ি, অ্যাম্বুলেন্স, খাবার দোকান, ওষুধের দোকান ও পরীক্ষার্থী বহনকারী যানবাহন অবরোধের আওতামুক্ত রয়েছে।
