দিনাজপুর: দিনাজপুর শিক্ষাবোর্ডের অধীনে জুনিয়র স্কুল সার্টিফিকেট (জেএসসি) পরীক্ষার অষ্টম দিনে কর্ম ও জীবনমূখী শিক্ষা বিষয়ের পরীক্ষা অনুষ্ঠিত হয়েছে। এ দিনের পরীক্ষায় ৮৭ জন পরীক্ষার্থী অনুপস্থিত ছিল। 
শনিবার (১১ নভেম্বর) দিনাজপুর শিক্ষাবোর্ডের উপ-পরীক্ষা নিয়ন্ত্রক মো. মানিক হোসেন বাংলানিউজকে এ তথ্য নিশ্চিত করেন।
তিনি জানান, জেএসসি’র অষ্টম দিনের পরীক্ষায় ৬৯১ জনের মধ্যে অনুপস্থিত ছিল ৮৭ জন পরীক্ষার্থী। আর উপস্থিত ছিল ৬০৪ জন।
এছাড়া অষ্টম দিনের পরীক্ষায়- রংপুর জেলায় ১২ জন, গাইবান্ধা জেলায় ১৮, নীলফামারীতে ৭, কুড়িগ্রামে ৬, লালমনিরহাটে ৫, দিনাজপুরে ২৬, ঠাকুরগাঁওয়ে ৬ ও পঞ্চগড় জেলায় ৭ জন পরীক্ষার্থী অনুপস্থিত ছিল।
দিনাজপুর শিক্ষাবোর্ডের অধীনে রংপুর বিভাগের ৮টি জেলা নিয়ে গঠিত এই শিক্ষা বোর্ডের ৩ হাজার ১৭৩ শিক্ষা প্রতিষ্ঠানের শিক্ষার্থীরা ১৭৪টি পরীক্ষা কেন্দ্রের মাধ্যমে কর্ম ও জীবনমূখী শিক্ষা বিষয়ে জেএসসি পরীক্ষায় অংশ নিয়েছে।
