শাহজালাল বিজ্ঞান ও প্রযুক্তি বিশ্ববিদ্যালয়ে (শাবিপ্রবি) ‘শিক্ষার্থীদের জন্য লাইব্রেরি রিসোর্সের ব্যবহার’ শীর্ষক প্রশিক্ষণ কর্মশালা সম্পন্ন হয়েছে।
শাবিপ্রবি: শাহজালাল বিজ্ঞান ও প্রযুক্তি বিশ্ববিদ্যালয়ে (শাবিপ্রবি) ‘শিক্ষার্থীদের জন্য লাইব্রেরি রিসোর্সের ব্যবহার’ শীর্ষক প্রশিক্ষণ কর্মশালা সম্পন্ন হয়েছে।
মঙ্গলবার (০৯ আগস্ট) সকাল ১০টায় বিশ্ববিদ্যালয়ের মিনি অডিটরিয়ামে বিশ্ববিদ্যালয় মঞ্জুরি কমিশন (ইউজিসি) এবং হেকেপের যৌথ আয়োজনে এ প্রশিক্ষণ কর্মসূচি অনুষ্ঠিত হয়।
অনুষ্ঠানে উপস্থিত ছিলেন বিশ্ববিদ্যালয় রিসার্চ সেন্টারের পরিচালক অধ্যাপক ড. মো. জাকির হোসাইন, গণিত বিভাগের প্রধান অধ্যাপক আনোয়ারুল ইসলাম দ্বীপু, কেন্দ্রীয় লাইব্রেরি ভবনের লাইব্রেরিয়ান আব্দুলি হাই সামেনি প্রমুখ।
অনুষ্ঠানে কেন্দ্রীয় লাইব্রেরির রিসোর্সের (বই, ই-বুক, জার্নাল ইত্যাদি) ব্যবহার নিয়ে বক্তব্য উপস্থাপনা করেন জুনিয়র লাইব্রেরিয়ান আখতারুজ্জামান রাসেল।
অনুষ্ঠানে ক্যাটালগ সার্চিংয়ের ওপর আলোচনা হয়।
