বর্ণাঢ্য কর্মসূচির মধ্য দিয়ে শাহজালাল বিজ্ঞান ও প্রযুক্তি বিশ্ববিদ্যালয়ে (শাবিপ্রবি) বিশ্ব পর্যটন দিবস উদযাপিত হয়েছে।
সিলেট (শাবিপ্রবি): বর্ণাঢ্য কর্মসূচির মধ্য দিয়ে শাহজালাল বিজ্ঞান ও প্রযুক্তি বিশ্ববিদ্যালয়ে (শাবিপ্রবি) বিশ্ব পর্যটন দিবস উদযাপিত হয়েছে।
মঙ্গলবার (২৭ সেপ্টেম্বর) দুপুর ১টায় বিশ্ববিদ্যালয়ের একমাত্র ভ্রমণ বিষয়ক সংগঠন ট্যুরিস্ট ক্লাবের উদ্যোগে দিবসটি উদযাপিত হয়।
দিবসটি উপলক্ষে আয়োজিত শোভাযাত্রাটি ক্যাম্পাসের প্রধান প্রধান সড়ক প্রদক্ষিণ করে বিশ্ববিদ্যালয়ের কেন্দ্রীয় গ্রন্থাগার ভবনের সামনে সমাবেশে মিলিত হয়।
সংগঠনের সাধারণ সম্পাদক শাকিল আহমেদের সঞ্চালনায় সমাবেশে বক্তব্য রাখেন সংগঠনটির উপদেষ্টা সহকারী অধ্যাপক চৌধুরী আব্দুল্লাহ আল বাকী, সভাপতি আল আমীন মোস্তফা ভুইয়া, সাবেক সাধারণ সম্পাদক ইলিয়াস হোসেন রাসেল, সাবেক সিনিয়র সহ-সভাপতি অর্জুন কুমার পাল প্রমুখ।
বাংলাদেশ সময়: ১৯৫২ ঘণ্টা, সেপ্টেম্বর ২৭, ২০১৬ এএ
