দিনাজপুর: মাধ্যমিক ও উচ্চ মাধ্যমিক শিক্ষা বোর্ড দিনাজপুরের অধীনে ২০১৭ সালের এসএসসি পরীক্ষার খাতা পুনঃনিরীক্ষণের পর পাস করেছে ৭২ শিক্ষার্থী। শুধু তাই নয় ৫৮ জন শিক্ষার্থী জিপিএ ৫ পেয়েছে।
দিনাজপুর শিক্ষাবোর্ড থেকে বুধবার (৩১ মে) জানা গেছে, খাতা পুনঃনিরীক্ষণে মোট ৩৯১ জন শিক্ষার্থীর ফল পরিবর্তন হয়েছে ।
শিক্ষা বোর্ডের পরীক্ষা নিয়ন্ত্রক তোফাজ্জুর রহমান বাংলানিউজকে জানান, ২০১৭ সালের এসএসসি পরীক্ষায় মোট ১ লাখ ৬৩ হাজার ৫৭২ জন শিক্ষার্থী অংশগ্রহণ করে পাস করে ১ লাখ ৩৭ হাজার ৩৬২ জন। এরমধ্যে  জিপিএ-৫ পায় মোট ৬ হাজার ৯২৯ জন পরীক্ষার্থী।
গত ৪ মে ফলাফল প্রকাশের পর মোট ৩৭ হাজার ৩৯৮ জন পরীক্ষার্থী ফলাফল চ্যালেঞ্জ করে দিনাজপুর শিক্ষা বোর্ডে আবেদন করে। এর মধ্যে ৩৯১ জন পরীক্ষার্থীর ফল পরিবর্তন হয়েছে। পরিবর্তিত ফল অনুযায়ী জিপিএ-৫ পেয়েছে ৫৮ জন। আর ফেল থেকে পাস করেছে মোট ৭২ জন।
পুনঃনিরীক্ষণের পর দিনাজপুর শিক্ষা বোর্ডে ২০১৭ সালের এসএসসি পরীক্ষায় মোট পাসের সংখ্যা দাঁড়ালো ১ লাখ ৩৭ হাজার ৪৩৪ জন। আর মোট জিপিএ-৫ প্রাপ্ত পরীক্ষার্থীর সংখ্যা দাঁড়ালো ৬ হাজার ৯৮৭ জন।
