জাতীয় বিশ্ববিদ্যালয়ের চূড়ান্ত পরীক্ষা আবারও ৮০ নম্বরে চার ঘণ্টায় নেওয়া হবে বলে জানিয়েছেন বিশ্ববিদ্যালয়টির উপার্চায অধ্যাপক ড. হারুন-অর-রশিদ।
ঢাকা: জাতীয় বিশ্ববিদ্যালয়ের চূড়ান্ত পরীক্ষা আবারও ৮০ নম্বরে চার ঘণ্টায় নেওয়া হবে বলে জানিয়েছেন বিশ্ববিদ্যালয়টির উপার্চায অধ্যাপক ড. হারুন-অর-রশিদ।   শনিবার (০৩ সেপ্টেম্বর) ইডেন মহিলা কলেজে সন্ত্রাস ও জঙ্গিবাদ বিরোধী সমাবেশে প্রধান অতিথির বক্তব্যে তিনি একথা জানান।   আগে জাতীয় বিশ্ববিদ্যালয়ের ১০০ নম্বরের পরীক্ষার জন্য চার ঘণ্টা সময় বরাদ্দ ছিল। পরে ২০ নম্বরের ইনকোর্স যোগ করে লিখিত পরীক্ষা ৮০ নম্বর করা হয়। যার সময় বরাদ্দ করা হয়েছিল চার ঘণ্টা।
সম্প্রতি আবার এ পরীক্ষার সময় চার ঘণ্টা থেকে কমিয়ে সাড়ে তিন ঘণ্টা করা হয়। পরীক্ষার সময় কমানোর প্রতিবাদে শিক্ষার্থীরা বিক্ষোভ করে আসছিলেন। 
