জগন্নাথ বিশ্ববিদ্যালয়: শীতকালীন ছুটি ও যীশু খ্রিস্টের জন্মদিন (বড়দিন) উপলক্ষে আগামী ১৭ ডিসেম্বর থেকে ২৮ ডিসেম্বর পর্যন্ত জগন্নাথ বিশ্ববিদ্যালয়ের (জবি) সব বিভাগের ক্লাস বন্ধ থাকবে।
বুধবার (১৩ ডিসেম্বর) বিকেলে বিশ্ববিদ্যালয়ের জনসংযোগ দফতর থেকে পাঠানো এক সংবাদ বিজ্ঞপ্তিতে এ তথ্য জানানো হয়।
এতে বলা হয়, আগামী ২৪ ডিসেম্বর থেকে ২৮ ডিসেম্বর পর্যন্ত বিশ্ববিদ্যালয়ের সব বিভাগ ও প্রশাসনিক দপ্তর বন্ধ থাকবে। ছুটি শেষে সব ক্লাস, বিভাগীয় ও প্রশাসনিক দপ্তর ৩১ ডিসম্বর থেকে যথারীতি খোলা হবে।
তবে আগামীকাল বৃহস্পতিবার (১৪ ডিসেম্বর) শহীদ বুদ্ধিজীবী দিবস এবং এর পরের দু'দিন সাপ্তাহিক বন্ধ ও খোলার আগে আর দু'দিন সাপ্তাহিক বন্ধ থাকায় শিক্ষার্থীরা অতিরিক্ত ৫ দিন ছুটি ভোগ করতে পারবেন। 
