ময়মনসিংহের ত্রিশালে উপজেলা নির্বাহী কর্মকর্তার (ইউএন) কাছে প্রাথমিক শিক্ষা সমাপনী (পিইসি) মডেল পরীক্ষার চূড়ান্ত ফলাফল হস্তান্তর করেছে উপজেলা কিন্ডার গার্টেন অ্যাসোসিয়েশন।
ময়মনসিংহ: ময়মনসিংহের ত্রিশালে উপজেলা নির্বাহী কর্মকর্তার (ইউএন) কাছে প্রাথমিক শিক্ষা সমাপনী (পিইসি) মডেল পরীক্ষার চূড়ান্ত ফলাফল হস্তান্তর করেছে উপজেলা কিন্ডার গার্টেন অ্যাসোসিয়েশন।
সোমবার (২৪ অক্টোবর) দুপুরে ইউএনও কার্যালয়ে অ্যাসোসিয়েশনের প্রতিনিধি দল ফলাফল হস্তান্তর করে।
উপজেলা নির্বাহী কর্মকর্তা (ইউএন) আবু জাফর রিপন অ্যাসোসিয়শনের সভাপতি অধ্যাপক আব্দুল আওয়াল ও সাধারণ সম্পাদক অধ্যাপক মুহাম্মদ আলমগীর কবীরের কাছে থেকে ফলাফল গ্রহণ করেন।
এ সময় ‍আরও উপস্থিত ছিলেন উপজেলা সহকারী কমিশনার (ভূমি) আব্দুল্লাহ আল মামুন, উপজেলা কৃষি কর্মকর্তা দীপক কুমার পাল, নির্বাচন কর্মকর্তা সাখাওয়াত হোসেন, যুব উন্নয়ন কর্মকর্তা আবু জুলহাস প্রমুখ।
