বর্তমানে ফিনিশ প্রতিষ্ঠানটির মূল ব্যবসায় হচ্ছে টেলিযোগাযোগ নেটওয়ার্ক সামগ্রী বিক্রি। চলতি বছরের শুরুর দিকে ডিজিটাল মিডিয়া ব্যবসায়ে নিজেদের পণ্য হিসেবে এই অজো ক্যামেরা আনে নোকিয়া।
উন্মোচনের সময় মার্কিন যুক্তরাষ্ট্র আর ইউরোপে ডিভাইসটি দাম ধরা হয় ৬০ হাজার মার্কিন ডলার। এবার এই ডিভাইসের দাম কমিয়ে ৪৫ হাজার ডলার করা হয়েছে। চলতি বছর সেপ্টেম্বর থেকে চীনের বাজারেও ডিভাইসটি ছাড়তে যাচ্ছে প্রতিষ্ঠানটি, জানিয়েছে রয়টার্স।
গোলাকার এই ক্যামেরায় আটটি সেন্সর আর মাইক্রোফোন আছে। ভার্চুয়াল রিয়ালিটি হেডসেটে দেখা যাবে এমন ৩ডি মুভি আর গেইম তৈরির জন্য এই ক্যামেরা বানানো হয়।
ভার্চুয়াল রিয়ালিটি বাজার দ্রুত উন্নত হচ্ছে আর নতুন ঠিক করা এই দাম তারই প্রতিফলন ঘটায় বলেই জানিয়েছে নোকিয়া।
