রয়টার্স জানায়, মার্কিন প্রেসিডেন্ট ডোনাল্ড ট্রাম্পের জারি করা অভিবাসী নিষেধাজ্ঞার অধীনে থাকা সাতটি মুসলিমপ্রধান রাষ্ট্রের শিক্ষার্থী ও কর্মী ভিসাধারী নিরাপরাধ নাগরিকদের পেশাগত বা পারিবারিক প্রয়োজনে দেশটিতে প্রবেশের অনুমতি দিতে প্রস্তাব রেখে প্রশাসনের কাছে চিঠি পাঠিয়েছে মাইক্রোসফট।
সেক্রেটারি অফ হোমল্যান্ড সিকিউরিটি জন কেলি এবং সেক্রেটারি অফ স্টেট রেক্স টিলারসন-এর উদ্দেশ্যে ওই চিঠিতে মাইক্রোসফট প্রেসিডেন্ট ব্র্যাড স্মিথ এইচ-১বি ভিসাধারীসহ "গুরুত্বপূর্ণ প্রয়োজনে ভ্রমণকারী বিশ্বস্ত" ব্যক্তিদের ক্ষেত্রে এ নিষেধাজ্ঞা শিথিল করতে এ প্রস্তাবনা উপস্থাপন করেন। এ প্রস্তাবনায় নিষেধাজ্ঞার ক্ষেত্রে বিশেষ বিবেচনা ব্যবস্থা চালু করতে মন্ত্রীদের এখতিয়ার রয়েছে বলেও উল্লেখ করা হয়।
গ্রিন কার্ডধারী ব্যক্তিদের ক্ষেত্রে যুক্তরাষ্ট্রে প্রবেশের সুযোগ থাকলেও নিষিদ্ধ সাতটি দেশের এইচ-১বি ভিসাধারীদের প্রবেশ নিষিদ্ধই থাকবে- রবিবার এক ঘোষণায় এ কথা জানান কেলি।
মাইক্রোসফট জানায়, এ নিষেধাজ্ঞার কারণে প্রতিষ্ঠানটির ৭৬জন কর্মীসহ সংশ্লিষ্ট আরও ৪১জন ভোগান্তির শিকার হয়েছেন।
