ফেইসবুক অ্যাপের আভ্যন্তরীণ কাঠামোর কিছু গুরুত্বপূর্ণ অংশ কাজ করা বন্ধ করে দেওয়ায় ওই ত্রুটি দেখা দিচ্ছে বলে জানিয়েছে দৈনিকটি। কোনো কোনো ব্যবহারকারী আবার তাদের স্ক্রিনে লগ ইন পেইজ দেখতে পাচ্ছেন যেখানে তাদেরকে বলা হচ্ছে যে তাদের অ্যাকাউন্ট ভেরিফাই করা যাচ্ছে না।
অ্যাকাউন্ট হ্যাকিংয়ের শিকার হয়েছে আর তাই তারা সাইনড আউট অবস্থায় রয়েছেন বা তাদের পাসওয়ার্ড বদলে দেওয়া হয়েছে-এমন মেসেজও পাচ্ছেন বলে জানান অনেক ব্যবহারকারী। আবার প্রাপ্ত অনুরোধে পাসওয়ার্ড পরিবর্তনের জন্য বলা হলে পাসওয়ার্ড পরিবর্তনের পরেও নিজেদের অ্যাকাউন্টে প্রবেশ করতে পারছেন না বলে জানিয়েছেন কেউ কেউ।
অন্যদিকে, এই ঘটনাকে ফেইসবুক অ্যাপের ‘ব্যর্থতার নিরাপত্তা’ হিসেবেই দেখা হচ্ছে, বলা হয়েছে প্রতিবেদনটিতে। এর মানে হচ্ছে ফেইসবুক টুলের মধ্যে কোনো ঝামেলা হলে তার কারণে কোনো ব্যবহারকারীর অ্যাকাউন্ট যাতে ক্ষতিগ্রস্থ না হয় সেজন্য অ্যাকাউন্টগুলোতে আর প্রবেশ করতে দেওয়া হচ্ছিল না।
