জরিমানা হিসেবে মোট ৮৩৫০০০ ডলার পরিশোধে এই চার প্রতিষ্ঠান সম্মত হয়েছে বলে জানিয়েছেন নিউ ইয়র্ক-এর রাষ্ট্রপক্ষের আইনজীবী এরিক স্মিডারমেন।
মা-বাবার অনুমতি ছাড়া ১৩ বছরের কমবয়সীদের ব্যক্তিগত তথ্য সংরক্ষণ যুক্তরাষ্ট্রে নিষিদ্ধ।
ওই চার প্রতিষ্ঠান ছাড়া অন্যান্য প্রতিষ্ঠানগুলোর উপর এখনও এ নিয়ে তদন্ত চলছে বলে জানিয়েছে বিবিসি।
এরিক বলেন, "এখন শিশুরা অনলাইন লাইভে আসে আর আমরা যেভাবে আমাদের রাস্তায় নজর রাখি সেভাবে ইন্টারনেটেও নজর রাখতে হবে। আমি চাই না কোনো শিশুর সংশ্লিষ্ট এমন কোনো তথ্য রাখা হোক, যা পরে তাদের কেলেঙ্কারি করতে ব্যবহার করা হতে পারে।"
প্রতিষ্ঠানগুলোর মধ্যে ম্যাটেল-এর বার্বি, হট হুইলস, ফিশার-প্রাইস, মনস্টার হাই, এভার আফটার হাই আর টমাস অ্যান্ড ফ্রেন্ডস সাইটে ট্র্যাকিং প্রযুক্তি পাওয়া গেছে। এই প্রতিষ্ঠানটিকে আড়াই লাখ ডলার জরিমানা করা হয়েছে।
ভায়াকম-এর নিক জুনিয়র আর নিকএলোডেয়ন সাইটে এমন প্রযুক্তি পাওয়া যায়। এই সাইটে ডোরা দ্য এক্সপ্লোরার, স্পঞ্জবব স্কয়ারপ্যান্টস অ্যান্ড টিনএজ মিউট্যান্ট নিনজা টার্টলস-এর মতো টিভি অনুষ্ঠান দেখানো হয়। এই প্রতিষ্ঠানকে করা জরিমানার পরিমাণ পাঁচ লাখ মার্কিন ডলার।
হ্যাসব্রো’র এক সাইটে ট্র্যাকিং প্রযুক্তি পাওয়া গেলেও, এই প্রতিষ্ঠানকে কোনো জরিমানা করা হয়নি।
জাম্পস্টার-এর নিওপেটস সাইট-এর ট্র্যাকিং প্রযুক্তির সঙ্গে একটি প্লাগ-ইন পাওয়া যায়। এই প্লাগ-ইন ভিজিটরদের সম্পর্কে ফেইসবুকে ডেটা পাঠায়। এই প্রতিষ্ঠানকে ৮৫ হাজার ডলার জরিমানা করা হয়।
