বিবিসি জানিয়েছে, দেশটির ডিজিটাল ইকোনমি বিল অনুযায়ী বয়স যাচাই করা ছাড়া যেসব সাইট প্রবেশাধিকার দেবে- সেগুলো বন্ধ করে দেওয়া হতে পারে। সোমবার সন্ধ্যায় এই ব্যাপারে তৃতীয়বারের মত আলোচনা হয়। কনজারভেটিভ পার্টি’র সংসদ সদস্য জন হুইটিংগলড জুলাইয়ে প্রথম এই বিল উত্থাপন করেছিলেন। তিনি শুধু এই আইনকেই সমস্যার সমাধানের উপায় হিসেবে নিতে পারছেন না।
"তরুণরা পর্নোগ্রাফি ছড়িয়ে দিচ্ছে সামাজিক মাধ্যম ব্যবহার করে। তাই আপাতত আমি এখানটায় কার্যকর কোনো উপায় দেখতে পাচ্ছি না”- হুইটিংগলড বলেন। টুইটারের নিয়ম অনুসারে, প্রোফাইল বা হেডার ইমেইজের মধ্যে ‘অশ্লীল বা সহিংস’ কোনো কিছুর ব্যবহার নিষিদ্ধ। কিন্তু পোস্টে সুস্পষ্ট প্রাপ্তবয়স্ক বিষয়বস্তু ধারণ করার বিষয়ে কোনো বাধা নেই টুইটারে।
জুন থেকে টুইটারে পর্নোগ্রাফিক বিষয়বস্তু পোস্টের পরিমাণ বেড়ে গেছে, যখন টুইটার ব্যবহারকারীদেরকে দুই মিনিট ২০ সেকেন্ড পর্যন্ত ভিডিও পোস্ট করতে অনুমতি দেয়।
টুইটার শিশুদের নিপীড়ন মুক্ত রাখতে যথাসাধ্য কাজ করবে- টুইটারের এমন প্রতিশ্রুতি মনে করিয়ে দিয়ে আরেক সংসদ সদস্য দাবী করেন, এখন টুইটার শিশু নিপীড়ন বন্ধে কোনো ব্যবস্থা না নিয়ে এক কথায় একে উৎসাহিতই করে চলেছে।
“ইচ্ছা থাকলে অবশ্যই উপায় হবে”, মিলার বলেন।
শিশুদের জন্য কাজ করে এমন দাতব্য প্রতিষ্ঠান এনএসপিসিসি ইন্টারনেটে শিশুদের নিরাপত্তার জন্য মান নির্ধারণে নজরদারি করবে বলে জানায়।  
