ইউনিকোড কনসোর্টিয়াম হচ্ছে একটি আন্তর্জাতিক অলাভজনক সংস্থা, যারা বিভিন্ন ফন্ট, ইমোজি ইত্যাদি-এর আদর্শ ঠিক করে।
১৫ বছর বয়সী রাওফ আলহুমেদি জানান, তিনি হোয়াটসঅ্যাপে বন্ধুদের সঙ্গে চ্যাট করার সময় দেখেন প্রত্যেকে নিজেদের উপস্থাপন করতে একটি নির্দিষ্ট ইমোজি ব্যবহার করছেন। তখন তিনি ভাবেন, সেখানে এমন কোনো ইমোজি নেই, যা দিয়ে তিনি নিজেকে উপস্থাপন করতে পারবেন। আর এজন্য দরকার হচ্ছে একটি হিজাব পরিহিতা ইমোজি।  
তিনি কিছু গবেষণা করেন এবং ইউনিকোড-এ যে কেউ ইমোজি'র ধারণা জমা দিতে পারেন দেখে খুশি হয়ে যান, জানিয়েছে ব্রিটিশ দৈনিক ইন্ডিপেনডেন্ট। তিনি অলাভজনক সংস্থাটিকে একটি মেইল করে তার প্রস্তাব রাখেন। তারা তাকে একটি আনুষ্ঠানিক প্রস্তাবনার খসড়া দিয়ে সহায়তা করে।
