গানটির রেকর্ড প্রতিষ্ঠান ইউনিভার্সাল মিউজিক ল্যাটিন এন্টারটেইনমেন্ট মঙ্গলবার এক ঘোষণায় বলে, পুয়ের্তো রিকো-এর দুই শিল্পী লুইস ফনসি আর ড্যাডি ইয়াঙ্কি-এর এই গান আগের রেকর্ডটি ভেঙ্গে ফেলেছে। এর আগে এই রেকর্ডের ছিল পপ তারকা জাস্টিন বিবার-এর গান ‘সরি’-এর দখলে। ‘সরি’ ৪৩৮ কোটি বার স্ট্রিম করা হয়েছিল, বলা হয়েছে মার্কিন সংবাদমাধ্যম সিএনবিসি’র প্রতিবেদনে। 
চলতি বছর জানুয়ারিতে বের হওয়া ‘দেসপাসিতো’ গানটি কয়েক সপ্তাহ ধরে বিলবোর্ড হট ১০০ তালিকায় শীর্ষস্থানে আছে।
এক বিবৃতিতে ফনসি বলেন, স্ট্রিমিং সেবা তাদের গানটিকে বিশ্বের সব কোণায় ছড়িয়ে দিতে সহায়তা করেছে।
চলতি বছর ব্রিটিশ সঙ্গীতশিল্পী এড শিরান-কে সরিয়ে স্ট্রিমিং প্লাটফর্ম স্পটিফাইয়ের শীর্ষস্থান দখল করেন ড্যাডি ইয়াঙ্কি। ‘দেসপাসিতো’ গানের বদৌলতে প্রথম লাতিন শিল্পী হিসেবে এই স্থান অর্জন করলেন তিনি।
