টয়োটা জানিয়েছে, প্রথমিকভাবে দলটি চারজন সদস্য নিয়ে গঠিত হতে পারে। এর মধ্যে এই প্রতিষ্ঠানের একজন, এবং মেশিন প্রস্তুতকারক টয়োটা ইন্ডাস্ট্রিজ কর্পোরেশন, পার্টস সরবরাহকারী আইসিন সেইকি এবং ডেনসো কর্পোরেশনের একজন করে রয়েছেন, জানিয়েছে রয়টার্স।
নতুন গঠন করা এই দলটি বৈদ্যুতিক গাড়ির উন্নয়নের কৌশল পরিকল্পনা এবং প্রচারণার কাজ করবে বলে জানানো হয়। প্রতিষ্ঠানের এক মুখপাত্র জানান, পরবর্তীতে এই দলে প্রকৌশলী অন্তর্ভূক্ত করা হবে এবং প্রয়োজনের ভিত্তিতে ডিজাইনার এবং অন্যান্য ব্যাক্তিকে দলে যোগ করা হবে।
“গাড়ির নির্গমন কমানোর নীতিমালা খুব দ্রুত পরিবর্তন হচ্ছে, তাই আমাদেরকেও দ্রুত সাড়া দিতে হবে,” বলেন মুখপাত্র ইতসুকি কুরোসু।
