সম্প্রতি হারিয়েট ডেইলি নিউজ-এর এক প্রতিবেদনে বলা হয়, ১৫ কোটি মার্কিন ডলারে মোনাকো-তে একটি বিলাসবহুল ইয়ট কিনেছেন জাকারবার্গ। আগের বছর সেপ্টেম্বরে গোপনে এই ইয়টটি কেনেন তিনি।
প্রতিবেদনের এমন তথ্য মিথ্যা দাবী করেছেন ফেইসবুক প্রধানের মুখপাত্র। তিনি বলেন, “মার্ক ইয়ট কিনেছেন এমন প্রতিবেদন সঠিক নয় কারণ তিনি কোনো ইয়ট কেনেননি।”
হারিয়েট ডেইলি’র প্রতিবেদনে বলা হয় জাকারবার্গ যে বিলাসবহুল ইয়টটি কিনেছেন তার নাম ‘ইউলাইসেস’। ১০৭ মিটার দৈর্ঘ্যের এই ইয়টে কয়েক ডজন কামরা রয়েছে। ৮৫০০ নটিক্যাল মাইল যাত্রা করতে পারবে এটি-- খবর প্রযুক্তিবিষয়ক সাইট টেকক্রাঞ্চ-এর।
