অনুষ্ঠানটি ১৬ ফেব্রুয়ারি থেকে ভারতের দিল্লির বুদ্ধা ইন্টারন্যাশনাল সার্কিট-এ অনুষ্ঠিত হবে, এটি ‘হোম অফ এফ১ গ্র্যাঁ প্রি ইন্ডিয়া’ নামেও পরিচিত। 
প্রতিযোগিতায় বাংলাদেশের আহসানউল্লাহ বিজ্ঞান ও প্রযুক্তি বিশ্ববিদ্যালয় (এইউএসটি)-এর পড়ুয়া শিক্ষার্থীরা তাদের উদ্ভাবিত হাইব্রিড ভেইকল ‘স্বপ্নযান’ নিয়ে অন্যান্য দেশের ৭৫টি দলের সঙ্গে অংশ নেবে।
বৃহস্পতিবার দুপুরে বিশ্ববিদ্যালয় ক্যাম্পাসে ২০ সদস্যের দলটির বানানো এই যান উন্মোচন করেন বিশ্ববিদ্যালয় উপাচার্য অধ্যাপক ড. এ.এম.এম শফিউল্লাহ।
২০১৬ সালের জুন থেকে কাজ শুরু করা এই হাইব্রিড প্রকল্প সফল বলে জানান দলের সহ-অধিনায়ক মুশফিক হাসান।
দলের আরেক সদস্য সান্নিয়াত জাহান সানি বলেন, “আমার কাছে ‘স্বপ্নযানের’ অংশ হয়ে আন্তজার্তিক অনুষ্ঠানে বাংলাদেশের প্রতিনিধিত্ব করাটা অনেক আনন্দের”। ভবিষ্যৎ পরিকল্পনা কী?- বিডিনিউজ টোয়েন্টিফোর ডটকম-এর এমন প্রশ্নের জবাবে তিনি জানান, এই প্রতিযোগিতায় সফল হতে পারলে সামনে জার্মানিতে এমন একটি প্রতিযোগিতায় অংশ নেওয়ার ইচ্ছা রয়েছে তাদের। সেই সঙ্গে প্রতিযোগিতা থেকে ফেরত এসে দেশের বিভিন্ন প্রতিষ্ঠানে নিজেদের এই প্রকল্প বর্ণনা করে বাংলাদেশের জন্য হাইব্রিড গাড়ি প্রযুক্তির গুরুত্ব তুলে ধরার আশা প্রকাশ করেন তিনি।
