এই সুবিধাটি দেওয়া হবে ইউরোপিয়ান ইউনিয়ন সদস্যভুক্ত দেশগুলোতে, জানিয়েছে ইন্টারন্যাশনাল বিজনেস টাইমস।
ইউরোপিয়ান কমিশন-এর প্রেসিডেন্ট জাঁ-ক্লদ জাঙ্কার বিনামূল্যে ওয়াই-ফাই দেওয়ার এই লক্ষ্য ঘোষণা করেছেন। তিনি জানান, ইইউ-এর তালিকাভুক্ত প্রত্যেকটির দেশের একটি করে শহর ৫জি মোবাইল নেটওয়ার্কের আওতায় আসবে, আর তা ২০২০ সালের মধ্যে।
“সবার এই সংযোগের সুবিধাটি পাওয়া মানে হচ্ছে- এটি কোনো বিষয় নয় যে, তিনি কোন এলাকায় থাকেন বা তার আয় কত। তাই আমরা আজকে প্রস্তাব দিচ্ছি যে, ২০২০ সালের মধ্যে প্রত্যেকটি ইউরোপিয়ান গ্রামে এবং প্রত্যেকটি শহরে তারবিহীন বিনামূল্যে ওয়াই ফাই সেবা দেওয়া হবে।”
এই পরিকল্পনার জন্য একটি ফেইস শিট প্রস্তুত করা হয়েছে। ফেইস শিটটির মতে, জনসাধারণের স্থানগুলোর মধ্যে পার্ক, চত্বর, লাইব্রেরি এবং পাবলিক বাসস্ট্যান্ডগুলো অন্তর্ভূক্ত। এই পরিকল্পনাটির বাজেট সর্বোচ্চ ১৩ কোটি ৫০ লাখ ডলার রাখা হয়েছে শুধু যন্ত্রপাতি স্থাপনার জন্য।
ইউরোপিয়ান ইউনিয়ন আর একটি ঘোষণা দেওয়ার চেষ্টা করছে। তারা টেলিযোগাযোগ প্রতিষ্ঠানগুলোর প্রতি অঙ্গীকার করেছিল যে, তারা রোমিং কল-এর খরচের প্রথা বাতিল করব। কিন্তু এখন এটি আর ইংল্যান্ডের জন্য প্রচলিত হবে না, ইউরোপিয়ান ইউনিয়ন ত্যাগ করার কারণে।
