৫৮ তলা আকাশচুম্বী ওই ভবনের নাম ‘ট্রাম্প টাওয়ার’। ভবনটির নাম বদলে করে দেওয়া হয় ‘ডাম্প টাওয়ার’। গুগল ম্যাপসের ব্যবহারকারীরা নতুন এই নাম দেখার পর দ্রুত সামাজিক মাধ্যমে এই খবর ছড়িয়ে যায় বলে জানিয়েছে ব্রিটিশ দৈনিক টেলিগ্রাফ।
এই খবরের আগ পর্যন্ত এ বিষয়ে ট্রাম্প কোনো মন্তব্য করেননি। ট্রাম্প ইলেকটোরাল কলেজ ভোটে জয়ী হওয়ার পর থেকে বিরোধীদের আন্দোলনের কেন্দ্রবিন্দুতে পরিণৎ হয়েছে এই ভবন। আর ইতোমধ্যে ভবনটিকে নিজের রূপান্তরিত প্রধান কার্যালয় হিসেবে ব্যবহার শুরু করেছেন ট্রাম্প।
এ নিয়ে তাৎক্ষণিকভাবে গুগলের সঙ্গে যোগাযোগ করা সম্ভব হয়নি বলে জানিয়েছে দৈনিকটি।
গুগল ম্যাপস-এ কোনো স্থানের নাম বদলে দেওয়ার ঘটনা এটাই প্রথম নয়। ২০১৫ সালের মার্চে স্পেনের বিভিন্ন শহরের নাম এভাবে বদলে দেন ব্যবহারকারীদের কেউ। সে সময় গুগল জানায়, তারা এই ধরনের বিষয়কে গুরুত্বের সঙ্গে নেয়। সেই সঙ্গে তারা এও জানায়, বিশ্বব্যাপী শতকোটি মানুষ এই ম্যাপ সেবা ব্যবহার করে আর “এ ধরনের সমন্বিত ব্যবস্থায় মাঝে মধ্যে ভুল হওয়ার ঝুঁকি থেকে যায়”।
ভুলগুলো সরিয়ে দিতে ব্যবহারকারীদের উৎসাহ দেয় মার্কিন ওয়েব জায়ান্টটি। সেই সঙ্গে তিনবার ভুল তথ্য দিয়েছেন বা অসাধু আচরণ করছেন এমন ব্যবহারকারীদের অ্যাকাউন্ট বাতিল করার নীতিমালাও রেখেছে প্রতিষ্ঠান।
