আহমেদ মনসুর নামের ও প্রচারণাকর্মী একটি টেক্সট মেসেজ পেয়েছিলেন, এতে একতি ওয়েব লিংক ক্লিক করতে তাকে আহ্বান জানানো হয়। তিনি ওই মেসেজ ইউনিভার্সিটি অফ টরোন্টো-এর সিটিজেন ল্যাব-এর গবেষকদের কাছে পাঠান।
বিশেষজ্ঞরা নিরাপত্তা প্রতিষ্ঠান লুকআউট-এর সঙ্গে কাজ করেন আর বুঝতে পারেন, এই লিংক একটি প্রোগ্রাম ইনস্টল করবে, যা আইফোনের একটি ত্রুটিকে কাজে লাগিয়ে সুবিধা নেবে। বৃহস্পতিবার গবেষকরা তাদের অনুসন্ধানে পাওয়া এই ফলাফল প্রকাশ করেন বলে জানিয়েছে রয়টার্স।
অ্যাপলকে ইতোমধ্যে এ নিয়ে সতর্ক করার কথা জানিয়েছেন গবেষকরা। অ্যাপল এই ত্রুটি সংশোধন করেছে এবং জানিয়েছে- আইফোন ৬ মালিকরা তাদের ফোনে স্বয়ংক্রিয় আপডেটের মাধ্যমেই এর সমাধান পেয়ে যাবেন।
এই সমস্যা নিয়ে গবেষকরা জানানোর পরই অ্যাপল তার জন্য সমাধান এনেছে বলে নিশ্চিত করেছেন অ্যাপল মুখপাত্র ফ্রেড সেইনজ।
