ইউরোপীয় কমিশনের প্রতিযোগিতা বিষয়ক কমিশন মঙ্গলবার এক রায়ে বলেছে, গুগল যদি আরও জরিমানার মুখোমুখি হতে না চায়, তাহলে ৯০ দিনের মধ্যে তাদের ওই অন্যায় আচরণ বন্ধ করতে হবে।
গুগল এই রায়ের বিরুদ্ধে ‘আপিল করার কথা বিবেচনা করছে’ বলে এক প্রতিবেদনে জানিয়েছে বিবিসি।
প্রতিযোগিতাবিমুখ এই আচরণ গুগল কীভাবে সংশোধন করবে, রায়ে তা ঠিক করার ভার গুগলের ওপরই ছেড়ে দেওয়া হয়েছে।
এই রায়ের বিষয়ে ইউরোপীয় কমিশনের প্রতিযোগিতাবিষয়ক কমিশনার মারগ্রেথ ভেস্টেজার বলেছেন- “গুগল যা করেছে তা ইউরোপীয় ইউনিয়নের আইন অনুসারে অবৈধ।”
“প্রতিষ্ঠানটি বাজারে অন্য প্রতিযোগীদের মেধার ভিত্তিতে প্রতিযোগিতার এবং উদ্ভাবনের সুযোগ নষ্ট করেছে। সবচেয়ে গুরুত্বপূর্ণ বিষয় হল, এর মাধ্যমে প্রতিষ্ঠানটি ইউরোপের ভোক্তাদেরকে প্রতিযোগিতামূলক বাজারের সুবিধা থেকে বঞ্চিত করেছে।”
রায় বিষয়ে গুগলের এক মুখপাত্র বলেছেন, “আপনি যখন অনলাইনে কেনাকাটা করেন আপনি চাইবেন আপনার কাঙ্ক্ষিত পণ্যটি সহজে পেতে।”
“বিজ্ঞাপনদাতারাও ওইসব পণ্যেরই প্রচার চায়। যে কারণে গুগল ক্রেতাদের বিজ্ঞাপন দেখায় যা বিজ্ঞাপনদাতা ও ভেক্তাদের সম্মিলন ঘটায়। এটা দু’পক্ষের জন্যই ভাল।”
“আমরা এই রায়ের প্রতি সম্মান প্রদর্শন করেই দ্বিমত পোষণ করছি। আপিল করার লক্ষে আমরা রায়ের পূর্ণ বিশ্লেষণ করব।”
গুগলের একচেটিয়া আচরণ নিয়ে ইউরোপীয় কমিশন গত সাত বছর ধরে তদন্ত করছে।
