'চেকমেইট' নামের এই অ্যাপটির সহায়তায় নারীরা ঘরে বসেই স্তন ক্যান্সারের প্রাথমিক লক্ষণ সম্পর্কে জানতে পারবেন এবং এর মাধ্যমে নিজেই নিজের স্তন পরীক্ষা করতে পারবেন। একজন নারী তিনটি সহজ ধাপে, স্তনে চাকা বা স্তনের চামড়ার পরিবর্তনের মতো স্তন ক্যান্সারের প্রাথমিক লক্ষণগুলো ঘরে বসেই চেক করতে পারেন। এছাড়াও প্রয়োজনে ডাক্তারের অ্যাপয়েন্টমেন্ট নেয়ার সুবিধাও পাওয়া যাবে এই অ্যাপর মাধ্যমে। সেই সঙ্গে রিমাইন্ডার সেট করে প্রতি মাসে সেলফ চেকিং করার সুবিধাও রাখা হয়েছে।
স্তন ক্যান্সার সচেতনতায় সহায়তা করার লক্ষ্যে রেডিও চ্যানেল কালারস এফএম ১০১.৬ এই অ্যাপ চালু করেছে।
যে কোনো অ্যান্ড্রয়েড মোবাইলের গুগল প্লে-স্টোর থেকে CheckMate Breast Cancer লিখে সার্চ করে অ্যাপটি বিনামূ্ল্যে ডাউনলোড করা যাবে বলে জানিয়েছে নির্মাতা প্রতিষ্ঠানটি।
প্রতিষ্ঠানটি জানায়, হিসাব অনুযায়ী বাংলাদেশে প্রতি বছর নতুন করে ২০ হাজারেরও বেশী নারী স্তন ক্যান্সারে আক্রান্ত হন। বিশেষজ্ঞরা বলেন, ৯০ শতাংশ ক্ষেত্রেই সচেতনতা ও সময়মত চিকিৎসা বাঁচিয়ে তুলতে পারে রোগীকে এবং দিতে পারে সুস্থ্য স্বাভাবিক জীবন।
