এক সাক্ষাৎকারে চেরি জানান, ৮০-এর দশকে তিনি এই গেইমটি তৈরি করেন। বিষণ্ণতা কাটিয়ে উঠতে সহায়ক গেইমটি। এতে কর্মক্ষেত্রের কার্যকারিতা বৃদ্ধি পায় বলেও উল্লেখ করা হয়েছে প্রযুক্তিবিষয়ক সাইট সিনেট-এর প্রতিবেদনে।
গেইমটি তৈরির বিষয়ে চেরি বলেন, “সে সময় খুব বেশি গেইম ছিল না, তাই আমাদের এটি তৈরি করতে হয়েছে।”
মাইক্রোসফট তাৎক্ষণিকভাবেই গেইমটি নিয়ে কাজ শুর করে। তবে, প্রথম দিকে এটিকে গেইম হিসেবে প্রচার করেনি প্রতিষ্ঠানটি। তারা গ্রাহককে মাউস চালনা শেখানোর টুল হিসেবে এটি ব্যবহার করেছে।
এক সাক্ষাৎকারে চেরি-কে প্রশ্ন করা হয় গেইমটিতে মাইক্রোসট সহপ্রতিষ্ঠাতা বিল গেটস-এর প্রতিক্রিয়া কেমন ছিল। জবাবে চেরি বলেন, “গেটস মনে করেন গেইমটি জেতা খুব কঠিন।”
এ ব্যাপারে জানতে মাইক্রোসফটের সঙ্গে যোগাযোগ করা হলে তাৎক্ষণিক কোনো মন্তব্য করেনি প্রতিষ্ঠানটি।
