প্রেসিডেন্ট বারাক ওবামা চলতি বছরের শুরুতে এই কমিশন গঠন করেন। ফেডারেল খাতে প্রযুক্তি উন্নয়নের গতি ত্বরান্বিত করতে প্রেসিডেন্ট ও কংগ্রেস একত্রে কাজ করবে আর প্রেসিডেন্ট বিদেশে সাইবার নিরাপত্তা প্রসারের চেষ্টায় প্রেসিডেন্ট একজন দূত নিয়োগ দেবেন বলেও বলা হয়েছে ওই প্রতিবেদনে, জানিয়েছে রয়টার্স। 
একশ’ পৃষ্ঠার ওই প্রতিবেদনে বলা হয়, “প্রযুক্তির অগ্রগতি নিরাপত্তাকে ছাড়িয়ে যাচ্ছে আর আমরা কীভাবে আগাবো ও সাইবার নিরাপত্তা কৌশল ও অনুশীলন প্রয়োগ করব তা বদলানোর আগে এটি এগিয়ে যাবে।”
কমিশন প্রধান টম ডনিলন-এর সঙ্গে বৈঠকের পর এক বিবৃতিতে ওবামা জানান, তার প্রশাসন কমিশনের ‘চিন্তাশীল ও বাস্তবিক’ পরামর্শগুলো সমর্থন করে। সেই সঙ্গে এই প্রতিবেদন প্রেসিডেন্ট নির্বাচনে জয়ী ডোনাল্ড ট্রাম্প-এর দলের কাছে হস্তান্তরের আহ্বান জানিয়েছেন ওবামা।
