আগের বাসের সঙ্গে এবারের বাসের মূল পার্থক্য হল এটি হবে বৈদ্যুতিক। ২০২০ সালে ‘আইডি বাজ’ নামের বাসটি বাজারে আনার পরিকল্পনা রয়েছে গাড়ি নির্মাতা জার্মান প্রতিষ্ঠানটির, বলা হয়েছে সিএনএন-এর প্রতিবেদনে।
শুধু বাস নয়, সামনের বছরগুলোতে বেশ কিছু বৈদ্যুতিক গাড়ি আনার পরিকল্পনা রয়েছে ফোক্সভাগেন-এর। প্রতিষ্ঠানের বৈদ্যুতিক গাড়ির লাইনআপের নাম দেওয়া হয়েছে ‘আইডি’। আগের বছর সেপ্টেম্বরে প্যারিস মোটর শো-তে প্রথম একটি ছোট আকারের বৈদ্যুতিক গাড়ি উন্মোচন করে প্রতিষ্ঠানটি। এই গাড়িটির নাম বলা হয়েছে আইডি।
বৈদ্যুতিক যানের ক্ষেত্রে নামের এ রীতি ঠিক রেখে এবারে মিনিভ্যান-এর নাম রাখা হয়েছে ‘আইডি বাজ’। ফোক্সভাগেন জানায় এখানে বাজ এসেছে বাস শব্দ থেকে। আর আইডি বলতে বোঝাচ্ছে আইডেন্টিটি বা ইন্টেলিজেন্ট ডিজাইন।
আইডি বাস মিনিভ্যানটি হবে অল-হুইল-ড্রাইভ যান। সামনে ও পেছনে আলাদা বৈদ্যুতিক মোটর থাকবে এটির। মোটরগুলো একসঙ্গে ৩৬৯ হর্সপাওয়ার শক্তি দিতে পারবে বলে প্রতিবেদনে উল্লেখ করা হয়েছে।
প্রতিষ্ঠানের ১৯৬০ এবং ১৯৭০ সালের শুরু দিকের মিনিভ্যানের নতুন সংস্করণ হল আইডি বাজ। ফোক্সভাগেন-এর দাবী একবার পূর্ণ চার্জে ২৭০ মাইল চলবে বাসটি।
বাসটির যে কনসেপ্ট প্রদর্শন করা হয়েছে সেখানে স্বয়ংক্রিয় চালনা ব্যবস্থাও দেখানো হয়েছে। একটি ত্রিভুজাকৃতির স্টিয়ারিং হুইল রাখা হয়েছে বাসটিতে। যখন এটি ব্যবহার হয় না তখন এটি ড্যাশবোর্ডের মধ্যে ঢুকে থাকে।
