‘নোকিয়া’ ব্র্যান্ড নামে মোবাইল ফোন ছাড়ার সত্ত্বাধিকার পাওয়ার কয়েক সপ্তাহের মধ্যেই এইচএমডি নতুন এই হ্যান্ডসেটটি বাজারে ছাড়ার ঘোষণা দিল।
বিডিনিউজ টোয়েন্টিফোর ডটকম-কে পাঠানো এক বিবৃতিতে এইচএমডি’র পক্ষ থেকে বলা হয়- এই সেটের আবরণে থাকবে পলিকার্বনেট শেল, যার ফলে এতে কোনো স্ক্র্যাচ বা দাগ পড়বে না।
এতে রয়েছে এফএম রেডিও ও এমপি থ্রি প্লে­য়ার। নকিয়া ১৫০ সেটটির স্ক্রিন ২.৪ ইঞ্চি এবং এই সেটের কিপ্যাড খুব সহজেই ব্যবহার করা যাবে বলে দাবী নির্মাতাদের।
ফোনসেটটির ব্যাটারি এক বার চার্জ দিলে ২২ ঘণ্টা পর্যন্ত টকটাইম পাওয়া যাবে আর স্ট্যান্ডবাই টাইম হবে ২৫ দিন। এটি চার্জ হবে মাইক্রো-ইউএসবি চার্জারে। এ ছাড়া ফোনসেটটিতে রয়েছে এলইডি টর্চলাইট।
