ব্যবসায়বান্ধব সামাজিক যোগাযোগের সাইট লিংকডইন-কে কিনতে চেয়েছিল সেলসফোর্স, কিন্তু শেষ পর্যন্ত তা বাগিয়ে নেয় মার্কিন সফটওয়্যার জায়ান্ট মাইক্রোসফট। কিন্তু এক্ষেত্রে নিজেদের লক্ষ্য মাইক্রোসফট-এর থেকে আলাদা ছিল বলেই জানিয়েছেন বেনিওফ। সম্প্রতি মাইক্রোব্লগিং সাইট টুইটার-কে কিনতে আগ্রহ প্রকাশ করলেও, শেষ পর্যন্ত এখান থেকে নিজেরাই পিছু হটে সেলসফোর্স।
যুক্তরাষ্ট্রের ক্যালিফোর্নিয়ায় ব্যবসা-বাণিজ্যবিষয়ক মার্কিন দৈনিক ওয়াল স্ট্রিট জার্নাল আয়োজিত এক প্রযুক্তি সম্মেলনে এসব কথা বলেন তিনি। তবে, টুইটার নিয়ে তিনি কী আশা করেছিলেন তা নিয়ে বিস্তারিত বলতে অস্বীকৃতি প্রকাশ করেন তিনি, জানিয়েছে রয়টার্স।
টুইটার কেনা থেকে সরে আসা নিয়ে বেনিওফ বলেন, "আমাদেরকে থামতে হয়েছিল কারণ আমি আমার শেয়ারধারীদের সঙ্গে অংশীদারিত্বে ব্যবসায় পরিচালন করছি।"
অন্যদিকে, লিংকডইন আর সেলসফোর্স-এর মধ্যে বেনিওফ সমান্তরাল বৈশিষ্ট্য দেখতে পেয়েছিলেন বলে বুধবার জানান বেনিওফ। তিনি বলেন, "আমরা আসলেই প্রতিষ্ঠানটির কিছু মৌলিকত্ব পছন্দ করেছিলাম।
মাইক্রোসফটের হাতে লিংকডইন-এর নিয়ন্ত্রণ চলে যাওয়া নিয়ে এর আগে সমালোচনা করেছেন বেনিওফ। এই চুক্তির ফলে মাইক্রোসফট অন্যান্য প্রতিদ্বন্দ্বী প্রতিষ্ঠানের জন্য প্রতিদ্বন্দ্বীতা কষ্টসাধ্য করে দিতে পারে বলে মত তার। এ নিয়ে তিনি ইউরোপিয়ান অ্যান্টিট্রাস্ট নিয়ন্ত্রকদের কাছেও উদ্বেগ প্রকাশ করেছেন। 
