মঙ্গলবার ইয়াহু কর্মীদের উদ্দেশ্যে একটি মেইল পাঠিয়ে প্রতিষ্ঠান ছাড়ার কথা বলেন মায়ার, খবর রয়টার্স-এর। টাম্বলার-এ দেওয়া এক পোস্টে তিনি বলেন, “আমি সবাইকে জানাতে যে আমি স্মৃতিবেদনা, আশাবাদ ও কৃতজ্ঞতায় পরিপূর্ণ।”
ইয়াহু আর এওএল-কে মিলিয়ে ওথ নামের নতুন ভেনচার গঠন করছে ভেরাইজন। এওএল প্রধান নির্বাহী টিম আর্মস্ট্রং এ দলের নেতৃত্ব দেবেন। তিনি কর্মীদের উদ্দেশ্যে বলেন, “আমাদের উদ্দেশ্যগুলো পূরণ করতে হলে প্রতিষ্ঠানটিতে সমন্বয় প্রয়োজন।”
বৃহস্পতিবার ইয়াহু-কে ভেরাইজনের কিনে নেওয়া সংক্রান্ত সব চুক্তির অনুমোদন দেয় ইয়াহু’র শেয়ারধারীরা। এরপর প্রতিষ্ঠানটির শেয়ারমূল্য ৫.১৬ ডলার বেড়ে ৫৫.৭১ ডলার হয়।
বেড়ে যাওয়া এই শেয়ারমূল্যের হিসাবে ইয়াহু ত্যাগের সময় মায়ার ২৬ কোটি ৪০ লাখ ডলার পাবেন, এর আগের শুক্রবারের হিসাবে অংকটা ছিল ২৩কোটি ৯০ লাখ ডলার। অন্যান্য শীর্ষস্থানীয় ইয়াহু কর্মীরাও বড় অংকের প্যাকেজ পাবেন, যার মধ্যে দুই বছর পর্যন্ত সময়ের পারিশ্রমিক আর তাদের কেনা শেয়ারের মূল্যও রয়েছে।
