রয়টার্স-এর প্রতিবেদনে বলা হয়েছে, অ্যামাজন অধীনস্থ এনভি ইনভেস্টমেন্ট হোল্ডিংস এলএলসি একটি বৈদেশিক পোর্টফোলিও বিনিয়োগকারী প্রতিষ্ঠান। এই প্রতিষ্ঠান ভারতীয় প্রতিষ্ঠানটির প্রায় ৪৪ লাখ শেয়ার কিনবে, পরিমাণটা শপার্স স্টপ-এর মোট শেয়ারের পাঁচ শতাংশের সমান।
এ হিসাবে শপার্স স্টপ-এর প্রতি শেয়ারের দাম পড়ছে ৪০৭.৭৮ রুপি করে, শনিবার স্টক এক্সচেঞ্জে এ তথ্য জানায় শপার্স স্টপ। 
শুক্রবার ভারতের ন্যাশনাল স্টক এক্সচেঞ্জে লেনদেন বন্ধের সময় শপার্স স্টপ-এর প্রতি শেয়ারের মূল্য ছিল ৪১৮.১০ রুপি।
