মবিলিয়ের চেয়ারম্যানের মতে, টেসলার অটোপাইলট গাড়ির বিস্তার বাড়ানোর উদ্দীপনা দেখে মবিলিয়ে টেসলার সঙ্গে কাজ করা বন্ধ করে দিয়েছে।
২০১৬ সালের মে মাসে মর্মান্তিক দুর্ঘটনার পর টেসলার অটোপাইলট সিস্টেম গভীর তদন্তের মধ্যে আছে।
মবিলিয়ে-এর এমন মন্তব্যের জবাবে টেসলা জানায়, অটোপাইলট সিস্টেমটিড় উদ্দেশ্য গাড়িকে স্বচালিত যানবাহনে পরিণত করা ছিল না, চালকদের সহায়তা করাই ছিল মূল লক্ষ্য।
মবিলিয়ে-এর কর্মকর্তা এবং প্রযুক্তি প্রধান অ্যামন শ্যাশুয়া রয়টার্সকে জানান, অটোপাইলট-এর নকশাটি নিরাপত্তার উদ্দেশ্যে আরও সামনের দিকে নিয়ে গেলে তা হুমকির মধ্যে পড়তে পারে। তিনি আরও বলেন, “নিরাপত্তার উদ্দেশ্যে সব দুর্ঘটনাকে ঠেকানোর জন্য এটি (অটোপাইলট) ডিজাইন করা হয়নি।”
“এটি একটি চালক সহযোগী ব্যবস্থা এবং এটি কোনো চালকবিহীন ব্যবস্থা নয়"- যোগ করেন তিনি।
২০১৬ সালের জুলাই মাসের এক দুর্ঘটনার পর মবিলিয়ে এবং টেসলা এক সঙ্গে কাজ করা বন্ধ করে দেয়।
