চলতি বছর চীনের গুয়াংঝু প্রদেশে বড় পরিসরে ওলেড নির্মাণে বিনিয়োগের ঘোষণা দেয় দক্ষিণ কোরীয় ইলেকট্রনিকস পণ্য নির্মাতা প্রতিষ্ঠানটি। ঘোষণা দেওয়ার পাঁচ মাস পর এই অনুমোদন এলো বলে রয়টার্স-এর প্রতিবেদনে উল্লেখ করা হয়েছে। বিদেশি বাজারগুলোতে টিভির জন্য স্ক্রিনের চাহিদা দ্রুত বাড়তে থাকায় এই পদক্ষেপ নিয়েছে প্রতিষ্ঠানটি।
মন্ত্রণালয়ের দেওয়া বিবৃতিতে বলা হয়, এলজি ডিসপ্লে স্থানীয় কাঁচামাল ও সামগ্রী ব্যবহার বাড়ানোর শর্তে এই অনুমোদন দেওয়া হয়েছে।
এ নিয়ে এলজি ডিসপ্লে’র এক মুখপাত্র তাৎক্ষণিকভাবে কোনো মন্তব্য করেননি বলে জানিয়েছে সংবাদমাধ্যমটি।
