অভিবাসন বিষয়ে মার্কিন প্রেসিডেন্ট ডোনাল্ড ট্রাম্প-এর দেওয়া নির্বাহী আদেশের বিরুদ্ধে আন্দোলন চলছে দেশটির বিমানবন্দরগুলোতে। দেশটির জন এফ কেনেডি ইন্টারন্যাশনাল এয়ারপোর্টে এই আন্দোলন চলাকালে চালকদের ওই এলাকা এড়াতে আহ্বান জানায় নিউ ইয়র্ক ট্যাক্সি শ্রমিক জোট (এনওয়াই ট্যাক্সি ওয়ার্কারস অ্যালায়েন্স)। কিন্তু সন্ধ্যা ছয়টা থেকে সাতটা পর্যন্ত আন্দোলন চলাকালে অনেক ব্যবহারকারী লক্ষ করেন ওই এলাকায় অ্যাপভিত্তিক ট্যাক্সিসেবাদাতা প্রতিষ্ঠান উবার-এর সেবা চালু রয়েছে।
এর জবাবে আন্দোলনকারীরা তাদের ফোন থেকে উবার অ্যাপ মুছে ফেলা শুরু করেন ও তার প্রমাণ ফেইসবুক আর টুইটারে পোস্ট করা শুরু করেন। সেই সঙ্গে জুড়ে দেওয়া হয় ‘ডিলিটউবার’ লেখা হ্যাশট্যাগও (#deleteUber)।
উবার-এর পক্ষ থেকে টুইটে জানানো হয়, চাহিদা বাড়লে সাধারণ সময় ভাড়া বেড়ে গেলেও এই আন্দোলনের সময় ভাড়া বৃদ্ধি রোধ করেছে প্রতিষ্ঠানটি।
ব্যবসা-বাণিজ্যবিষয়ক মার্কিন সাইট বিজনেস ইনসাইডার-কে এক মেইলে উবার জানায়, মূল্যবৃদ্ধি রোধ ব্যবসায় বাড়ানোর উদ্দেশ্যে করা হয়নি। প্রতিষ্ঠানটি বলে, “আমাদের আগের কোনো টুইট নিয়ে তৈরি হওয়া সন্দেহের জন্য আমরা দুঃখিত- এটি কোনো আন্দোলনে ব্যাঘাত ঘটানোর উদ্দেশ্যে ছিল না। আমরা চেয়েছিলাম মানুষ জেএফকে থেকে স্বাভাবিক ভাড়ায় আসা যাওয়া করতে উবার ব্যবহার করতে পারবে, বিশেষ করে গত রাতে।”
এর আগে ডোনাল্ড ট্রাম্প-এর ব্যবসায়িক উপদেষ্টা দলের সদস্য উবার প্রধান ট্রাভিস কালানিক এই নির্বাহী আদেশ নিয়ে ট্রাম্প-এর সঙ্গে কথা বলবেন বলে জানান।
