ব্লুমবার্গ বিলিয়নিয়ারস ইন্ডেক্স-এর নতুন তালিকায় দেখা গেছে বেজোস-এর সম্পদের পরিমাণ ৭৫৬০ কোটি মার্কিন ডলার। এছাড়া ফোর্বস-এর আরেকটি র‍্যাংকিংয়ে বলা হয়েছে তার সম্পদের পরিমাণ ৭৫২০ কোটি মার্কিন ডলার।
বুধবার লেনদেন চলাকালে অ্যামাজনের বাজার মূল্য বেড়েছে ৯০০ কোটি মার্কিন ডলার। এতে বেজোসের নিজের সম্পদ বেড়েছে ১৫০ কোটি মার্কিন ডলার, জানিয়েছে সিএনএন।
সম্প্রতি ব্রিটিশ ব্যাংকিং এবং আর্থিক সেবাদাতা প্রতিষ্ঠান বারক্লেই’স ঘোষণা দেয় যে, “অ্যামাজন হতে পারে প্রথম ট্রিলিয়ন-ডলার বাজার মূল্যের প্রতিষ্ঠান।” বারক্লেই’স-এর এমন ঘোষণার পরই লাফিয়ে বেড়েছে অ্যামাজনের শেয়ার মূল্য। ঘোষণার কিছু সময়ের মধ্যেই রেকর্ড মূল্যে পৌঁছায় প্রতিষ্ঠানের শেয়ার।
এই সময়ের মধ্যে আগের বছরের তুলনায় অ্যামাজনের শেয়ার মূল্য বেড়েছে ১৬ শতাংশ। আগের দিনই মধ্য প্রাচ্যের ই-কমার্স প্রতিষ্ঠান সৌক-কে কেনার ঘোষণা দেয় প্রতিষ্ঠানটি। এমন সিদ্ধান্তে খুশিই হয়েছেন বিনিয়োগকারীরা।
