বর্তমান সময়ে পরিধেয় প্রযুক্তিতে প্রতিষ্ঠানটির একমাত্র ডিভাইস অ্যাপলওয়াচ। এই খাতে মানুষের চাহিদার কথা বিবেচনা করে পরিধি বাড়ানোর সিদ্ধান্ত নিয়েছে অ্যাপল।
রয়টার্স-এর প্রতিবেদনে বলা হয়েছে, নতুন হেডসেটে ছবির পাশাপাশি অন্যান্য তথ্য দেখা যাবে। আর ডিভাইসটিতে অগমেন্টেড রিয়ালিটি প্রযুক্তি ব্যবহার করা হতে পারে বলেও জানানো হয়।
বর্তমান সময়ে আইফোন বিক্রিতে ধীর গতির কারণে ব্যবসায় বিকল্প খুঁজছে অ্যাপল। চলতি বছরের শুরুতে প্রতিষ্ঠান প্রধান টিম কুক জানান, অগমেন্টেড রিয়ালিটি ডিভাইসে বিনিয়োগ চলতে থাকবে।
হেডসেট তৈরির লক্ষ্যে পরীক্ষার জন্য অল্প পরিমাণে চোখের কাছে রাখার ডিসপ্লে অর্ডার দিয়েছে অ্যাপল। তবে, তা বড় পরিসরে উৎপাদনের জন্য যথেষ্ট নয় বলেও জানানো হয়েছে। এ নিয়ে আপাতত মন্তব্য করতে রাজী হয়নি প্রতিষ্ঠানটি।
অ্যাপলের এমন উদ্যোগ নতুন প্রযুক্তি প্রতিষ্ঠানগুলোকে এই খাতে আগ্রহ যোগাবে বলেও ধারণা করা হচ্ছে।
