সাতটি মুসলিম দেশের অভিবাসীদের নিষিদ্ধ করতে মার্কিন প্রেসিডেন্ট ডোনাল্ড ট্রাম্প-এর নির্বাহী আদেশের বিরুদ্ধে লড়াইয়ের প্রতিশ্রুতি দিয়েছে এসিএলইউ। শেষ কয়েকদিনে অনলাইনে সংস্থাটি ২৪ মিলিয়ন ডলার অনুদান সংগ্রহ করেছে বলে জানিয়েছে বিবিসি।
এর আগে অনলাইনভিত্তিক যাত্রী সেবাদাতা মার্কিন প্রতিষ্ঠান লিফট জানায়, তারা সামনের চার বছরে প্রতিষ্ঠানটিতে ১০ লাখ ডলার অনুদান দেবে।
প্রযুক্তি সাইট টেকক্রাঞ্চ-এর তথ্য অনুযায়ী, প্রায় এক হাজার টুইটার কর্মী পাঁচ লাখ ডলার অনুদান দিয়েছেন আর এর সঙ্গে মিলিতভাবে সমপরিমাণ অর্থ যোগ করেছেন প্রতিষ্ঠান প্রধান জ্যাক ডরসি ও নির্বাহী চেয়ারম্যান অমিড করডেস্টানি।
এ নিয়ে টুইটার কর্মীদের উদ্দেশ্যে পাঠানো এক ইমেইল-এ মার্কিন আইনজীবি ভিজায়া গাড্ডে বলেন, “আমাদের কাজ অনেক দূর এগিয়ে গেছে।”
