ব্যক্তিগত তথ্য শেয়ারের সময় আরও সতর্ক হতে আহ্বান জানিয়েছে প্রতিষ্ঠানটি, বলা হয়েছ আইএএনএস-এর প্রতিবেদনে।
ম্যাকাফি’র গবেষণায় জানা যায়, ৭৭ শতাংশ ভারতীয়ের ধারণা প্রযুক্তির ব্যবহার তাদের সম্পর্কের মধ্যে চলে আসছে। ৬৭ শতাংশের মতে সঙ্গীরা তাদের চেয়ে ইন্টারনেট ডিভাইসে বেশি আগ্রহী। 
এক বিবৃতিতে ম্যাকাফি’র প্রকৌশল বিভাগের ভাইস প্রেসিডেন্ট আর ব্যবস্থাপনা পরিচালক ভেনকেট ক্রিশনাপুর বলেন, “বর্তমান সময়ের সংযুক্ত জীবনধারা, দৈনিক কাজকর্ম আর ভোক্তাদের যোগাযোগগুলো প্রযুক্তি আর অ্যাপচালিত। প্রযুক্তির উপর আসক্তি ও এই নির্ভরতা ফল  হিসেবে অপরিচিতদের সঙ্গে আমাদের ব্যক্তিগত তথ্য শেয়ার হয়ে যেতে পারে।”
“মাত্রাতিরিক্ত শেয়ারিংয়ের বাস্তবতা নিয়ে আমাদের সতর্ক হওয়া আর সঠিক পদক্ষেপ নেওয়া উচিৎ।” 
গবেষণায় দেখা যায়, ৭৫ শতাংশ বা প্রতি চারজনের মধ্যে তিনজন ভারতীয় জানিয়েছেন তাদেরকে সঙ্গীর মনযোগ পেতে তাদের ডিভাইসের সঙ্গে প্রতিদ্বন্দ্বীতা করতে হয়।
একসঙ্গে থাকাবস্থায় নিজের ফোনের দিকে বেশি নজর দেওয়া নিয়ে বন্ধু, পরিবারের কোনো সদস্য বা কাছের কারও সঙ্গে তর্ক হওয়ার কথা জানিয়েছেন ৮১ শতাংশ ভারতীয়। একসঙ্গে থাকার সময় ডিভাইস ব্যবহার নিয়ে কোনো শর্ত না থাকার কথা জানিয়েছেন ৩২ শতাংশ।   
গবেষণা প্রতিবেদনে বলা হয়, “কাছের মানুষের সঙ্গে থাকার সময় ইন্টারনেট যুক্ত ডিভাইস ব্যবহার নিয়ে কড়াকড়ি ঠিক করে রাখার কথা জানিয়েছেন ২০ শতাংশ বা প্রতি পাঁচজনের একজন।”
