বৃহস্পতিবার প্রতিষ্ঠানটির পক্ষ থেকে বলা হয়, নিয়োগ দেওয়া কর্মীর মধ্যে ২৫০০০ গুদামে এবং বাকি ৫০০০ জনকে গ্রাহক সেবার কাজে লাগানো হবে-- বলা হয়েছে সিএনএন-এর প্রতিবেদনে।
সপ্তাহে অন্তত ২০ ঘন্টা কাজ করতে হয় অ্যামাজনের খণ্ডকালীন কর্মীদের। এতে কাজ করায় কিছু বাড়তি কিছু সুবিধাও দিয়ে থাকে প্রতিষ্ঠানটি। এর মধ্যে উচ্চমাত্রার চাহিদা রয়েছে এমন বিষয়ের শীক্ষার্থীদের বেশির ভাগ টিউশন ফিও দিয়ে থাকে অ্যামাজন।
ইতোমধ্যেই যুক্তরাষ্ট্রে ৪০ হাজার খণ্ডকালীন কর্মী রয়েছে প্রতিষ্ঠানটির। এ ছাড়া চলতি বছরের জানিয়ারিতেই অ্যামাজনের পক্ষ থেকে বলা হয় সামনের দেড় বছরে এক লাখের বেশি পূর্ণকালীন কর্মী নিয়োগ দেওয়া হবে। ফলে দেশটিতে প্রতিষ্ঠানটির কর্মী সংখ্যা দাঁড়াবে ২৮০০০০।
নতুন নিয়োগ দেওয়া পূর্ণকালীন বেশির ভাগ কর্মীকেই গুদামে এবং ফোন কল ধরার কাজে লাগানো হবে বলেও জানানো হয়।
