২১ বছর বয়সী রোজ অ্যানটোয়েন নামের ওই নারী সোমবার পুলিশের কাছে ১৮ বছর বয়সী ব্রিটনি গারগল-কে হত্যার দোষ স্বীকার করেছেন বলে বুধবার বিবিসি’র প্রতিবেদনে উল্লেখ করা হয়েছে। 
কানাডার সাসকাটন-এ গারগল-কে মৃত অবস্থায় পাওয়া যায়। মৃতদেহে অ্যানটোয়েন-এর বেল্ট পাওয়া যায় বলে আইএএনএস-এর প্রতিবেদনে উল্লেখ করা হয়।
হত্যার অভিযোগে অ্যানটোয়েন্ট-কে সাত বছরের কারাদণ্ড দেওয়া হয়েছে।  
অভিযুক্ত আসামি জানিয়েছেন, তারা দুজনেই মাতাল অবস্থায় ছিলেন আর তাদের মধ্যে উত্তপ্ত বাক্য বিনিময় হয়েছিল। গারগল-এর মৃত্যুর জন্য অ্যানটোয়েন দায়ী বলে তিনি দোষ স্বীকার করলেও, তিনি গারগল-কে হত্যার কথা মনে করতে পারেননি।  
