স্টিভ টিলার নামের ওই বার-মালিক তার বার 'জিন টাব'-এর ছাদে আর দেওয়ালে তামার তারের জাল এবং সিলভার ফয়েল ব্যবহার করেছেন। এগুলো ফোনের সিগন্যাল ব্লক করে দেবে। ফলে মানুষ চাইলেও বারে থাকা অবস্থায় সামাজিক মাধ্যমে যোগাযোগ বা কোনো রকম ফোনালাপে অংশ নিতে পারবেন না।
তিনি জানান, মানুষ আসছে আর সামনে থাকা মানুষের সঙ্গে কথা না বলে সামাজিক মাধ্যমের দিকে বেশি জোর দিচ্ছে। প্রতিনিয়ত এমন ঘটনা দেখে তিনি বিকল্প উপায় ভাবতে তাড়িত হয়েছেন।
বিবিসি-কে তিনি বলেন, "আমি জ্যামার দিয়ে ফোনের সিগন্যাল ব্লক করতে পারতাম। তবে, তার চেয়ে বেশি কার্যকরি হয়েছে এই 'ফ্যারাডে কেইজ'। এই ব্যবস্থার ফলে মানুষ নিজেদের মধ্যে কথা বলতে উৎসাহিত হচ্ছেন এবং আমি ঠিক যেমনটি চেয়েছিলাম তা সফল হয়েছে।"
টেইলর জানান, স্মোকিং জোনের মতো জরুরি ফোন করার জন্য বারের বাইরে মোবাইল ফোনের একটি জোন রাখার পরিকল্পনা তার রয়েছে।
