মঙ্গলবার বিটমোজি নামের ইমোজি ফিচারের নির্মাতা প্রতিষ্ঠানের সঙ্গে এক চুক্তির ঘোষণা দেয় স্ন্যাপচ্যাট। স্ন্যাপচ্যাট ব্যবহারকারীরা এখন কাস্টম ইমোজি বানাতে সক্ষম হবেন আর ওই ইমোজি অ্যাপের মাধ্যমে বার্তালাপে ব্যবহারও করতে পারবেন বলে এক প্রতিবেদনে জানিয়েছে মার্কিন সংবাদমাধ্যম সিএনবিসি। 
ওই প্রতিবেদনে জানা যায়, স্ন্যাপচ্যাট চলতি বছরের শুরুতে বিটমোজি-এর নির্মাতা প্রতিষ্ঠান বিটস্ট্রিপস-কে কিনে নিয়েছে, আর সর্বশেষ ঘোষণায় এটি নিশ্চিত হয়েছে।
বিটমোজি কাস্টম ইমোজি দিয়ে বানানো এক কমিক বুক-এর মতো করে দেওয়া এক ব্লগপোস্টে স্ন্যাপচ্যাটের পক্ষ থেকে বলা হয়, "আমরা বিটমোজি দল আর তাদের চমৎকার পণ্যগুলোর সঙ্গে প্রেমে পড়েছি আর আমরা এদেরকে স্ন্যাপচ্যাট পরিবারের নতুন অংশ হিসেবে স্বাগত জানাতে আনন্দিত।" 
বিটমোজির মাধ্যমে ব্যবহারকারীরা এখন থেকে নিজেদের ইচ্ছামতো ইমোজি বানাতে পারবেন। ব্যবহারকারীরা তাদের স্ন্যাপচ্যাট অ্যাকাউন্ট-কে বিটমোজি'র সঙ্গে একীভূত করতে পারবেন আর নিজেদের ইচ্ছামতো বানানো ইমোজিগুলো তাদের স্ন্যাপের সঙ্গে পাঠাতে পারবেন। 
