বিবিসি জানায়, বর্তমানে মোট ১৬টি প্লেন নিয়ে গঠিত অ্যামাজনের আকাশপথে ক্রমবর্ধমান পরিবহন সেবাকে পুরোপুরিভাবে প্রতিষ্ঠানটির নিয়ন্ত্রণে রাখতে এ হাব নির্মাণের পরিকল্পনা করেছে প্রতিষ্ঠানটি। এটি নির্মাণে দেড়শ’ কোটি ডলার ব্যয় হবে এবং এতে দুই হাজারেরও বেশি লোকের কর্মসংস্থান হবে।
এ সিদ্ধান্তের মাধ্যমে অ্যামাজন নিজেদের পণ্য পরিবহণ ও বাছাইকরণে সম্পূর্ণ আত্মনির্ভরশীল হওয়ার পথে আরও এক ধাপ এগিয়ে গেল বলে জানিয়েছে বিবিসি। বর্তমানে প্রতিষ্ঠানটি ভোক্তাদের হাতে পণ্য পৌঁছে দিতে ইউনাইটেড পার্সেল সার্ভিসেস ও ফেডএক্স সহ ৩০টি পরিবহন প্রতিষ্ঠানের ওপর নির্ভরশীল, যাতে ব্যয়ের পরিমাণ নেহায়েত কম নয়।
কেন্টাকি গভর্নর ম্যাট বেভিন এ কার্গো হাব নির্মাণের পরিকল্পনাকে "রোমাঞ্চকর" হিসেবে উল্লেখ করে বলেন, "কেন্টাকির অবস্থানগত উপযুক্ততা, অ্যামাজনের সঙ্গে আমাদের প্রায় ২০ বছরের সম্পর্কের মূল ভিত্তি হিসেবে কাজ করেছে। নতুন এ প্রকল্পটি শুধু প্রতিষ্ঠানটির জন্যই নয়, এ প্রদেশের জন্যও সুফল বয়ে আনবে এবং এর কর্মসংস্থান ও অর্থনৈতিক প্রভাবের জন্য আমরা কৃতজ্ঞ।" এ হাব প্রাদেশিক অর্থনীতি ও ব্যবসা-বাণিজ্যের জন্য যুগান্তকারী পরিবর্তন নিয়ে আসবে বলে মন্তব্য করেন কেন্টাকি বিমানবন্দরের প্রধান নির্বাহী ক্যানডেইস ম্যাকগ্র।
