এর আগে বিশ্বের শীর্ষ স্মার্টফোন নির্মাতা স্যামসাং ইলেক্ট্রনিক্স স্যামসাং এসডি আই আর চীনের অ্যামপেরেক্স থেকে গ্যালাক্সির জন্য ব্যাটারি নিয়েছিল।
সরকারি এক কর্মকর্তার উদ্ধৃতি থেকে জানা যায়, ৯০ শতাংশ সম্ভাবনা রয়েছে এমন চুক্তির, যার মাধ্যমে স্যামসাং এলজি কেম থেকে ব্যাটারি নিতে পারে।
এলজি কেম-এর মুখপাত্র এই ব্যাপারে কোন মন্তব্য করতে চাননি।  স্যামসাং ইলেক্ট্রনিক্সের পক্ষ থেকেও  তাৎক্ষণিক কোনো মন্তব্য জানানো হয়নি বলে জানিয়েছে রয়টার্স।
এলজি কেম বর্তমানে তাদের অধিভুক্ত এলজি এবং মার্কিন যুক্তরাষ্ট্রের প্রতিষ্ঠান অ্যাপল ইনকর্পোরেটেডের জন্য ফোনের ব্যাটারি বানাচ্ছে বলে জানিয়েছেন বিশ্লেষকরা।
