বৃহস্পতিবার এশিয়া, ইউরোপ, আর যুক্তরাষ্ট্রে নতুন এই মামলাগুলো করা হয়েছে বলে জানিয়েছে রয়টার্স।
এর আগে বুধবার অ্যাপল ৩২টি পেটেন্ট লঙ্ঘনের অভিযোগ এনে অ্যাপলের বিরুদ্ধে কয়েকটি মামলা করার কথা জানায় এক সময় মোবাইল ফোন বাজারে আধিপত্য বিস্তার করা প্রতিষ্ঠানটি। বৃহস্পতিবার নোকিয়া জানায়, তারা ১১টি দেশে মার্কিন প্রতিষ্ঠানটির বিরুদ্ধে মোট ৪০ টি পেটেন্ট মামলা করেছে।
অ্যাপলের সঙ্গে আইনি লড়াই নিয়ে নোকিয়াকে কয়েকজন বিশ্লেষক সতর্ক করেছেন বলেও জানিয়েছে রয়টার্স। আর এর প্রতিফলন দেখা যায় বৃহস্পতিবারই, এ দিন নোকিয়ার প্রতি শেয়ারের মূল্য পাঁচ শতাংশ কমে ৪.৪৯৬ ইউরোতে এসে দাঁড়ায়। 
বুধবার মামলা দায়েরের পর এক বিবৃতিতে নোকিয়া বলে, “২০১১ সাল থেকে নোকিয়া টেকনোলজিস-এর পোর্টফোলিও থেকে কিছু পেটেন্ট নিয়ে লাইসেন্স করতে সম্মত হওয়ার পর থেকে, অ্যাপল নোকিয়ার পক্ষ থেকে দেওয়া অন্যান্য পেটেন্টগুলোর লাইসেন্স করার প্রস্তাবগুলো ফিরিয়ে দেয়, পরে এই পেটেন্ট করা উদ্ভাবনগুলো অ্যাপলের অনেক পণ্যে ব্যবহার করা হয়েছে।”
