এই ফিচার ব্যবহারকারীদের তাদের ছবি মুছে দেওয়া থেকে বিরত রাখবে ও কিছু ছবি শেয়ার তাদের জন্য আরও সহজ করবে বলে আশা প্রকাশ করেছে ইনস্টাগ্রাম। বুধবার এক বিবৃতিতে প্রতিষ্ঠানটি বলে, “আপনি কী তা আপনার প্রোফাইল থেকে প্রকাশ পায় আর এটি সময়ের সঙ্গে বদলায়। আর্কাইভ ফিচারের মাধ্যমে আপনি আগের মূহুর্তগুলো ধরে রাখার সঙ্গে নিজের মতো করে প্রোফাইল সাজানোর সুযোগ পাবেন।”
এই ফিচার কোনো ব্যবহারকারীকে তার প্লাটফর্মে আগে শেয়ার করেছেন এমন পোস্ট না মুছে লুকিয়ে ফেলার সুযোগ দেবে। এই পোস্টগুলো আর্কাইভ সেকশনে সরিয়ে দিলে এগুলো শুধু ব্যবহারকারী নিজেই দেখতে পাবেন।
আইএএনএস-এর প্রতিবেদনে বলা হয়, ‘আর্কাইভ’ ফিচারটির সঙ্গে ২০১৬ সালে স্ন্যাপচ্যাটে আনা ‘মেমোরিজ’ ফিচারের সাদৃশ্য রয়েছে।
স্ন্যাপচ্যাটের ফিচার নকল করাটা নতুন কিছু নয়। সাম্প্রতিক সময়ে ভাইবার, হোয়াটসঅ্যাপসহ অন্যান্য আরও কয়েকটি মেসেজিং অ্যাপ স্ন্যাপচ্যাটের ফিচার নকল করেছে বলে অভিযোগ উঠেছে। আর ফেইসবুক এবং ইনস্টাগ্রাম এর আগেও এটির বেশ কিছু ফিচার নকল করেছে।
