৫ ইঞ্চির স্মার্টফোনটির দাম নির্ধারণ করা হয়েছে ৫১৯০ টাকা। এই স্মার্টফোনটি সারাদেশে বাংলালিংক ও অ্যালকাটেল আউটলেটসমূহে পাওয়া যাচ্ছে।
অপারেটিং সিস্টেম হিসেবে ব্যবহার করা হয়েছে অ্যান্ড্রয়েড মার্শমেলো। ১.৩ গিগাহার্টজ কোয়াড কোর প্রসেসর নির্ভর এই স্মার্টফোনে দ্রুত ডেটা প্রসেস ও সাবলীল মাল্টিটাস্কিং সুবিধা পাওয়া যাবে বলে বিডিনিউজ টোয়েন্টিফোর ডটকম-কে জানিয়েছে প্রতিষ্ঠানটি।
হ্যান্ডসেটটির ইন্টারনাল স্টোরেজ ৮ জিবি, যা মাইক্রো এসডি দিয়ে ৩২ জিবি পর্যন্ত বাড়ানো যাবে। এর র‌্যাম ১ জিবি। ফোনটিতে থাকছে ডুয়াল সিম ব্যবহারের সুযোগ।
ফোনটিতে রয়েছে ৮ মেগাপিক্সেলের রিয়ার ক্যামেরা। রিয়ার ক্যামেরায় রয়েছে ফ্ল্যাশ, ক্যামেরা এবং ভিডিও জুম, এইচডিআর, প্যানোরামা, ফটো এডিটর, ফটো লাইভ ফিল্টার, জিও ট্যাগ, পোলারয়েড ফিল্টার সুবিধা, রয়েছে ৫ মেগাপিক্সেলের ফ্রন্ট ক্যামেরা।
পরিবেশক ইরাসেল লিমিটেডের কান্ট্রি ম্যানেজার সিজু চেরভালাত বলেন,  "আমাদের বিশ্বাস, স্মার্টফোন ব্যবহারকারীর জন্য অ্যালকাটেল পিক্সি ৪ মডেল যুগান্তকারী উদ্ভাবন।"
স্মার্টফোনটিতে রয়েছে দীর্ঘক্ষণ চার্জ ধরে রাখার জন্য ২০০০ এম এ এইচ ক্ষমতাসম্পন্ন ব্যাটারি। ফোনটিতে রয়েছে, ওয়াই ফাই, ব্লুটুথ, ২জি ও ৩জি, মাইক্রো সিম ও ইএপি সিম।
