এর মাধ্যমে মার্কিন গ্রাহকরা পেইপাল অ্যাকাউন্ট ব্যবহার করে মেসেঞ্জারে অর্থ পাঠাতে বা অর্থের জন্য অনুরোধ করতে পারবেন, বলা হয়েছে ভারতীয় সংবাদমাধ্যম আইএএনএস-এর প্রতিবেদনে।
বর্তমানে ‘পিয়ার-টু-পিয়ার’ লেনদেন ব্যবস্থায় শীর্ষে রয়েছে পেইপাল। চলতি বছরের তৃতীয় প্রান্তিকে এতে মোট লেনদেন হয়েছে ২৪০০ কোটি মার্কিন ডলার, যা এক বছর আগের চেয়ে ৪৭ শতাংশ বেশি।
পেইপাল-এর পক্ষ থেকে এক বিবৃতিতে বলা হয়, “ক্যাবের বিল ভাগ করে নেওয়া বা রাতে পার্টির মূল্য নেওয়া, ভাড়ার জন্য অর্থ ভাগ করা বা মায়ের জন্য জন্মদিনের উপহার কেনার মূল্য পরিশোধ করা, পেইপাল বন্ধু ও পরিবারের সদস্যদের মধ্যে অর্থ আদান প্রদান সহজ করেছে।”
আগের বছর ফেইসবুক মেসেঞ্জারের সঙ্গে অংশীদারিত্ব করে পেইপাল। এই চুক্তির ফলে মার্কিন যুক্তরাষ্ট্রের ২৫ লাখ গ্রাহক তাদের পেইপাল অ্যাকাউন্ট মেসেঞ্জারে যোগ করতে পারবেন বলে জানানো হয়। এর মাধ্যমে গ্রাহক মেসেঞ্জারে কেনাকাটা করতে পারবেন বলেও উল্লেখ করা হয়।
মেসেঞ্জারে কোনো একজন ব্যক্তি বা দলের মধ্যে বার্তা লেখার সময় গ্রাহক নীল রঙের ‘প্লাস’ আইকন চেপে সেখান থেকে সবুজ পেমেন্ট বাটন ব্যবহার করে দ্রুত অর্থ পাঠাতে বা অর্থের জন্য অনুরোধ করতে পারেবন।
