প্রতিষ্ঠানের তৈরি কিছু ডিজেলচালিত গাড়ির ধোঁয়া নির্গমণ ব্যবস্থায় জালিয়াতির অভিযোগ আনা হয়। ফোকসভাগেন-এর ৪৭৫০০০টি পরিবেশ দূষণকারী গাড়ির মালিকদের ক্ষতিপূরণের মামলায় এই পারিশ্রমিক পরিশোধে রাজী হয়েছে প্রতিষ্ঠানটি, জানিয়েছে রয়টার্স।
চলতি বছরের অগাস্টে আইনজীবীরা হাজার কোটি ডলারের এই মামলায় খরচ আর মামলা মিমাংসাবাবদ ৩৩ কোটি ২৫ লাখ মার্কিন ডলার দাবি করে। এতে ২.০-লিটারের পরিবেশ দূষণকারী গাড়ির মালিকরা পুনরায় তাদের গাড়ি ফোকসভাগেনের কাছে বিক্রি করার সুযোগ পাবেন।
মামলার রায় অনুসারে মালিকদের ক্ষতিপূরণ দিতে ১৬৭০ কোটি ডলার খরচ করবে প্রতিষ্ঠানটি।
২০১৫ সালে ফোকসভাগেন গাড়ির ধোঁয়া নির্গমণের ফলে পরিবেশ দূষণের মাত্রা পরীক্ষায় জালিয়াতি করতে বিশেষ সফটওয়্যার ত্রুটি ‘ব্যবহার’ করার কথা স্বীকার করে। ২০০৯ সাল থেকে বিক্রি করা এ সব গাড়ি পরিবেশ দূষণের অনুমোদিত মাত্রার তুলনায় মাত্র আড়াই শতাংশ দেখায়।
