পুলিশের বরাতে স্থানীয় সংবাদপত্র চার্লসটন পোস্ট অ্যান্ড কুরিয়ায়-এর প্রতিবেদনে বলা হয়েছে, একজন শিক্ষানবিশ ওই এলাকার ডেনিয়েল আইল্যান্ড-এ গাছগুলোর ১৫ মিটার উপর দিয়ে হেলিকপ্টার চালানোর অনুশীলন করছিলেন। এমন সময় তিনি দেখেন তাদের দিকে একটি কোয়াডকপ্টার উড়ে আসছে। সঙ্গে সঙ্গে হেলিকপ্টারের নিয়ন্ত্রণ নেন প্রশিক্ষক। কিন্তু হেলিকপ্টারের লেজের রোটর একটি গাছকে আঘাত করে। এর ফলে হেলিকপ্টারটি মাটিতে পড়ে এর এক পাশে কাত হয়ে যায়।
যুক্তরাষ্ট্রের ন্যাশনাল ট্রান্সপোর্টেশন সেইফটি বোর্ড-এর পক্ষ থেকে বলা হয়, চালকের দেওয়া প্রতিবেদন “তারা এখনও আলাদাভাবে যাচাই করেনি।”
হেলিকপ্টারের সঙ্গে ধাক্কা লাগা ড্রোনটি একটি ডিজেআই ফ্যানটম ছিল বলে ধারণা করা হচ্ছে, খবর বিবিসি’র। প্রতিষ্ঠানটির পক্ষ থেকে বলা হয়, “ডিজেআই এই ঘটনা সম্পর্কে আরও জানতে চেষ্টা করছে আর তারা তদন্তকারীদের সহায়তা করতে প্রস্তুত।” প্রতিষ্ঠানটি বলে, প্রচলিত আকাশযানগুলোকে ‘এড়িয়ে চলা’ নিশ্চিত করতে ড্রোন মালিকদের সহায়তাও করে তারা।  
