তিনি জানান, মার্কিন যুক্তরাষ্ট্রের নতুন সরকারের প্রথম বার্তা দেশটির প্রযুক্তি প্রতিষ্ঠানগুলোর জন্য বিদেশী বাজার ও সম্পদে প্রবেশে বাধা আসতে পারে, বিশেষ
“আমাদের সঙ্গে চীনের সম্পর্কে আমূল পরিবর্তন আসছে এবং ভবিষ্যতে মনে হয় না ভাল দিকে যাবে।”
বিনিয়োগকারীর জন্য সবচেয়ে ক্ষতিকর অবস্থা হচ্ছে ৭০ বছর ধরে থাকা বৈশ্বিক চুক্তিগুলো বন্ধের আশংকা। ডোনাল্ড ট্রাম্প ট্রান্স-প্যাসিফিক পার্টনারশিপ (টিপিপি) চুক্তি বিচ্ছিন্ন করছেন। এই চুক্তির ওপর নির্ভর করে আছে মার্কিন যুক্তরাষ্ট্রসহ আরও ১১টি দেশের মধ্যে বাণিজ্যিক সম্পর্ক।
তিনি বলেন, “আমরা যদি টিপিপি চুক্তি হারাই মার্কিন প্রতিষ্ঠানগুলোকে রক্ষা করা সম্ভব হবে না।”
