মার্কিন সাময়িকী ফোর্বস-এ শুক্রবার প্রকাশিত এক প্রতিবেদনের বরাতে ভারতীয় সংবাদমাধ্যমটি জানায়, একজন ব্যবহারকারী উইন্ডোজ আপডেট চালানোর চেষ্টা করলে, উইন্ডোজ নতুন আপডেট সন্ধানে ব্যর্থ হয়। সেই সঙ্গে “কোড ৮০২৪০০৩৭ উইন্ডোজ আপডেট একটি অজানা এররের মুখোমুখি হয়েছে” লেখা মেসেজ পাঠানো হয়।
প্রতিবেদনে মাইক্রোসফট-এর মুখপাত্রের উদ্ধৃতি দিয়ে বলা হয়, “যেহেতু নতুন সিলিকন প্রজন্ম এসে গেছে, এগুলোতে সাপোর্ট-এর সর্বশেষ উইন্ডোজ প্লাটফর্ম দরকার হবে। এর মাধ্যমে উইন্ডোজ আর সিলিকন-এর গভীর সমন্বয়ে আমাদের মনোযোগ দিতে সুযোগ সৃষ্টি হবে। এ ক্ষেত্রে আগের প্রজন্মের সিলিকন আর প্লাটফর্মের মধ্যে সর্বোচ্চ নির্ভরযোগ্যতা আর সামঞ্জস্য বজায় রাখা হবে।”
ওই প্রতিবেদনে বলা হয়, “এই কৌশলে ব্যবহারকারীদের উপকারিতা রয়েছে, তবে সেইসঙ্গে এর মানে হচ্ছে মাইক্রোসফট ব্যবহারকারীদের হাত থেকে নিয়ন্ত্রণের একটি উপায় সরিয়ে নিচ্ছে।”
চলতি বছর জুলাই থেকে ইনটেল-এর স্কাইলেইক প্রসেসরে আর উইন্ডোজ ৭ ও ৮ কাজ করবে না।
