গত একটি মাস প্রযুক্তি জগতে তোলপার হয়েছে স্যামসাংয়ের এই ফ্ল্যাগশিপ মডেলের ফোন নিয়ে। বাজার থেকে যাবতীয় নোট ৭ ফোন তুলে নিয়ে নতুন ফোন আনা হয়েছে দোকানের শেলফে। গ্রিন তার ফেনটি কিনেছিলেন মোবাইল অপারেটর এটিঅ্যান্ডটি’র কাছ থেকে। ওই ফোনে একটি বর্গাকার চিহ্ন ছিল, যার মানে হচ্ছে এটি নতুন সিরিজের যা স্যাসাংয়ের ভাষায়- ‘অগ্নিঝুঁকি থেকে মুক্ত’।
আগুন ধরেছে সেই নতুন ফোনেও। সাউথওয়েস্ট এয়ারলাইন্স-এর ফ্লাইট ৯৪৪ যুক্তরাষ্ট্রের কেন্টাকি অঙ্গরাজ্যের লুইসভ্যালি থেকে মেরিল্যান্ড অঙ্গরাজ্যের বাল্টিমোর শহরের জন্য যাত্রার প্রস্তুতি নিচ্ছিল। ওই হ্যান্ডসেটে আগুন ধরে ধোঁয়া বের হতে থাকলে প্লেন থেকে সব যাত্রীকে প্রধান কেবিন ডোর দিয়ে বের করে দেওয়া হয়। কেউ এই ঘটনায় আহত হননি বলে প্রযুক্তি সাইট ভার্জকে জানান এয়ারলাইন্স-এর একজন মুখপাত্র।
হ্যান্ডসেটের মালিক ব্রায়ান গ্রিন নিশ্চিত করেন মার্কিন টেলিযোগাযোগ সেবাদাতা প্রতিষ্ঠান এটিঅ্যান্ডটি থেকে ২১ সেপ্টেম্বর কেনা স্মার্টফোনটি নতুন সংস্করণের একটি ছিল। তিনি একটি ছবি দেখান, যাতে কালো বর্গাকার চিহ্ন দেখা যায়। এর মানে এটি হচ্ছে বদলি করা নোট ৭, এতে একটি সবুজ ব্যাটারির চিহ্ন ছিল বলেও জানান তিনি।
দক্ষিণ কোরীয় প্রযুক্তিপণ্য নির্মাতা প্রতিষ্ঠান স্যামস্যাংয়ের সঙ্গে যোগাযোগ করার চেষ্টা করা হলেও, প্রতিষ্ঠানটি এই দুর্ঘটনার সম্পর্কে এখনও পর্যন্ত কোনো মন্তব্য করেনি বলে জানিয়েছে ভার্জ।
