স্থানীয় লেজার প্রিন্টার বাজারে মার্কিন প্রতিষ্ঠানটির আধিপত্যের বিষয়টি মাথায় রেখে চুক্তিতে কিছু সীমাবদ্ধতা রেখেছে চীন। এই চুক্তিতে ১১০ কোটি মার্কিন ডলারে স্যামসাংয়ের প্রিন্টার ব্যবসা কিনবে এইচপি, বলা হয়েছে রয়টার্স-এর প্রতিবেদনে।
সাড়ে পাঁচ হাজার কোটি মার্কিন ডলারের প্রিন্টিং বাজারে নিজদের অবস্থান মজবুত করতেই স্যামসাংয়ের সঙ্গে চুক্তির ঘোষণা দেয় এইচপি। এর মাধ্যমে মাল্টিফাংশান প্রিন্টার এবং মোবাইল ও ক্লাউড প্রিন্টিং প্রযুক্তিতে নজর দেওয়ার প্রয়াশ করছে এইচপি।
চুক্তি ঘোষণার সময় ধারণা করা হয়েছিল নীতি নির্ধারকদের পর্যালোচনাসহ ১২ মাসের মধ্যে চুক্তি বাস্তবায়িত হবে।
বৃহস্পতিবার এক বিবৃতিতে চীনা বাণিজ্য মন্ত্রণালয় জানায়, “চীনে এইচপি’র এ৪ ফরম্যাট লেজার প্রিন্টার বিক্রয় স্বচ্ছ ও যৌক্তিক শর্তের ওপর হওয়া উচিত এবং প্রতি ছয় মাসে প্রতিষ্ঠানটিকে অবশ্যই তাদের মূল্য এবং আনুষঙ্গিক ডেটা মন্ত্রণালয়ে জানাতে হবে।”
চীনে আর অন্য কোনো এ৪ প্রিন্টার প্রস্তুতকারক প্রতিষ্ঠানের শেয়ার কিনতে পারবে না এইচপি। এমনকি তারা যদি ক্ষুদ্র পরিসরে বিনিয়োগ করতে চায় সেটিও পারবে না।
এর পাশাপাশি তাদের প্রিন্টারে তৃতীয় পক্ষের পণ্য ব্যবহারে কোনো সীমাবদ্ধতা দিতে পারবে না এইচপি। আর তৃতীয় পক্ষের পণ্য ব্যবহার করা যাবে না বিজ্ঞাপনে এমন দাবিও করতে পারবে না প্রতিষ্ঠানটি।
চলতি বছরের চতুর্থ প্রান্তিকের মধ্যে চুক্তি বাস্তবায়িত হবে বলে আশা করা হচ্ছে। ডিসেম্বরের ৩১ তারিখ শেষ হবে বছরের চতুর্থ প্রান্তিক।
চুক্তির আওতায় ৬৫০০ এর বেশি প্রিন্টিং পেটেন্ট এবং ১৩০০ এর মতো গবেষক ও প্রকৌশলীর মেধাসত্ত্ব সম্পত্তির পোর্টফলিও পাবে এইচপি।
