পরবর্তী আইফোন নিয়ে আভাস দেওয়া হতে পারে- ইভেন্টটি নিয়ে থাকা সব ধারণার মধ্যে এটিই শীর্ষে আছে, বলা হয়েছে আইএএনএস-এর প্রতিবেদনে।
মার্কিন সাইট ভার্জ-এর প্রতিবেদন মতে, পরবর্তী আইওএস, ম্যাকওএস, টিভিওএস আর ওয়াচওএস-এর বিষয়ে ঘোষণা দেবে অ্যাপল। এতে বলা হয়, “অ্যাপলের চার বড় প্লাটফর্ম বাৎসরিক চক্রে বের হয়ে থাকে, যার ঘোষণা জুনে দেওয়া হয়, তারপর ডেভেলপাররা এগুলো নিয়ে ঘাঁটেন আর শরতে এগুলো বের করা হয়। এ বছরও ভিন্ন হওয়ার কথা নয়।”
এর আগে ব্লুমবার্গ-এর এক প্রতিবেদনে বলা হয়, আইওএস ১১-এ “একটি আপডেটেড ইউজার ইন্টারফেইস আনা হতে পারে।”
অ্যাপল পুরো অপারেটিং সিস্টেমের জন্য একটি ‘ডার্ক মোড’ নিয়ে কাজ করছে। এদিকে, অ্যাপল ওএলইডি আইফোন আনবে বলেও গুঞ্জন রয়েছে, এই গুঞ্জন সত্য হলে ডার্ক মোডের মাধ্যমে ব্যাটারির খরচ কমানো যাবে। 
অ্যাপল তাদের মেইল আর সাফারি’র মতো অ্যাপগুলোও আপডেট করতে পারে, এক্ষেত্রে স্টাইলাস ব্যবহারের সুযোগ আনা হতে পারে। আইপ্যাডে একাধিক ব্যবহাকারীর অ্যাকাউন্ট খোলার সুযোগ দেওয়া হতে পারে। 
স্যামসাং পে আর এলজি পে-এর সাফল্য দেখে অ্যাপল তাদের লেনদেন সেবাদাতা অ্যাপ অ্যাপল পে আরও উন্নত করতে পারে। 
২০১৬ সালে গুগল অ্যাসিস্ট্যান্ট অ্যাপলের ডিজিটাল অ্যাসিস্ট্যান্ট সিরি’র সঙ্গে ভালো পাল্লা দিয়েছে। এ বছর স্যামসাং তাদের বিক্সবি নামের নতুন ডিজিটাল অ্যাসিট্যান্ট আনায় এ খাতে প্রতিযোগিতা অন্য মাত্রায় চলে গেছে। প্রতিদ্বন্দ্বীদের সঙ্গে পাল্লা দিতে অ্যাপল তাদের সিরি-কে আরও উন্নত করবে বলে ধারণা করা হচ্ছে।
