শুক্রবার ব্যবসা-বাণিজ্যবিষয়ক মার্কিন দৈনিক ওয়াল স্ট্রিট জার্নাল-এর এক প্রতিবেদনে জানা যায়, চলতি শরতেই ১২৯.৯৯ মার্কিন ডলার মূল্যে 'সীমিত পরিমাণে' এই ডিভাইস বিক্রি করা হবে।
প্রযুক্তিভিত্তিক সাইট ব্লুমবার্গ জানিয়েছে, কালো, ধূসর আর কোরাল- একই আকারের এই তিনটি ভিন্ন রঙে সানগ্লাসটি পাওয়া যাবে। ব্যবহারকারী সানগ্লাসের কোণায় থাকা একটি বোতামে চেপে সর্বোচ্চ দশ সেকেন্ড পর্যন্ত ভিডিও রেকর্ড করতে পারবেন, যা স্মার্টফোনে তারবিহীনভাবেই পাঠানো যাবে।
স্ন্যাপচ্যাটের প্রধান নির্বাহী ও প্রতিষ্ঠানটির সহ-প্রতিষ্ঠাতা ইভান স্পিগেল অন্তত ২০১৫ সাল থেকে পরীক্ষামুলকভাবে এই ডিভাইস ব্যবহার করছেন বলেও জানা যায়।
লস অ্যাঞ্জেলসভিত্তিক এই প্রতিষ্ঠানে এই বছর বিনিয়োগকারীরা প্রায় ১৮০ কোটি মার্কিন ডলার বিনিয়োগ করেছেন। বৃহত্তর পদক্ষেপের অংশ হিসেবে তাই প্রতিষ্ঠানটি তাদের নাম পরিবর্তন করে 'স্ন্যাপ ইনকর্পোরেটেড' রাখতে যাচ্ছে।
