লাভ আর বিক্রি কমে গেলেও, এই আর্থিক প্রতিবেদনের হিসাব অনুযায়ী ওই প্রান্তিকে প্রতিদ্বন্দ্বী প্রতিষ্ঠানকে ছাপিয়ে গেছে ফিনিশ প্রতিষ্ঠানটি। অ্যালকাটেল-লুসেন্ট-কে কেনার পর থেকে খরচ কমাতে থাকায় মন্দা বাজারেও সুইডিশ প্রতিদ্বন্দ্বীদের সঙ্গে পাল্লা দিতে পেরেছে নোকিয়া, জানিয়েছে রয়টার্স।
এক বছর আগের তুলনায় নোকিয়ার তৃতীয় প্রান্তিকের মোট লাভ ১৮ শতাংশ কমে ৫৫ কোটি ৬০ লাখ ইউরো হয়েছে। যদিও বিশ্লেষকদের গড় পূর্বাভাস আরও কম ছিল- ৪৩ কোটি ইউরো।
প্রতিষ্ঠানটির মোট আয়ের পরিমাণ এক বছর আগের থেকে সাত শতাংশ কমে ৫৯৫ কোটি ইউরোতে এসে ঠেকেছে। এর মধ্যে নেটওয়ার্কিং সামগ্রী বিক্রি থেকেই প্রাপ্ত আয়ে ১২ শতাংশ কমে ৫৩২ কোটি ইউরো হয়েছে।    
অন্যদিকে চলতি সপ্তাহে নতুন প্রধান নির্বাহী নিয়োগ দেওয়া এরিকসন একই প্রান্তিকে তাদের আয় ৯৪ শতাংশ কমে যাওয়ার কথা জানিয়েছে।
বাজার গবেষণা প্রতিষ্ঠান ইনডেরেস ইকুইটি রিসার্চ-এর বিশ্লেষক মিকায়েল রটানেন বলেন, "নেটওয়ার্ক ব্যবসায় নোকিয়া অত্যন্ত ভাল লাভ অর্জনের জন্য সমর্থ ছিল।" তিনি আরও বলেন, "আয় কমে যাওয়ার ধারাটা দুই প্রতিষ্ঠানের জন্য একই রকম ছিল, কিন্তু নোকিয়া নিজেদের কার্যক্ষমতার উন্নতি অব্যাহত রাখার মাধ্যমে বাজারে কমতে থাকা চাহিদার জন্য ভালোভাবে (এরিকসন-এর থেকে) প্রস্তুত ছিল।"
