এনবিসি ইউনিভার্সাল-এর সঙ্গে মার্কিন যুক্তরাষ্ট্রের অনেক প্রধান বিজ্ঞাপনদাতাদের সুসম্পর্ক রয়েছে বলে জানিয়েছে রয়টার্স। এই চুক্তি চলতি বছরের শুরুর দিকে স্ন্যাপচ্যাট-এর সঙ্গে ভায়াকম-এর একই ধরনের আরেকটি চুক্তির কথা স্মরণ করিয়ে দেয়। চুক্তি অনুযায়ী ভায়াকম স্ন্যাপচ্যাটের পক্ষে বিজ্ঞাপন বিক্রয় করবে।
অ্যাপল এর আইএড অ্যাপ্লিকেশন বিজ্ঞাপন নেটওয়ার্ক-এর মাধ্যমে অ্যাপল নিউজের অবিক্রিত বিজ্ঞাপন ব্যবহার করা হত। চলতি বছরের জুনে তা বন্ধ করে দেওয়ার পর থেকে প্রতিষ্ঠানটির কোনো নিজস্ব বিজ্ঞাপন বিক্রেতা দল নেই।
ব্যবসা-বাণিজ্যবিষয়ক মার্কিন দৈনিক ওয়াল স্ট্রিট জার্নাল ও আরেক মার্কিন দৈনিক নিউ ইয়র্ক টাইমস-এর মতো অ্যাপটির অন্যান্য প্রকাশক আগের মতোই তাদের নিজস্ব বিজ্ঞাপন বিক্রয় করতে পারবে এবং আয় করতে সক্ষম হবে। কিন্তু এনবিসি ইউনিভার্সাল এখন অ্যাপলের থেকেও আসা বিজ্ঞাপন বিক্রয় করবে।
এনবিসি ইউনিভার্সাল জানায়, তারা অ্যাপ্লিকেশনটির জন্য নতুন বিজ্ঞাপন পণ্যে অ্যাপলের সঙ্গে একযোগে কাজ করবে। নিউজ আপ্লিকেশনটির জন্য এনবিসি ইউনিভার্সাল প্রতিষ্ঠানটির জ্যেষ্ঠ ভাইস প্রেসিডেন্ট জেমস ক্রেকলার-এর নেতৃত্বে একটি নতুন নিবেদিত বিক্রয় ইউনিট গঠন করবে বলে জানিয়েছে।
