বিষয়টি যাচাই করে দেখা হচ্ছে বলে বিবিসি-কে জানিয়েছে নোকিয়া। প্রতিষ্ঠানটির এক মুখপাত্র বলেন, “আমরা এই অভিযোগ সম্পর্কে সতর্ক, আমরা তাদের দাবিগুলো ঘেঁটে দেখব আর আমাদের অধিকার রক্ষায় যে পদক্ষেপই প্রয়োজন হয় তা নেব।”
যুক্তরাষ্ট্রে করা এই মামলায় উল্লেখিত ১১টি পেটেন্ট নোকিয়ার ব্যবহার বন্ধের চেষ্টা না করে এজন্য অর্থ চাচ্ছে ব্ল্যাকবেরি। 
আদালতে ব্ল্যাকবেরি’র দাখিলকৃত নথিতে জানা যায়, নোকিয়া এই পেটেন্টগুলো সম্পর্কে অবগত ছিল আর কিছু পেটেন্ট ব্ল্যাকবেরি অর্জন করার আগে তারা কিনে নেওয়ার চেষ্টা চালিয়েছিল। এ নিয়ে নোকিয়াও আলাদা নথি দাখিল করেছে।
এর আগে ২০১২ সালে এই দুই প্রতিষ্ঠানের মধ্যে দ্বন্দ্ব হয়েছিল। সে সময় আরেক পেটেন্ট নিয়ে যুক্তরাষ্ট্র, যুক্তরাজ্য, কানাডাতে ব্ল্যাকবেরি স্মার্টফোন বিক্রি নিষিদ্ধ করে দেওয়ার আবেদন জানিয়েছিল নোকিয়া।
