২০১৭ সালের শেষ প্রান্তিকে ভারতের স্মার্টফোন বাজার ছয় শতাংশ বেড়েছে। এ ক্ষেত্রে শীর্ষস্থানধারী শিয়াওমির স্মার্টফোন বিক্রি হয়েছে ৮২ লাখ আর ৭৩ লাখ স্মার্টফোন বিক্রি করে ঠিক তার পেছনেই অবস্থান করছে স্যামসাং।
আইএএনএস-কে স্যামসাং ইন্ডিয়া’র এক মুখপাত্র বলেছেন, “ভোক্তাদের কাছে বিক্রির সংখ্যা হিসাবকারী জার্মান গবেষণা সংস্থা জিএফকে’র হিসাব মতে সর্বশেষ প্রান্তিকে মূল্যের দিক থেকে স্যামসাংয়ের অধীনে ছিল ভারতের স্মার্টফোন বাজারের ৪৫ শতাংশ আর সংখ্যার দিক থেকে হারটা ৪০ শতাংশ।” 
ক্যানালিস-এর গবেষণা বিশ্লেষক ইশান দত্ত বলেন, “শিয়াওমি’র বিক্রি বাড়ার ক্ষেত্রে একাধিক বিষয় কাজ করেছে, কিন্তু বর্তমান সাফল্যের মূল কারণ হচ্ছে ভারতীয় বিভাগের স্বতন্ত্র পরিচালনার সুযোগ পাওয়া, এর ব্যবসাকে স্থানীয়ভাবে পরিচালনা করতে দেওয়া।”
শিয়াওমি আর স্যামসাং- এই শীর্ষ দুই প্রতিষ্ঠান ভারতের স্মার্টফোন বাজারের ৫০ শতাংশেরও বেশি দখল করেছে।
