ভারতীয় বংশোদ্ভূত নাদেলা এই সম্মেলনে সরকার, শিক্ষা, ব্যাংক, হাসপাতাল, ই-কমার্স, বিনোদন এবং উৎপাদন প্রতিষ্ঠানে ডিজিটাল প্রযুক্তির ব্যবহার নিয়ে আলোচনা করবেন বলে জানিয়েছে আইএএনএস। 
ভারতে অবাধে ডিজিটাল প্রযুক্তির ব্যবহার আরও অভিজ্ঞভাবে প্রয়োগ করার বিষয়েও সম্মেলনে আলোচনা করা হবে বলে জানা গেছে।
ভারতের অন্ধ্র প্রদেশের মুখ্যমন্ত্রী চন্দ্রবাবু নাইডু, এমআইফাইভ-এর সাবেক মহাপরিচালক লর্ড জোনাথন ইভান্স, টাটা মোটর্স লিমিটেড এর নির্বাহী গানটার বুশটেক আর হ্যাভেলস-এর চেয়ারম্যান ও এমডি অনিল রাই গুপ্তা সহ ব্যবসায়ী এবং সরকারি প্রায় ১৫০০ কর্মকর্তা এই প্লাটফর্মে একত্র হতে যাচ্ছেন।
