ক্রুগার বলেন, ২০১৮ সালে বৈদ্যুতিক গাড়ি বিক্রির সংখ্যা ‘মাঝারি মানের দুই অংকের কোনো সংখ্যার শতাংশে’ বাড়ানো হবে।
রয়টার্স-এর প্রতিবেদনে বলা হয়, বিএমডাব্লিউ ২০১৩ সালে তাদের আই৩ বৈদ্যুতিক গাড়ি আনলেও এর বিক্রি অপেক্ষাকৃত কম ছিল। এর ফলে পুরোপুরি বৈদ্যুতিক গাড়ি খাতে যাওয়া হবে কি-না তা নিয়ে ভাবনায় পড়েছিল প্রতিষ্ঠানটির ব্যবস্থাপনা। কিন্তু এই সিদ্ধান্তহীনতার অবস্থা শেষ হয় চলতি বছর সেপ্টেম্বরে। এ সময় প্রতিষ্ঠানটি জানায়, তারা বড় পরিসরে বৈদ্যুতিক গাড়ি উৎপাদনে যাবে। ২০২৫ সালের মধ্যে ১২টি পুরোপুরি বৈদ্যুতিক গাড়ির মডেল আনার লক্ষ্য নেয় তারা।  
সোমবার প্রতিষ্ঠানটি বলে, তারা এই বছর বিশ্বব্যাপী এক লাখ পুরোপুরি বৈদ্যুতিক গাড়ি বিক্রির লক্ষ্য পূরণ করতে পেরেছে।
