শুক্রবার প্রতিষ্ঠানটির পক্ষ থেকে দাবি করা হয়, তাদের স্বচালিত গাড়ির সেন্সর প্রযুক্তি ওয়েইমো’র চেয়ে ‘মৌলিকভাবে আলাদা’- জানিয়েছে রয়টার্স।
চলতি বছরের ফেব্রুয়ারিতে উবারের বিরুদ্ধে মামলা করে ওয়েইমো। তাদের দাবি, স্বচালিত গাড়ির প্রতিযোগিতায় এগিয়ে যেতে গুগলের থেকে চুরি করা প্রযুক্তির সহায়তা নিয়েছে উবার।
উবারের স্বচালিত গাড়ির প্রতিষ্ঠান ‘ওটো’-এর বিরুদ্ধে এ মামলা করে ওয়েইমো। আগের বছর ৭০ কোটি মার্কিন ডলার মূল্যে ওটো নামের ওই প্রতিষ্ঠানটি কেনে উবার।
মামলায় অভিযোগ আনা হয় ওয়েইমো’র সাবেক ব্যবস্থাপক অ্যান্থনি লেভানডস্কি প্রতিষ্ঠান ছাড়ার সময় এর তথ্য নিয়ে যান। ওয়েইমো ছেড়ে তিনি সহ-প্রতিষ্ঠাতা হিসেবে একটি ভেনচার তৈরি করেন, যা বর্তমানে ‘ওটো-তে পরিণত হয়েছে।
মামলায় বলা হয়, লেভানডস্কি প্রতিষ্ঠান ছাড়ার সময়, “১৪ হাজার অতি গোপনীয় তথ্য এবং নকশার ফাইল ডাউনলোড করেন।”
উবার দাবি করেছে, স্বচালিত প্রযুক্তি সম্বলিত ওয়েইমো’র ১৪ হাজার ফাইল কখনোই তাদের সার্ভারে রাখা হয়নি।
“নথি প্রমাণ করে যে লেভানডস্কি অবৈধভাবে যেসব তথ্য ওয়েইমো’র থেকে নিয়েছে তা উবার কখনোই ব্যবহার করেনি,”--উবার।
এ দিকে বুধবার মামলার শুনানিতে উবারকে তাদের কম্পিউটারে আরও অনুসন্ধান চালানোর নির্দেশ দিয়েছেন স্যান ফ্রান্সিসকো জেলা বিচারক উইলিয়াম আলসাপ। শুনানিতে তিনি উবারের আইনজীবীকে বলেন, “আপনারা যথেষ্ট পরিমাণে অনুসন্ধান করেননি।”
আলসাপ আরও জানান, উবার লেভানডস্কির থেকে তথ্য বের করার জন্য চাপ দেয়নি। তথ্য না দিলে তাকে প্রতিষ্ঠান থেকে অব্যাহতি দেওয়ার হুমকিও দেয়নি।
