আমেরিকান সিভিল লিবার্টিস ইউনিয়ন (এসিএলইউ), কালার অফ চেইঞ্জ এবং সেন্টার ফর মিডিয়া জাস্টিস-এর চাপে সোমবার এ ঘোষণা দেয় প্রতিষ্ঠানটি। ফেইসবুক আর ইনস্টাগ্রাম-এর ডেটা ব্যবহার করে নজরদারীর টুল বানানো বন্ধ করতেই প্রতিষ্ঠানের ডেভেলপার নীতি স্পষ্ট করার সিদ্ধান্ত নেওয়া হয়েছে বলে জানায় প্রযুক্তিবিষয়ক সাইট টেকক্রাঞ্চ।
এসিএলইউ জানায়, ফেইসবুক-এর এপিআই থেকে সংগ্রহ করা ডেটা ব্যবহার করে বেশ কয়েকবার আইন প্রণয়নকারী সংস্থার জন্য নজরদারীর টুল বানানোর কথা বলা হলে প্রতিবারই ডেটা ব্যবহারের অনুমতি দিতে অস্বীকৃতি জানায় ফেইসবুক।
আগের বছর অক্টোবরে এসিএলইউ-এর এক প্রতিবেদনে বলা হয়, জিওফিডিয়া নামের নজরদারীর সফটওয়্যারে ফেইসবুক, ইনস্টাগ্রাম এবং টুইটার থেকে সংগ্রহ করা ডেটা ব্যবহার করা হয়েছে।
উল্লিখিত অভিযোগের মুখে ফেইসবুক দাবী করছে এ ধরনের নজরদারীর টুল তৈরি তাদের নীতির বিরুদ্ধ। তাই সোমবার ফেইসবুকের পক্ষ থেকে ডেভেলপারদেরকে স্পষ্ট ঘোষণা দেওয়া তাদের মাধ্যমে নেওয়া কোনো ডেটা নজরদারীর টুল বানানোর কাজে ব্যবহার করা যাবে না। আগের বছর নভেম্বরে একই ধরনের ঘোষণা দিয়েছে মাইক্রোব্লগিং সাইট টুইটার।
“আমাদের নীতিকে স্পষ্ট করাই আমাদের লক্ষ্য। আগের কয়েক মাস ধরে যেসব ডেভেলপার আমাদের বর্তমান নীতির বাইরে নজরদারীর টুল তৈরি করেছে তাদের বিরুদ্ধে উদ্যোগ নেওয়া হয়েছে,” বলেন ফেইসবুকের গোপনীয়তা কর্মকর্তা রব শার্মান।
