এই টুইটে দক্ষিণ আফ্রিকার অবিসংবাদিত নেতা নেলসন ম্যান্ডেলা’র একটি উক্তির সঙ্গে একটি ছবি জুড়ে দেওয়া হয়। এই ছবিতে ওবামা-কে বিভিন্ন বর্ণের শিশুর সঙ্গে হাসিমুখে দেখা যায়।
যুক্তরাষ্ট্রের ভার্জিনিয়ায় শারলোটসভিল-এ চালানো আক্রমণের ঘটনা নিয়ে ১৩ অগাস্ট এই টুইট করেন ওবামা। পোস্টের পর থেকে এ খবর পাওয়া পর্যন্ত এই টুইটে আসা ‘লাইক’-এর সংখ্যা ছিল প্রায় ৩০ লাখ।
চলতি বছর মে মাসে যুক্তরাজ্যের ম্যানচেস্টার এরিনায় মার্কিন পপতারকা আরিয়ানা গ্রান্ডের কনসার্টে হামলা চালায় সন্ত্রাসীরা। এ সময় বোমা বিস্ফোরণে প্রাণ হারায় ২২ জন, আহত হয়েছে অর্ধশতাধিক। বর্বরোচিত এ হামলায় নিহতদের জন্য সমবেদনা জানিয়ে আরিয়ানা গ্রান্ডে’র করা টুইট এতদিন ‘লাইক’-এর দিক থেকে শীর্ষে ছিল।
এই টুইটের পর আরও দুটি টুইট করেন ওবামা। এই তিন টুইটে ওবামা ম্যান্ডেলা’র আত্মজীবনী থেকে ‘দ্য লং ওয়াক টু ফ্রিডম’ অনুচ্ছেদটি উদ্ধৃত করেন। এতে বলা হয়, “কেউই জন্ম থেকে অন্য কারও গায়ের রং, তিনি কোথা থেকে এসেছেন না তার ধর্মের জন্য তাকে ঘৃণা করে না।”
