সম্প্রতি উইকিলিকস-এর ফাঁস করা তথ্যে জানা যায়, সিআইএ বিশেষ সফটওয়্যার আর হ্যাকিং টুল ব্যবহার করে অ্যান্ড্রয়েড আর আইওএসচালিত ফোনের কার্যক্রম দূর থেকে পর্যবেক্ষণ ও নিয়ন্ত্রণ করতে পারে। উইকিলিকস-এর পক্ষ থেকে বলা হয়, “এসব কৌশল সিআইএ-কে হোয়াটসঅ্যাপ, সিগনাল, টেলিগ্রাম, উইবো, কনফাইড আর ক্লোয়াকম্যান-এর এনক্রিপশন ব্যবহারকারীদের স্মার্ট ফোনের নিরাপত্তাব্যবস্থা বাইপাস করার সুযোগ দেয়।”
অন্যদিকে অ্যাপল জানায়, যেসব গ্রাহক তাদের সর্বশেষ মোবাইল অপারেটিং সিস্টেম ব্যবহার করছেন তারা এসব নিরাপত্তা ঝুঁকির অধিকাংশ থেকেই সুরক্ষিত।
অ্যাপলের এক মুখপাত্র প্রযুক্তি সাইট টেকক্রাঞ্চ-কে বলে, “গ্রাহকদের প্রাইভেসি আর নিরাপত্তা রক্ষায় অ্যাপল গভীরভাবে প্রতিজ্ঞাবদ্ধ।” বর্তমানে আইফোনে থাকা প্রযুক্তি গ্রাহকদের জন্য বিদ্যমান সর্বোত্তম ডেটা নিরাপত্তা উপস্থাপন করে বলেও জানান তিনি, খবর ব্রিটিশ দৈনিক ইন্ডিপেনডেন্ট-এর।
