২০১৫ সালের জানুয়ারিতে, ইনটেলে যোগ দেওয়া ও কাজ করা কর্মীদের মধ্যে নারী ও সংখ্যালঘুদের সংখ্যা বাড়াতে কিছু পদক্ষেপ ও কার্যক্রমের জন্য ৩০ কোটি ডলার ঢালার ঘোষণা দেয়। একই বছর অগাস্টে কর্মী হিসেবে নিয়োগ দিতে নারী, সংখ্যালঘু ও প্রবীণ লোকদের নিয়ে এসেছেন এমন কর্মীদের চার হাজার ডলার বোনাস দেওয়ার ঘোষণা দেয় প্রতিষ্ঠানটি।
বেতন ভাতায় লিঙ্গবৈষম্যের বিষয়টি বন্ধে চিপ নির্মাতা মার্কিন এই প্রতিষ্ঠান প্রায় কাছাকাছি চলে এসেছে বলে জানিয়েছে প্রযুক্তি সাইট সিনেট। কিন্তু এখনও কিছু বিষয় আছে যেগুলোর সমাধান প্রতিষ্ঠানটির জন্য কষ্টসাধ্য। 
'গ্রেইস হপার সেলিব্রেশন অফ উইমেন ইন কম্পিউটিং' নামের এক অনুষ্ঠানে ক্রাজানিক বলেন, "আমি এখনও বৈঠকে পুরুষদের দেখতে পাই, কোনো নারী কিছু বলার পর কোনো এক পুরুষও এটি বলেন, তারপর সবাই বলেন 'এটাই আমাদের করা উচিৎ'।"
'অবচেতন মনে পক্ষপাতিত্ব' নিয়েও কথা বলেন ক্রাজানিক। "তাদের আগে থেকেই বিচার করা একটি মনোভাব রয়েছে, যা নিয়ে আমরা কখনও ভাবি না- যেমন, নারীরা কম্পিউটার প্রকৌশলী নয় এমন ধারণা, আর এর কারণ হচ্ছে একজন কম্পিউটার প্রকৌশলী কেমন হবেন তা নিয়ে আমাদের মাথায় আগে থেকেই ঠিক করে রাখা ছবির সঙ্গে তারা যান না", বলেন তিনি।
ক্রাজানিক বলেন, "এই কক্ষে থাকা সবার অবচেতন মনেই পক্ষপাতিত্ব রয়েছে। আর এই পক্ষপাতিত্বগুলো গতকাল তৈরি হয়নি।"
