এই প্রান্তিকে আইফোন X-এর উৎপাদন অর্ধেক কমিয়ে প্রায় দুই কোটিতে নামিয়ে আনা হচ্ছে বলে প্রতিবেদনে জানিয়েছে জাপানি সংবাদমাধ্যম নিক্কেই। ইতোমধ্যেই অ্যাপল সরবরাহকারীদের বিষয়টি জানানো হয়েছে বলে উল্লেখ করা হয়। তবে এই খবরের কোনো সূত্রের কথা জানায়নি সংবাদমাধ্যমটি।
নিক্কেইয়ের বরাত দিয়ে রয়টার্স-এর প্রতিবেদনে বলা হয়, ছুটির মৌসুমে ইউরোপ, মার্কিন যুক্তরাষ্ট্র এবং চীনে প্রত্যাশার চেয়ে বিক্রি কম হওয়ায় আইফোন X-এর উৎপাদন কমানোর সিদ্ধান্ত নেওয়া হয়েছে।
প্রতিবেদনে আরও বলা হয়, ধারণা করা হচ্ছে আইফোন ৮, ৮প্লাস ও ৭-এর মতো কিছুটা কম মূল্যের ডিভাইসের ক্ষেত্রে তিন কোটির উৎপাদন লক্ষ্যমাত্রা ধরে রাখবে অ্যাপল।
