২০১৫ সালে সাফল্যের চূড়ায় থাকলেও ২০১৬-তে ভালো সুবিধা করতে পারেনি শিয়াওমি। হুয়াওয়ে, ওপ্পো এবং ভিভো-এর মতো অন্য প্রতিষ্ঠানগুলোর জোরলো প্রতিদ্বন্দ্বীতায় এ বছর চীনের শীর্ষ পাঁচ স্মার্টফোন বিক্রেতার তালিকা থেকে ছিটকে পড়ে শিয়াওমি, জানিয়েছে রয়টার্স।
আগের বছরের ব্যর্থতা ভুলে এবার নতুন বছরে নতুন করে ব্যবসায় নামার কথা জানিয়েছেন প্রতিষ্ঠান প্রধান লেই জুন। বৃহস্পতিবার বেইজিংয়ে বার্ষিক মিটিংয়ে তিনি বলান, “সবচেয়ে খারাপ অবস্থা শেষ হয়েছে।” ২০১৬ কে তিনি “মেইক-আপ ইয়ার” হিসেবে উল্লেখ করেছেন।
সাত বছর আগে চালু হয় শিয়াওমি। বর্তমানে এটি বিশ্বের সবচেয়ে দামী স্টার্ট-আপ প্রতিষ্ঠানগুলোর একটি। অনেকেই প্রতিষ্ঠানটিকে চীনা অ্যাপল হিসেবে আখ্যাও দেন।
শিয়াওমির পক্ষ থেকে বলা হয় ব্যবসার কিছু জায়গায় রদবদল করা হয়েছে। দেশের বাইরে আরও বেশি ব্যবসা বাড়ানোর জন্যও কাজ করছে প্রতিষ্ঠানটি।
প্রতিষ্ঠানটির আগের বছরের আর্থিক ফলাফল প্রকাশ করেননি লেই। তবে ২০১৭ সালে আরও ২০০টি মি হোম স্টোর খোলার পরিকল্পনা রয়েছে প্রতিষ্ঠানটির। আর সামনের তিন বছরের মধ্যেই সর্বমোট ১০০০ স্টোর খোলার পরিকল্পনা করা হয়েছে।
