টিভি অনুষ্ঠান টুডে শো-তে এক সাক্ষাৎকারে স্যান্ডবার্গ বলেন, “এটি (ফেইসবুক) নির্বাচনকে প্রভাবিত করেছে বলে দাবি উঠেছে। আমরা মনে করি না এটি নির্বাচনকে প্রভাবিত করেছে। কিন্তু আমরা সত্যিই গুরুত্বের সঙ্গে এর দায়িত্ব নিয়েছি। আমরা বিষয়গুলো দেখছি, তৃতীয় পক্ষগুলোর সঙ্গে কাজ করছি, মিথ্যা সংবাদগুলোকে চিহ্নিত করতে সহায়তা করছি, ফেইসবুকে কোন বিষয়টি ভুয়া তা স্পষ্ট করতে আমরা যা করতে পারি করছি।”
এর আগে ফেইসবুক প্রধান মার্ক জাকারবার্গ ভুল তথ্য শনাক্তকরণ আর ভুয়া সংবাদ ছড়ানো বন্ধে নিজের পরিকল্পনা তুলে ধরেন।
স্যান্ডবার্গ বলেন, “আমরা অনেকদিন ধরে এটি নিয়ে কাজ করছি আর আমরা গুরুত্বপূর্ণ পদক্ষেপ নিয়েছি, কিন্তু এখনও আরও অনেক কিছু করার আছে। আমরা জানি মানুষ ফেইসবুকে ভুয়া সংবাদ দেখতে চায় না আর আমরাও চাই না। তাই আমরা কাজ করছি, কারণ ভুল তথ্য হচ্ছে এমন একটি বিষয় যা আমরা গুরুত্বের সঙ্গে নেই আর যা আমরা আমাদের সেবা থেকে বাদ দেওয়া অব্যাহত রাখতে যাচ্ছি।”  
