ব্যবহারকারীদের সময়সূচীর মধ্যে কিছু অবাঞ্ছিত বিক্রয় বা পণ্যের বিজ্ঞাপনের জন্য আমন্ত্রণ পাঠিয়ে যাচ্ছে স্প্যামাররা। অ্যাপল এই অভিযোগ স্বীকার করেছে বলে জানিয়েছে প্রযুক্তিবিষয়ক সাইট ভার্জ।
গ্রাহকদের আশ্বস্ত করে অ্যাপল জানায়, তারা স্প্যাম সমস্যার সমাধানে কাজ করে যাচ্ছে। ইতোমধ্যে তারা সমস্যা সমাধানের জন্য ‘রিপোর্ট জাংক’ নামের নতুন ওয়েব অ্যাপ্লিকেশন ব্যবস্থা চালু করেছে।
অ্যাপলবিষয়ক খবরের সাইট ৯টু৫ম্যাক -এর মতে, বিশেষ এই অপশন ক্যালেন্ডারে অপরিচিতদের থেকে পাঠানো আমন্ত্রণের নিচে থাকা ‘ফ্রম’ (কার কাছ থেকে পাঠানো হয়েছে) বাটনের নিচে দেখানো হবে। ব্যবহারকারী কোনো একটি আমন্ত্রণের ব্যাপারে রিপোর্ট করলে এর সঙ্গে সম্পৃক্ত সব ক্যালেন্ডার থেকে তা মুছে ফেলা হবে।
এ ফিচারটি ব্যবহারের জন্য ব্যবহারকারীকে তার নিজের ব্রাউজারে আইক্লাউড ক্যালেন্ডারে প্রবেশ করে ঐ ওয়েব অ্যাপ চালু করতে হবে। ‘রিপোর্ট জাংক’ অ্যাপটি এখনও অ্যাপলের মোবাইল অ্যাপ-এ পাওয়া যাচ্ছে না বলে জানানো হয়েছে।
