"আগে এই অ্যাপে সংরক্ষিত ছবিগুলো কেবল ব্যবহারকারী 'নির্বাচিত' ফেইসবুক বন্ধুদের সঙ্গে শেয়ার করে নিতে পারতেন। এখন সামাজিক নেটওয়ার্কে সংযুক্ত 'বন্ধু' নয় এমন ব্যবহারকারীদের সঙ্গেও ব্যক্তিগত অ্যালবাম শেয়ার করতে পারবেন" এক প্রতিবেদনে জানায় প্রযুক্তি সদাইট টেকক্রাঞ্চ।
আইএএনএস জানিয়েছে, ব্যবহারকারিরা নতুন এই ফিচার আগের অ্যালবাম অথবা নতুন অ্যালবামেও প্রয়োগ করতে পারবেন। এজন্য কেবল তাদের তিনটি ডট চিহ্নিত স্ক্রিনের উপরের ডানদিকে ক্লিক করতে হবে, যেখানে 'শেয়ার লিংক' লেখা দেখা যাবে। নতুন এই অপশন ব্যবহারকারীদের একটি ইউআরএল দেবে, যা তারা চাইলে মেসেজ বা ই-মেইলে যে কাউকে পাঠাতে পারেন।
তা ছাড়াও নতুন এই মোমেন্ট অ্যাপে পূর্ণ রেজুলিউশনের ফটো যোগ করার সুযোগ দেওয়া হয়েছে। আরও রয়েছে নতুন 'ফেভারিট' ট্যাব। এখন ব্যবহারকারি আপলোড করার ৩০ দিনের মধ্যে এই 'ফেভারিট' ট্যাবে পূর্ণ রেজুলিউশনের ছবি সংরক্ষণ করতে পারবেন।
