নতুন এই ইমোজির সেট দেখতে অনেকটা আইওএস ইমোজির মতোই বলে উল্লেখ করা হয়েছে ব্যবসা-বাণিজ্যবিষয়ক মার্কিন সাইট বিজনেস ইনসাইডার-এর প্রতিবেদনে। তবে আইওএস-এর তুলনায় খানিকটা সমতল মনে হয় এই ইমোজি, অনেকটা এলজি স্মার্টফোনের ইমোজির মতো। এতোদিন এই আইওএস-এর ইমোজিই ব্যবহার করে আসছিল অ্যাপটি, এমনকি অ্যান্ড্রয়েড ডিভাইসগুলোতেও।
নতুন এই আপডেট এখন পর্যন্ত শুধু হোয়াটসঅ্যাপের সর্বশেষ বেটা সংস্করণ ব্যবহার করছেন এমন অ্যান্ড্রয়েড গ্রাহকরাই পাচ্ছেন। সামনের কয়েক সপ্তাহ বা মাসের মধ্যে বিস্তৃত পরিসরে এই আপডেট আনা হবে বলে আশা করা হচ্ছে।
আইওএস অপারেটিং সিস্টেমেও এই ইমোজি আপডেট আনা হবে কিনা তা এখনও নিশ্চিত নয়।
