নতুন এই ফিচারের মাধ্যমে গ্রাহককে যাত্রাপথে রিয়েল-টাইম নোটিফিকেশন পাঠাবে গুগল। এতে গ্রাহকের বর্তমান অবস্থানের ওপর ভিত্তি করে তাকে প্রয়োজনীয় তথ্য সহায়তা দেওয়া হবে।
ভারতীয় সংবাদমাধ্যম আইএএনএস-এর প্রতিবেদনে বলা হয়, গ্রাহককে কখন কোথায় বাস বা ট্রেন থেকে নামতে হবে তাও নোটিফিকেশনের মাধ্যমে জানানো হবে। গ্রাহক তার গন্তব্যের কাছাকাছি পৌঁছালেই তাকে এই নোটিফিকেশন দেওয়া হবে। কোনো নতুন জায়গায় ভ্রমণের সময় এটি গ্রাহকের জন্য সহায়ক হবে বলে ধারণা করা হচ্ছে।
টেকক্রাঞ্চ-এর প্রতিবেদনে আরও বলা হয়, গুগল ম্যাপস-এর নোটিফিকেশন অ্যান্ডরয়েড ফোনের লকড স্ক্রিনেও দেখানো হবে। তবে এই তথ্যটি এখনও নিশ্চিত নয় বলে জানানো হয়েছে।
