গ্রাহককে তার পছন্দের রঙ অনুযায়ী উবার লোগো দেখাবে নতুন এই সিস্টেম। কোনো গ্রাহক অ্যাপের মাধ্যমে গাড়ি ভাড়া করে ফোন থেকে তার পছন্দের একটি রঙ বাছাই করে দিতে পারবেন। সেক্ষেত্রে গাড়িটি ঐ রঙের উবার লোগো গাড়ির সামনের কাঁচের উপর দেখাবে।
নিজের বাছাই করা রঙের উবার লোগো দেখে গ্রাহক ভিড়ের মধ্যে বা রাতে তার গাড়িটি শনাক্ত করতে পারবেন, জানিয়েছে সিনএন। ‘উবারবিকন’ নামের ডিভাইসটি গাড়ির সামনের কাঁচের নিচে বসানো থাকবে। গ্রাহক অনেকগুলো রঙের মধ্য থেকে নিজের পছন্দের রঙটি স্মার্টফোনের মাধ্যমে অ্যাপ থেকেই ঠিক করে দিতে পারবেন।
চলতি সপ্তাহেই যুক্তরাজ্যের মায়ামি, ডেনভার, ন্যাশভিল এবং নিউক্যাসল-এ ডিভাইসটি গাড়িতে সংযুক্ত করা হবে। আর ২০১৭ সালের মধ্যেই অন্যান্য শহরেও এটি চালু করার পরিকল্পনা রয়েছে।
উবারবিকন ডিভাইসটি প্রতিদ্বন্দ্বী প্রতিষ্ঠান লিফট-এর লিফট’স অ্যাম্প-এর মতোই কাজ করে। আগের মাসেই নিজেদের গাড়িতে এই ডিভাইস সংযুক্ত করে প্রতিষ্ঠানটি যা গাড়ির ড্যাশবোর্ড থেকে বিভিন্ন রঙয়ের আলো ছড়ায়।
