মার্কিন প্রযুক্তি জায়ান্ট গুগল-এর সার্চ ইঞ্জিনে গুগল পণ্যের বিজ্ঞাপণ সার্চ রেজাল্টের ৯১ শতাংশ দখল করে রেখেছে, ব্যবসা-বাণিজ্যবিষয়ক মার্কিন দৈনিক ওয়াল স্ট্রিট জার্নাল-এর জন্য তৈরি করা এক গবেষণা থেকে পাওয়া গেছে এই তথ্য।
বিবিসি জানিয়েছে, ২৫ হাজার অনলাইন পেইজ নিয়ে এই গবেষণা করে বিজ্ঞাপন ডেটা এবং কনটেন্ট সরবরাহকারী মার্কিন প্রতিষ্ঠান সেমরাশ।
প্রতিষ্ঠানটি ২৫টি শব্দ রেখে গুগল সার্চ ইঞ্জিনে এক হাজার রেজাল্ট পর্যবেক্ষণ করে এবং ওই শব্দগুলোর মধ্যে ল্যাপটপ, ঘড়ি, স্পিকার এবং স্মোক ডিটেক্টর অন্তর্ভুত ছিল।
সার্চের মাধ্যমে ফলাফলে শীর্ষে ছিল গুগলের মূল প্রতিষ্ঠান অ্যালফাবেট-এর পণ্য।
অন্যদিকে, ওয়েব জায়ান্টটি জানায়, তাদের সাইটে নিজেদের জন্য বিজ্ঞাপন স্পেস কেনার অনেক কঠোর নিয়ম আছে।
গুগলের একজন মুখপাত্র জানান, প্রতিষ্ঠানটির প্রচারণা নীতি ‘সচেতনভাবে এবং সতর্কভাবে তৈরি করা’। তাই বিজ্ঞাপনের স্থানগুলোর সঙ্গে বিজ্ঞাপনের দাম নির্ধারণের কোনো সম্পর্ক নেই।
