এর আগে রাশিয়ার আদালত বিষয়টি খতিয়ে দেখতে রুল জারি করে। তখন বলা হয়েছিল আইন ভঙ্গ করা হলে দেশটিতে বন্ধ হতে পারে মাইক্রোসফটের মালিকানাধীন ব্যবসায় বাণিজ্য বিষয়ক যোগাযোগের সাইটটি। আদালতে রুল থেকে লিংকডইন-এর বিরুদ্ধে আনা অভিযোগ সত্য প্রমাণিত হওয়ায় এটি বন্ধের নির্দেশ দেওয়া হয়, জানিয়েছে রয়টার্স।
নজরদারী প্রতিষ্ঠান রসকোমনাদজর জানিয়েছে, দেশটি তার ইন্টারনেট ব্যবহারকারীর তথ্য সংরক্ষণের চেষ্টা করছে। রাশিয়ার নিয়ম অনুযায়ী গ্রাহকের তথ্য দেশের মধ্যেই সার্ভারে সংরক্ষিত থাকতে হবে। সে নিয়মই ভঙ্গ করেছে মার্কিন সাইটটি।
২০১৪ সালে ডেটা সংরক্ষণের উপর এই নীতি চালু করা হলেও কখনও এর আগে প্রয়োগ করা হয়নি। ২০১৫ সালের সেপ্টেম্বরে প্রথমবারের মতো ব্যক্তিগত ডেটা স্টোরেজের উপর প্রভাব ফেলে রাশিয়ান আইন। নিম্ন আদালতে আগেই দোষীস্বাব্যস্ত করা হয় লিংকডইন-কে। এবার উচ্চ আদালতের রায়েও দোষী করা হয়েছে প্রতিষ্ঠানটিকে।
লিংকডইন-এর পক্ষ থেকে বলা হয়েছে, "এই আইন রাশিয়ার লাখো গ্রাহককে লিংকডইন ব্যবহারে বাধা দেয় এবং লিংকডইন-এর মাধ্যমে যে সকল প্রতিষ্ঠান ব্যবসা বাড়াচ্ছে তাদের ক্ষেত্রেও বাধা সৃষ্টি করছে।"
