লরিন জবস ‘এমারসন কালেকটিভ’ নামে সামাজিক বিচারবিষয়ক একটি সংস্থা পরিচালনা করেন। এই সংস্থা সাময়িকীটির অধিকাংশ শেয়ার কিনে নিতে সম্মত হয়েছে, আটলান্টিক মিডিয়া-এর মালিক ও চেয়ারম্যান ডেভিড জি ব্র্যাডলি এ কথা বলেছেন বলে সাময়িকীটিতে উল্লেখ করা হয়েছে।
ব্র্যাডলি এই প্রকাশনার কম অংশের শেয়ার নিজের কাছে রাখবেন। সামনে আরও তিন থেকে পাঁচ বছর প্রতিষ্ঠানটি পরিচালনার পরিকল্পনা করছেন তিনি, বলা হয়েছে আইএএনএস-এর প্রতিবেদনে।
৬৪ বছর বয়সী ব্র্যাডলি কর্মীদের উদ্দেশ্যে পাঠানো এক চিঠিতে বলেন, “আমি যত বছর ধরে পরিচালনা করছি, তার মধ্যে এটি আমার সবচেয়ে ফলপ্রসু সিদ্ধান্ত: কার হাতে আমি এই ১৬০ বছর পুরানো জাতীয় সম্পদের ভার দিচ্ছি।”
সাম্প্রতিক সময়ে প্রযুক্তি খাতের নেতৃত্বস্থানীয়দের সাংবাদিকতায় আসার প্রচলন দেখা যায়। লরেন জবস-এর এই খাতে প্রবেশটাও একই রকম বলে প্রতিবেদনে উল্লেখ করা হয়। কয়েক বছর আগে অ্যামাজন প্রধান জেফ বেজোস কিনে নেন প্রভাবশালী মার্কিন দৈনিক ওয়াশিংটন পোস্ট।
