এই নিয়ে ১৫ বারের মতো স্ন্যাপচ্যাট-এর ফিচার ‘নকল’ করল ফেইসবুক।
"ফেসবুক মেসেঞ্জার স্ন্যাপচ্যাটের মতো সেলফির জন্য একটি নতুন অ্যাপ্লিকেশন ক্যামেরা চালু করতে যাচ্ছে।" রিকোডের প্রতিবেদনে বলা হয়। মেসেজিং এই অ্যাপ্লিকেশনে ফটো ফিল্টার (বা জিওফিল্টারস), মাস্কস (বা লেন্স) এবং স্টিকারসহ একটি নতুন ক্যামেরা চালু করা হচ্ছে। (স্ন্যাপচ্যাটে এগুলো স্টিকার হিসেবে পরিচিত)
এর আগে ফেইসবুক স্ন্যাপচ্যাট থেকে দুই বার স্টোরিজ ক্লোন করেছিল। তা ছাড়াও প্রতিষ্ঠানটি দুইবার একত্রীকরণের চেষ্টা, চারটি স্বতন্ত্র অ্যাপ্লিকেশন আর দুইটি অস্থায়ী মেসেজিং বাস্তবায়ন এবং এ.আর লেন্সের সঙ্গে চারটি নতুন ক্যামেরা চালু করেছিল বলে জানিয়েছে ব্রিটিশ দৈনিক দ্যা গার্ডিয়ান।
