এর আগে এই অভিযোগে তাকে পাঁচ বছরের সাজা দেয় সিউলের সেন্ট্রাল ডিস্ট্রিক কোর্ট। পরে রায়ের বিরুদ্ধে আপিল করেন তিনি। শীঘ্রই আপিল প্রক্রিয়াও শেষ হচ্ছে। এরপর বাদী বিবাদী দুই পক্ষই সুপ্রিম কোর্টে আপিল করতে পারবেন।
চলতি বছরের অক্টোবরে এই মামলার আপিল কার্যক্রম শুরু হয়। মামলার শুরু থেকেই অভিযোগ অস্বীকার করে আসছেন ৪৯ বছর বয়সী লি। এবার আপিলেও তা অস্বীকার করেছেন তিনি। আপিলে লি’র পক্ষে মজবুত যুক্তি তুলে ধরেছেন তার আইনজীবীরা, বলা হয়েছে রয়টার্স প্রতিবেদনে।
লির বিরুদ্ধে অভিযোগ ছিল, তিনি সরকারি সুবিধা পাওয়ার জন্য তখনকার প্রেসিডেন্ট পার্ক জিউন-হাইয়ের ঘনিষ্ঠ বান্ধবী চোই সুন সিল পরিচালিত কয়েকটি ফাউন্ডেশনে ৩ কোটি ৬৩ লাখ ডলার অনুদান দিয়েছেন।
ওই অভিযোগে গত জানুয়ারিতে কয়েক দফা জিজ্ঞাসাবাদের পর ফেব্রুয়ারিতে লি’র বিচার শুরু করে আদালত। তখনই তাকে গ্রেপ্তার করা হয়।
২০১৮ সালের জানুয়ারির শেষ দিকে আপিল শুনানির আশা করছে সিউল হাই কোর্ট।
