ইন্দো এশিয়ান নিউজ সার্ভিস (আইএএনএস) জানিয়েছে, বিভিন্ন স্থানে বোমা হামলা চালাতে উচ্চমাত্রার এনক্রিপশন ক্ষমতাসম্পন্ন মেসেজিং অ্যাপ 'টেলিগ্রাম' ব্যবহার করছে ইসলামিক স্টেট।
এদিকে ইতোমধ্যেই টেলিগ্রাম অ্যাপটি ক্র্যাকের অনুমতি চেয়ে বিবৃতি প্রকাশ করেছে ফ্রান্স এবং জার্মানি।
"সন্ত্রাসী হামলার পরিকল্পনার তদন্তের ক্ষেত্রে সংকেতায়িত যোগাযোগ বাঁধার সৃষ্টি করে। কার্যকরী তদন্তের স্বার্থে এর একটা সমাধান বের করা জরুরী।"
সম্প্রতি সুরক্ষার বিষয়টি মাথায় রেখে ৩০টি চ্যাটিং অ্যাপেরে র‌্যাংকিং প্রকাশ করেছে আইএস। এর মধ্যে টেলিগ্রাম এবং হোয়াটসঅ্যাপ এর নাম রয়েছে। তবে, আইএস সংগঠনের মধ্যে 'টেলিগ্রাম' অ্যাপটিই বেশি জনপ্রিয়তা পাচ্ছে বলে জানানো হয়।
২০১৫ সালে টেলিগ্রাম অ্যাপে নতুন চ্যানেল ফিচার চালু করার সঙ্গে সঙ্গেই অ্যাপটি ব্যবহার করা শুরু করে আইএস সমর্থকরা। 'চ্যানেল' নামের ফিচারটির সাহায্যে গ্রাহক একই সঙ্গে অনেক ব্যক্তির সঙ্গে যোগাযোগ স্থাপন করতে পারেন।
চলতি মাসেই এক ব্লগপোস্টে ২০১৫ সাল থেকে এ পর্যন্ত সন্ত্রাসী কার্যক্রমের প্রচারণা বা হুমকি দেওয়ার অভিযোগে ৩৬০০০০ অ্যাকাউন্ট বন্ধ করে দেওয়ার খবর জানায় টুইটার।
