এই সতর্কবার্তার সঙ্গে মার্কিন সংবাদমাধ্যম সিএনএন-এর একটি শিরোনামও জুড়ে দেওয়া হয়। কিন্তু ওই আইফোন ব্যবহারকারীরা এই সতর্কবার্তা বারবার পাচ্ছিলেন বলে উল্লেখ করা হয়েছে মার্কিন প্রকাশনা বিজনেস ইনসাইডার-এর প্রতিবেদনে।
এই সতর্কবার্তা পাওয়া কয়েকজন মাইক্রোব্লগিং সাইট টুইটারে দাবি করেন, তারা প্রায় ১০ মিনিট ধরে বারবার এই সতর্কবার্তা পাচ্ছিলেন।   
এই বার্তা বারবার আসার পেছনের কারণ কী? সিএনএন-এর কেউ দুর্ঘটনাবশত ভুল বাটন চেপে দিয়েছেন? নাকি অ্যাপল নিউজ অ্যাপেই কোনো ত্রুটি আছে?
এক্ষেত্রে মার্কিন টেক জায়ান্ট অ্যাপলের দিকেই অভিযোগের তীর ছুড়ছে সিএনএন। সংবাদমাধ্যমটির জনসংযোগ বিভাগের পক্ষ থেকে বলা হয়, “আমাদের সার্ভার লগ-এ দেখা যায় সিএনএন শুধু একটি বার্তা পাঠিয়েছে”। সেই সঙ্গে তারা “সমস্যা শনাক্ত করতে অ্যাপলের সঙ্গে কাজ করছে” বলেও উল্লেখ করা হয়।
সংবাদমাধ্যমটি বলে, “আমরা জানতে পেরেছি কিছু অ্যাপল নিউজ ব্যবহারকারী সম্প্রতি একই বার্তা বারবার পেয়েছেন। আমাদের সার্ভার লগ দেখাচ্ছে আমরা একবার পাঠিয়েছি। আমরা সমস্যা শনাক্ত করতে অ্যাপলের সঙ্গে কাজ করছি, যেহেতু সিএনএন অধীনস্থ প্লাটফর্মগুলোর ব্যবহারকারীরা এ ধরনের সমস্যায় পড়েননি। যারা এই সমস্যায় পড়েছেন তাদের কাছে আমরা ক্ষমাপ্রার্থী।”
এ নিয়ে মন্তব্যের জন্য অনুরোধ করা হলেও অ্যাপলের পক্ষ থেকে কোনো সাড়া দেওয়া হয়নি বলে জানিয়েছে বিজনেস ইনসাইডার। যদিও এ খবর প্রকাশের আগে দেখা যায় অ্যাপল নিউজ-এর পক্ষ থেকে একটি টুইট করা হয়েছে। এতে বলা হয়, “আমরা অ্যাপল নিউজের একটি সমস্যা সমাধানে কাজ করছি যা কিছু ব্যবহারকারীকে একই নোটিফিকেশন বারবার পাঠিয়েছে। এই বিড়ম্বনার জন্য আমরা দুঃখিত।”
