সংবাদ সাইট ইন্টারসেপ্ট-এর বরাতে এমন তথ্য প্রকাশ করেছে মার্কিন সাময়িকী ফরচুন।
মাইক্রোসফট জানিয়েছে, তারা এই ক্ষেত্রে “সম্ভাব্য কোনো কিছু নিয়ে” কথা বলবে না। সংবাদ সাইটটির অনুসন্ধানে আইবিএম, অ্যাপল, গুগল, ফেইসবুক, এসআরএ ইন্টারন্যাশনাল আর কানাডার সিজিআই কোনো জবাব দেয়নি।
ইন্টারসেপ্ট জানিয়েছে তারা দুই সপ্তাহ ধরে এই অনুসন্ধানের জবাব খুঁজেছে। এ জন্য তারা প্রতিষ্ঠানগুলোর সঙ্গে ফোন ও ইমেইলে যোগাযোগ করে। 
মার্কিন  প্রেসিডেন্ট নির্বাচনে ইলেকটোরাল কলেজ ভোটে জয়ী ডোনাল্ড ট্রাম্প আর তার দল মুসলিম দেশগুলো থেকে আসা অভিবাসী আর মুসলিম আমেরিকানদের নিবন্ধনের আওতায় আনার কথা বলে আসছে। এই ব্যবস্থার অধীনে অভিবাসী আর নাগরিকরা প্রশ্নোত্তর আর পর্যবেক্ষণের বিষয়ে পরিণত হতে পারে, ভাষ্য মার্কিন সাময়িকীর। কিন্তু এমন ব্যবস্থা কাজ করবে কিনা তা এখনও স্পষ্ট নয়।
