কপিরাইট লঙ্ঘন আর জালিয়াতির অভিযোগে অভিযুক্ত কিম তাকে নিউ জিল্যান্ড থেকে যুক্তরাষ্ট্রে হস্তান্তর ঠেকাতে আইনি লড়াই চালাচ্ছেন।
নিজের করা মামলায় কিম-এর দাবি, অকার্যকর একটি আটকের পরোয়ানা তার বিরুদ্ধে আনা সব অভিযোগ বাতিল করে দিয়েছে। এখন তিনি তার মর্যাদা ও ব্যবসায়ে হওয়া ক্ষতির জন্য ক্ষতিপূরণ চাইছেন।
তল্লাশির মুখে ব্যবসায় বন্ধ না করে দিলে এতদিনে মেগাআপলোড প্রতিষ্ঠানটির বাজারমূল্য হত এক হাজার কোটি ডলার, হিসাবরক্ষকরা এমন তথ্য দিয়েছেন বলে উল্লেখ করা হয় বিবিসি’র প্রতিবেদনে।
প্রতিষ্ঠানটিতে কিম-এর শেয়ারের পরিমাণ ৬৮ শতাংশ, এ কারণে তিনি ৬৮০ কোটি ডলার ক্ষতিপূরণ চেয়েছেন। হং কং সরকারের বিরুদ্ধেও তিনি একই ধরনের অভিযোগ আনার কথা বিবেচনা করছেন।
উচ্চ আদালোতে দাখিল করা দলিলে কিম যে বিষয়গুলোর জন্য ক্ষতিপূরণ চেয়েছেন, সেগুলো হচ্ছে- ২০১২ সাল থেকে হারানো ব্যবসায়ের সব সুযোগ, আইনি লড়াইয়ে তার খরচ, তার নেওয়া ভবন ভাড়ায় যে বিনিয়োগ করেছিলেন তার ক্ষতি, ওই ভবন কেনার সুযোগ হারানো আর মর্যাদাহানি।
বিবিসি-কে কিম বলেন, “নিউ জিল্যান্ড সরকারের নেওয়া পদক্ষেপের কারণে আমার আর আমার পরিবারের যে ক্ষতি হয়েছে আমি তা মেনে নিতে পারি না। এটি কখনও ঘটা উচিৎ হয়নি আর তাদের এটি আরও ভালো জানা উচিৎ। আর তারা একটি ক্ষতিকর ভুল করায়, এর জবাবে এখন ক্ষতিপূরণ মামলা করা হয়েছে।”
এ নিয়ে নিউ জিল্যান্ড প্রধানমন্ত্রী জেসিনডা আরডার্ন বলেন, “এটি অবশ্যই একটি চলমান ঘটনা, তাই এটি আমায় অবাক করেনি।”
 
আরও খবর-
ডটকম-কে যুক্তরাষ্ট্র পাঠানো ‘যেতে পারে’  
সরাসরি সম্প্রচারে সায় পেলেন কিম ডটকম  
