নিজেদের প্লাটফর্মে ভিডিও কনটেন্ট আরও উন্নত করার লক্ষ্যে প্রতিষ্ঠানটি এমন পদক্ষেপ নিচ্ছে বলে জানিয়েছে আইএএনএস।
নতুন এই ব্যবস্থায় কোনো ভিডিও একবার কমপক্ষে তিন সেকেন্ড দেখা হলেও প্রকাশক অর্থ পাবেন। আর একটি ‘ন্যুনতম’ সংখ্যকবার কোনো ভিডিও দেখা না হলে ওই ভিডিও সরিয়ে নেওয়া হবে।
সোশাল জায়ান্টটি এখন নতুন এক অ্যালগরিদম ব্যবহার শুরু করবে। এর মাধ্যমে একটি ভিডিও’র মূল্য কেমন তা শনাক্ত করা হবে ও ব্যবহারাক্রীর নিউজ ফিডে র‍্যাংক অনুযায়ী সাজানো হবে।
শনিবার ফেইসবুক এক ব্লগপোস্টে বলে, “আজ, আমরা একটি পরিবর্তন ঘোষণা করছি, যার মাধ্যমে নিউজ ফিডে আমরা ভিডিও র‍্যাংক করি যাতে এর মূল্য যোগ করা যায়, এই মূল্য আমরা ভিডিও কতবার দেখা হয়েছে তার উপর নির্ভর করে নির্ধারণ করি।”
