এই ওয়েবসাইটগুলোর মধ্যে জাতীয় নিরাপত্তা বিঘ্নিত করা কনটেন্ট প্রকাশ করে এমন সাইট রয়েছে। পাশাপাশি সহিংসতা, অশ্লীলতা বা ভিত্তিহীন গুজব ছড়ায় এমন সাইটও রয়েছে বলে সংস্থাটির এক বিবৃতির বরাতে এ খবর প্রকাশ করেছে দেশটির রাষ্ট্রীয় সংবাদ সংস্থা শিনহুয়া নিউজ এজেন্সি।
শনিবার দেওয়া ওই বিবৃতিতে সিএসি বলে, একই সময়ে বিচার বিভাগের হাতে বৈধতার প্রশ্ন রয়েছে এমন ৩১৬টি পর্যন্ত ওয়েবসাইট হস্তান্তর করা হয়েছে। চলতি বছরের দ্বিতীয় প্রান্তিকে অবৈধ ৮১০০০০টিরও বেশি সাইবার অ্যাকাউন্ট বন্ধ করা হয়েছে বলেও বিবৃতিতে উল্লেখ করা হয়।  
বিবৃতির সূত্র ধরে আইএএনএস-এর প্রতিবেদনে বলা হয়, আইন লঙ্ঘনের জন্য ৪৪৩টি ওয়েবসাইটের মালিকের বিরুদ্ধে সাইবার পর্যবেক্ষকরা সমন জারি করেছে। আর ১৭২টি ওয়েবসাইটকে সতর্ক করা হয়েছে।
