স্যামসাংয়ের পক্ষ থেকে বলা হয়, নির্বাহী ভাইস প্রেসিডেন্ট চোই কিয়ুং-সিক প্রতিষ্ঠানের মোবাইল বিভাগের কৌশলগত বিপনণ কার্যালয়ের প্রধান হিসেবে পদোন্নতি পেয়েছেন। তার আগে এ পদে দ্বায়িত্ব পালন করে আসা লি স্যাং-চুল প্রতিষ্ঠানটির দক্ষিণ এশীয় কার্যক্রম দেখাশোনা করবেন।
প্রতিষ্ঠানটির স্মার্টফোন ব্যবসায়ের প্রধান হিসেবে কোহ ডং-জিন এর নামই আবার ঘোষণা করা হয়েছে, এমন তথ্য দিয়েছেন স্যামসাংয়ের এক মুখপাত্র। 
চীনে স্মার্টফোন ব্যবসায়ের ক্ষেত্রে স্থানীয় প্রতিদ্বন্দ্বী প্রতিষ্ঠান হুয়াওয়ে, অপ্পো আর ভিভো’র সঙ্গে লড়াইয়ে বেগ পেতে হচ্ছে স্যামসাংকে। চীনে ব্যবসায়ের প্রধান হিসেবে কোওন কি-হিউন এর নাম ঘোষণা করা হয়েছে। 
রয়টার্স-এর প্রতিবেদনে বলা হয়, বিশ্বের শীর্ষ এই স্মার্টফোন ও মেমোরি চিপ নির্মাতা প্রতিষ্ঠানটি চলতি বছর নতুন রেকর্ড লাভ করবে বলে আশা করা হচ্ছে। কিন্তু স্যামসাং গ্রুপ-এর নেতা জেয় ওয়াই. লি-এর আটক হওয়া প্রতিষ্ঠানটির ভবিষ্যৎ দিক নির্দেশনা ও কৌশল নিয়ে সন্দেহ যোগাচ্ছে। 
২০১৬ সালের শেষ থেকে কর্মী রদবদলের এই পদক্ষেপ ‘বিলম্বিত’ হয়ে আসছে বলে জানায় স্যামসাং। আর এ কারণে প্রতিষ্ঠানটির প্রতিদ্বন্দ্বীতার সক্ষমতায় প্রভাব পড়বে বলেও দাবি তাদের। 
