নতুন এই স্টিকারটি গ্লাভসের সঙ্গে লাগিয়ে রাখা যাবে। আর সেটির ফিঙ্গারপ্রিন্ট দিয়ে আনলক করা যাবে স্মার্টফোনের লক। এক্ষেত্রে প্রতিটি স্টিকারের ফিঙ্গারপ্রিন্ট হবে সম্পূর্ণ ব্যতিক্রম, জানিয়েছে প্রযুক্তি বিষয় সাইট দ্য ভার্জ।
একই প্যাকেট থেকে বের করা হলেও প্রতিটির ফিঙ্গারপ্রিন্ট ভিন্ন হবে বলে নিশ্চয়তা দেওয়া হয়েছে। আর স্টিকারটি পানি নিরোধী হবে বলেও জানানো হয়।
শীতের মৌসুমে গ্লাভস পরিহিত হাতে ফোন ব্যবহার করা গেলেও ফিঙ্গারপ্রিন্ট লক খুলতে বিপত্তি দেখা যায়। মূলত সে ঝামেলা এড়াতেই স্টিকারটি আনা হয়েছে বলে জানানো হয়। এটি ব্যবহারের জন্য স্টিকারটিরপ্রিন্ট ফোনে সেইভ করে তা গ্লাভসে লাগিয়ে নিলেই হলো। এর ফলে গ্লাভস পরিহিত অবস্থায়ই ফোন আনলক করতে পারবেন ব্যবহারকারীরা।
