ঠিক কী কাজে এই প্রসেসরগুলো ব্যবহার করা হবে তা নিশ্চিতভাবে জানা যায়নি। আপডেটেড ম্যাকবুক ও নতুন একটি আইম্যাক-এ এই প্রসেসরগুলো যোগ করা হবে বলে প্রতিবেদনে জানিয়েছে প্রযুক্তিবিষয়ক সাইট ভার্জ।
আইফোন, আইপ্যাড ও পরিধেয় ডিভাইসগুলোর জন্য আগে থেকেই কাস্টম চিপ তৈরি করে আসছে অ্যাপল। ২০১৭ সালে টাচ বার-সহ ম্যাকবুকেও নিজস্ব কাস্টম চিপ ব্যবহার করেছে মার্কিন প্রযুক্তি জায়ান্ট প্রতিষ্ঠানটি। টাচ বার ও টাচ আইডি চালাতে এই চিপ ব্যবহার করা হয়েছে বলে জানানো হয়।
২০১৭ সালের ডিসেম্বরে আইম্যাক-এ নিজস্ব চিপ যোগ করেছে অ্যাপল। অডিও, ক্যামেরা প্রসেসিং এবং এনক্রিপশনের কারণে এই প্রসেসর ব্যবহৃত হয়।
ধারণা করা হচ্ছে শীঘ্রই ম্যাক কম্পিউটারের মূল প্রসেসর হিসেবেও নিজস্ব চিপ যোগ করবে অ্যাপল।
