ব্লগের ওই পোস্টে মাস্ক এ গাড়ির বিস্তারিত বর্ণনা দেন। তিনি জানান, প্রকল্পটি সফল হলে তা হবে আন্তনগর পরিবহন ব্যবস্থার আদর্শ। কিন্তু তার আগে এর নিরাপত্তা এবং অর্থায়নের ব্যাপারে কিছু প্রশ্নের মুখোমুখি হতে হবে।
এ প্রকল্পে ৬০০ কোটি ডলার খরচ হতে পারে। সময় লাগবে সাত থেকে ১০ বছর। এতে যুক্তরাষ্ট্রের পশ্চিমাঞ্চলের ৭ কোটি মানুষ যানজট থেকে মুক্তি পাবে বলে পোস্টে দাবি করা হয়েছে।
গাড়িতে করে যেখানে যেতে সাড়ে পাঁচ ঘণ্টা লাগে সেখানে হাইপারলুপের মাধ্যমে মাত্র আধ ঘণ্টায় যাওয়া যাবে।
প্রকল্পটির ৫৭ পৃষ্ঠার ডিজাইন পরিকল্পনায় বলা হয়, এর প্রত্যেকটি বাহনে ২৮ জন যাত্রী উঠতে পারবে।
