ব্যবসায় বাণিজ্যবিষয়ক সাইট বিজনেস ইনসাইডার জানিয়েছে, কাটজ যাকে প্রস্তাব দিয়েছিলেন আসলে  তিনি ছিলেন একজন পুলিশ কর্মকর্তা। ছদ্মবেশে তিনি ১৫ বছর বয়সী বালিকার ভান করে ছিলেন বলে জানানো হয়।
প্রতিবেদনে বলা হয়, কাটজ-এর বিরুদ্ধে “নাবালিকার সঙ্গে অসাধু  উদ্দ্যেশে যোগাযোগের” অভিযোগ আনা হয়েছে।
প্রতিবেদনে আরও জানানো হয়,  ১৫ বছর বয়সী বালিকার বেশে একটি ব্যক্তিগৎ বিজ্ঞাপন দেন ঐ পুলিশ কর্মকর্তা। সেখানেই ৩৬০ মার্কিন ডলারে কনডম ছাড়া যৌন সম্পর্কের প্রস্তাব দেন কাটজ।
