এ দিন বিশ্বজুড়ে গ্রাহকরা হঠাৎ করেই হোয়াটসঅ্যাপ ব্যবহার করতে পারছিলেন না। কয়েক ঘন্টা এ অবস্থা চলার পর তা ঠিক করে প্রতিষ্ঠানটি, বলা হয়েছে রয়টার্স-এর প্রতিবেদনে।
সমস্যা সমাধানের পর এক ইমেইলে হোয়াটসঅ্যাপ-এর পক্ষ থেকে বলা হয়, “আজ দিনের প্রথম দিকে, বিশ্বের কোনো অঞ্চল থেকেই হোয়াটসঅ্যাপ ব্যবহার করতে পারেননি গ্রাহকরা। আমরা এখন ত্রুটি সমাধান করেছি এবং ভোগান্তির জন্য ক্ষমা চাচ্ছি।”
রয়টার্স-এর সাংবাদিকরা বলেন, ভারত, কানাডা, মার্কিন যুক্তরাষ্ট্র এবং ব্রাজিলের গ্রাহকরা এ দিন হোয়াটসঅ্যাপ ব্যবহার করতে পারেননি। অ্যাপলের আইওএস, গুগলের অ্যান্ড্রয়েড  এবং মাইক্রোসফট-এর উইন্ডোজ কোনো অপারেটিং সিস্টেম থেকেই অ্যাপটি ব্যবহার করা যায়নি বলে উল্লেখ করা হয়।
ব্রাজিলে পেশাদাররা অনেকটাই হোয়াটসঅ্যাপ-এর ওপর নির্ভর করে থাকেন। বুধবার সেবাটি বন্ধ থাকায় হোয়াটসঅ্যাপ-এর প্রতিদ্বন্দ্বী অ্যাপ টেলিগ্রাম ব্যবহার করা শুরু অনেক গ্রাহক।
