আসন্ন এই স্ট্রিমিং সেবা অর্থ পরিশোধ করে ব্যবহার করতে হবে আর অভ্যন্তরীণভাবে এক ‘রিমিক্স’ নামে ডাকা হচ্ছে। স্পটিফাই আর অ্যাপল মিউজিক-এর মতো প্রতিষ্ঠানগুলোর সঙ্গে প্রতিদ্বন্দ্বীতায় একে অ্যালফাবেটের সর্বশেষ পদক্ষেপ হিসেবে দেখা হচ্ছে বলে উল্লেখ করা হয় বিজনেস ইনসাইডার-এর প্রতিবেদনে।
চলতি বছর মে মাসে ইউটিউব ওয়ার্নার মিউজিক গ্রুপ-এর সঙ্গে একটি দীর্ঘমেয়াদি চুক্তি করে। এবার সনি আর ইউনিভার্সাল-এর সঙ্গেও দুই বছর মেয়াদে একই রকম চুক্তি করছে প্রতিষ্ঠানটি।
এই তিনটি চুক্তি মিলে রিমিক্স-এর চালু হওয়ার রাস্তা উন্মুক্ত করে দিয়েছে বলে ব্লুমবার্গ-এর প্রতিবেদনে বলা হয়।
এই চুক্তিতে ইউটিউবে আপলোড করা কপিরাইট থাকা গানগুলোর আয় প্রযোজনা প্রতিষ্ঠানগুলোর সঙ্গে কীভাবে ভাগ করা হবে তা নিয়েও বলা হয়েছে।
