প্রায় এক হাজার গ্রাহকের উপর ‘পিপার জাফরে’ পরিচালিত এক জরিপে দেখা গেছে চলমান 'সাইবার মানডে', ব্লাক ফ্রাইডে ও সপ্তাহব্যাপী চলা থ্যাংকসগিভিং ডে উপলক্ষে আইফোন উপহার হিসেবে দেওয়ার ও চাওয়ার হার আগের থেকেও বৃদ্ধি পেয়েছে।
পছন্দের শীর্ষে থাকা উপহারগুলোর ব্র্যান্ড পর্যালোচনা করে দেখা গেছে ‘অ্যাপল মাইন্ডশেয়ার’ অর্থাৎ গ্রাহকদের তথ্যানুসারে তারা ঠিক কী কিনবে তার পরিমাণ ২০১৬ সালে বৃদ্ধি পেয়ে ১০.৩ শতাংশ হয়েছে।
এই জরিপের বরাতে মানস্টার জানান, উপহার হিসেবে আইফোন চেয়েছেন এমন মানুষের সংখ্যা ৭.২ শতাংশ, যা ২০১৫ সালে ছিল ৫.২ শতাংশ। "ধারণা করা হচ্ছিল আইফোন ৭ ও ৭ প্লাস যথাক্রমে এর আগের সংস্করণ আইফোন ৬ ও ৬ প্লাসের ক্রমবর্ধমান পরিবর্তিত রূপ এবং নতুন এই সংস্করণটিতে খুব কমই পরিবর্তন সাধিত হয়েছে। কিন্তু বাস্তবতা হচ্ছে গ্রাহকরা এখনও এটি চায়"- যোগ করেন তিনি।
