বুধবার দক্ষিণ কোরীয় দৈনিক ইলেকট্রনিক টাইমস নাম প্রকাশ না করা সূত্রের বরাতে এ খবর জানায়।
দৈনিকটি জানায়, স্যামসাং তাদের ১০-ন্যানোমিটার উৎপাদন প্রযুক্তি ব্যবহার করে কোয়ালকম-এর স্ন্যাপড্রাগন ৮৩০ মোবাইল প্রসেসর বানাবে।
২০১৭ সালে স্যামসাং তাদের গ্যালাক্সি এস স্মার্টফোন-এর আপডেট সংস্করণ বের করা হবে। ওই হ্যান্ডসেটের মোট চালানের অর্ধেকে এই প্রসেসর ব্যবহারে সম্মত হয়েছে দক্ষিণ কোরীয় প্রতিষ্ঠানটি।  
চলতি বছর জানুয়ারি স্যামসাং জানায়, তারা স্ন্যাপড্রাগন ৮২০ চিপের একক উৎপাদক ছিল। সে সময় কয়েকজন বিশ্লেষক জানান, এই চুক্তি শতকোটি ডলারের বেশি মূল্যের ছিল।
