অ্যাপস্টোর থেকে ডাউনলোড করা যাবে হোয়াটসঅ্যাপ-এর ২.১৭.৫০ সংস্করণ। এতে দলবদ্ধভাবে চ্যাটিংয়ের সুবিধাও রাখা হয়েছে-- খবর ভারতীয় সংবাদমাধ্যম আইএএনএস-এর।
নতুন এই সংস্করণে প্রথমবারের মতো আইওএস ব্যবহারকারীদের নির্দিষ্ট কোনো চ্যাট স্ট্রিংয়ে সার্চ করার সুযোগ দিয়েছে হোয়াটসঅ্যাপ।
এর পাশাপাশি এই সংস্করণে ভিডিও স্ট্রিমিং ফিচারও চালু করেছে প্রতিষ্ঠানটি। আর গ্রাহক চাইলে এর মাধ্যমে যে কোনো ধরনের ফাইল শেয়ার করতে পারবেন। এ ছাড়া এবার ‘পিন’ ফিচারও চালু করেছে প্রতিষ্ঠানটি।
২০১৪ সালে ১৯০০ কোটি মার্কিন ডলারে মেসেজিং অ্যাপটি অধিগ্রহণ করে ফেইসবুক।
সম্প্রতি ১৩০ কোটি মাসিক সক্রিয় গ্রাহকের হিসাব দিয়েছে হোয়াটসঅ্যাপ। প্রতিদিন ৪৫০ কোটি ছবি শেয়ার করা হয় এর মাধ্যমে। আর বর্তমানে ৬০টি ভাষা সমর্থন করে অ্যাপটি।
প্রতিদিন হোয়াটসঅ্যাপ-এ ৫৫০০ কোটি বার্তা এবং একশ’ কোটি ভিডিও আদান প্রদান করেন গ্রাহক।
