২০১৪ সালে শেয়ারবাজারে যাত্রা শুরু করতে গোপ্রোকে সহায়তা করেছিল জে.পি. মরগান। এখন পর্যন্ত বিক্রি নিয়ে কোনো চুক্তি নিশ্চিত হয়নি বলে জানিয়েছে সংবাদমাধ্যমটির সূত্রগুলো। এই আলোচনা গোপন আর গোপ্রো এখনও কোনো ক্রেতার সঙ্গে সক্রিয়ভাবে কোনো কথা বলেনি, এ কারণে নিজেদের নাম প্রকাশ করতে চাননি তথ্য দেওয়া কেউই। প্রতিষ্ঠানটি কেনার জন্য কোনো আগ্রহী ক্রেতা আছে কিনা তা এখনও স্পষ্ট নয়।
গোপ্রো এ নিয়ে কোনো মন্তব্য করতে অস্বীকৃতি প্রকাশ করেছে বলে উল্লেখ করা হয়েছে সংবাদমাধ্যমটির প্রতিবেদনে। 
সোমবার গোপ্রো প্রধান নির্বাহী নিক উডম্যান সিএনবিসি’কে বলেন, প্রতিষ্ঠানটি বিক্রি বা অন্য কোনো প্রতিষ্ঠানের সঙ্গে অংশীদারিত্বের চুক্তিতে যাওয়ার বিষয়ে বিবেচনা করবে, যদিও এখন পর্যন্ত প্রতিষ্ঠানটি স্বাধীনভাবে থাকার পরিকল্পনা করছে।
উডম্যান বলেন, “যদি আমাদের কাছে কোনো বড় প্রতিষ্ঠানের আওতায় গিয়ে গোপ্রোকে আরও বড় করার সুযোগ আসে, তবে আমরা বিষয়টি দেখব।”
