ঘর বাড়ির কানেক্টেড ডিভাইস নিয়ন্ত্রণ করতে আগের বছরই ‘গুগল হোম’ উন্মোচন করে সার্চ ইঞ্জিন জায়ান্ট প্রতিষ্ঠানটি। গুগল অ্যাসিস্টেন্ট নিয়ন্ত্রিত এ ডিভাইসটি ঘরবাড়ির নানা স্মার্ট ডিভাইস নিয়ন্ত্রণ করতে পারে। এর মাধ্যমে শুধু ভয়েস কমান্ড দিয়েই অনেকগুলো ডিভাইস নিয়ন্ত্রণ করা হয়ে থাকে।
গুগলের নিজস্ব স্মার্টফোন পিক্সেল-এ ভয়েস অ্যাসিস্টেন্ট সেবা রাখা হলেও এ যাবত এটি কানেক্টেড ডিভাইস নিয়ন্ত্রণ করতে পারত না।
প্রযুক্তিবিষয়ক সাইট সিনেট জানায়, এবার নতুন আপডেটে ফোনের মাধ্যমেই ডিভাইসগুলো নিয়ন্ত্রণের সুবিধা দিচ্ছে গুগল। ফলে স্মার্ট হোম নিয়ন্ত্রণ করতে গ্রাহককে আলাদা করে ১৩০ মার্কিন ডলার মূল্যের গুগল হোম কেনার প্রয়োজন নেই বলে জানানো হয়।
পিক্সেল ফোনে ফিচারটি সেটিংস মেনু থেকে চালু করে নিলেই হবে। আগে বছরই নিজস্ব ভয়েস অ্যাসিস্টেন্ট সেবা উন্মোচন করে গুগল। কিন্তু ভিন্ন ভিন্ন ডিভাইসে এর কার্যকারীতা ভিন্ন রাখা হয়। এবার পিক্সেল ডিভাইসেও গুগল হোমের কিছু  ফিচার যোগ করতে শুরু করেছে প্রতিষ্ঠানটি।
স্মার্টফোনের মাধ্যমে স্মার্ট হোমের নিয়ন্ত্রণ নতুন কিছু নয়। তবে, একটি ডিভাইস দিয়েই যতটা সম্ভব বেশি কাজ করার লক্ষ্যেই পিক্সেল ফোনে এ ফিচার চালু করেছে গুগল।
