শিশুদের জন্য নিষিদ্ধ এসব বিষয়বস্তু তারা যাতে দেখতে না পারে তার বৃহত্তর আন্দোলনের অংশ হিসেবেই এই পদক্ষেপ। সরকার আরও জানিয়েছে, এই পরিকল্পনা ডিজিটাল অর্থনীতির সংশোধনী বিলের অন্তর্ভুক্ত হবে।
বিশ্লেষকদের মতে, এমন আইনি ব্যবস্থার ফলে ১০ হাজারেরও বেশি সাইট বন্ধ হয়ে যেতে পারে।
সরকার ইতোমধ্যেই ফিল্ম ক্লাসিফিকেশন ব্রিটিশ বোর্ড (বিবিএফসি) -কে এই আইন প্রয়োগ করার ক্ষমতা দিয়েছে।
বিবিসি জানিয়েছে, বিবিএফসি এখন বয়স যাচাই করা ছাড়া অনলাইন পর্নোগ্রাফিক সাইটগুলো বন্ধ করে দিতে আইএসপি বা মোবাইল অপারেটরদের জন্য একটি নোটিস জারি করতে পারে।
সরকারের এই পদক্ষেপ সম্পর্কে দেশটির সংস্কৃতি সচিব কারেন ব্রাডলি বলেন, “সরকার ক্ষতিকর পর্নোগ্রাফিক সামগ্রী থেকে শিশুদের নিরাপদ রাখতে প্রতিশ্রুতিবদ্ধ। আর আমরা ঠিক এই লক্ষ্যেই কাজ করে যাচ্ছি।”
“প্রাপ্তবয়স্করাই শুধু এমন জিনিস দেখতে পারবেন। কোনো সাইট এসব নিয়ম মানতে অস্বীকার করলে অবশ্যই তা বন্ধ করা উচিত।”
