ব্যবসা-বাণিজ্যবিষয়ক মার্কিন সাইট বিজনেস ইনসাইডারের তথ্যমতে, ব্যবহারকারীর কোনো 'লুকানো' ইনস্টাগ্রাম মেসেজ আছে কিনা তা দেখতে ইনস্টাগ্রাম পেইজের উপরে ডানদিকে থাকা ইনবক্স আইকনে চাপতে হবে বা কেবল ডানদিকে 'সোয়াইপ' করলেও চলবে।
যদি কোন লুকানো মেসেজ থাকে, তাহলে কিছুটা ঘোলাটে নীল 'বার' যুক্ত ইনবক্স আসবে, যাতে লেখা থাকে, 'মেসেজ রিকোয়েস্ট'। এই নীল 'বার'-এ চাপলে আরেকটি ইনবক্স আসবে যাতে ব্যবহারকারী তার কাছে আসা মেসেজ রিকোয়েস্ট দেখতে পাবেন। ইনস্টাগ্রামের তথ্যানুসারে, এগুলো 'ব্যবহারকারী যাদের অনুসরণ করেন না' তাদের মেসেজ।
"তারা তখনই জানতে পারবেন যে তাদের মেসেজটি দেখা হয়েছে, যখন ব্যবহারকারী তাদের রিকোয়েস্ট 'গ্রহণ' করবেন", জানিয়েছে ইনস্টাগ্রাম।
