ওই ভবনগুলোর নাম দেওয়া হয়েছে গ্রিক দেবতা আর দৈত্যদের নামে।
স্বয়ংক্রিয় মোটরযান নিয়ে অ্যাপলের প্রকল্পকে 'প্রজেক্ট টাইটান' নামে ডাকা হয়। এই নামটাও নেওয়া হয়েছে গ্রিক পুরাণের দেবতা 'টাইটান'-এর নাম থেকে। সেই সঙ্গে কতগুলো ভবনকে 'অ্যাথেনা', 'জিউস', 'মেডুসা'সহ কিছু গ্রিক পৌরাণিক চরিত্রের নামে নাম দিয়েছে অ্যাপল।
এগুলোর মধ্যে 'রিয়া'-এর নামে রাখা ভবনটিকে বেশি 'আকর্ষণীয়' হিসাবে উল্লেখ করেছে অ্যাপলবিষয়ক গুজবের সাইট ‘অ্যাপল ইনসাইডার’। সরকারি দলিলে এই ভবনকে 'গাড়ি মেরামতের গ্যারেজ' হিসাবে দেখানো হয়েছে।
