২০১৫ সালে ‘মিশন ই’ নামে বৈদ্যুতিক গাড়ির একটি কনসেপ্ট উন্মোচন করে প্রতিষ্ঠানটি। এবার গাড়িটির উৎপাদনযোগ্য মডেলের পরীক্ষা চালাতে দেখা গেছে বলে প্রতিবেদনে জানিয়েছে প্রযুক্তিবিষয়ক সাইট টেকক্রাঞ্চ।
মিশন ই গাড়ি দিয়ে টেসলার সঙ্গে প্রতিযোগিতায় নামার প্রয়াশ করছে পোর্শ। জার্মানির স্টুটগার্টে পোর্শ কারখানায় গাড়িটি পরীক্ষায় সময়ও সেখানে কয়েকটি টেসলা গাড়ি দেখা গেছে বলে প্রতিবেদনে বলা হয়।
পরীক্ষা চালানো হলেও গাড়িটি নিয়ে বিস্তারিত কোনো তথ্য দেওয়া হয়নি।
গাড়িটির কনসেপ্ট উন্মোচনকালে বলা হয়, মিশন ই গাড়িটি একবার পূর্ণ চার্জে ৩১০ মাইল চলবে। ৬০০ হর্স পাওয়ারের মোটর ব্যবহার করা হয়েছে এতে। এ ছাড়াও ১৫ মিনিটে গাড়ির ব্যাটারি ৮০ শতাংশ চার্জ করা যাবে বলে দাবি করেছে প্রতিষ্ঠানটি। গাড়িটি ৩.৫ সেকেন্ডে ঘণ্টায় ৬২ মাইল গতি অর্জনে সক্ষম।
দ্রুত চার্জ করার জন্য গাড়িটিতে ৮০০ ভোল্টের চার্জার ব্যবহার করা হয়েছে। এই গাড়িটি তারবিহীন ইন্ডাক্টিভ চার্জারের মাধ্যমেও চার্জ করা সম্ভব বলে জানানো হয়।
পারফর্মেন্সের পাশাপাশি ডিজাইনের দিকেও মনোযোগ দেওয়া হয়েছে গাড়িটিতে। গাড়িটির ভিতরে হলোগ্রাফিক ড্যাশবোর্ড ব্যবহার করা হয়েছে। এ ছাড়াও কোনো টাচ স্ক্রিন ছাড়াই শুধু হাতের ইশারাতেই গাড়িটির মাল্টিমিডিয়া নিয়ন্ত্রণ করা যাবে।
