এ খবর প্রকাশের আগের সপ্তাহে ঘোষিত হংকংভিত্তিক প্রতিষ্ঠানটি জানায়, এ আক্রমণের ফলে সংঘটিত ক্ষয়ক্ষতি প্রতিষ্ঠানটির সম্পদ ও ভোক্তাদের মধ্যে বণ্টন করে দেওয়া হবে। এ ছাড়াও পরবর্তী ২৪ থেকে ৪৮ ঘন্টার মধ্যেই ভোক্তারা প্লাটফর্মে লগইন করতে সক্ষম হবেন বলে জানায় প্রতিষ্ঠানটি।
রবিবার বিটফিনেক্স-এর ওয়েবসাইটে বলা হয়, "ব্যবসায়িক বিলুপ্তির ক্ষেত্রে যা হতে পারে এটি তার সবচেয়ে কাছাকাছি একটি ঘটনা। প্লাটফর্মে লগইন করার পর ভোক্তারা দেখতে পাবেন যে, তারা শতকরা ৩৬.০৬৭ ভাগ ব্যবসায়িক ক্ষতির সম্মুখীন হয়েছেন।"
প্রতিষ্ঠানটি আরও জানায়, ক্ষয়ক্ষতির শিকার সব ভোক্তাকেই একটি করে 'বিএফএক্স' টোকেন দেওয়া হবে, যেখানে তাদের ক্ষয়ক্ষতির হিসেব লিপিবদ্ধ থাকবে। এ টোকেনগুলো বিনিময় প্রতিষ্ঠানটির মাধ্যমে অথবা প্রতিষ্ঠানটির মাতৃ প্রতিষ্ঠান আইফিনেক্স শেয়ার হিসেবে বিনিময়যোগ্য হবে। ভোক্তাদের পুরোপুরিভাবে ক্ষতিপূরণ দেওয়ার প্রক্রিয়া নিয়ে বিনিয়োগকারীদের সঙ্গে আলোচনার পর পরবর্তী আপডেটে জানিয়ে দেওয়া হবে বলে জানায় প্রতিষ্ঠানটি।
রয়টার্স জানায়, ক্রিপ্টোমুদ্রা ব্যবসায়ের ইতিহাসের দ্বিতীয় বৃহত্তম এই চুরির ঘটনায় হ্যাকাররা বিটফিনেক্স থেকে ১,১৯,৭৫৬ বিটকয়েন হাতিয়ে নেয়, যা বৈশ্বিক চলমান মোট বিটকয়েন সংখ্যার শতকরা ০.৭৫ অংশ। তবে, হ্যাকাররা কী করে প্রতিষ্ঠানটির গ্রাহক অ্যাকাউন্টে প্রবেশাধিকার পায় তা এখনও পর্যন্ত স্পষ্ট নয়।
