‘অ্যান্ড্রয়েড ও’ নামের এই সংস্করণটি এ যাবত পরীক্ষামূলকভাবে চালাচ্ছিল মার্কিন প্রযুক্তি জায়ান্ট প্রতিষ্ঠানটি। এবার তারা আনুষ্ঠানিকভাবে এটি উন্মুক্ত করতে যাচ্ছে- বলা হয়েছে  মার্কিন সংবাদমাধ্যম সিএনবিসি’র প্রতিবেদনে।
নতুন এ সংস্করণ নিয়ে ইতোমধ্যেই বেশ কিছু তথ্য পাওয়া গেছে। অ্যান্ড্রয়েড ও-এর সবচেয়ে আলোচিত ফিচারগুলোর একটি বলা হচ্ছে এর ‘পিকচার-ইন-পিকচার’ মোড। এর মাধ্যমে গ্রাহক অন্য কাজ করার পাশাপাশি ছোট পর্দায় সিনেমা দেখতে পারবেন।
পিকচার-ইন-পিকচার মোড নিয়ে আলোচনা হলেও এটি নতুন কিছু নয়। এর আগে স্যামসাং ডিভাইসে এই ফিচার দেখা গেছে।
অ্যান্ড্রয়েড অপারেটিং সিস্টেমের নামকরণের ক্ষেত্রে ‘ডেসার্ট’-এর নাম ব্যবহার করে থাকে গুগল। ডেসার্ট বলতে মূল খাবারের পর মিষ্টি জাতীয় খাবার বোঝায়। ডেসার্টের নাম দেওয়া হলেও এটিকে সংক্ষিপ্ত করে ডাকার প্রথা রয়েছে। যেমন অ্যান্ড্রয়েড নুগাট-কে বলা হয়েছে ‘অ্যান্ড্রয়েড এন’। এবার নতুন সংস্করণের নাম বলা হচ্ছে ‘অ্যান্ড্রয়েড ও’। তবে, এর পুরো নামের পেছনে কোন খাবার রয়েছে তা জানা যাবে সোমবার।
