কালারফুল বেলুনস নামের এই অ্যাপটি ফেইসবুকের মোমেন্টস অ্যাপের মতো বলে রয়টার্স-এর প্রতিবেদনে উল্লেখ করা হয়েছে। কিন্তু এই অ্যাপটি ফেইসবুকের নাম বহন করে না।
চীনে ইয়োগ ইন্টারনেট টেকনোলজি নামের একটি প্রতিষ্ঠান এই অ্যাপ বের করে। এর সঙ্গে ফেইসবুকের কোনো সম্পৃক্ততা আছে বলে কোনো প্রকার আভাসই দেয়নি তারা। অ্যাপলের অ্যাপ স্টোরের বরাতে এই তথ্য জানায় দৈনিকটি।
এক ইমেইলে ফেইসবুকের এক মুখপাত্র বলেন, “আমরা অনেক দিন ধরেই বলছি আমরা চীনের প্রতি আগ্রহী, দেশটির অবস্থা বুঝতে ও আরও শিখতে বিভিন্ন উপায়ে সময় ব্যয় করছি আমরা।”
“এখন আমাদের লক্ষ্য হচ্ছে আমাদের বিজ্ঞাপন প্লাটফর্ম ব্যবহার করে চীনা ব্যবসায় প্রতিষ্ঠানগুলো যাতে চীনের বাইরে নতুন নতুন বাজারে তাদের ব্যবসায় বাড়াতে পারে সেজন্য সহায়তা করা।”
চীনের ইন্টারনেট নিয়ন্ত্রক সংস্থাগুলো এই অ্যাপের বিষয়ে জানে কিনা তা এখনও স্পষ্ট নয়।  
