৩০ জন গবেষকের অংশগ্রহণে এ খোলা চিঠিতে এই চিঠির আয়োজক উদ্যোক্তা গবেষক জেয়নেপ টুফেকসি প্রযুক্তি সাইট টেকক্রাঞ্চকে বলেন, "দুর্ভাগ্যবশত এ প্রতিবেদনটি ছিল অর্থগত দিক থেকে অসম্পূর্ণ কোনো প্রতিবেদনে 'ভ্যাকসিন মৃত্যুর কারণ'-এর মতো ভয়াবহ শিরোনাম বসিয়ে দেওয়ার মতোই।"
ব্রিটিশ দৈনিকটির এ প্রতিবেদন "জনগণকে গুরুতর ঝুঁকির মুখে ফেলছে" মন্তব্য করে তিনি আরও বলেন, "এ ক্ষেত্রে আমার দীর্ঘ সময়ের অভিজ্ঞতার বিবেচনায় এ প্রতিবেদন প্রকাশের পর থেকে আসলে যা হচ্ছে তাতে আমি শঙ্কিত। এ ক্ষেত্রে ব্যাপক সংখ্যক অভিজ্ঞদের সাক্ষাৎকার ছাড়া এমন গুরুত্বপূর্ণ বিষয়ে প্রতিবেদন প্রকাশ করা উচিত হয়নি।"
এ খোলা চিঠির উত্তরে গার্ডিয়ান-এর পক্ষ থেকে বলা হয়, "আমরা জেয়নেপ টুফেকসি-এর খোলা চিঠি সম্পর্কে অবগত এবং গার্ডিয়ান-এর জন্য জবাব লেখার সুযোগ তাকে দিয়েছি। এ সুযোগ উন্মুক্ত থাকবে এবং আমরা এ বিষয়ে বিতর্ককে স্বাগত জানাচ্ছি।"
সম্প্রতি দৈনিকটির এক প্রতিবেদনে হোয়াটসঅ্যাপ প্লাটফর্মে এক নিরাপত্তা ত্রুটি ব্যবহার করে এর এনক্রিপটেড মেসেজিং সার্ভিসে হস্তক্ষেপের সুযোগ রয়েছে বলে উল্লেখ করা হয়। ক্রিপ্টোগ্রাফি ও নিরাপত্তা গবেষক টোবিয়াস বোয়েল্টার এ ত্রুটি শনাক্ত করেন, জানিয়েছে আইএএনএস।
