‘গ্রাহকের জন্য ট্যাক্সি অপেক্ষা করবে’- এমন নিশ্চয়তা দিয়ে গ্রাহকের ভ্রমণ আরও সহজ করতেই এমন পদক্ষেপ নিয়েছে উবার।
ভারতের কোচি-তে সফলভাবে পরীক্ষা চালনোর পর সোমবার থেকে নয়াদিল্লী, ব্যাঙ্গালুরু, চেন্নাই, মুম্বাই, পুনে, আহমেদাবাদ, ভাইজাগ আর নাগপুরসহ দেশটির বিভিন্ন শহরে সামনের সপ্তাহগুলোতে উবারহায়ার চালু হতে যাচ্ছে বলে জানিয়েছে ভারতীয় সংবাদমাধ্যম আইএএনএস।
“উবারহায়ার এমন একটি অ্যাপ যা ভারতের মানুষদের বিশেষত পর্যটক, ব্যবসায় ভ্রমণকারী, জ্যেষ্ঠ নাগরিক ও পেশাদারদের জন্য যাতায়াতে সহায়তা করতে ১২ঘন্টা পর্যন্ত ট্যক্সি সেবা দেবে উবার,” এক বিবৃতিতে বলেন ভারতে নিযুক্ত উবার-এর প্রধান প্রকৌশলী আপুর্ভা ডালাল।
দূরত্ব আর যাত্রার সময় হিসেব করে ভ্রমণ শেষে যাতায়াত ভাড়া নির্ধারণ করা হয় এই সেবায়। গ্রাহকরা ভাড়া দেওয়ার পর একটি ই-রিসিপ্ট পান বলেও জানানো হয়েছে।
