এ যাবৎ ধারণা করা হচ্ছিল আইফোন ৭ ও ৭ প্লাস-এর উন্নত সংস্করণ ৭এস ও ৭এস প্লাস-এর সঙ্গে আইফোন ৮ উন্মোচন করবে অ্যাপল। এবার ফাঁস হওয়া তথ্য থেকে বলা হচ্ছে নামকরণের ক্ষেত্রে প্রচলিত রীতির বাইরে যেতে পারে প্রতিষ্ঠানটি।
এবারে ‘এস’ সিরিজ বাদ দিয়ে নতুন আইফোনের নাম বলা হচ্ছে আইফোন ৮ ও ৮ প্লাস। এর সঙ্গে ‘আইফোন এক্স’ নামে আরেকটি আইফোন উন্মোচনের কথা রয়েছে প্রতিষ্ঠানটির, বলা হয়েছে প্রযুক্তিবিষয়ক সাইট টেকক্রাঞ্চ-এর প্রতিবেদনে।
আইফোনের ফাঁস হওয়া অপারেটিং সিস্টেম আইওএস ১১-এ দেখা গেছে একটি আইফোনে হোম বাটন সরিয়ে পর্দার জায়গা বাড়ানো হয়েছে। আর টাচ আইডি’র পরিবর্তে ‘ফেসিয়াল রিকগনিশন’ ব্যবহার করা হবে এতে।
আইওএস-এর এক ফার্মওয়্যার ডেভেলপার বলেন, এই ডিভাইসটির নাম হবে আইফোন এক্স। এর আগে এমনও গুজব শোনা গেছে নতুন ডিভাইসের নাম হবে আইফোন ফেরারি।
আইফোন ৮ বা ৮ প্লাসের দাম নিয়ে কোনো তথ্য পাওয়া না গেলেও আইফোন এক্স-এর মূল্য এক হাজার মার্কিন ডলারের বেশি হবে বলে ধারণা করা হচ্ছে।
