চীনের বহুল জনপ্রিয় মেসেজিং অ্যাপ উইচ্যাট-এর মালিকানার পাশাপাশি লিগ অফ লিজেন্ডস এবং অনার্স অফ কিংস-এর মতো গেইমের ফ্র্যাঞ্চাইজিও রয়েছে টেনসেন্ট-এর দখলে।
টেনসেন্টই প্রথম এশীয় প্রতিষ্ঠান যার বাজারমূল্য ৫০ হাজার কোটি ডলার ছাড়িয়েছে, খবর বিবিসি’র। মার্কিন সাময়িকী ফোর্বস-এর সূত্রমতে, টেনসেন্ট-এর প্রধান নির্বাহী মা হুয়াতেং-এর সম্পদের পরিমাণ এখন গুগলের দুই প্রতিষ্ঠাতা ল্যারি পেইজ আর সার্গেই ব্রিন-এর থেকেও বেশি।
তবে এই প্রতিবেদন লেখার সময় ফোর্বসের তালিকাতেই দেখা গেছে শেয়ার মূল্যের ওঠানামার কারণে গুগলের দুই প্রতিষ্ঠাতার মাঝখানে ১৩ নম্বরে অবস্থান করছেন মা হুয়াতেং।
এই সাময়িকীর হিসাবমতে, মঙ্গলবার পর্যন্ত হুয়াতেংয়ের মোট সম্পদের পরিমাণ ৪৭৮০ কোটি ডলার। 
২০১৮ সালে উইচ্যাট লেনদেন সেবাকে মালয়েশিয়াতেও আনা হবে বলে সম্প্রতি ঘোষণা দেয় টেনসেন্ট। এ ঘোষণার পর থেকেই এর শেয়ারমূল্য বাড়তে থাকে।
