শনিবার ব্রিটিশ দৈনিক টেলিগ্রাফ-এর এক প্রতিবেদনে বলা হয়, যুক্তরাজ্যের ব্রিস্টলের সাইক্লিস্ট জেনি মর্টন-হামফ্রেইস তার চুরি যাওয়া একটি সাইকেলের ছবি দিয়ে ফেইসবুকে পোস্ট দেন ও সহায়তা চান। ঘটনাক্রমে তারই সঙ্গের আরেক সাইক্লিস্ট সামাজিক মাধ্যমটিতে সাইকেল বিক্রির পেইজগুলো ভিজিটের সময় ওই সাইকেল খুঁজে পান। ৩০ বছর বয়সী মর্টন আর ওই সাইক্লিস্ট মিলে সাইকেলটি বিক্রেতার কাছ থেকে কেনার পরিকল্পনা করেন।
ওই নারী এই অভিযান পরিচালনায় সহায়তা করতে আর চোরকে ধরতে শহরের পুলিশকে অনুরোধ করেন। কিন্তু পুলিশ এতে অস্বীকৃতি প্রকাশ করে বলে আইএএনএস-এর প্রতিবেদনে উল্লেখ করা হয়েছে। কিন্তু পুলিশের এই প্রত্যাখ্যান ওই নারীকে দমাতে পারেনি। তিনি বিক্রেতার সঙ্গে যোগাযোগ করেন ও সাক্ষাতের ব্যবস্থা করেন।
মর্টন বলেন, “আমি আগ্রহী ক্রেতার অভিনয় করি আর সাইকেলটি সম্পর্কে কিছু অর্থহীন প্রশ্ন করি। আমি বলেছিলাম সাইকেলটির স্যাডল অনেক উঁচু আর আমি এটি চালিয়ে দেখতে পারি কিনা।”
