স্বাভাবিকভাবেই আপনার মনে প্রশ্ন জাগবে ‍সাইটটির অসাধারণত্ব কী। দেরি করতে হবে না। পরের লাইনেই বলা হয়েছে, সাইটটি চলে “রজনী পাওয়ারে”। আর সাইটটি যেহেতু রজনী পাওয়ারে চলে, কাজেই এই সাইটে ব্রাউজ করতে হলে প্রথমে আপনাকে ইন্টারনেট কানেকশন অফ করতে হবে!
অভিনব এই সাইটটির ঠিকানা- অলঅ্যাবাউটরজনী ডটকম (allaboutrajni.com)।
হোমপেইজেই পাওয়া যাবে জেমস বন্ড স্টাইলে রিভলভার হাতে রজনীকান্তের অ্যানিমেটেড একটি পোরট্রেইট। এর বেশি এগুতে চাইলে আপনাকে হয় ইন্টারনেট কানেকশন বন্ধ করতে হবে অথবা ব্রাউজারে ‘অফলাইন মোড’ সিলেক্ট করে নিতে হবে।
সাইটে দ্য লেজেন্ড সেকশনে রজনীকান্ত সম্পর্কে বলা হয়েছে-
“রজনীকান্ত একদিন তার মার সঙ্গে রাগ করে তার সব ডিনার সেট ছুড়ে মেরেছিলেন। আজ সেগুলোই পরিচিত ফ্লাইং সসার নামে।”
“রজনীকান্ত হাতে ঘড়ি পড়েন না। তিনিই ঠিক করেন কয়টা বাজে।”
রজনীর উত্তর ছিল, “রাস্কেল, পৃথিবীটা কেন ঘুরছে জানিস?”
এমনি আরও চমকপ্রদ তথ্য পাওয়া যাবে সাইটে।
