রাশিয়ার স্থানীয় সংবাদমাধ্যমগুলোর বরাতে এই প্রতিবেদনে বলা হয়, রুশ যোগাযোগমন্ত্রী নিকোলায় নিকিফোরভ একটি রাষ্ট্রনিয়ন্ত্রিত ডিজিটাল মুদ্রা ব্যবস্থা চালুর পরিকল্পনা নিশ্চিত করেছেন।
এই ব্যবস্থা এলে দেশটিতে প্রচলিত মুদ্রা দিয়ে ডিজিটাল মুদ্রার বিনিময় করা যাবে। তবে, এক্ষেত্রে মুদ্রা পাচার ও অন্যান্য জালিয়াতি বন্ধে থাকা ১৩ শতাংশ কর এড়াতে সরকারি কর্মকর্তাদের অর্থের উৎসের একটি প্রমাণ দেখাতে হবে। 
এই ডিজিটাল মুদ্রা কবে আনা হবে তা নিয়ে কোনো সময়সীমা উল্লেখ করা হয়নি, কিন্তু নিকিফোরভ-এর বিশ্বাস রাশিয়া এর জন্য খুব বেশি অপেক্ষা করবে না। তিনি বলেন, দেশটি যদি তাদের নিজস্ব ডিজিটাল মুদ্রা না আনে, তবে এশিয়া আর ইউরোপে প্রতিবেশী দেশগুলো ‘দুই মাস পর’ নিজেদের এমন পদক্ষেপ নেবে।
