জুনে শেষ হওয়া প্রান্তিকে প্রতিষ্ঠানটির সুদ ও কর পরিশোধের আগে লাভ ১৪ ট্রিলিওন ওন (১২০০ কোটি ডলার)। লাভের এই অংকটা আগের বছরের একই প্রান্তিকের তুলনায় ৭২ শতাংশ বেশি। প্রতিষ্ঠানটির আয় ১৮ শতাংশ বেড় ৬০ ট্রিলিওন ওন হয়েছে, এক্ষেত্রে নতুন ফ্ল্যাগশিপ গ্যালাক্সি এস৮ সহ অন্যান্য স্মার্টফোন বিক্রিকেই কারণ হিসেবে দেখা হচ্ছে বলে বিবিসি’র প্রতিবেদনে উল্লেখ করা হয়েছে।
বিশ্লেষকদের মতে, এই ফলাফল গ্যালাক্সি নোট ৭ ফেরত নেওয়ার বিপর্যয় স্যামসাং কাটিয়ে উঠেছে বলেই আভাস দেয়। 
শুক্রবার স্যামসাং দক্ষিণ কোরিয়ায় ফেরত নেওয়া নোট ৭-এর উপাদানগুলো দিয়ে বানানো নতুন আরেকটি স্মার্টফোন ছেড়েছে। এই রিফার্বিশড সংস্করণের নাম দেওয়া হয়েছে গ্যালাক্সি নোট ৭ ফ্যান এডিশন।
আয়ের দিক থেকে চলতি বছর স্যামসাং বিশ্বের সবচেয়ে বড় চিপ নির্মাতা প্রতিষ্ঠান ইনটেল-কে ছাড়িয়ে যবে- এমন প্রত্যাশাও প্রকাশ করেছে কয়েকটি গবেষণা প্রতিষ্ঠান। স্মার্টফোন আর কম্পিউটারে ব্যবহৃত সেমিকন্ডাকটর ও মেমোরি চিপ-এর চাহিদা ও দাম বাড়তে থাকায় এর সুফল পাচ্ছে দক্ষিণ কোরীয় প্রতিষ্ঠানটি। 
