এই চুক্তির ফলে উবার সাপ্তাহিক ভিত্তিতে নির্দিষ্ট পরিমাণ ভাড়া দিয়ে ম্যাভেন-এর যানবাহন ব্যবহার করতে পারবে।
এর আগে উত্তর আমেরিকায় উবারের প্রধান প্রতিদ্বন্দ্বী লিফট-এর সাথে ৯০ দিনের পাইলট কর্মসূচি চালিয়েছিল ম্যাভেন ও জেনারেল মোটর্স। চলতি বছর মার্চে তারা ‘এক্সপ্রেস ড্রাইভ’ নামের এই কর্মসূচি ঘোষণা করে, যেখানে অধিকাংশ গাড়িই লিফটচালক দিয়েই ব্যবহৃত হয় বলে জানিয়েছে রয়টার্স। ‘লিফট’-এ ৫০ কোটি ডলার বিনিয়োগের পর ‘এক্সপ্রেস ড্রাইভ’ কর্মসূচি হচ্ছে তাদের যৌথ অংশীদারিত্বের প্রথম উদ্যোগ। ম্যাভেন মার্কিন যুক্তরাষ্ট্রের ১০ টি শহরে তাদের ব্যবসা পরিচালনা করে।
অনেকেই তাদের ব্যক্তিগত গাড়ির ব্যবহার না করে, উবার বা লিফট-এর মতো মাধ্যমের সহায়তায় ভ্রমণ করছেন, যা নিজেদের মূল ব্যবসায়ের জন্য হুমকি হিসেবেই দেখছে গাড়ি প্রস্তুতকারকরা। এর ফলে তারা বিকল্প অবলম্বনের অংশ হিসেবে ক্রমবর্ধমান হারে বিভিন্ন ভ্রমণ সেবার উপর বিনিয়োগের উপায় খুঁজছে। ইতোমধ্যেই অন্যান্য গাড়ি প্রস্তুতকারকরা যেমন ফোর্ড, মারসিডিজ বেঞ্জ-এর নির্মাতা ডাইমলার বা টয়োটাসহ আরও অনেকেই এই সেবায় বিনিয়োগ করেছে।
উবার-এর উত্তর আমেরিকা এবং কানাডার আঞ্চলিক মহাব্যবস্থাপক র‌্যাচেল হল্ট জানান, আপাতত এই সেবা শুধু স্যান ফ্রান্সিসকোতে পরিচালিত হবে। এই সেবা ব্যবহারের জন্য প্রতি সপ্তাহে খরচ হবে ১৭৯ ডলার। এর সঙ্গে কর এবং অন্যান্য ফি অন্তর্ভুক্ত হবে। চালক যদি ব্যক্তিগত কাজে গাড়ি ব্যবহার করেন তার জন্য আলাদা কোনো খরচ দিতে হবেনা বলেও জানান তিনি।
