শরীরচর্চার সময় ব্যবহার করা সামগ্রীতে যুক্ত সেন্সর ব্যবহার করে হদস্পন্দনের হার দেখার কাজটা অনেকেই করেন না, কেউ কেউ বা তাদের ভর বা বয়সের তথ্যও শেয়ার করেন না। ব্যবহারকারীরা যখন ‘কুইক স্টার্ট’ বাটন চাপেন আর দ্রুত তাদের শরীরচর্চা শুরু করে তখন তারা ওই ডিভাইসগুলো থেকে হৃদস্পন্দনের হার বা কতটুকু ক্যালোরি খরচ হলো তা নিয়ে খুব একটা সঠিক হিসাব পান না। আর এ বিষয়টিকে মাথায় রেখেই অ্যাপল এই নতুন সফটওয়্যার এনেছে বলে মার্কিন সংবাদমাধ্যম সিএনবিসি’র প্রতিবেদনে উল্লেখ করা হয়েছে।
অস্ট্রেলিয়ার ফিটনেসফার্স্ট নামের একটি শরীরচর্চা কেন্দ্রে এই সফটওয়্যারের ডেমো সংস্করণ প্রদর্শন করেছে অ্যাপল। এই শরীরচর্চা কেন্দ্রেই চলতি সপ্তাহে জিমকিট সফটওয়্যার উন্মোচন করে প্রতিষ্ঠানটি। সফটওয়্যারটি অ্যাপল ওয়াচের সঙ্গে ট্রেডমিল আর অন্যান্য বহুল ব্যবহৃত যন্ত্রগুলোর সমন্বয় করবে। এর ফলে অ্যাপল আর ওয়াচ আর ব্যবহৃত যন্ত্রের মধ্যে ডেটা আদান-প্রদান হবে। 
এক্ষেত্রে উদ্দেশ্যে হচ্ছে ব্যবয়ারকারীর শরীরচর্চা কেমন হয়েছে, তার ভর আর অন্যান্য বিষয়ের উপর নির্ভর করে কতটুকু ক্যালোরি খরচ করা হয়েছে তার একটি আরও বাস্তবিক দৃশ্য উপস্থাপন করা।
