বিবিসি এক প্রতিবেদনে জানিয়েছে, ইউরোপিয়ান কমিশন গুগলের বিরুদ্ধে মাইক্রোসফট, ট্রিপঅ্যাডভাইজার, এবং স্ট্রিটম্যাপসহ একাধিক প্রতিষ্ঠানের প্রতিযোগিতা বিমুখ আচরণের অভিযোগ তদন্ত করছে ২০১০ সাল থেকে।
কমিশনার মার্গারেথ ভেস্টাজার বুধবার এ ব্যাপারে আনুষ্ঠানিক বিবৃতি দিতে পারেন বলে জানিয়েছে বিবিসি।
গুগলের বিরুদ্ধে অন্যান্য প্রতিষ্ঠানগুলোর অভিযোগ ছিল, অনুসন্ধানকারীর সার্চের সঙ্গে সংশ্লিষ্ট লিংকের মধ্যে প্রতিযোগীদের থেকে গুগল প্লাস, গুগল ম্যাপস, ইউটিউবের গান ও ভিডিও, অ্যাডওয়ার্ডস প্লাটফর্মের বিজ্ঞাপনের লিংকগুলোকে প্রাধান্য দেয় গুগল। 
