মিরাই বনেট দিয়ে এই সাইবার আক্রমণ চালানো হয়। এটি হচ্ছে সংক্রমিত ইন্টারনেট সংযুক্ত ডিভাইসের জোট, এগুলো সাইবার হামলায় মহাঅস্ত্র-এর মতো কাজ করে থাকে।
মিরাই বনেট বিশাল পরিমাণে ডেটা কম্পিউটার সার্ভারে প্রেরণ করে। ওয়েবসাইটকে সরিয়ে ফেলা এবং দক্ষতার সঙ্গে প্রতিষ্ঠানগুলোকে ইন্টারনেটের বাইরে নিয়ে আশা এর কাজ।
এই নতুন অস্ত্রটিকে প্রথম কাজে লাগানো হয় যখন এটি মানুষের নেটফ্লিক্স, স্পটিফাই এবং টুইটারের মতো ওয়েবসাইটগুলোতে প্রবেশে বাধা দিয়েছিল।
এই সাইবার অস্ত্রের কম্পিউটার কোডটি কারা বানিয়েছিল, তা এখনও জানা যায়নি। হ্যাকাররা পুনরায় এমন আক্রমণ করার জন্য এ ধরনের ব্লুপ্রিন্ট চারদিকে ছড়িয়ে দিচ্ছে।
