এক কিশোরীর মা এ নিয়ে অভিযোগ করার পর, তা নিয়ে তদন্ত চালাচ্ছে দেশটির পুলিশ, জানিয়েছে বিবিসি।
ব্রিটন গ্রামার নামের ওই স্কুলের দ্বাদশ শ্রেণির শিক্ষার্থীরা এই পেইজের অ্যাকাউন্ট খুলে। পেইজটিতে তারা কমবয়সী ছাত্রীদের ছবি দিয়ে, তাদের মধ্য থেকে 'বছরের সেরা যৌনকর্মী' বাছাই করতে মানুষদের ভোট দিতে বলে।
স্কুলের পক্ষ থেকে বলা হয়েছে, এই "লজ্জাকর" অ্যাকাউন্ট তাদের মূল্যবোধের প্রতিফলন করে না। এই ঘটনায় দুই ছাত্রকে বহিষ্কার করা হয়েছে বলে জানিয়েছে স্কুল কর্তৃপক্ষ। এক বিবৃতিতে স্কুলের প্রধান শিক্ষক রস ফিদারসন বলেন, "যে কোনো সামাজিক মাধ্যমে কোনো অসম্মানজনক আচরণ সরাসরি অগ্রহণযোগ্য এবং তা সহ্য করা হবে না।"
অভিযোগকারী ওই মা ফেইসবুকে দেওয়া এক খোলা চিঠিতে জানান, কিছু ছবিতে মেয়েদের আংশিক নগ্নভাবে উপস্থাপন করা হয় বা ক্যাপশনে যৌনকাজের সিকে ইঙ্গিত করে হয়।  তিনি বলেন, তার কন্যা "শুধু যৌন হয়রানির শিকারই হয়নি, সেই সঙ্গে আমাদের ছোট সম্প্রদায়ে অপমানিত হয়েছে।"
নিজ কন্যা আর অন্যান্য মেয়েদের সঙ্গে করা এই অপরাধের প্রখরতা পর্যন্ত ফলাফল যাওয়ার আগে আর থামবেন না বলেও জানিয়েছেন তিনি। ফেয়ারফেক্স নামের এক সংবাদমাধ্যম তার উদ্ধৃতি দিয়ে জানিয়েছে, তিনি ওই ছেলেদের মা-বাবাকে দায়ী করছেন, স্কুলকে নয়।
