ডুয়াল ফ্ল্যাশ -এর এই স্মার্টফোনটিতে আছে ১৩ মেগাপিক্সেল পেছনের ক্যামেরা ও ৮ মেগাপিক্সেল সামনের ক্যামেরা, উভয় ক্যামেরাতেই আছে এফ২.০ অ্যাপারচার। ট্রাই টোন এলইডি ব্যাক ফ্ল্যাশ এবং ফ্রন্ট ফ্ল্যাশ ও রয়েছে এই হ্যান্ডসেটটিতে।
ক্যামেরা ফিচার হিসেবে আছে ফেইস বিউটি, প্যানারমা মোড ও এইচডিআর মোড। ৫.৩ ইঞ্চি এইচডি আইপিএস ডিসপ্লে-এর সঙ্গে অপারেটিং সিস্টেম হিসেবে ব্যবহার করা হয়েছে অ্যান্ড্রয়েড ৬.০ মার্শমেলো, রয়েছে ১.৩ গিগাহার্টজ কোয়াড কোর প্রসেসর এবং ৩ জিবি ডিডিআর থ্রি র‍্যাম।
ডুয়াল সিম এর স্মার্টফোনটিতে রয়েছে ২৬০০ এমএএইচ লিথিয়াম-আয়ন ব্যাটারি। এ ছাড়াও এই ফোনটিতে আছে কাস্টম মেইড ইনটেলিজেন্ট সফটওয়্যার ডিজাইন, এর মাধ্যমে ব্যাটারির কার্যক্ষমতা ৪৫ শতাংশ পর্যন্ত বেড়ে যাবে বলে দাবী করেছে প্রতিষ্ঠানটি।
ওটিজি এবং ওটিএ সাপোর্টেড এই স্মার্টফোনটিতে আছে জি সেন্সর, অ্যাক্সেলারোমিটার, প্রক্সিমিটি সেন্সর এবং লাইট সেন্সর। ১৬জিবি ধারণ ক্ষমতার এই স্মার্টফোনের স্টোরেজ মেমোরিকার্ডের মাধ্যমে ৩২জিবি পর্যন্ত বাড়ানো যাবে।
