এই উদ্যোক্তা ড্রপক্যাম নামের একটি অ্যাপের প্রতিষ্ঠাতা। এই অ্যাপ ওয়াইফাইয়ের মাধ্যমে ভিডিও স্ট্রিমিং করে ব্যবহারকারীর লাইভ ফিড সম্প্রচার করে। তার এই স্টার্টআপটি পরে গুগলের মূল প্রতিষ্ঠান অ্যালফাবেট ৫৫ কোটি ৫০ লাখ ডলার দিয়ে কিনে নেয়। তিনি স্বচালিত প্রযুক্তি বা অটোমেটেড সেন্সর নিয়ে গবেষণা প্রতিষ্ঠান নেস্ট-এও কাজ করেন।
অ্যাপলের একজন মুখপাত্র মার্কিন সংবাদ সাইট বিজনেস ইনসাইডার-কে এই চুক্তির খবরটি নিশ্চিত করেছে।
দ্য ইনফর্মেশন-এ প্রথম এই নিয়োগের সংবাদটি প্রকাশ করা হয়। সংবাদমাধ্যমটিতে জানানো হয়, “অ্যাপল নিজেদের প্রতিষ্ঠানে একটি স্টার্টআপ প্রকল্প পরিচালনা করছে , হতে পারে ডাফ সেই প্রকল্পে নেতৃত্ব দিচ্ছেন।”
বিজনেস ইনসাইডার জানায়, অ্যাপল মাঝে মাঝে তাদের কর্মীদের দল ছিন্ন করে, আর তা করা হয় স্বাধীনভাবে কাজ করার লক্ষ্যে। অ্যাপলের মতো কর্পোরেট ধর্মী প্রতিষ্ঠানে ডেফ এর খাপ খাওয়ানো কঠিন হয়ে যাবে কেননা যেখানে ছোট প্রকল্পগুলোতেও একজন বড় পদধারীকে তত্ত্বাবধায়ক হিসেবে নিয়োগ দেয়া হয়।
