টুইটার প্রধান নির্বাহী জ্যাক ডরসি-কে পাঠানো এক চিঠি পাঠিয়েছেন পর্নহাব ভাইস প্রেসিডেন্ট কোরে প্রাইস। প্রযুক্তি সাইট সিনেট জানিয়েছে, ওই চিঠিতে বলা হয়েছে, "আমরা জানতে পেরেছি টুইটার 'ভাইন'কে ছেড়ে দিয়েছে আর উল্লেখযোগ্য পরিমাণে কর্মী ছাঁটাই করছে, আপনি আর আপনার স্টেকহোল্ডাররা ভাইন বিক্রি থেকে পাওয়া অর্থ থেকে উপকার পেতে পারেন।"
"ভাইনকে আর এনএসএফডব্লিউ মর্যাদায় ফিরিয়ে আনার" অঙ্গীকারও করেছে পর্নহাব। "ছয় সেকেন্ডের পর্ন ক্লিপ অনেক মানুষের উপভোগের জন্য যথেষ্ট সময়ের চেয়ে বেশি", যোগ করা হয়।    
“সামনের মাসের মধ্যে আমরা ‘ভাইন’ মোবাইল অ্যাপ্লিকেশন-এর ব্যবহার বন্ধ করে দেব”- সম্প্রতি এক বিবৃতিতে এমনটাই বলা হয় টুইটারের পক্ষ থেকে।
