সম্প্রতি মার্কিন টেক জায়ান্ট মাইক্রোসফট তাদের ভার্চুয়াল অ্যাসিস্ট্যান্টে কর্টানা কালেকশনস নামের নতুন ফিচার এনেছে।
প্রযুক্তি সাইট ভার্জ-এর প্রতিবেদনে বলা হয়েছে, ব্যবহারকারী কোনো ওয়েবপেইজ ব্রাউজ করার সময় তা সংগ্রহ করে রাখার মতো হলে কর্টানা থেকে একটি পপ আপ বার্তা দেখানো হবে। এই ওয়েবপেইজের কনটেন্ট সংগ্রহ করা, একে পছন্দের তালিকায় যোগ করা বা পুরো নোটিফিকেশন বন্ধ করে দেওয়ার মতো কিছু ব্যবহারকারী করতে চান কিনা তা ওই বার্তায় জিজ্ঞাসা করা হবে।
এই ফিচার ঘোষণা নিয়ে মাইক্রোসফটের পক্ষ থেকে বলা হয়, “কর্টানা সবসময় শিখছে, তাই কর্টানাকে আপনি যতো বেশি আপনাকে সহায়তা করতে দেবেন, কর্টানা আপনার জন্য ততো বেশি করবে।”
