আইএএনএস-এর প্রতিবেদনে বলা হয়, সফটওয়্যার সেবাদাতা প্রতিষ্ঠান একিনসফট নির্মিত একিনরোবোটিকস ফ্যাক্টরি মানবসদৃশ রোবটের বড় পরিসরে উৎপাদন শুরু করেছে। এই কারখানার উদ্বোধনী অনুষ্ঠানে একিনসফট-এর পরিচালনা পর্ষদের চেয়ারম্যান অজগার একিন এই ঘোষণা দেন।
তুরস্কের রাষ্ট্রীয় সংবাদ সংস্থা আনাদোলু এজান্স-এর সূত্রমতে একিন বলেছেন, “অ্যাডা জিএইচ৫ নামের নতুন প্রজন্মের এই মানবসদৃশ রোবটটি শপিং মল, থিয়েটার, বিমানবন্দর, হাসপাতাল ও এমনকি বাসায় ব্যবহারের জন্য বানানো হবে।”
এই রোবটগুলো শুনতে, বলতে, গন্ধ নিতে ও ইন্টারনেট ব্যবহার করতে সক্ষম হবে।
একিনসফট ২০০৯ সালে রোবোটিকস নিয়ে গবেষণাগার চালু করে। একাধিক গবেষণা প্রকল্পের পর ২০১১ সালে তারা মডেল উৎপাদন শুরু করে।
