বুধবার ফেইসবুকের পক্ষ থেকে এ খবর জানানো হয়। ক্রমবর্ধমানে অনলাইন বাণিজ্যের বাজারে এটিই ফেইসবুকের প্রথম 'হানা' বলে এক প্রতিবেদনে জানিয়েছে রয়টার্স। 
ব্যবসায়ীদের আরও ফেইসবুকনির্ভর করানো গেলে, এই বাজারের অনেক ব্যবসায়ী অর্থ পরিশোধের মাধ্যমে বিজ্ঞাপন দিতে চাইবে বলে আশা প্রতিষ্ঠানটির।
এক সাক্ষাৎকারে ফেইসবুক পেইজেস-এর পণ্য বিপনণ পরিচালক বেনজি শোমেইর বলেন, "যদি কোনো ব্যবসায় তাদের পেইজ থেকে আয় দেখতে পায়, সেখানে একটা বড় সুযোগ আছে যে তারা বিজ্ঞাপনদাতা হবে।"
ফেইসবুকে বর্তমানে স্বক্রিয় বিজ্ঞাপনদাতার সংখ্যা ৩০ লাখ। তবে, বিশ্বব্যাপী ছয় কোটিরও বেশি ব্যবসায় প্রতিষ্ঠান ফেইসবুক পেইজ ব্যবহারের মাধ্যমে গ্রাহকদের কাছে পৌঁছানোর চেষ্টা করছে। বর্তমানে ফেইসবুকের মাসিক স্বক্রিয় ব্যবহারকারীর সংখ্যা ১৭০ কোটি।  
