প্রতিষ্ঠানটির ২০১৭ অর্থবছরের শেষ প্রান্তিকের আর্থিক অবস্থা নিয়ে বলতে গিয়ে  মাইক্রোসফটের প্রধান অর্থ কর্মকর্তা এমি হুড বৃহস্পতিবার বলেন, “এই প্রথমবার, অফিস ৩৬৫ কমার্শয়াল থেকে আয় আমাদের প্রচলিত লাইসেন্সিং ব্যবসায়ের আয়কে ছাড়িয়েছে।”
এই আয়ের অংক শুধুই ওই প্রান্তিকের জন্যই প্রযোজ্য আর এতে অফিস ৩৬৫-এ গ্রাহক সাবস্ক্রিপশন থেকে হওয়া আয় অন্তর্ভূক্ত নয়, এই ইমেইলে মার্কিন সংবাদমাধ্যম সিএনবিসি-কে এ কথা বলেন প্রতিষ্ঠানটির এক মুখপাত্র।
মাইক্রোসফটের প্রতিবেদন অনুযায়ী এই প্রান্তিকে অফিস ৩৬৫ কমার্শিয়াল থেকে আয় ৪৩ শতাংশ বেড়েছে। এই বৃদ্ধি প্রতিষ্ঠানটির বার্ষিক বাণিজ্যিক ক্লাউড কম্পিউটিং আয় বৃদ্ধিতে অবদান রেখেছে। বাণিজ্যিক ক্লাউড কম্পিউটিং খাতে প্রতিষ্ঠানটির আয় হয়েছে ১৮৯০ কোটি ডলার।
