এলজি’র এআই প্লাটফর্ম-এর নাম বলা হয় ‘ডিপ থিনকিউ’। এই প্লাটফর্ম-এর ওপর ভিত্তি করেই নতুন টিভি বানিয়েছে ইলেক্ট্রনিক পণ্য নির্মাতা দক্ষিণ কোরীয় প্রতিষ্ঠানটি। আর এতে গুগল অ্যাসিস্টেন্ট থাকবে বলেও প্রতিবেদনে জানিয়েছে ভারতীয় সংবাদমাধ্যম আইএএনএস।
গুগল অ্যাসিস্টেন্ট ব্যবহার করে এত নানা রকম কমান্ড দিতে পারবেন গ্রাহক। “দয়া করে আমার গুগল আক্যাউন্ট থেকে আগের বছর লাস ভেগাসে তোলা ছবিগুলো বের করুন।” বা “স্কারলেট জোহানসন-এর সিনেমাগুলো বের করুন।” এমন কমান্ড দেওয়া যাবে এর মাধ্যমে।
এলজি আরও জানায়, এই টিভিকে গ্রাহক নানা ধরনের প্রশ্নও করতে পারবেন। যেমন, “আমি যে নাটকটি দেখছি তার মূল চরিত্র কে?”
এইচডিআর কনটেন্ট সমর্থন করবে নতুন এআই টিভি। আর উন্নত সাউন্ডের জন্য এতে ব্যবহার করা হয়েছে ডলবি অ্যাটমস সিস্টেম।
এআই টিভি’র পাশাপাশি আরও কয়েকটি প্রিমিয়াম টিভি আনবে এলজি।
সম্প্রতি সবচেয়ে বড় ৮কে ওলেড টিভি উন্মোচনের কথা জানিয়েছে প্রতিষ্ঠানটি। এই টিভির মাপ বলা হয়েছে ৮৮ ইঞ্চি।
