২০১৫ সালের ডিসেম্বর থেকে ২০১৭ সালের ডিসেম্বরের মধ্যে বিক্রি হওয়ার পর সমস্যা পাওয়া গেছে এমন ডিভাইসগুলোও এই তালিকায় আছে বলে আইএএনএস-এর প্রতিবেদনে উল্লেখ করা হয়।
শুক্রবার এক ব্লগ পোস্টে প্রতিষ্ঠানটি বলে, “সম্প্রতি আমরা জেনেছি নির্দিষ্ট কিছু নোটবুক কম্পিউটার আর মোবাইল ওয়ার্কস্টেশন-এ ব্যবহৃত আমাদের একটি ব্যাটারি সরবরাহকারীর ব্যাটারিগুলোতে সম্ভাব্য নিরাপত্তা ঝুঁকি রয়েছে।”
“আমরা এই সমস্যা শনাক্ত করতে তাৎক্ষণিক পদক্ষেপ নিচ্ছি আর নিজে থেকেই এই ব্যাটারিগুলো ফেরত চাচ্ছি ও বদলে দিচ্ছি। শেষ দুই বছরে বিশ্বব্যাপী বিক্রি হওয়া এইচপি সিস্টেমগুলোর ০.১ শতাংশ এই পদক্ষেপের মধ্যে পড়বে।”
