আইএএনএস-এর এক প্রতিবেদনে বলা হয়েছে, মেসেজিং সেবাদাদাত অ্যাপটি এখন এই ‘রিকল’ ফিচার আনার খুব কাছাকাছি চলে এসেছে।
এর মাধ্যমে ব্যবহারকারীরা ভুলে পাঠানো টেক্সট, ইমেইজ, ভিডিও, জিফ, ডকুমেন্ট ও এমনকি স্ট্যাটাসের জবাব পাঁচ মিনিটের মধ্যে তুলে নিতে সক্ষম হবেন। অ্যাপটির ‘২.১৭.৩০’ সংস্করণে এই ‘রিকল’ ফিচার চালু হবে, হোয়াটসঅ্যাপের বর্তমান সংস্করণ হচ্ছে ২.১৭.১৯০।
হোয়াটসঅ্যাপ-এর বিভিন্ন ফিচার আসার আগেই পরীক্ষা করে থাকে ডাব্লিউএবেটাইনফো নামের ভক্তদের একটি সাইট। এই সাইটটির এক টুইটে বলা হয়, “হোয়াটসঅ্যাপ একটি বেটা ফিচার যোগ করেছে যা হয়তো আপনার পাঠিয়ে দেওয়া মেসেজ সম্পাদনের সুযোগ দেবে।” এটি এখনও বানানো হচ্ছে বলেও জানায় সাইটটি। 
চলতি বছর এপ্রিলে এক প্রতিবেদনে বলা হয়, আনসেন্ড' নামের এক ফিচার নিয়ে প্রতিষ্ঠানটি বহুদিন যাবত কাজ করে আসছে বলে গুঞ্জন শোনা যাচ্ছিল আগে থেকেই। এই ফিচার ব্যবহার করে ব্যবহারকারীরা তাদের পাঠানো মেসেজও মুছে ফেলতে পারবে। পরীক্ষামূলক সংস্করণ থেকে ইতিবাচক প্রমাণ পেলেই হোয়াটসঅ্যাপের আপডেটে এসব ফিচার যোগ করা হবে বলে জানানো হয়েছে প্রতিষ্ঠানটির পক্ষ থেকে।
ব্যবহারকারীরা শুধু ‘মাত্র পাঠানো’ মেসেজগুলো সম্পাদনা করতে পারবেন, ‘পুরানোগুলো’ নয়।
