এই সেবার আওতায় মাদক, নিপীড়ন আর যৌনব্যবসায়ের নির্দেশ করে এমন শব্দগুলো চিহ্নিত করে পুলিশকে “জননিরাপত্তায় হুমকি আর অবৈধ কার্যক্রম শনাক্তে সহায়তা দেওয়া হয়”, জানিয়েছে মার্কিন সাময়িকী ফরচুন।
এই শনাক্তকারী শব্দগুলোর মধ্যে ‘পুলিশের নৃশংসতা’, ‘ভিন্নমত পোষণ’-এর মতো শব্দগুলোও অন্তর্ভূক্ত।
মিডিয়া সোনার আর এর মতো সফটওয়্যারগুলো সামাজিক মাধ্যম ব্যবহারকারীদের পোস্টের কনটেন্ট, লিংক আর কনটেক্সট-এর উপর ভিত্তি করে প্রোফাইল তৈরি করে।
যুক্তরাষ্ট্রে মানবাধিকার নিয়ে কাজ করা অলাভজনক প্রতিষ্ঠান আমেরিকান সিভিল লিবার্টিজ ইউনিয়ন (এসিএলইউ) ‘বিওয়ার’ নামের একটি নজরদারি সফটওয়্যারের কথাও উল্লেখ করেছে। এই সফটওয়্যার প্রতি ব্যক্তির সামাজিক মাধ্যমের কার্যক্রমের উপর ভিত্তি করে তাদের সবুজ, হলুদ ও লাল তিনটি রঙে চিহ্নিত করে। এর মাধ্যমে তাদের নিয়ে থাকা ‘হুমকির মাত্রা’ বোঝানো হয়।
