টাইমস-এর এক সূত্র থেকে বলা হয়, ফোন ছাড়া তিনি বিচ্ছিন্ন হয়ে যাবেন। তার উপদেষ্টা এবং বন্ধুদের সঙ্গে দূর থেকে যোগাযোগের জন্য এটিই তার মূল যন্ত্র। আর এটির মাধ্যমেই তিনি জনগণের সঙ্গে টুইটারে যোগাযোগ করে থাকেন, জানিয়েছে আরেক মার্কিন সাময়িকী ফরচুন।
নির্বাচনী প্রচারণার সময় অপর প্রার্থী হিলারি ক্লিনটন অঙ্গীকার করেন যে, নিরাপত্তার কথা বিবেচনা করে স্টেট ডিপার্টমেন্টে তিনি শুধু তার ব্যক্তিগত ব্ল্যাকবেরি ফোন ব্যবহার করবেন। এর ফলে তার সকল তথ্য সংরক্ষণের জন্য একটি ব্যক্তিগত ইমেইল সার্ভার বানানো হবে। পরবর্তীতে তার এই অঙ্গীকারই নির্বাচনে হারের একটি কারণ হিসেবে সমালোচিত হয়েছে।
ক্লিনটনের মতোই ট্রাম্প-ও খুব বেশি জানেন না কম্পিউটার কিভাবে ব্যবহার করতে হয়। এমনকি ২০০৭ সালের পর ট্রাম্প কখনো মেইল ব্যবহার করেন নি। কম্পিউটার ব্যবহার করতে না জানায় ক্লিনটন ডেস্কটপে মেইল দেখতে পেতেন না। এ কারণেই ব্যক্তিগত মেইল সার্ভার বানানোর কথা বলেন তিনি।
অফিসে নিজের ব্যক্তিগত ডিভাইস এবং অ্যাকাউন্ট ব্যবহার করতে চাইলে একই ধরনের সমস্যায় পড়বেন ট্রাম্প।  নির্বাচনের সময় মার্কিন রাজনৈতিক দলের উপর হ্যাকের প্রভাব নতুন উচ্চতায় পৌঁছেছে বলা উল্লেখ করা হয়। আর অনেক ক্ষেত্রেই হ্যাকের কারণ হয়েছে অ্যান্ড্রয়েড ফোন।
