খরচ কমাতেই এই পদক্ষেপ নেওয়া হচ্ছে বলে ব্র্যান্ডদুটির প্রধান নির্বাহীদের উদ্ধৃতি দিয়ে খবর প্রকাশ করেছে জার্মান সংবাদমাধ্যমগুলো। 
আউডি প্রধান নির্বাহী রুপার্ট স্ট্যাডলার বলেন, “২০২৫ সালের মধ্যে আমরা স্থাপত্যবিষয়ক উন্নয়নের জন্য শত কোটি ইউরো খরচের মুখে যাচ্ছি।”
পোর্শ প্রধান নির্বাহী অলিভার ব্লুম বলেন, “যদি উভয়েই তাদের মতো আলাদা করে কাজ করে তবে খরচ ৩০ শতাংশ বেশি হবে।”
দুই ব্র্যান্ডই যৌথ উদ্যোগের মাধ্যমে ২০২১ সাল থেকে কয়েকটি মডেল আনতে চায় বলে উল্লেখ করা হয়েছে রয়টার্স-এর প্রতিবেদনে। এর মধ্যে দুটি সেডান আর দুটি স্পোর্টস গাড়ির মডেল আনার কথা জানিয়েছেন স্ট্যাডলার।
