চলতি বছরের ১৯ সেপ্টেম্বর ড্রোনটি উন্মোচন করে প্রতিষ্ঠানটি। নতুন এই ড্রোনটি বাজারে ভালো অবস্থান ধরে রাখবে বলে আত্মবিশ্বাসী প্রতিষ্ঠানের প্রধান নির্বাহী নিক উডম্যান। সিএনবিসি-কে দেওয়া এক সাক্ষাৎকারে তিনি সে কথাই জানিয়েছেন।
‘কারমা’ নামের ড্রোনটি ‘কোনো সাধারণ ড্রোন নয়’ বলে জানান তিনি। 'হলিউড-ক্যালিবার' ফিচারের মাধ্যমে এই ড্রোনটি গ্রোপ্রো ক্যামেরার হাতের ঝাঁকুনি স্থির করে ছবি তুলতে পারে।
উডম্যান বলেন, “এটি এখন পর্যন্ত আমাদের তৈরি সবচেয়ে উত্তেজক পণ্য। মানসম্পন্ন পেশাদার ফুটেজ ধারণ করতে এটি অবশ্যই সবচেয়ে সক্রিয় পণ্য।”
