এর মাধ্যমে দিদি ছুসিং আর উবারের মতো রাইড-হেইলিং প্রতিষ্ঠানগুলোর জন্য চালক নিয়োগ কঠিন হতে যাচ্ছে বলে জানিয়েছে রয়টার্স।
নতুন নীতিমালা নিয়ে জনগণের মন্তব্য জানার চেষ্টায় শনিবার বেইজিং আর সাংহাইয়ের নীতিনির্ধারকরা আলাদা দুটি খসড়া উপস্থাপন করেছেন। দুই এলাকার মিউনিসিপাল কমিশনই তাদের ওয়েবসাইট থেকে ওই খসড়াগুলো প্রকাশ করেছে। তবে, এই পদক্ষেপ সমন্বিতভাবে নেওয়া কিনা তা এখনও স্পষ্ট নয়।
খসড়া নীতিমালা অনুসারে, বেইজিংয়ের যোগাযোগ কমিশন রাইড-হেইলিং সেবাদাতা প্রতিষ্ঠানগুলোর চালক হিসেবে নিয়োগ হতে প্রত্যেকের স্থানীয় বাসার নিবন্ধন থাকতে হবে। বড় শহরগুলোতে অন্য শহরের চালকদের এই ধরনের প্রতিষ্ঠানের গাড়ি চালাতে নিষেধাজ্ঞা দেওয়া হবে।
শহর কর্তৃপক্ষ চালকরা শুধু নিজেদের শহরের নিবন্ধিত যানগুলোই চালাবে এমন নীতিও বানাতে চাচ্ছে। সেই সঙ্গে চালকদের বয়সের সীমাবদ্ধতার মতো আরও কিছু সীমাবদ্ধতাও রাখা হয়েছে।
সাংহাইয়ের কর্তৃপক্ষও একই নীতিমালা দিয়ে একটি খসড়া বানিয়েছে।  
