এই পদক্ষেপকে ইন্টারনেটে মুক্তবাকের উপর আনা দেশটির সর্বশেষ কঠোর ব্যবস্থা হিসেবে আখ্যায়িত করেছেন তুরস্ক সরকারের সমালোচকরা, বলা হয়েছে রয়টার্স-এর প্রতিবেদনে। 
শনিবার সকাল ৮টায় উইকিপিডিয়ার সব ভাষার সংস্করণে এই ব্লক শনাক্ত করা হয়, নিজেদের ওয়েবসাইট থেকে এমনটাই জানিয়েছে ‘টার্কি ব্লকস’ নামের ওই পর্যবেক্ষণ দল। তাদের পক্ষ থেকে বলা হয়, “এই শনিবার দেশটিতে কনটেন্ট সেন্সর করতে ব্যবহৃত ইন্টারনেট ফিল্টারগুলোর সঙ্গে মিলে যায়।”
তুর্কি ইন্টারনেট সেবাদাতা প্রতিষ্ঠানগুলোর সেবা ব্যবহার করে উইকিপিডিয়া ওয়েবপেইজ অ্যাকসেস করার চেষ্টা চালানো হলে ব্যবহারকারীরা একটি নোটিশ পান, এতে বলা হয়- সাইটটিতে পৌঁছানো যাচ্ছে না আর একটি ‘কানেকশন টাইমড আউট এরর’ রয়েছে।
শুধু উইকিপিডিয়া নয়, টুইটার বা ফেইসবুকের মতো সামাজিক মাধ্যমগুলোর অ্যাকসেসও ব্লক করে দেওয়া নিয়ে তুরস্কের বিরুদ্ধে অভিযোগ তুলেছে পর্যবেক্ষণ দলটি।
এর আগে তুরস্ক সরকার ইন্টারনেটে এ ধরনের অ্যাকসেস ব্লক করার অভিযোগ অস্বীকার করে। বড় ঘটনাগুলোর বিভ্রাটের কারণেই ইন্টারনেট অ্যাকসেস সমস্যা হচ্ছে বলে কারণ দেখায় তারা। কিন্তু বিভিন্ন পর্যবেক্ষণ দলের কারিগরি বিশেষজ্ঞদের মতে, সামাজিক মাধ্যমগুলোর অ্যাকসেস বন্ধ করে দেওয়া ইচ্ছাকৃত, আর তা বিদ্রোহীদের ছবি ও প্রজ্ঞাপন প্রচার বন্ধের লক্ষ্যেই করা হয়েছে।   
