বিজ্ঞাপন কেনার ক্ষেত্রে গুগলের নিজস্ব স্বয়ংক্রিয় প্রযুক্তি রয়েছে। এর আগে এই প্রযুক্তিতে জালিয়াতির কথা স্বীকার করেছে প্রতিষ্ঠানটি। এবার ধারণা করা হচ্ছে গুগল যতটা স্বীকার করেছে তার চেয়েও বড় ধরনের জালিয়াতি হয়েছে এ প্রযুক্তিতে, বলা হয়েছে মার্কিন সংবাদমাধ্যম সিএনবিসি’র প্রতিবেদনে।
ওয়াল স্ট্রিট জার্নাল-এর তথ্যমতে কিছু ক্ষেত্রে গুগলের ফেরত দেওয়া অর্থের পরিমাণ কয়েক লাখ মার্কিন ডলার।
প্রতিষ্ঠানের ডাবলক্লিক বিড ম্যানেজার নামের স্বয়ংক্রিয় প্রযুক্তির মাধ্যমে যে বিজ্ঞাপণগুলো কেনা হয়েছে সেগুলোর ক্ষেত্রে অর্থ ফেরতের বিষয়টি কার্যকর হবে।
গুগলের পক্ষ থেকে বলা হয়, স্বয়ংক্রিয় বিজ্ঞাপন প্রযুক্তিতে বিজ্ঞাপনকারীদেরকে আরও বেশি স্বচ্ছতা দিতে কাজ করছে প্রতিষ্ঠানটি।
অর্থ ফেরত দেওয়ার বিষয় থেকে আরও ধারণা করা হচ্ছে যে, অংশীদারদের সাইটে বিজ্ঞাপনদাতাদের আরও বেশি গ্রাহকের কাছে পৌঁছে দেওয়া সহজ করতে গুগলের নেওয়া সাম্প্রতিক পদক্ষেপের একটি খারাপ দিক এটি।
চলতি বছর এপ্রিলে বিনিয়োগকারীদের সঙ্গে এক সম্মেলনে গুগল প্রধান সুন্দার পিচাই বলেন, “যেহেতু বিপননকারীরা তাদের প্রোগ্রাম করা বিজ্ঞাপন কেনার প্রযুক্তিতে যোগ হচ্ছে, আমাদের ডাবলক্লিক প্ল্যাটফর্ম সঠিক গ্রাহকদের কাছে তাদেরকে কার্যকরভাবে পৌঁছে দিতে সহায়তা করে। আরও বেশি বিজ্ঞাপনদাতার কাছে আমরা আরও বেশি ইনভেনটরি বানাচ্ছি, বিশেষ করে প্রিমিয়াম ইনভেনটরি।”
