২০১৮ সালের জানুয়ারিতে প্রতিষ্ঠানটির পরিচালনা পর্ষদের পরবর্তী বার্ষিক সভা অনুষ্ঠিত হবে। ওই সভা থেকে এই পরিবর্তন কার্যকর হবে বলে উল্লেখ করা হয়েছে বিজনেস ইনসাইডার-এর প্রতিবেদনে।
বৃহস্পতিবার এক বিবৃতিতে অ্যালফাবেটের পক্ষ থেকে বলা হয়, স্মিড-এর জায়গায় নির্বাহী ক্ষমতা নেই এমন কোনো চেয়ারম্যান আনা হবে।
এক বিবৃতিতে স্মিড বলেন, “ল্যারি, সার্গেই, সুন্দার আর আমি, আমরা সবাই বিশ্বাস করি অ্যালফাবেটের বিবর্তনে এই পরিবর্তনের জন্য এখনই সঠিক সময়।” তিনি আরও বলেন, “অ্যালফাবেটের সাংগঠনিক কাঠামো এখন ভালো কাজ করছে, গুগল আর অন্যান্য বিভাগগুলো এখন ক্রমবর্ধমান।”
নির্বাহী চেয়ারম্যান পদ থেকে সরে আসলেও স্মিড অ্যালফাবেটের পরিচালনা পর্ষদ থেকে যাচ্ছেন না, প্রতিষ্ঠানটির কারিগরী উপদেষ্টা হিসেবে নতুন দায়িত্ব নিচ্ছেন তিনি। নিজের বিবৃতিতে তিনি বলেন, এখন থেকে ‘বিজ্ঞান ও প্রযুক্তি বিষয়ে’ জনহিতৈষীমূলক কাজে সময় দেওয়ার পরিকল্পনাও রয়েছে তার।
২০০১ সালে গুগলের প্রধান নির্বাহী হিসেবে যোগ দিয়েছিলেন স্মিড। ২০১১ সালে হয়ে যান প্রতিষ্ঠানটির নির্বাহী চেয়ারম্যান। গুগলকে আজকের অবস্থানে নিয়ে আসতে দুই প্রতিষ্ঠাতা ল্যারি পেইজ আর সার্গেই ব্রিন-এর সঙ্গে মিলে কাজ করেছেন তিনিও।
