মার্কিন দৈনিক নিউ ইয়র্ক টাইমস-এর মাইক আইজ্যাক টুইটারে এ খবর প্রকাশ করেন। 
বিজনেস ইনসাইডার-এর কাছে উবারের পাঠানো এক বিবৃতিতে বলা হয়, “গত রাতে ট্রাভিস আর তার পরিবার এক বর্ণনাতীত শোকের মধ্যে পড়েছে। ফ্রেসনো’র কাছে এক সর্বনাশা নৌকা দুর্ঘটনায় তার মা নিহত হয়েছেন আর তার বাবা গুরুতর অবস্থায় আছেন।এই হৃদয়বিদারক মূহুর্তে ট্রাভিস ও তার পরিবারের প্রতি আমাদের প্রার্থণা ও সমবেদনা রয়েছে।”
এ নিয়ে উবার-এর পক্ষ থেকে কর্মীদের পাঠানো এক অভ্যন্তরীণ মেইলে বলা হয়, “উবার পরিবারের সবাই জানে ট্রাভিস তার বাবা-মায়ের সঙ্গে কতটা ঘনিষ্ঠ, তাই এটি প্রত্যেকের জন্য একটি অকল্পনীয় শোকের ঘটনা।”
“আমি জানি আমরা সবাই যেভাবে পারা যায় সহায়তা করতে চাই, আর আমি শেয়ার করার মতো আর কিছু জানলে যত জলদি পারা যায় আবার যোগাযোগ করব।”
