২০১৭ সালের প্রথমার্ধে চীনে চাহিদা কম থাকার কারণে আইফোনের বিক্রি হ্রাস পাবে বলেও পূর্বাভাস দিয়েছেন তিনি, জানিয়েছে অ্যাপলবিষয়ক গুজবের সাইট ম্যাকরিউমার্স। ২০১৬ সালের প্রথমার্ধে "আইফোন এসই-এর জন্য চাহিদা ভাল" থাকার কারণে এই আইফোনের বিক্রি ভাল ছিল বলেও মত তার।
এই বিশ্লেষকের বিশ্বাস, অ্যাপল তাদের ভাল লাভ ধরে রাখার চেষ্টায় আইফোনের উপাদান নির্মাতাদের দাম কমানোর জন্য চাপ দেবে। চলতি বছর নভেম্বর বা ডিসেম্বরের মধ্যে অ্যাপলের উপাদান সরবরাহকারীরা দাম কমানো শুরু করবে বলেও আশা প্রকাশ করেন তিনি।
ডিভাইস প্যানেলের মতো উপাদানগুলোর সরবরাহকারীদের মধ্যে ভালো প্রতিযোগিতা থাকায় তারা অ্যাপলের সঙ্গে তর্কের ক্ষমতা খুব একটা রাখে না আর এ কারণে অধিকাংশরাই দাম কমিয়ে দেবে বলে জানান তিনি। 
কুও-এর পূর্বাভাস মতে, ২০১৭ সালের দ্বিতীয় প্রান্তিকে আইফোন বিক্রি ধীরে ধীরে হ্রাস পেয়ে সাড়ে তিন কোটি থেকে চার কোটিতে গিয়ে দাঁড়াবে। ২০১৬ সালে দ্বিতীয় প্রান্তিকে ৪.০৪ কোটি আইফোন বিক্রি হয়েছিল।
