এ খবর প্রকাশের আগের সপ্তাহে মাইক্রোসফট কর্মকর্তাদের সঙ্গে এক বৈঠকে এই চুক্তি নিয়ে উদ্বেগ প্রকাশ করে ইইউ'র বাজার প্রতিযোগিতা প্রয়োগকারীরা। এরপরই প্রতিষ্ঠানটি এমন পদক্ষেপ নিল বলে জানিয়েছে রয়টার্স। 
চলতি বছর ৬ ডিসেম্বর এই চুক্তি নিয়ে রায় দেবে ইউরোপিয়ান কমিশন। তবে, এ নিয়ে এখনও বিস্তারিত কিছু জানায়নি তারা। প্রতিদ্বন্দ্বী আর গ্রাহকদের পরামর্শ নেওয়ার পর এই কর্তৃপক্ষ মার্কিন প্রতিষ্ঠানটির প্রস্তাবিত সুবিধামূল্য গ্রহণ করবে নাকি আরও চাইবে নাকি এ নিয়ে পূর্ণ তদন্ত শুরু করবে তা নিয়ে সিদ্ধান্ত নেবে। 
এ বিষয়ে কোনো মন্তব্য করতে অস্বীকৃতি জানিয়েছে মাইক্রোসফট। 
এর আগে এ ঘটনায় অ্যান্টিট্রাস্টবিষয়ক তদন্ত করতে ইউরোপিয়ান ইউনিয়ন (ইইউ)-কে আহ্বান জানায় সফটওয়্যার নির্মাতা মার্কিন প্রতিষ্ঠান সেলসফোর্স। লিংকডইন কেনার দৌড়ে হেরে যাওয়া সেলসফোর্স ইইউ-এর বাজার প্রতিযোগিতাবিষয়ক কর্তৃপক্ষের কাছে আবেদন জানিয়েছে তারা যাতে এই চুক্তি সাধারণভাবে যাচাই করে দেখে। এই চুক্তি উদ্ভাবন আর প্রতিযোগিতার জন্য হুমকি বলেও অভিযোগ প্রতিষ্ঠানটির।
