রোববার স্যাটেলাইটটি উৎক্ষেপণের কথা থাকলেও শেষ মুহুর্তে তা বাতিল করেছে প্রতিষ্ঠানটি, বলা হয়েছে ভারতীয় সংবাদমাধ্যম আইএএনএস-এর প্রতিবেদনে।
এ দিন স্থানীয় সময় সকাল সাতটায় স্যাটেলাইটটি উৎক্ষেপণের কথা ছিল। পরে তা পিছিয়ে সোমবার সকাল সাতটা থেকে নয়টা সময় দেওয়া হয়েছে। ফ্লোরিডায় কেনেডি স্পেস সেন্টার থেকে এটি উৎক্ষেপণ করা হবে।
প্রতিষ্ঠানের নতুন একটি ফ্যালকন ৯ রকেট দিয়ে এই মিশন চালানোর কথা। রোববার উৎক্ষেপণের ৬০ সেকেন্ড আগে এটিতে সমস্যা দেখা দিলে তা স্থগিত করা হয়।
মার্কিন গোয়েন্দা সংস্থা ন্যাশনাল রিকনাইসেন্স অফিস (এনআরও)-র জন্য ক্লাসিফায়েড স্যাটেলাইটটি কক্ষপথে পাঠাবে স্পেসএক্স। সরকারের জন্য গুপ্তচর স্যাটেলাইট তৈরি ও তদারক করে থাকে এই সংস্থাটি।
এনআরও-এর পক্ষ থেকে বলা হয়, সন্ত্রাসীদের ওপর নজরদারি করে তারা যুক্তরাষ্ট্রের সম্ভাব্য ঝুঁকি বিবেচনা করতে ও অন্যান্য দেশে পারমাণবিক অস্ত্রের উন্নয়ন পর্যবেক্ষণ করতে পারে। এ ছাড়া কোনো দেশ থেকে মিসাইল ছোড়া হলে তার আগাম সতর্কতাও জানাতে পারে সংস্থাটি।
নতুন এই স্যাটেলাইট দিয়ে কী ধরনের কাজ করা হবে তা গোপন রাখছে এনআরও এবং স্পেসএক্স দুই প্রতিষ্ঠানই। এমনকি স্যাটেলাইটি আকারে কত বড় এবং কক্ষপথের কোথায় এটি পাঠানো হবে তার কোনো বিস্তারিত ব্যাখ্যাও দেয়নি স্পেসএক্স।
আগের মাসেই প্রথমবারের মতো পুনঃব্যবহারযোগ্য রকেট উৎক্ষেপণ করে ইতিহাস গড়ে স্পেসএক্স। কিন্তু এবারের মিশনে আগে ব্যবহৃত রকেটের বদলে নতুন একটি রকেট ব্যবহার করবে স্পেসএক্স। এই রকেটটিরও প্রথম স্তর পুনঃরায় ফিরিয়ে আনার চেষ্টা করবে প্রতিষ্ঠানটি। চলতি বছরে পুনঃব্যবহারযোগ্য রকেট দিয়ে আরও ছয়টির মতো মিশন চালানোর কথা রয়েছে তাদের।
