অ্যাপটির মাধ্যমে গ্রাহকের সঙ্গে আরও সহজে যুক্ত হতে পারবে প্রতিষ্ঠানগুলো। আর প্রতিষ্ঠানের ১৩০ কোটি গ্রাহক আরও সুবিধাজনকভাবে এতে আলাপ করতে পারেবন বলে প্রতিবেদনে জানিয়েছে ভারতীয় সংবাদমাধ্যম আইএএনএস।
বৃহস্পতিবার নতুন এই অ্যাপটি উন্মোচন করে হোয়াটসঅ্যাপ।
প্রতিষ্ঠানের পক্ষ থেকে এক বিবৃতিতে বলা হয়, “বিশ্বজুড়ে গ্রাহক ক্ষুদ্র ব্যবসায়িক প্রতিষ্ঠান, যেগুলোর তারা কদর করেন, সেগুলোর সঙ্গে যুক্ত হতে হোয়াটসঅ্যাপ ব্যবহার করেন। ভারতে অনলাইন পোশাক প্রতিষ্ঠান থেকে শুরু করে ব্রাজিলের গাড়ির যন্ত্রাংশ প্রস্তুতকারী প্রতিষ্ঠান রয়েছে এই তালিকায়।”
প্রতিষ্ঠানটি আরও জানায়, “বর্তমানে ইন্দোনেশিয়া, ইতালি, মেক্সিকো, যুক্তরাজ্য এবং মার্কিন যুক্তরাষ্ট্রে গুগল প্লে থেকে থেকে বিনামূল্যে ‘হোয়াটসঅ্যাপ বিজনেস’ ডাউনলোড করা যাচ্ছে। সামনের সপ্তাহগুলোতে অন্যান্য দেশেও অ্যাপটি উন্মুক্ত করা হবে।”
“হোয়াটঅ্যাপ বিজনেস দ্রুত ও সহজ উপায়ে গ্রাহককে ব্যবসা প্রতিষ্ঠানের সঙ্গে যুক্ত হতে সহায়তা করবে।”
ব্যবসায়ের বিবরণ, ইমেইল বা স্টোরের ঠিকানা এবং ওয়েবসাইটের মতো প্রয়োজনীয় তথ্য দিয়ে গ্রাহককে সহায়তা করবে অ্যাপটি।
এ ছাড়া অ্যাপটির মাধ্যমে গ্রাহকের প্রশ্নের দ্রুত জবাব দিতে পারবে প্রতিষ্ঠানগুলো।
