জীবন-জীবিকার প্রয়োজনে অফিস বা ব্যবসা ক্ষেত্রে আমাদের দীর্ঘক্ষণ বসে থাকতে হয়। অনেকক্ষণ বসে থাকার ফলে ধীরে ধীরে শরীরে বাসা বাঁধতে শুরু করে নানা রোগ-ব্যাধি, যা কখনো মারাত্মক রূপও ধারণ করতে পারে। গবেষণায় দেখা গেছে, উচ্চ রক্তচাপ, ডায়াবেটিস, কোমরে চর্বিজমা, রক্তে অতিরিক্ত কোলেস্টেরল, হার্টের সমস্যা, ওজন বৃদ্ধি সমস্যা যারা বসে কাজ করেন তাদের মধ্যে বেশি।
এছাড়াও যারা ডেস্কে বসে বেশিক্ষণ কাজ করেন তারা কোমর ও ঘাড় ব্যথায় বেশি ভোগেন। কিন্তু জীবনের তাগিদে নিত্যদিনের কাজ ত্যাগ করা সম্ভব নয়। তাই প্রতিদিন কাজের ফাঁকে কিছু অভ্যাস তৈরি করা উচিত। যেমন এক ঘণ্টা পর পর চেয়ার থেকে উঠে কিছুক্ষণ হাঁটা, লিফটের পরিবর্তে সিঁড়ি দিয়ে উঠা-নামার অভ্যাস করা, চেয়ারে সোজা হয়ে বসা।
এছাড়াও কিছু ছোট-খাটো ব্যায়াম আছে যা চেয়ারে বসেই করা যায়, কাজের ফাঁকে এই ব্যায়ামগুলো করা। মনে রাখতে হবে আমাদের শরীর প্রতিদিন যেই পরিমাণ ক্যালোরি গ্রহণ করে, তা কাজে লাগাতে হবে। তাই প্রতিদিন কমপক্ষে ৩০ মিনিট হাঁটার চেষ্টা করতে হবে। পাশাপাশি নাশতায় ভাজাপোড়া বা ফাস্টফুডের পরিবর্তে মৌসুমি ফল বা বাদাম জাতীয় খাদ্য গ্রহণ করতে হবে। গ্রিন টি আমাদের শরীরে কোলেস্টেরল কমাতে সাহায্য করে, তাই চা বা কফির পরিবর্তে গ্রিন টি খাওয়া যেতে পারে। এছাড়া কোনো প্রকার স্বাস্থ্য সমস্যা দেখা দিলে চিকিৎসকের পরামর্শ নিতে হবে।
লেখক : ত্বক, লেজার এন্ড এসথেটিক বিশেষজ্ঞ
