ভিটামিন বা খনিজ উপাদান গুণে সমৃদ্ধ সুস্বাদু ফল কলা। বিশেষজ্ঞরা জানান, মানবদেহের গুরুত্বপূর্ণ অঙ্গ হৃদযন্ত্র সুস্থ রাখতেও গুরুত্বপূর্ণ ভূমিকা রাখতে পারে কলা।
বিশেষজ্ঞদের মতামত- যারা নিয়মিত কলা খান তাদের হৃদরোগ ও স্ট্রোকে আক্রান্ত হওয়ার ঝুঁকি অনেক কমে যায়। দিন কয়েক আগে ব্রিটিশ হার্ট ফাউন্ডেশনের একদল গবেষক জানিয়েছেন, পটাশিয়াম হৃদযন্ত্রের জন্য অত্যন্ত প্রয়োজনীয় একটি খনিজ উপাদান। এ ছাড়া রক্তচাপ নিয়ন্ত্রণে রাখতেও ভূমিকা রয়েছে এই পটাশিয়ামের।
গবেষকরা আরো জানিয়েছেন, পটাশিয়াম সমৃদ্ধ খাবার রক্তচাপ নিয়ন্ত্রণে সাহায্য করে। এছাড়া যারা নিয়মিত প্রচুর পরিমাণে পটাশিয়াম সমৃদ্ধ খাবার খান তাদের হৃদরোগের ঝুঁকি অন্যদের তুলনায় ২৭ শতাংশ কম থাকে। কলার মধ্যে এই খনিজ উপাদানের গুণ পর্যাপ্ত পরিমাণে রয়েছে।
বিশেষজ্ঞদের তথ্য মতে, একজন প্রাপ্ত বয়স্ক মানুষের দিনে ৩ হাজার ৫০০ মিলিগ্রাম থেকে ৪ হাজার ৭০০ মিলিগ্রাম পটাশিয়াম প্রয়োজন। একটি কলায় কম করে ৪৫০ মিলিগ্রাম পর্যন্ত পটাশিয়াম থাকে। অর্থাৎ দৈনিক পটাশিয়ামের চাহিদা মেটাতে পারে একটি কলা। কলা ছাড়াও আলু, অঙ্কুরিত ছোলা, মাছ, পোল্ট্রিজাত দ্রব্যে পটাশিয়াম থাকে। কলার পাশাপাশি নিয়মিত খাদ্য তালিকায় এইসব খাবার খেলে হার্ট অ্যাটাক হওয়ার সম্ভাবনা অনেকটাই কমে যায়।  
এছাড়া পটাশিয়ামের যোগানের পাশাপাশি কলা হজম করতে সাহায্য করে। ফাইবার সম্বৃদ্ধ কলা ওজন কমাতে গুরুত্বপূর্ণ ভূমিকা নিতে পারে। তবে বেশি কলা খেলে পেটে ব্যথা বা ডায়রিয়াজনিত সমস্যা হতে পারে।
ইত্তেফাক/ইউবি
