রেসিপি দিয়েছেন সুমনা সুমি।
সিজার ড্রেসিং তৈরি: মেয়নেইজ আধা কাপ। পারমিজান চিজ কুচি ২ টেবিল-চামচ। রসুনমিহিকুচি বা ছেঁচা ১ চা-চামচ। লেবুর রস ২ টেবিল-চামচ। ওরিগানো বা ইটালিয়ান সিজনিং ১ চা-চামচ। গোলমরিচের গুঁড়া ১ চা-চামচ বা ইচ্ছা মতো। ভিনিগার ১ টেবিল-চামচ। সরিষা গুঁড়া বা বাটা: ১ টেবিল-চামচ। লবণ ও চিনি স্বাদ মতো।
উপরের সব উপকরণ ভালো মতো মিশিয়ে পেস্ট বানিয়ে নিন।
মুরগির বুকের মাংস: ১টি। পাউরুটি ৪ টুকরা (পাশ ফেলে ছোট কিউব করে কাটা)। গোলমরিচের গুঁড়া ১ চা-চামচ। বাটার বা অলিভ ওয়েল ২ টেবিল-চামচ। রসুনকুচি ১ টেবিল-চামচ। লেটুসকুচি ২ কাপ। শসাকুচি ১ কাপ। ধনেপাতা বা পার্সলে পরিমাণ মতো।
পদ্ধতি: মুরগির মংসে লবণ, মরিচগুঁড়া মাখিয়ে নিন। ফ্রাইপ্যানে বাটার দিয়ে রসুনকুচি ও মুরগির মাংস পাঁচ থেকে ছয় মিনিট দুপাশ ভেজে ছোট টুকরা করে কেটে নিন।
