স্বাস্থ্যবিষয়ক একটি ওয়েবসাইটে খাওয়ার পর অভ্যাস যে অভ্যেসগুলো এড়িয়ে চলা উচিত তার একটি তালিকা প্রকাশ করা হয়। এই প্রতিবেদনে সেগুলো তুলে ধরা হল।
গোসল করা
গোসলের পরপর হাত এবং পায়ের রক্ত চলাচলের পরিমাণ বেড়ে যায়। অন্যদিকে পাকস্থলিতে রক্ত চলাচলের পরিমাণ স্বাভাবিকের তুলনায় কিছুটা কমে যায়। আর খাওয়ার পর পেটে পর্যাপ্ত পরিমাণ রক্ত চলাচল খুবই জরুরি। তা না হলে খাবার হজমে ব্যাঘাত ঘটে। তাই খাওয়ার ঠিক আগে বা পরে গোসল করা উচিত নয়।
ধূমপান


অনেকেই মনে করেন ভারি খাবার খাওয়ার পর সিগারেট হজমে সাহায্য করে, তবে এই ধারণা একেবারেই ঠিক নয়। ধূমপান বরাবরই শরীরের জন্য ক্ষতিকর, খাওয়ার পরই যদি সিগারেট খাওয়া হয় তাহলে ক্ষতির পরিমান প্রায় ১০ গুণ বেড়ে যায়।
ফল খাওয়া


 
চা পান


 
 
বেল্ট ঢিলা করে নেওয়া


 
 
খাওয়ার পরেই ঘুম


 
ছবি: রয়টার্স।
 
ঘুমের পরিবেশ
