সম্প্রতি একটি গবেষণায় এরকম ফলাফল পাওয়া গেছে। আর গবেষণাটি করেন যুক্তরাষ্ট্রের ইউনিভার্সিটি অফ টেক্সাস, ডালাসের অধ্যাপক আসলান ট্যুরের।
ট্যুরের বলেন, “পেটের বাইরের অংশের চর্বিগুলোর সঙ্গে ভেতরের অংশের চর্বির সম্পর্ক রয়েছে। ফলে বাইরে থেকে কম মনে হলেও পেটের ভেতরে চর্বির পরিমাণ অনেক বেশি থাকে।”
দেখা গেছে সব চর্বি পরিমাণ থেকে শরীরের নিম্নাংশের চর্বির পরিমাণ বেশি হলে শুধুমাত্র পেটের চর্বি তখন উচ্চ রক্তচাপের ঝুঁকি বাড়িয়ে দেয়, জানান ট্যুরের।
