রেসিপি দিয়েছেন মাকসুদা আজীজ।
উপকরণ: পাউরুটি ৮ টুকরা। টুনা মাছের কিমা ২০০ গ্রাম। টমেটো বড় ৪টি। কাঁচামরিচ ৫টি। পেঁয়াজকুচি আধা কাপ। আদাকুচি এক চা-চামচ। ধনেপাতার কুচি ৪ চা-চামচ। তেল ২ টেবিল-চামচ। পনিরের টুকরা ৪টি। পানি আধা কাপ। লবণ স্বাদ মতো।
পদ্ধতি: একটা কড়াইতে অর্ধেক তেল গরম করে তাতে টুনা মাছের কিমা হালকা ভেজে নিন। তারপর সেই তেলেই পেঁয়াজ ভেজে নেবেন।
অন্য আরেকটা হাঁড়িতে বাকি তেলটুকু নিয়ে তাতে আদাকুচি ভেজে নিন। এরপর এতেই টমেটোকুচি ও লবণ দিয়ে ভেজে সিদ্ধ করুন।
টমেটো সিদ্ধ হয়ে গেলে হাতে চালানো ব্লেন্ডার দিয়ে টমেটো ভালো করে মিশিয়ে নিন। এই মিশ্রণ জ্বাল দিয়ে ঘন করুন। ঘন হয়ে আসলে এতে মরিচকুচি এবং ধনেপাতাকুচি দিয়ে অল্প কিছুক্ষণ রেখে নামিয়ে নিন।


পাউরুটির একটি স্লাইসের উপর পনিরের স্লাইস রেখে তার উপর টমেটোতে রান্না করা টুনা মাছের এক স্তর দিয়ে আরেকটি পাউরুটির স্লাইস দিয়ে ঢেকে দিন।
