রেসিপি দিয়েছেন শারমিন হক।
উপকরণ: এক কৌটা ক্রিম (বাজারে পাবেন)। ডিম ৪টি। কনডেন্সড মিল্ক ১ কৌটা। এলাচগুঁড়া এক চিমটি।
পদ্ধতি: আধা কাপ চিনি, ১ টেবিল-চামচ পানি দিয়ে পুডিং বসানোর বাটিতে ক্যারামেল করে নিতে হবে।
সব উপকরণ একসঙ্গে নিয়ে হ্যান্ড বিটার দিয়ে বিট করে নিন। এবার ক্যারামেল করা বাটিতে ঢেলে দিন।
চুলায় একটি হাঁড়িতে পানি নিয়ে, পুডিংয়ের মতো করে ভাপিয়ে জমিয়ে নিন।
