খাদ্য ও পুষ্টিবিষয়ক একটি ওয়েবসাইটে এই বিষয়ের উপর প্রকাশিত প্রতিবেদন অবলম্বনে কয়েকটি খাবারের নাম এখানে দেওয়া হল যা পাউরুটির পরিবর্তে খাওয়া যেমন ভালো তেমনি স্বাস্থ্যকর।
আলু


ক্যাপসিকাম


বেগুন


টমেটো


শসা


আপেল


লেটুস পাতা


আনারস


বাঁধাকপি


গাজর


ছবি: নিজস্ব ও রয়টার্স।
আরও পড়ুন
সুস্বাস্থ্যের জন্য আনারস  
