তবে টাকার পিছনে ছুটতে গিয়ে তারা কাছের মানুষদের সঙ্গেই সময় কাটাতে পারেন না।
অতিরিক্ত টাকা আয় করতে ব্যয় করতে হয় অতিরিক্ত সময়। আর এতে করে পরিবারের সঙ্গে অনেক সময়ই দূরত্ব সৃষ্টি হয়।
সম্প্রতি আমেরিকার নিউ ইয়র্কের স্টেট ইউনিভার্সিটির এম্পায়ার স্টেট কলেজের এক জরিপে দেখা গেছে, যারা টাকার পিছনে বেশি ছুটেন তারা প্রকৃতপক্ষে ততটা সুখি হতে পারেন না। কারণ টাকার পিছনে বেশি সময় দেওয়ার কারণে তাদের ব্যক্তিগত কাজের জন্য সময় হয়ে ওঠে না।
এম্পায়ার স্টেট কলেজের মিরিয়াম টাটজেল বলেন, “খরচের অভ্যাস কমানোর ফলে টাকা আয়ের চাহিদাও কমে আসে। আর এতে করে পরিবারের জন্য বরাদ্দ সময়ের পরিমাণ বেশি থাকে। আর এটিই জীবনে বেশি আনন্দ এনে দেয়।”
একটি মানুষের জীবনে পূর্ণতার জন্য যে বিষয়গুলো জরুরি তার মধ্যে কর্মদক্ষতা, ইতিবাচক সম্পর্ক, স্বীকৃতি এবং উন্নতি উল্লেখযোগ্য। তবে সব কিছুর থেকে টাকার পিছনে বেশি সময় দেওয়া হলে তা ব্যক্তি জীবনের জন্য ক্ষতিকর বলে মনে করেন টাটজেল।
