মেইকআপ ব্যবহার করে চটজলদি চোখের নিচের ফোলা বা কালচে-ভাব ঢেকে ফেলা গেলেও তা ক্ষণস্থায়ী। তাই এই অবাঞ্ছিত পরিস্থিতি থেকে মুক্তি পেতে কিছু বিশেষ যত্ন প্রয়োজন।
রূপচর্চাবিষয়ক একটি ওয়েবসাইটে এই সমস্যা সমাধানের কিছু টোটকা উল্লেখ করা হয়। এখানে সেগুলো তুলে ধরা হল।
কাঠবাদামের তেল: এই তেলে রয়েছে প্রচুর ভিটামিন ই যা ত্বকের আর্দ্রতার মাত্রা বজায় রাখতে সাহায্য করে। এমনকি চোখের নিচে পাতলা ত্বকের যত্নের জন্যও এই তেল বেশ উপযোগী। নিয়মিত চোখের নিচের ত্বকে এই তেল ব্যবহারে কালচে দাগ দূর হবে এবং বলিরেখাও কমে আসবে। রাতে ঘুমানোর আগে চোখের নিচে ও উপরে হালকাভাবে মালিশ করে তেল লাগিয়ে ঘুমাতে হবে, সকালে ধুয়ে ফেলুন। নিয়মিত ব্যবহারে উপকার পাওয়া যাবে।
