বাংলাদেশের ভূমিকম্পের সার্বিকবিষয় নিয়ে আমরা কিছু প্রশ্ন রেখেছিলাম যুক্তরাষ্ট্রের মেমফিস বিশ্ববিদ্যালয়ের সেন্টার ফর আর্থকোয়েক রিসার্চ অ্যান্ড ইনফরমেশন (সিইআরআই)’য়ে গ্র্যাজুয়েট রিসার্চ অ্যাসিসট্যান্ট হিসেবে কর্মরত সাব্বির আহামেদের কাছে।
বাংলাদেশের জাহাঙ্গীরনগর বিশ্ববিদ্যালয় থেকে ভূতত্ত্বে স্নাতক এবং স্নাতকোত্তর সম্পন্ন করা এই সহকারী গবেষক সেসব প্রশ্নের উত্তর বিস্তারিতভাবে দিয়েছেন।
বাংলাদেশ কতটা ভূমিকম্পের ঝুঁকিতে রয়েছে?
সামগ্রিকভাবে কতটা ঝুঁকির মধ্যে আছে তা জানতে হলে বাংলাদেশ ও তার আশপাশের ভূতাত্ত্বিক গঠণের দিকে দৃষ্টি দিতে হবে। বাংলাদেশ হচ্ছে একটা বদ্বীপ যা কিনা যুগ যুগ ধরে পলি প্রবাহের মাধ্যমে গঠিত হয়েছে। অনেক সময় একে গঙ্গা-ব্রহ্মপুত্র বদ্বীপ নামেও অবিহিত করা হয়। অবস্থানের বিচারে এই বদ্বীপের অবস্থান তিনটি প্লেটের সংযোগস্থল ১) উত্তরে রয়েছে ইউরেশিয়ান (ইউরোপ এবং এশিয়া) প্লেট। ২) পূর্ব দিকে রয়েছে মায়ানমার বা বার্মা প্লেট। এবং ৩) ভারতীয় প্লেট যার উপরই বাংলাদেশ অবস্থিত।
এটা হচ্ছে সামগ্রিকভাবে বাংলাদেশের ভূতাত্ত্বিক অবস্থান। শুধুমাত্র বাংলাদেশ এবং এর একটু আশপাশের দিকে তাকালে দেখা যায় বাংলাদেশের উত্তর সীমান্ত বরাবর রয়েছে বিশাল এক ডাউকি চ্যুতি (Dauki fault) যা কিনা শিলং মালভূমির (Shillong plateau) কারণে গঠিত হয়েছে। শিলং মালভূমির মনোরম পাহাড়পুঞ্জ আমাদের মন কেড়ে নিলেও যেকোনো সময়ে এটা আমাদের জন্য কাল হয়ে দাঁড়াতে পারে।


এই তো গেল উত্তরের কথা, এবার পূর্বে আসা যাক। বাংলাদেশের পূর্বদিকে রয়েছে উত্তরে সিলেট থেকে দক্ষিণে চট্টগ্রাম পর্যন্ত রয়েছে বিস্তৃত পাহাড়পুঞ্জ। অনেকেরই জানা নেই যে, এই পাহাড়পুঞ্জ মূলত ভারত ও মায়ানমার প্লেটের সংঘর্ষের ফলে গঠিত হয়েছে কোটি কোটি বছর ধরে। অনেক ছোট ছোট এমনকি মাঝারি মাত্রার ভূমিকম্প হয় প্রায়শই এই অঞ্চলে। ধারণা করা হয় এক বিশাল চ্যুতি চট্টগ্রাম পাহাড়ের সমান্তরালে গিয়ে দক্ষিণে ইন্দনেশিয়ার উপকূলে সুন্দা (Sunda) চ্যুতির সঙ্গে সংযুক্ত হয়েছে।
বাংলাদেশ থেকে একটু উত্তরে গেলে তো কথাই নেই, বিশাল হিমালয় পর্বতমালা যা কিনা তৈরি হয়েছে ভারত এবং ইউরোপ প্লেটের সংঘর্ষে। বাংলাদেশ যেহেতু পলি দ্বারা গঠিত যা কিনা ভূকম্পনকে তরান্বিত করে যার ফলে ক্ষতির সম্ভাবনাও বেড়ে যায়।। ভূতাত্ত্বিক অবাস্থানের এবং গঠণের বিচারে বাংলাদেশ এমন একটি অবস্থানে রয়েছে যা কিনা ভূমিকম্পের জন্য বেশ ঝুঁকিপূর্ণ।
বাংলাদেশ এবং এর আশপাশের কিছু গুরুত্বপূর্ণ ভূমিকম্প
ইতিহাস বলে অনেক আগ থেকেই এই অঞ্চলে ছোট থেকে মাঝারি ধরণের ভূমিকম্প হয়ে আসছে। এরমধ্যে উল্লেখযোগ্য ভূমিকম্পের মধ্যে রয়েছে ১৭৬২ সালের ৭.৫ মাত্রার আসাম ভূমিকম্প। যার ফলে ব্রহ্মপুত্র নদী মধুপুর চ্যুতির দক্ষিণ-পশ্চিম দিকে সরে এসে। ১৯২৩ সালে ঢাকা থেকে প্রায় ১০০ কিলোমিটার দুরে কিশোরগঞ্জের কাছে ৭.২ মাত্রার ভূমিকম্প আঘাত হানে। এর ফলে ঢাকাসহ সারা বাংলাদেশ কেঁপে ওঠে এবং ঢাকাতে বেশ ক্ষয়ক্ষতির কথা উল্লেখ করা হয়।
ভূমিকম্পের মানচিত্রের দিকে তাকালে দেখতে পাব, বিশেষ করে সিলেট, কুমিল্লা এবং চট্টগ্রাম অঞ্চলগুলো ছোট থেকে মাঝারি মাত্রার ভূমিকম্প হয়। বাংলাদেশের অভ্যন্তরেও সাম্প্রতিক সময়ে বেশ কিছু ভূমিকম্প রেকর্ড করা হয়েছে।
বিশেষ করে চাঁদপুরের মোহনা এবং পদ্মার পাড় বরাবর। উল্লেখ করার মতো হচ্ছে যে গত ২০১০ থেকে সাম্প্রতিক সময় পর্যন্ত চাঁদপুরের মোহনা অঞ্চলে চার থেকে পাঁচটি ৪.২ থেকে ৫.১ মাত্রার মাঝারি ভূমিকম্প হয়েছে। এরমধ্যে ২০১০ সালে ৫.১ মাত্রার ভূমিকম্প ঢাকাসহ আশপাশের অঞ্চলে অনুভূত হয়।  
চাঁদপুরের মোহনায় সাম্প্রতিক সময়ে এত ভূমিকম্পরে কারণ নির্ণয়ে ভূতত্ত্ববিদরা এখনও কাজ করছেন।
বাংলাদেশের কোন কোন অঞ্চল বেশি ঝুঁকিতে রয়েছে?
উপরের আলোচনা থেকে এটা অন্তত জানতে পারি, বাংলাদেশের উত্তরে শিলং মালভূমির পাদদেশের অঞ্চলগুলো এবং পূর্বদিকে সিলেট থেকে চট্টগ্রাম পর্যন্ত অঞ্চলগুলো ভূমিকম্পপ্রবণ। বাংলাদেশের ‘ঝুঁকি মানচিত্র’ থেকেও সেটা দেখা যায়।
নেপালে ৭.৮ মাত্রার ভূমিকম্পের ফলে নেপালসহ পুরো অঞ্চলে যে কম্পণ অনুভূত হয়েছে তার একটা মানচিত্র প্রকাশ করেছে USGS. এই মানচিত্র থেকেও দেখা যায় বাংলাদেশের উত্তর ও পূর্বাঞ্চল সমূহে PGA (Peak Ground Acceleration) সবচেয়ে বেশি। ঢাকার অবস্থানের বিচারে এখানে PGA মধ্যমানের হলেও এর ঝুঁকি একেবারে কম না। বিশেষ করে এর আশেপাশে গত কয়েক বছর ছোট থেকে মাঝারি মাত্রার ভূমিকম্প অন্তত তাই বলে।
শুধু তাই নয় ঢাকার আশপাশে রয়েছে বড় ধরনের বেশ কয়েকটি চ্যুতি (fault)। যা কিনা ঢাকাকে যেকোনো সময় বড় ধরনের ঝুঁকির মুখে ফেলে দিতে পারে।
ঢাকার উত্তরে বিস্তৃত টাঙ্গাইল অঞ্চলে রয়েছে মধুপুর চ্যুতি (Madhupur fault)। এই মধুপুর চ্যুতিতে মাঝারি মাত্রার ভূমিকম্প ঢাকার জন্য দুঃসংবাদ বয়ে নিয়ে আনতে পারে। ঢাকার দক্ষিণ পূর্ব দিকে অর্থাৎ চাঁদপুরের মেঘনা মোহনা অঞ্চলে গত কয়েক বছর ধরে ছোট মাত্রার ভূমিকম্প হচ্ছে যা কিনা বড় কোনো ধরনের ভূমিকম্প হওয়ারই ইঙ্গিত।
ধারনা করা হয় ঢাকার আশপাশের নদীগুলাও চ্যুতির ফলে তৈরি হয়েছে, অবশ্য এটা নিয়ে বিতর্ক আছে। শুধু তাই না, ঢাকার মাটি থেকে যে হারে খাবার পানি উত্তোলন করা হচ্ছে, তাতে পানির স্তর দিনে দিনে নিচে নেমে যাচ্ছে যা কিনা ঢাকার জন্য বড় ধরনের হুমকি হয়ে দাঁড়াতে পারে। এমনকি ছোট মাত্রার ভূমিকম্পেও অনেক ক্ষতির সম্মুখীন হতে পারে।
বাংলাদেশের প্রেক্ষাপটে কোনো রকম সমীক্ষা বা গবেষণা করা হয়েছে কিনা?
যদিও বাংলাদেশ এত বড় ঝুঁকির মধ্যে রয়েছে। তবে এখনও বাংলাদেশের সঠিক ‘ঝুঁকি মানচিত্র’ তৈরি করা সম্ভব হয়নি। বর্তমানে যে ‘ঝুঁকি মানচিত্র’ আছে তাতে বাংলাদেশের বিভিন্ন স্থানের চ্যুতির ঝুঁকি বিবেচনায় নেওয়া হয় নাই। শুধু তাই না সাম্প্রতিক সময়ে বাংলাদেশর অভ্যন্তরে ছোট থেকে মাঝারি মাত্রার ভূমিকম্পগুলোকে বিবেচনায় নিতে হবে।
সাম্প্রতিক এক সমীক্ষায় বলা হয়েছে যদি রিক্টার স্কেলে ৭.৫ মাত্রার ভূমিকম্প মধুপুর চ্যুতিতে আঘাত হানে তাহলে ঢাকা শহরের অন্তত ৭২ হাজার বাড়িঘর ক্ষতিগ্রস্ত হবে যা কিনা মেরামতের অযোগ্য হয়ে পড়বে। আনুমানিক অর্থনৈতিক ক্ষতি হবে প্রায় ৬ হাজার মার্কিন ডলার। CDMP (Comprehensive Disaster Management Program)এর তথ্য মতে এধরনের একটা ভূমিকম্প পুরাপুরিভাবে ঢাকার ২৫০টি হাসপাতালকে ক্ষতি করবে। এই হিসাব মতে ভূমিকম্পের একদিন পরে মাত্র ৪১ শতাংশ হাসপাতালের বেড চিকিৎসা দেওয়ার উপযোগী থাকবে। এক সপ্তাহ এবং ৩০দিন পর এর অবস্থা দাঁড়াবে যথাক্রমে ৫৪ এবং ৭২ শতাংশ।
শুধু তাই না, ঢাকায় সুপেয় পানি ও বিদ্যুৎ সরবরাহ বিঘ্নিত হবে মারাত্মকভাবে। এ সম্পর্কে বিস্তারিত জানতে Disaster Risk Reduction Approaches in Bangladesh বইটি পড়া যেতে পারে।
আমাদের দেশে ভূমিকম্প বিষয়ে শিক্ষাও তেমন পর্যাপ্ত নয়। মাত্র তিন থেকে চারটি সরকারি বিশ্ববিদ্যালয়ে ভূতত্ত্ব পড়ানো হয়। ভূতত্ত্বের শিক্ষার্থী হিসেবে দেখেছি ভূমিকম্প সম্পর্কে নামমাত্র পড়ানো হয় মাঝে মাঝে তাও হয়না। অবশ্য এর কারণ হচ্ছে আমাদের দেশে হাতেগোনা কয়েকজন আছে যারা ভূমিকম্প নিয়ে গবেষণা করেন। তার মধ্যে অনেকেই দেশের বাইরে থাকেন। শুধু তাই নয় অত্যন্ত দুঃখজনক বিষয়হলো ভূমিকম্প সঠিকভাবে পরিমাপের জন্য প্রয়োজনীয় সরঞ্জামাদি নেই বলেই চলে। বাংলাদেশ কিংবা আশপাশে যেকোনো মাত্রার ভূমিকম্প হওয়ার পর রিকটর স্কেলে এর তীব্রতা জানতে আমাদের তাকিয়ে থাকতে হয় যুক্তরাষ্ট্র ভিত্তিক ভূতাত্ত্বিক সংস্থা USGS এর দিকে।
বাংলাদেশের প্রেক্ষাপটে ভূমিকম্পের ঝুঁকি হ্রাসে কী করা যেতে পারে?


শুধু তাই নয় কীভাবে আমাদের বাসাবাড়ি তৈরি করতে হবে তারও নির্দেশনা থাকবে। এজন্য অবশ্য আমাদের ছোট ছোট ভূমিকম্পগুলো কোথায় হচ্ছে তা সনাক্ত করতে হবে প্রথমে। এর মাধ্যমে আমারা বাংলাদেশে চ্যুতির অবস্থান সম্পর্কে আরও বেশি জানতে পারব যা কিনা ‘ভূমিকম্প ঝুঁকি মানচিত্র’ তৈরি করতে সাহায্য করবে। ছোট ছোট ভূমিকম্পের অবস্থান সনাক্ত করতে অনেক বেশি ভূমিকম্প পরিমাপক যন্ত্র (Seismometer) বাংলাদেশের বিভিন্ন জায়গায় স্থাপন করতে হবে। যদিও এই যন্ত্রগুলোর দাম অনেক বেশি। এজন্য অবশ্য বাইরের কোনো দেশের ভূমিকম্প গবেষণা প্রতিষ্ঠানের সহায়তা নেওয়া যেতে পারে।
সবচেয়ে বেশি দরকার হচ্ছে বাংলাদেশের ভূমিকম্প ঝুঁকি নিয়ে অধিক গবেষণা। যা হচ্ছে না বললেই চলে। মোট কথা হচ্ছে আমাদের এখনই সচেতন হতে হবে। তা না হলে একটা বড় মাপের ভূমিকম্প হলে আমাদের অনেক দেরি হয়ে যাবে। আমাদের দেশ অনেক এগিয়ে যাচ্ছে, সঠিক পরিকল্পনার মাধ্যমে আমরা ক্ষতির পরিমাণ কমিয়ে আনতে পারি।
ভূমিকম্পের সময় করণীয়
প্রথমে আমাদের যেদিকে নজর দিতে হবে তা হচ্ছে বাংলাদেশের মানুষকে ভূমিকম্প সম্পর্কে শিক্ষিত করা। বেশিরভাগ লোকজনই জানে না ভূমিকম্প হলে কী করতে হবে!
সাম্প্রতিক সময়ে নেপাল ভূমিকম্পের প্রভাব বাংলাদেশও অনুভূত হয়। এসময় মানুষের মধ্যে আতঙ্ক বিরাজ করে যারফলে সবাই একসঙ্গে ছুটাছুটি করে ঘর বা অফিস থেকে বেড়িয়ে পরে। ফলে অনেকে এমনিতেই আহত হয়।
ভূমিকম্পের বিষয়ে যেহেতু পূর্বাভাস দেওয়া যায় না। তাই যতটা সম্ভব আতঙ্কিত না হয়ে ঘর বা অফিসে থাকলে নিরাপদ স্থানে যেতে হবে। আর যতটা সম্ভব নিরাপত্তা ব্যবস্থা ও সাবধানতা আগেই নিয়ে রাখতে হবে। এক্ষেত্রে আমেরিকার Federal Emergency Management Agency দ্বারা নির্ধারিত নিচের সাবধানতাগুলো পালন করা যেতে পারে।
ঘর বা অফিসের ভিতরে থাকলে: ১) ভূমিকম্পের সময় যদি সম্ভব হয় মাথায় হেলমেট বা এজাতীয় কিছু থাকলে মাথায় পরে নিন, অন্যদেরও পরতে বলুন এবং টেবিল, কিংবা বেঞ্চেরমতো শক্ত কিছুর নিচে আশ্রয় নিন। আশ্রয় নেওয়ার মতো টেবিল বা বেঞ্চ না থাকলে দুইহাত মাথার উপড়ে রেখে ইটের গাঁথুনি দেওয়া পাকাঘর হলে ঘরের কোণে এবং কলাম ও বিমের তৈরি ভবন হলে কলামের গোড়ায় আশ্রয় নিন। সম্ভব হলে দ্রুত বৈদ্যুতিক ও গ্যাসের সুইচ বন্ধ করে দিন। কোনো কিছু সঙ্গে নেওয়ার জন্য সময় নষ্ট করবেন না। কাচ, জানালা, কিংবা বাইরের দেয়ালের কাছ থেকে দূরে থাকুন।
২) আপনি যদি ভূমিকম্পের সময় বিছানায় থাকেন, তাহলে তৎক্ষণাৎ বালিশ দিয়ে মাথা ঢেকে রাখুন সম্ভব হলে নিরাপদ জাগায় চলে যান।
৩) যতক্ষণ পর্যন্ত ভূমিকম্প অনুভূতি হয় ততক্ষণ পর্যন্ত বাইরে বের হওয়া নিরাপদ নয়। অধিকাংশ সময়ে আহত বা প্রাণহানির ঘটনা ঘটে হুড়াহুড়ি করে ঘর বা অফিসে ঢোকা বা বের হওয়ার সময়।
৪) ভূমিকম্পের সময় বিদ্যুৎস্পৃষ্ট হওয়ার ঘটনা ঘটতে পারে। এ ব্যাপারে সজাগ থাকতে হবে।
ঘর বা অফিসের বাইরে থাকলে: ১) যেখানে আছেন সেখানেই থাকুন। নিরাপদ মনে না হলে নিরাপদ জাগায় চলে যান। ২) বড় বড় বিল্ডিং, বৈদ্যুতিক খুঁটি কিংবা বড় গাছ থেকে দূরে সরে যান।
গাড়ির ভিতর থাকলে: ১) গাড়ি দ্রুত বন্ধ করে নিরাপদ জাগায় গাড়ি পার্ক করুন এবং গাড়ির মধ্যেই অবস্থান করুন। রাত হলে গাড়ির হেডলাইট জ্বালিয়ে রাখুন। ২) গাড়ি বড় বিল্ডিং, গাছ বা বৈদ্যুতিক খুঁটির কাছে পার্ক করবেন না। ৩) গাড়িতে GPS থাকলে আপানর অবস্থান জেনে নিন। অনিরাপদ মনে হলে জরুরি সাহায্যের জন্য জরুরি নম্বরে যোগাযোগ করুন। ৪) ভূমিকম্পের সময় কোনো সেতুর উপর দিয়ে অথবা ফ্লাইওভারের নিচ দিয়ে পার হওয়ার চেষ্টা করবেন না।
ধ্বংসস্তূপের মধ্যে থাকলে: ১) আলোর জন্য ম্যাচ বা গ্যাস লাইট জ্বালাবেন না। ২) আপনার মুখমণ্ডল ও মাথা পরনের জামা দিয়ে ঢেকে ফেলুন। ৩) আপনার সামনে বা পিছনে কিছু সরানোর চেষ্টা করবেন না। যা কিনা বিপদ ডেকে আনতে পারে। ৪) শেষ সুযোগ হিসেবে চিৎকার করতে পারেন। মনে রাখবেন বেশি চিৎকার করলে ধ্বংসস্তূপের ধুলাবালি মুখে যেতে পারে যা কিনা নিঃশ্বাস বন্ধ করে দিতে পারে।
