সঠিক না জেনে, উড়ো কথায় কান দিয়ে অনেকেই মনে করেন, ‘আমার হয়ত সমস্যা আছে’। সমস্যা কী, আদৌ সমস্যা আছে কিনা সেবিষয়ে চিকিৎসকের সঙ্গে কথা বলতেও বিব্রত বোধ করেন।
সমস্যা যদি মনেই হয় তাহলে চিকিৎসকের শরণাপন্ন হন। তবে বাজে অভ্যাসের কারণেও পুরুষের জননেন্দ্রিয়ের কর্মক্ষমতার ক্ষতি হতে পারে। এসব বদভ্যাস প্রতিনিয়ত করতে থাকলে পৌরষত্বের ধার কমতেই থাকবে।
চিকিৎসাশাস্ত্র ও বিভিন্ন গবেষণা অনুসারে স্বাস্থ্যবিষয়ক একটি ওয়েবসাইটে প্রকাশিত প্রতিবেদন অবলম্বনে বদভ্যাসগুলোর একটা তালিকা এখানে দেওয়া হল।  
বসে বসে সময় কাটানো: গবেষণা বলে, যারা নিয়মিত শারীরিক পরিশ্রম করেন তাদের যৌনস্বাস্থ্য ভালো থাকে। আর যারা আজীবনই কুঁড়েমি করেছেন কিংবা আগে পরিশ্রমি ছিলেন এখন অলস সময় পার করছেন তাদের মধ্যে যৌন অক্ষমতা দেখা দেওয়ার আশঙ্কা বেশি।
ধূমপান: বিটিশ জার্নাল অফ ইউরোলজি’তে প্রকাশিত ৮ সপ্তাহে ধূমপান ছাড়ার এক গবেষণায় বলা হয়, অংশগ্রহণকারীদের ২০ শতাংশ স্বীকার করেছেন যে তারা পুরুষাঙ্গ দৃঢ় হওয়ার সমস্যায় ভুগছেন। ধূমপান ছাড়ার পর এদের মধ্যে ৭৫ শতাংশেরই যৌনক্ষমতা বেড়েছে, পুরুষাঙ্গ হয়েছে দৃঢ়।   
দাঁতের অপরিচ্ছন্নতা: শুনতে আজব মনে হলেও গবেষণা মতে, যার পুরুষাঙ্গ ভালোভাবে দৃঢ় না হওয়ার সমস্যা আছে, তার মাড়ির সমস্যা থাকার আশঙ্কা সাধারণের তুলনায় সাতগুন বেশি। এর কারণ হল মুখের ব্যাকটেরিয়া সারা শরীরে প্রবাহিত হয় এবং তা পুরুষাঙ্গের ধমনির উপর ক্ষতিকর প্রভাব ফেলে।
অপর্যাপ্ত ঘুম: শরীরের ঘুমের চাহিদা পূরণ না হলে ‘টেস্টোস্টেরন’য়ের মাত্রা কমে যায়। ফলে অবসাদ হয়। যা থেকে পেশি ও হাড়ের ঘনত্বও কমে যেতে পারে। দুটি প্রভাবই পুরুষাঙ্গের জন্য ক্ষতিকর। 
অপর্যাপ্ত সঙ্গম: সঙ্গমের পরিমাণ দম্পতিভেদে বিভিন্ন। তবে ‘আমেরিকান জার্নাল অফ মেডিসিন’য়ের একটি গবেষণায় দেখা গেছে, প্রতি সপ্তাহে কমপক্ষে একবার সঙ্গমে লিপ্ত না হলে পুরুষাঙ্গ ভালোভাবে দৃঢ় না হওয়ার সমস্যা দেখা দিতে পারে। সপ্তাহে তিনবার সঙ্গম হল আদর্শ।
তরমুজ: ‘সিট্রুলাইন-আর্জিনাইন’ নামক উপাদানের ভালো উৎস তরমুজ। এর কাজই হল শরীরের যৌনক্ষমতার  উন্নতিসাধন। উপাদানটি শরীরে নাইট্রিক অক্সাইডের মাত্রা বাড়ায় এবং পুরুষাঙ্গ দৃঢ় না হওয়ার সমস্যা  সারাতে সক্ষম। তাই প্রতিদিন তরমুজ খাওয়ার পরিমাণ বাড়াতে পারলে ভালো।
ট্রান্স ফ্যাট: শরীর প্রচুর ট্রান্স ফ্যাট গ্রহণ করলে শুক্রাণুর মান খারাপ হতে থাকে। তাই শুক্রাণুর সুস্বাস্থ্য ধর রাখতে স্বাস্থ্যকর খাবার খেতে হবে এবং ট্রান্স ফ্যাট খাওয়ার পরিমাণ কমাতে হবে।
অতিরিক্ত টেলিভিশন: ব্রিটিশ জার্নাল অফ স্পোর্টস মেডিসিন’য়ে প্রকাশিত হার্ভার্ড স্কুল অফ পাবলিক হেলথ’য়ের করা একটি গবেষণায় দেখা দেখা গেছে সপ্তাহে ২০ ঘণ্টার বেশি সময় টেলিভিশন দেখা পুরুষের শুক্রাণুর মাত্রা ৪৪ শতাংশ পর্যন্ত কমিয়ে দিতে পারে।
ছবি: রয়টার্স।
আরও পড়ুন
চওড়া মুখের পুরুষ হতে পারে প্রতারক
