আদরের পোষা বিড়াল পুরোপুরি সুস্থ তো! কীভাবে নিশ্চিত হবেন বিড়ালটি আসলেও ভালো আছে!
দেরি হওয়ার আগেই প্রিয় পোষা বিড়াল ভালো আছে কিনা সে বিষয়ে নিশ্চিত হতে কিছু সাধারণ লক্ষণ সম্বন্ধে জেনে রাখা উচিত। এই লক্ষণগুলো দেখলেই বুঝে নিতে হবে ভালো নেই আদরের প্রাণীটি।
পেটহেলথ নেটওয়ার্ক ডটকম’য়ের পশু চিকিৎসক ফিল জেলৎসম্যান দশটি বিশেষ লক্ষণের বিষয় জানান। যা পোষা প্রাণীর অসুস্থতা নির্দেশ করে। এই লক্ষণগুলো পোষা কুকুরের ক্ষেত্রেও প্রযোজ্য।
খাবারের রুচিতে পরিবর্তন
আপনার বিড়াল কি অনেক বেশি খাচ্ছে? নাকি একেবারে খাচ্ছেই না? খাবারের রুচিতে পরিবর্তন হতে পারে অনেক ধরনের রোগের অন্যতম কারণ।
মুখে দুর্গন্ধ
প্রিয় বিড়ালের মুখের কাছে গেলেই দুর্গন্ধ পাচ্ছেন! হতে পারে বিড়ালটির মাড়ি ক্ষয় হচ্ছে। মাড়ি ক্ষয় হলে অনেক ক্ষেত্রে দাঁত পড়ে যাওয়ার সম্ভাবনা থাকে। এছাড়া বিড়ালের কিডনির সমস্যার হলেও মুখে দুর্গন্ধ হতে পারে।
যেখানে সেখানে পায়খানা-প্রস্রাব করা


ওজন কমে যাওয়া
বিড়ালকে কোলে নিয়ে হঠাৎ মনে হতেই পারে যে এর ওজন অনেকটাই কমে গেছে। এক্ষেত্রে দেরি না করে চিকিৎসকের শরণাপন্ন হন। কারণ থাইরয়েড রোগ এমনকি ক্যান্সারের কারণেও ওজন কমে যেতে পারে।
লোম পরিষ্কার না করা
বিড়াল এবং বিড়ালজাতীয় প্রাণীরা নিজেদের শরীর চেটে চেটে পরিষ্কার করে থাকে। প্রায় প্রতিদিনই এই কাজটি করতে দেখা যায় বিড়ালকে। তবে যদি আপনার বিড়াল কোনো কারণে নিজের শরীর পরিষ্কার করা বন্ধ করে দেয় তাহলে তা স্বাভাবিক নয়। এক্ষেত্রে বিড়ালের গায়ে পোকা আছে কিনা সেদিকে খেয়াল রাখতে হবে। অনেক সময় খোসপাঁচড়ার কারণেও এই লক্ষণ দেখা দিতে পারে।
আচরণে পরিবর্তন


বেশি ঘুম বা কম ঘুম
আপনার বিড়াল কি অতিরিক্ত ঘুমাচ্ছে? কিংবা স্বাভাবিকের চাইতে অনেক কম ঘুমাচ্ছে? দুটো লক্ষণই নির্দেশ করে কোনো ধরনের অসুস্থতার।
মানসিক চাপ
অনেক সময় পরিচিত পরিবেশ বদলে গেলে তা বিড়ালের উপর মানসিক চাপের সৃষ্টি করে। নতুন কারও বাড়িতে যাওয়া, কিংবা পরিবারে নতুন কোনো পোষা প্রাণীর আগমন হতে পারে বিড়ালের মানসিক চাপের কারণ। এক্ষেত্রে বিড়ালটির মধ্যে লুকিয়ে থাকার প্রবণতা, খাবারে অরুচি ইত্যাদি লক্ষণ দেখা দিতে পারে।
কাজকর্মে পরিবর্তন


গলার স্বরে পরিবর্তন
সব বিড়ালই ‘ম্যাও’ বলে ডাকে। তবে একজন পোষা বিড়ালের মালিক একটু হলেও জানেন তার বিড়ালের ভাষা। আদর করার সময় যদি বুঝতে পারেন আপনার বিড়ালের গলার স্বরে কোনো ধরনের পরিবর্তন হয়েছে, কিংবা বিড়ালটি একেবারেই চুপচাপ থাকছে, তবে দেরি না করে হাসপাতালে নিয়ে যাওয়াই ভালো।
ঘরের মাঝে রঙিন মাছ
বিড়াল পোষার আদ্যপ্রান্ত
শখের কবুতর থেকে আয়
কবুতর পালন ও চিকিৎসা
