ডাবর মেথি আমলা একটি পারফিউম্ড ননস্টিকি লাইট হেয়ার অয়েল। যাতে আছে আমলা ও মেথির দ্বিগুণ পুষ্টি। এর আমলা চুলকে করে মজবুত আর মেথি চুলকে করে মসৃণ ও উজ্জ্বল। এটি একটি ননস্টিকি লাইট হেয়ার অয়েল। নিয়মিত ব্যবহারে চুল হয়ে উঠবে আরও মজবুত, উজ্জ্বল এবং সিল্কি।
রাজধানীর একটি অভিজাত হোটেলে ২ নভেম্বর প্রতিষ্ঠানের সকল বিক্রয় প্রতিনিধির সামনে উন্মোচিত হয় ডাবর পরিবারের এই নতুন সদস্য। উদ্বোধন অনুষ্ঠানে এশিয়ান কনজ্যুমার কেয়ার প্রা.লি. (ডাবর বাংলাদেশ)য়ের কান্ট্রি ম্যানেজার সঞ্জয় মুনশী; হেড অফ মার্কেটিং মো. আসিফুর রউফ; ব্র্যান্ড ম্যানেজার মো. শরিফুল ইসলাম তুষার; ন্যাশনাল সেলস ম্যানেজার অরুনাশিস দত্তসহ প্রতিষ্ঠানের অন্যান্য ঊর্ধ্বতন কর্মকর্তাগণ উপস্থিত ছিলেন।
অত্যন্ত উন্নত মানসম্পন্ন ডাবর মেথি আমলা’র ২০০ মি.লি.’র দাম ১০০ টাকা এবং ১০০ মি.লি.’র দাম মাত্র ৫০ টাকা।
