স্বাস্থ্যবিষয়ক একটি ওয়েবসাইটে প্রকাশিত প্রতিবেদন থেকে জানা যায় আয়ুর্বেদিক প্রতিকারের কথা যা এই সমস্যাকে এড়াতে না পারলেও এর কারণে হওয়া ব্যথা ও অস্বস্তির প্রভাব অনেকটাই কমিয়ে আনতে সাহায্য করে।  
ডিম্বাশয়ের পলিসিস্টিক রোগের জন্য: 'পলিসিস্টিক ওভারিয়ান ডিজিজ' এক ধরনের শারীরিক অবস্থা যা প্রতি ১০ জন মহিলার মধ্যে দেখা যায়। এটা নারীদের একটি হরমোনের ভারসাম্যহীনতার কারণে হয়। যার পরিণতিতে শরীরে টেস্টোস্টেরনের মাত্রা বেড়ে যায় এবং এর নানা রকমের পার্শ্বপ্রতিক্রিয়া শরীরে দেখা যায়। ফলে নারীদের ওজন বৃদ্ধি, পেলভিসে ব্যথা, ব্রণ, হতাশা এবং রজঃচক্রের অনিয়ম দেখা যায়। আবার অনেক ক্ষেত্রে এই রোগে আক্রান্ত নারীদের গর্ভধারণ বিষয়ক নানা রকমের জটিলতাও দেখা দেয়।
সঠিক চিকিৎসা, ডায়েট এবং শরীরচর্চার মাধ্যমে এই সমস্যার সমাধান করা সম্ভব।    
অতিরিক্ত রক্ত প্রবাহ: 'ম্যানোরাজিয়া' বলতে নিয়মিত বিরতিতে রজঃচক্র হওয়া বোঝায়। তবে এই সময় রক্তপ্রবাহ থাকে বেশি। অনেকেরই টানা ছয় থেকে সাত দিন অতিরিক্ত রক্ত প্রবাহ থাকায় দুর্বলতাসহ নানা রকমের শারীরিক সমস্যা দেখা যায়। এই রোগের জন্য নিরাঞ্জন ফল নামক একটি চায়না ফল বেশ কার্যকর।
নিরাঞ্জন ফল এক থেকে দেড় ঘন্টা পানিতে ভিজিয়ে রাখুন যেন তা ফুলে লেবুর আকৃতি ধারণ করে। এরপর তা ভালোভাবে চিপে নিয়ে এর ভিতরের অংশ সামান্য চিনি মিশিয়ে পান করুন। এটা রক্ত প্রবাহ নিয়ন্ত্রণে সাহায্য করে। 
লিউকোরিয়া: সাদাস্রাব বেশি হয়ে থাকে রজঃচক্রের আগে আগে। এটা যৌন উত্তেজনা বৃদ্ধি করে। তবে এর অতিরিক্ত ক্ষরণ মোটেও স্বাভাবিক কোনো বিষয় নয়।
অতিরিক্ত প্রবাহ, রংয়ের পরিবর্তন ও ঘনত্বের পুরুত্ব এর সংক্রমণ নির্দেশ করে। 
প্রতিদিন দুএকটি কলা খাওয়ার মাধ্যমে এই সমস্যা কমিয়ে আনা যায়।
