রেসিপি দিয়েছেন বীথি জগলুল।
উপকরণ: ময়দা ২ কাপ। বেইকিং পাউডার ২ চা-চামচ। গুঁড়াদুধ ১/৪ কাপ। কোকো পাউডার ২ টেবিল-চামচ। ডিম ৬টি। চিনিগুঁড়া আড়াই কাপ। তেল অথবা মাখন ২ কাপ। ভ্যানিলা এসেন্স ১ চা-চামচ।
পদ্ধতি: ময়দা ও বেইকিং পাউডার চালনি দিয়ে চেলে নিন। এই মিশ্রণে গুঁড়াদুধ মিশিয়ে, দুই ভাগ করুন। এক ভাগের সঙ্গে কোকো পাউডার মিশিয়ে নিন।
ওভেন ১৬০ ডিগ্রি সে তাপমাত্রায় প্রি-হিট হতে দিন।
ডিমের কুসুম ও সাদা অংশ আলাদা করে নিন। বড় একটি বাটিতে ডিমের সাদা অংশ নিয়ে বিটার দিয়ে বিট করে, ফোম করে নিন।
ফোমের সঙ্গে একে একে এসেন্স, চিনি, কুসুম, বাটার দিয়ে আবার বিট করুন। সব বিট করা হলে এই মিশ্রণও দুই ভাগ করে নিন। এক ভাগের সঙ্গে কোকো মেশানো ময়দার মিশ্রণ হাত দিয়ে মিশিয়ে নিন। অন্য ভাগের সঙ্গে কোকো ছাড়া ময়দার মিশ্রণ মেশান।
এবার কেকের মোল্ডে বাটার ব্রাশ করে প্রথমে একটু সাদা মিশ্রণ ঢালুন। সাদা মিশ্রণের উপরে একটু কোকোর মিশ্রণ ঢালুন। এইভাবে তিন-চার বার পুনরাবৃত্তি করুন।
মণ্ড ঢালা হলে প্রি-হিট করা ওভেনে ১৬০ ডিগ্রি তাপমাত্রায় ৪০ থেকে ৫০ মিনিট বেইক করে নিন। সময় শেষ হলে একটি কাঠি অথবা টুথপিক কেকের মাঝখানে ঢুকিয়ে দেখে নিন।


