সাধারণত পুরুষ ও কৃষ্ণাঙ্গরা এই রোগে বেশি আক্রান্ত হয়ে থাকেন। বয়স ৫০ পেরুলে এই রোগে আক্রান্ত হওয়ার ঝুঁকি বাড়ে। অবশ্য ইদানিং অল্প বয়সে আক্রান্তের সংখ্যা আশংকাজনক ভাবে বৃদ্ধি পাচ্ছে।
হওয়ার কারণ
পরিবেশ ও জিনগত কারণে বৃহদন্ত্র ও মলাশয়ে ক্যান্সার হওয়ার সম্ভাবনা শতকরা পাঁচ ভাগ বৃদ্ধি পায়। খাদ্যাভ্যাস একটি গুরুত্বপূর্ণ ভূমিকা পালন করে। অতিরিক্ত গরু বা ছাগলের মাংস খাওয়া, খাদ্যতালিকায় আঁশজাতীয় খাবারের অনুপস্থিতি, ধূমপান ও মদ্যপান এই ক্যান্সার হওয়ার সম্ভাবনা বাড়ায়।
স্থুলকায় ব্যক্তিদের রোগ হওয়ার সম্ভাবনা বেশি। অন্যদিকে ব্যায়াম ( বিশেষ করে পুরুষদের ক্ষেত্রে) এই রোগ হওয়ার সম্ভাবনা কমায়। বৃহদন্ত্র ও মলাশয় ক্যান্সার হওয়ার পারিবারিক ইতিহাস রোগটির সম্ভাবনা বাড়ায়। বিশেষ করে মা, বাবা, ভাই কিংবা বোনের বৃহদন্ত্র ও মলাশয় ক্যান্সার হওয়ার ইতিহাস থাকলে ঝুঁকি দ্বিগুণ বাড়ে।
এছাড়া অন্ত্রের প্রদাহজনিত রোগীদের এই রোগে আক্রান্ত হওয়ার সম্ভাবনা বেশি।
লক্ষণ
প্রাথমিকভাবে কোলন ক্যান্সার নির্ণয় অত্যন্ত কঠিন। কেননা প্রথমদিকে রোগটির তেমন কোনো উপসর্গ বোঝা যায় না।
কোলন বা মলাশয়ের কোন জায়গায় ক্যান্সার রয়েছে তার উপর ভিত্তি করে উপসর্গের বিভিন্নতা দেখা যায়।
পায়খানার সঙ্গে রক্ত কিংবা পেটে ব্যথা নিয়ে অধিকাংশ রোগী প্রথম চিকিৎসকের শরণাপন্ন হন।
মলত্যাগের অভ্যাস পরিবর্তন (কখনও ডায়রিয়া, কখনও কষা),  রক্তশূন্যতা (দূর্বলতা, শ্বাসকষ্ট) ইত্যাদি রোগটির প্রাথমিক লক্ষণ।
অবস্থা গুরুতর হলে- অতিরিক্ত ওজনশূন্যতা, পেটে চাকা, পেটে পানি, কাশির সঙ্গে রক্ত ইত্যাদি উপসর্গ নিয়ে রোগীরা চিকিৎসকের কাছে আসেন।
দুর্ভাগ্যবশত আমরা রোগীদের রোগটির অতিমাত্রায় অগ্রসর অবস্থায় পাই যাদের অধিকাংশই পূর্বে অপ-চিকিৎসার শিকার। 
রোগ নির্ণয়
প্রধান উপাদান কোলন্সকোপি ও বায়োপসি। বায়োপসি’র মাধ্যমে ক্যান্সার নির্ণয়ের পর সিটি স্ক্যান, রক্তে এন্টিজেন (CEA) এর পরিমাণ ইত্যাদি বিভিন্ন পরীক্ষার মাধ্যমে ক্যান্সারের ধাপ নির্ণয় (staging) করা হয়।
চিকিৎসার ক্ষেত্রে এই ধাপ নির্ণয় অত্যন্ত গুরুত্বপূর্ণ। প্রাথমিক ধাপের (Stage I & II) ক্যান্সারগুলোর চিকিৎসা পরবর্তী ফলাফল সন্তোষজনক, পক্ষান্তরে অগ্রসর ধাপের (Stage III & IV) ক্যান্সারগুলোর চিকিৎসা পরবর্তী ফলাফল আশাপ্রদ নয়।
ক্যান্সার কোলনের বাইরে ছড়িয়ে গেলে (লসিকাগ্রন্থি, যকৃত, ফুসফুস ইত্যাদি) তাকে অগ্রসর ধাপ বলে বিবেচনা করা হয়।
তবে আশার কথা এই যে, অন্যান্য ক্যান্সারের চেয়ে কোলন ক্যান্সারের চিকিৎসা পরবর্তী ফলাফল অনেক ভালো। এমনকি অগ্রসর ধাপের ক্যান্সারে আক্রান্ত রোগীও সঠিক চিকিৎসা পেলে বহুদিন সন্তোষজনক ভাবে বেঁচে থাকতে পারেন।
চিকিৎসা
কোলন ক্যান্সারের চিকিৎসা এক-কথায় অপারেশন। অপারেশনের আগে বা পরে কেমোথেরাপি দেওয়া হয়।
অপারেশনের সময় রেডিওথেরাপির ব্যবহার এখনও গবেষণাধীন। যে কোনো ক্যান্সারের চিকিৎসায় একটি শব্দ বিশ্বে বহুল প্রচলিত, তা হল (multidisciplinary approach), অর্থাৎ সার্জন, ক্যান্সার বিশেষজ্ঞ, সাইকোথেরাপিস্ট, প্যাথলজিস্ট, ক্যান্সার কেয়ার নার্সসহ সকলের মিলিত প্রচেষ্টা প্রয়োজন ক্যান্সারের বিরুদ্ধে যুদ্ধ জয়ের জন্য।
সচেতন হতে হবে
একটি বিষয় মনে রাখা প্রয়োজন যে, ক্যান্সার কঠিন রোগ হলেও এর উপযুক্ত চিকিৎসা রয়েছে। রোগীদের সচেতনতা এক্ষেত্রে সবচেয়ে গুরুত্বপূর্ণ। এই একুশ শতকেও মানুষ বাংলাদেশে হাকিম, কবিরাজ, ঝার-ফুঁকের উপর বিশ্বাস করছে, যেখানে অত্যাধুনিক চিকিৎসা রয়েছে।
চিকিৎসা ব্যয় সরকারী হাসপাতালগুলোতে অত্যন্ত কম। রোগীদের প্রতি অনুরোধ যে কোনো রোগ সম্পর্কে পরিচিত জনের পরামর্শ না নিয়ে নূন্যতম এমবিবিএস চিকিৎসকের পরামর্শ নিন।
আপনার সচেতনতা রোগটিকে প্রাথমিক অবস্থায় নির্ণয়ে সাহায্য করবে।
