শহরে সাধ ও সাধ্য থাকা সত্যেও কেবল জায়গার অভাবে অনেকে বাগান করতে পারেন না। এই সমস্যা সমাধানের উপায় হতে পারে বোতলে বাগান।
এই পদ্ধতিতে বিভিন্ন সবজি, শাক-পাতা অথবা ফুলের গাছ লাগানো যায়।


বোতলের মাঝ বরাবর অথবা অনুভূমিকভাবে কেটে নিন। যদি ঝুলিয়ে রাখতে চান তাহলে দুই প্রান্তে দুটি ফুটা করে তাতে দড়ি বা তার বেঁধে নিন।
বোতলে গাছ লাগানোর ক্ষেত্রে লক্ষ্যণীয় বিষয় সম্পর্কে জানান শের-এ-বাংলা কৃষি বিশ্ববিদ্যালয়ের ‘হর্টিকালচার’ বিভাগের অধ্যাপক ড. এএসএন জামাল উদ্দীন।


তিনি পরামর্শ দেন যে, সাধারণত বেলে ও দো-আঁশ মাটি গাছের জন্য ভালো। বোতলে মাটির পরিমাণ কম থাকে তাই এতে জৈব সার ব্যবহার করা উপযুক্ত।
এতে সামান্য ‘কোকো ডাস্ট’ অর্থাৎ নারিকেলের ছোবড়া মিশিয়ে নিতে পারেন। তাহলে ওজন হালকা হবে, মাটি ঝরঝরা থাকবে। আর মাটির পানি ধারণ ক্ষমতাও বৃদ্ধি পাবে।


এছাড়াও লেটুস, ধনে, পুদিনা পাতা অথবা নানান ঔষধি গাছ যেমন- তুলসি, বাসক, ডায়াবেটিস গাছ ইত্যাদি লাগানো যায়।
ছবি সৌজন্যে: সুপ্রমা বিশ্বাস।
আরও পড়ুন
কয়েক ধাপের বাগান  
