মকটেইল তৈরির রেসিপি।
 
উপকরণ
১. গ্রেনেডিন সিরাপ  (ডালিমের রস, সুপার শপ গুলিতেও কিনতে পাবেন এই সিরাপ)
২. কমলার রস
৩. বরফের টুকরা 
৪. লেমনেইড
 
গার্নিশিং এর জন্য লাগবে এক টুকরা কমলা
বাকিটা দেখে নেন ভিডিওতে!
ঘরে বসেই বানিয়ে ফেলুন চমৎকার রঙিন এই পানীয়।   
 
