শুধু মুখেই নয় শরীরের ত্বকের যত্নের জন্য শিবানী’জ অ্যারোমা ম্যাজিক বাজারে এনেছে ‘গোল্ড ফেইশল’। পাশাপাশি আরও দুটি ফেইশল বাজারে এনেছে তারা।
প্রাকৃতিক এপ্রিকট স্ক্রাবার দিয়ে তৈরি পণ্যগুলো হল নিম ফেইশল ও অরেঞ্জ ফেইশল। এগুলোর বিশেষত্ব হল মুখসহ পুরো শরীরে গোসলের সময় স্ক্রাবিং করা যাবে। যা ব্যবহারে ত্বকের মৃতকোষ দূর হবে, ব্রণের দাগসহ যেকোনো অবাঞ্ছিত দাগ দূর হবে। আর ত্বকে আনবে উজ্জ্বলতা।
বিস্তারিত জানতে ০১৯৩৮৮৫১৬০১ ফোন করা যাবে।
