রেসিপি দিয়েছেন আমেনা আলি মেঘলা ।
উপকরণ: টুনা মাছ ৬০০ গ্রাম (২ ক্যান)। সিদ্ধ আলু ২টি। মিহি পেঁয়াজকুচি আধা কাপ। রসুন মিহিকুচি ১ টেবিল-চামচ। হলুদগুঁড়া ১ চা-চামচ। মরিচগুঁড়া ১ চা-চামচ। গরম মসলাগুঁড়া ১ চা-চামচ। কাঁচামরিচ-কুচি (ইচ্ছা মতো)। ধনেপাতা-কুচি। ডিম ২টি। তেল আধা কাপ (ভাজার জন্য)।
পদ্ধতি: ডিমের কুসুম এবং সাদা অংশ আলাদা করে রাখতে হবে। ক্যান অথবা টিন থেকে টুনা মাছ চালনিতে নিয়ে পানি ছেকে নিতে হবে৷ একটুও পানি যেন না থাকে ৷
এখন মাছের সঙ্গে সিদ্ধ আলু, ডিমের কুসুম ও বাকি উপকরণ (ডিমের সাদা অংশ বাদে) খুব ভালো করে মাখান যেন কোনো দানা না থাকে৷
