গৃহসজ্জাবিষয়ক ওয়েবসাইটে এই বিষয়ের উপর প্রকাশিত প্রতিবেদন থেকে ঘরের সৌন্দর্য বাড়াতে দেয়ালে প্রাধান্য সৃষ্টি করার কয়েকটি পন্থা এখানে দেওয়া হল।


তবে দেয়ালের রং নির্বাচন করার আগে অবশ্যই দিনের প্রাকৃতিক ও রাতের কৃত্রিম আলোতে পরীক্ষা করে নিতে হবে যেন ঘরে কখনই অন্ধকারভাবের সৃষ্টি না হয়।  


সম্পূরক রং: চাইলে দেয়ালে সম্পূরক রং ব্যবহার করতে পারেন। ফলে ঘরের আসবাব, দেয়াল বা অন্য যে কোনো কিছু থেকেই রং বাছাই করতে পারেন।
এর জন্য সবচেয়ে ভালো হয় যদি দেয়ালে রং করার আগে একটি শেইড কার্ডের সাহায্যে দুতিনটা রংয়ের শেইড মিলিয়ে দেখে নেন। তাহলে বুঝতে সুবিধা হবে কোন রংগুলো বেশি মানানসই।
হাইলাইট: প্রাধান্য সৃষ্টি করতে চান যে দেয়ালে তাতে এমন কিছু রং ব্যবহার করুন যা ঘরের অন্যান্য সামগ্রির মধ্যে আছে। যেমন- ঘরের বালিশের কভারে পিচ রং বা প্রিন্ট রয়েছে বা কার্পেটে পিচ মোটিফের নকশা করা অথবা ঘরে পিচ রংয়ের ফুল বা ছবি রাখতে চাচ্ছেন সেক্ষেত্রে পিচ রং বেছে নিতে পারেন। এতে সারা ঘরেই পিচ রংয়ের প্রাধান্য বৃদ্ধি পাবে।
আরও পড়ুন
আসবাব বিন্যাসে লক্ষণীয় বিষয়  
রঙিন ঘরে হৃদয় দোলে  
