মান্ত্রা লুকগুড অ্যাডভাইজর সোয়াতি দিওগিরে চিকন দৈহিক গঠনে কোন ধরনের পোশাক বেশি মানানসই তারই কিছু টিপস দেন।
- কামিজ, ফতুয়া বা টপসের সঙ্গে লেহিংস বেশ মানানসই এবং জনপ্রিয়। তবে বেশি চিকন যারা, তাদের লেগিংসের কারণে আরও শুকনা দেখায়। কারণ এই পোশাক গায়ের সঙ্গে এঁটে থাকে। এক্ষেত্রে জিন্সের প্যান্ট বেছে নেওয়া যেতে পারে।
- চাপা বা কোণ শেইপের পোশাকের তুলনায় ম্যাক্সি বা ঘের দেওয়া পোশাকে শুকনাদের ভালো মানায়।
- শিফন শাড়ির বদলে বেছে নেওয়া যেতে পারে সিল্ক শাড়ি। শিফন শাড়ি স্বচ্ছ এবং নরম হয়। তাই এটি গায়ের সঙ্গে লেপ্টে থাকে। আর চিকন স্বাস্থ্যের মেয়েদের আরও শুকনা দেখায়। অন্যদিকে সিল্কের শাড়িতে কিছুটা ফোলাভাব থাকে।
- গায়ের সঙ্গে আঁটসাঁট বা বেশি চাপা পোশাক না পরে বরং কিছুটা ঢোলা টপস বা শার্ট শুকনাদের জন্য বেশি মানানসই। কারণ যাদের কোমর বেশি চিকন তাদের ফিটিং পোশাকে দেখতে দৃষ্টিকটু লাগে। তাই কিছুটা ঢোলা বা ফ্লোয়ি টপসে তাদের বেশ ভালো লাগবে।
- খাড়া বা লম্বালম্বি নকশার পোশাক না পরে আড়াআড়ি নকশার পোশাক বেছে নেওয়া উচিত চিকন স্বাস্থ্যের অধিকারীদের। কারণ লম্বালম্বি স্ট্রাইপের কারণে দেখতে আরও শুকনা লাগে।
ছবির প্রতীকী মডেল: জিতু / ছবি: ই স্টুডিও।
লম্বা দেখানোর উপায়
