রূপচর্চা বিষয়ক একটি ওয়েবসাইটে প্রকাশিত এক প্রতিবেদন থেকে জানা যায় সৌন্দর্য চর্চায় হলুদের নানামুখী ব্যবহার সম্পর্কে।  
হলুদ ও ময়দা: যে কোনো ত্বকের জন্য প্রাকৃতিক স্ক্রাব তৈরি করতে হলুদ ও ময়দা মিশিয়ে নিতে পারেন। এটি ত্বকের জন্য বেশ সংবেদনশীল ও উপকারি। এটি ত্বক থেকে অতিরিক্ত তেল কমায়।
হলুদ ও ময়দার সঙ্গে সামান্য পানি মিশিয়ে মিশ্রণ তৈরি করে নিন। উজ্জ্বল ও কোমল ত্বক পেতে  চক্রাকারভাবে এটি ত্বকে লাগান এবং শুকিয়ে গেলে ধুয়ে ফেলুন।
হলুদ ও লেবুর রস: লেবুর রসে আছে ব্লিচিং উপাদান এবং হলুদে আছে ত্বক উজ্জ্বল করার উপাদান।
ত্বক উজ্জ্বল করতে হলুদের গুঁড়া ও লেবুর রস মিশিয়ে একটি মিশ্রণ তৈরি করে ব্যবহার করুন। নিয়মিত ব্যবহারে ত্বকের উজ্জ্বলতা বৃদ্ধি পায়।
হলুদ ও দুধ: হলুদ ও দুধের মিশ্রণ ত্বকের ক্ষতি করে এমন উপাদানের বিরুদ্ধে কাজ করে ত্বককে সুস্থ রাখে।
কাঁচাদুধের সঙ্গে হলুদের গুঁড়া মিশিয়ে মুখ ও গলায় লাগাতে হবে। শুকিয়ে আসলে পানি দিয়ে ধুয়ে ফেলতে হবে।
হলুদ ও মধু: ত্বকের ভেতরের আর্দ্রতা রক্ষা করে উজ্জ্বল ত্বক ফুটিয়ে তুলতে হলুদ ও মধুর মিশ্রণ সাহায্য করে।
মধুতে আছে প্রাকৃতিক ভাবে ত্বক আর্দ্র রাখার ক্ষমতা যা ত্বক উজ্জ্বল করে। মধু ও হলুদের তৈরি প্যাক ত্বক স্বাভাবিকভাবে চকচকে ও সুন্দর করে তোলে।
হলুদ ও নারিকেল তেল: হলুদ ও নারিকেল তেলে আছে অ্যান্টিফাঙ্গাল উপাদান। তাছাড়া নারিকেলের তেল খুব ভালো ময়েশ্চারাইজার হিসেবে কাজ করে।
খাঁটি নারিকেল তেলের সঙ্গে হলুদের গুঁড়া মিশিয়ে ত্বকে লালচেভাব, সংক্রমণ ও শুষ্কতা কমাতে ব্যবহার করা যায়। ত্বক পরিষ্কার করে মুছতে পাতলা ভেজা কাপড় ব্যবহার করলে ত্বককে বেশ প্রাণবন্ত মনে হবে। 
হলুদ ও পানি: ত্বকের অবাঞ্ছিত লোমের বৃদ্ধি কমাতে প্রতিদিন হলুদ ও পানির মিশ্রণ তৈরি করে ব্যবহার করতে পারেন।
যে স্থানে অবাঞ্চিত লোমের বৃদ্ধি কমাতে চান সেখানে হলুদ ও পানির মিশ্রণ তৈরি করে একটি অসমতল ও পরিষ্কার বস্তুর সাহায্যে ঘষতে হবে। শুকিয়ে এলে তা পরিষ্কার পানির সাহায্যে ধুয়ে ফেলতে হবে। পার্থক্য দেখতে যতবার সম্ভব এটি করতে পারেন।
হলুদ ও জলপাইয়ের তেল: হলুদে আছে নানা ধরনের অ্যান্টিঅক্সিডেন্ট যা ত্বক তরুণ ও সতেজ রাখতে সাহায্য করে। জলপাইয়ের তেল ত্বকের স্থিতিস্থাপকতা রক্ষা করে।
হলুদ ও জলপাইয়ের তেল মিশিয়ে তা মুখ ও গলায় লাগান। কিছুক্ষণ অপেক্ষা করে হালকা মালিশ করুন। এতে নতুন কোষ বৃদ্ধি পাবে। পানি দিয়ে ধুয়ে নমনীয় ত্বক অনুভব করতে পারবেন।
