অন্ধদেরই পৃথিবীর সবচেয়ে ভাগ্যহত বলা হয়। কারণ, চোখে যিনি দেখেন না তিনিই বোঝেন এই পৃথিবীর কী মর্ম। চোখ মানুষের অন্যান্য অঙ্গ-প্রত্যঙ্গের তুলনায় একটু বেশি স্পর্শকাতর। এই জন্য প্রয়োজন পড়ে বাড়তি কিছু যত্ন। তাই চোখ ভালো রাখার কিছু সহজ উপায় দেওয়া হলো।
চোখ ভাল রাখতে গাজরের পাশাপাশি প্রচুর পরিমাণে সবুজ শাক-সবজি, বাদাম, কমলালেবু খান। টাটকা শাক-সবজিতে থাকে প্রচুর পরিমাণ অ্যান্টিঅক্সিড্যান্ট, ভিটামিন 'এ' এবং ভিটামিন 'সি'। যা চোখের কর্নিয়া ভাল রাখতে সাহায্য করে। ছানি পড়ার হাত থেকেও বাঁচায়।
ওমেগা-৩ ফ্যাটি অ্যাসিড চোখের স্নায়ুকোষগুলিকে সুস্থ রাখে। রেটিনাকে সুরক্ষিত রাখে। তাই চোখ ভাল রাখতে স্যামন, টুনা, হ্যালিবাটের মতো ওমেগা-৩ ফ্যাটি অ্যাসিড সমৃদ্ধ মাছ খান।
অতিরিক্ত ধুমপান চোখের ক্ষতি করে। রেটিনা নষ্ট হওয়ার সম্ভাবনাও থাকে। পাশাপাশি, এর ফলে ক্ষতি হয় চোখের স্নায়ুকোষগুলিরও।
দিনে ১০ থেকে ১৫ বার চোখে জলের ঝাপটা দিন। তাতে চোখ ঠাণ্ডা থাকে। চোখ আর্দ্র হয় ও রক্তসঞ্চালন বাড়ে। তবে বরফজল বা মাত্রাতিরিক্ত গরম জল দেবেন না।
প্রতি দিন রাতে পর্যাপ্ত ঘুমের ফলে চোখ ভাল থাকে। ঘুমের সময় চোখের পেশি শিথিল হয়। চোখও সতেজ থাকে। কম ঘুমে চোখের পেশিতে চাপ পড়ে। ফলে চোখ জ্বালা হতে পারে।
বছরে অন্তত দুইবার নিয়ম করে চোখ পরীক্ষা করানো জরুরি। এতে ছানি, গ্লুকোমা বা রেটিনার ম্যাকুলার ক্ষয়ের মতো মারাত্মক সমস্যা অল্পেই ধরা পড়ে।
ইত্তেফাক/জামান
