শরীরচর্চাবিষয়ক একটি ওয়েবসাইটে প্রকাশিত প্রতিবেদনে জানানো হয় ‘ঝামেলা’টা থাকতে পারে খাদ্যাভ্যাসে।
কমছেন অথচ বুঝতে পারছেন না: কয়েকদিন বা সপ্তাহ ধরে একই ওজন দেখানো খুব সাধারণ একটা বিষয়। তারমানে এই নয় যে আপনার ওজন কমছে না।
হরমোনের পরিবর্তন, শরীরে পানির মাত্রা ইত্যাদির উপর ওজনের ওঠা-নামা নিয়ন্ত্রণ করে। আবার অনেক ক্ষেত্রে শরীরে চর্বি কমার পাশাপাশি পেশি বৃদ্ধি পায় ফলে ওজন একই থাকে।
তাই ওজন পরিমাপের ক্ষেত্রে ভিন্ন পদ্ধতি অবলম্বন করুন। যেমন- কোমড়ের পরিধি এবং শরীরে শতকরা চর্বির পরিমাণ পরিমাপ করুন।
এছাড়াও আয়নার সামনে দাঁড়িয়ে নিজেকে দেখুন। এর মাধ্যমে নিজের পরিবর্তন নিজেই দেখতে পারবেন। 
পর্যাপ্ত প্রোটিন না খাওয়া: ওজন কমানোর জন্য প্রোটিন খাওয়া জরুরি। দেহের প্রয়োজনীয় ক্যালরির ২৫ থেকে ৩০ শতাংশ যদি প্রোটিন থেকে গ্রহণ করা হয় তাহলে তা ৮০ থেকে ১০০ ক্যালরি বিপাকে সাহায্য করে।  
চিনি পান: ওজন বাড়ার মূল কারণ হল কোমল পানীয়। কোলা ধরনের পানীয় বাদ দিয়ে যদি দোকানের বা প্যাকেটজাত ফলের রস ও ভিটামিন পানীয় পান করেন তাহলেও ওজন বাড়বে। কারণ এসব পানীয়তেও চিনি মেশানো থাকে। তাই প্যাকেটের ফলের রস না খেয়ে গোটা ফল খান।
অতিরিক্ত ক্যালরি গ্রহণ: ক্যালরি গ্রহণে সচেতন হওয়া উচিত। প্রতিদিন কী পরিমাণ ক্যালরি গ্রহণ করছেন সে বিষয়ে খেয়াল রাখুন। আর কোন ধরনের খাবার থেকে ক্যালরি নেওয়া প্রয়োজন তা নির্ধারণ করুন।
ওজন নিয়ন্ত্রণের কোনো নির্দিষ্ট লক্ষ্য যদি থাকে যেমন- প্রোটিন থাকে ৩০ শতাংশ ক্যালরি গ্রহণ করবেন, তাহলে কীভাবে ক্যালরি খরচ করবেন তাও নির্ধারণ করুন। আর সেই অনুযায়ী কাজ করুন।
