আলু ও লেবুর মাস্ক
ত্বকের লালচেভাব, বয়সের ছাপ এবং রোদেপোড়া দাগ দূর করতে আলু দারুণ উপকারি। ত্বক ঠাণ্ডা রাখতেও সাহায্য করে আলু। গ্রাইন্ডারে দিয়ে আলু মিহি করে নিতে হবে। এর সঙ্গে এক টেবিল-চামচ লেবুর রস মিশিয়ে রোদেপোড়া স্থানে লাগিয়ে রাখতে হবে। ৩০ থেকে ৪০ মিনিট পর শুকিয়ে গেলে ঠাণ্ডা পানি নিয়ে ধুয়ে ফেলতে হবে।


স্ট্রবেরি ত্বকের রং হালকা করতে সাহায্য করে। তাই ৪টি স্ট্রবেরি থেঁতলে এর সঙ্গে দুই টেবিল-চামচ মিল্ক ক্রিম বা দুধের সর মিশিয়ে পুরো মুখে লাগিয়ে নিতে হবে। ৩০ মিনিট অপেক্ষা করে ধুয়ে ফেলুন।  
গুড়া দুধ, মধু ও বাদামতেলের প্যাক
গুঁড়াদুধ রোদেপোড়া ভাব দূর করে ত্বক কোমল রাখতে সাহায্য করে। দুই টেবিল-চামচ গুঁড়াদুধের সঙ্গে, এক টেবিল-চামচ মধু ও কয়েক ফোঁটা বাদামতেল মিশিয়ে প্যাকটি মুখে লাগিয়ে অপেক্ষা করতে হবে ২০ মিনিট। এরপর পরিষ্কার পানি দিয়ে ধুয়ে ফেলতে হবে।
চন্দন ও নারিকেল-পানির মাস্ক


এক টেবিল-চামচ চন্দনগুঁড়ার সঙ্গে পরিমাণ মতো নারকেল পানি মিশিয়ে ঘন পেস্ট তৈরি করতে হবে। চাইলে এর সঙ্গে কয়েক ফোঁটা বাদামতেলও মিশিয়ে নেওয়া যেতে পারে। মুখে এবং গলায় মেখে ২০ মিনিট অপেক্ষা করতে হবে। শুকিয়ে গেলে ধুয়ে ফেলুন।
মুলতানি মাটি ও অ্যালোভেরা জেলের মাস্ক


দুই টেবিল-চামচ মুলতানি মাটির সঙ্গে এক টেবিল-চামচ অ্যলোভেরা জেল মিশিয়ে সঙ্গে সামান্য গোলাপ জল দিয়ে মাস্কটি তৈরি করে ব্যবহার করা যেতে পারে।
 
অন্যান্য ছবি: রয়টার্স।
রোদেপোড়ায় ঘরোয়া মাস্ক (১)
মুখের ঠান্ডা মাস্ক
