একটি স্বাস্থবিষয়ক ওয়েবসাইটে প্রকাশিত প্রতিবেদনে সকালের ঘুম থেকে উঠে লেবুপানি খাওয়ার উপকারিতাগুলো উল্লেখ করা হয়।
হজমে সাহায্য করে
দিনের শুরুতে কুসুম গরম পানিতে লেবুর রস মিশিয়ে খেলে হজম প্রক্রিয়ায় সহায়তা করে। অন্যদিকে লেবু পাকস্থলি পরিষ্কার রাখতে সাহায্য করে আর বর্জ্য নিষ্কাশনে সহায়তা করে।
রোগ প্রতিরোধ
সিট্রাস গোত্রের ফল যেমন লেবু, বাতাবি লেবু বা কমলায় রয়েছে প্রচুর পরিমাণে ভিটামিন সি এবং অসকর্বিক অ্যাসিড। ভিটামিন সি ঠাণ্ডাজনিত রোগ থেকে বাঁচাতে সাহায্য করে এবং অসকর্বিক অ্যাসিড শরীরে আয়রন গ্রহণে সহায়তা করে। ফলে রোগ প্রতিরোধ ক্ষমতা বৃদ্ধি পায়।
ক্ষারের সমন্বয়
শরীরে হাইড্রোজেনের পরিমাণের উপর অনেকাংশে সুস্থতা নির্ভর করে। সর্বমোট পিএইচ বা পাওয়ার অফ হাইড্রোজেন স্কেল হল ১ থেকে ১৪। মানবদেহে ৭ মাত্রার পিএইচ থাকা স্বাভাবিক। এর থেকে কম বা বেশি হলে শরীরে রোগের বিস্তার হতে পারে।
অ্যাসিডিক বা ক্ষারীয় ফল হলেও লেবু মানবদেহে পিএইচ’য়ের মাত্রা সমন্বয় করতে সাহায্য করে। বিশেষ করে যারা বেশি মাংস, পনির বা অ্যালকোহল গ্রহণ করেন তাদের জন্য লেবু সবচেয়ে বেশি উপকারী।
বিষাক্ত পদার্থ নিষ্কাশন
পানির মাধ্যমে শরীরের ক্ষতিকর পদার্থ বের হয়ে যায়। লেবু হচ্ছে প্রাকৃতিক মূত্রবর্ধক। তাছাড়া লেবুর সিট্রিক এসিড পাকস্থলি পরিষ্কার রেখে ক্ষতিকর বিষাক্ত পদার্থ দূর করতে সাহায্য করে।
শক্তি বর্ধক
পানি এবং লেবুর রস শরীরে প্রয়োজনীয় আর্দ্রতা বজায় রাখে এবং রক্তে অক্সিজেন যুক্ত করে। ফলে শরীরে শক্তি সঞ্চার হয়।
ত্বক সুন্দর করে
দীর্ঘক্ষণ পানিশূণ্য থাকলে ত্বক ম্লান দেখায়। সকালে লেবুর শরবত খেলে এর ভিটামিন সি ত্বক সুস্থ রাখে। আর লেবুর অ্যান্টিঅক্সিডেন্ট ত্বকের তারুণ্য ধরে রাখতে সাহায্য করে।
 
ফুলকপির উপকারিতা
অনিদ্রা কাটানোর খাবার
ভালো থাকতে সঠিক খাদ্যাভ্যাস
