সব ধরনের শাক
সবুজ পাতাযুক্ত সব ধরনের শাক ওজন কমাতে সাহায্য করে। তাই প্রতিদিনের খাদ্যতালিকায় কোনো না কোনো শাক রাখা ভালো। এতে আছে প্রচুর আয়রন আর ভিটামিন, যা ওজন কমানোর পাশাপাশি প্রয়োজনীয় পুষ্টির ঘাটতি পূরণে সহায়তা করে।
ফুলকপি
এটি কম ঘনত্বের খাবার, এতে কোনো চর্বি নেই। তবে প্রচুর ফাইবার (আঁশ) থাকে। এটা রান্না ছাড়া কাঁচাও খাওয়া যায়।
আরো পড়ুন : প্রতিদিন কয়টা ডিম খাবেন?
শসা
এতে আছে প্রচুর পানি, একদম কার্বোহাইড্রেট আর ফ্যাটমুক্ত। যেকোনো সময়ই দু-এক টুকরো শসা খাওয়া যেতে পারে। এর মধ্যস্থিত পানি পানিশূন্যতা থেকে রক্ষা করে।
গাজর
দারুণ সব স্বাস্থ্যগত গুণ আছে গাজরে। এই কুড়মুড়ে সবজিতে আছে প্রচুর ফাইবার আর বেটা-ক্যারোটিন। এটা দিয়ে সালাদ তৈরির পাশাপাশি রান্না করেও খাওয়া যায়।
আরো পড়ুন :  প্রতিদিন কয়টা ডিম খাবেন?
মিষ্টি আলু
এতে আছে প্রচুর ডায়েটরি ফাইবার। এটি কম ক্যালরিযুক্ত খাবার। তাই ওজন কমানোর জন্য এটি দারুণ সঙ্গী হতে পারে। নাশতার সময় সেদ্ধ মিষ্টি আলু অনেকের কাছে প্রিয়।
