তবে কিছু সাবধানতা অবলম্বন করলে এ সমস্যা থেকে কিছুটা রেহাই পাওয়া যেতে পারে।
- জানালা, দরজা, বারান্দা এবং স্যাঁতস্যাঁতে জায়গা থেকে কাঠের আসবাবপত্র দূরে রাখা উচিত।
- আসবাবপত্র মোছার জন্য পরিষ্কার শুকনা কাপড় ব্যবহার করা উচিত। আর খেয়াল রাখতে হবে যেন ভেজা কাপড় আসবাবপত্রের উপর না রাখা হয়।
