রেসিপি দিয়েছেন নাজিয়া ফারহানা।
উপকরণ: ইলিশ মাছ ১টি (১২০০গ্রাম)। পেঁয়াজকুচি ১ কাপ। আদাবাটা ১ চা-চামচ। রসুনবাটা আধা চা-চামচ। টমেটো সস আধা কাপ। জিরাগুঁড়া আধা চা-চামচ। ধনেগুঁড়া আধা চা-চামচ। কাশ্মেরি মরিচগুঁড়া ১ চা-চামচ। কয়লা ৩, ৪ টুকরা। ঘি ১ চা-চামচ। লবণ পরিমাণ মতো। তেল ১ কাপ। ধনেপাতা-কুচি ১/৪ কাপ। আস্ত কাঁচামরিচ ৭,৮টি। শাহিজিরা আধা চা-চামচ। পানি পরিমাণ মতো। টক দই আধা কাপ। চিনি সামান্য। টমেটোকুচি ১ কাপ।
পদ্ধতি: হাঁড়িতে তেল গরম করে তাতে পেঁয়াজকুচি নরম করে ভেজে তাতে একে একে সব মসলা দিয়ে ভালো ভাবে কষিয়ে আস্ত মাছ দিয়ে দিন।


