প্রসাধনী, গয়না বা পোশাক কেনার তুলনায় অনলাইনে জুতা অর্ডার করা কিছুটা ঝামেলার। কারণ এক্ষেত্রে পায়ের মাপের একটা বিষয় থাকে। সঠিক মাপ মতো জুতা অর্ডার করা না গেলে শেষে ঝামেলাই বাড়বে।
তাই অনলাইনে জুতা কেনার ক্ষেত্রে লাইফস্টাইলবিষয়ক একটি ওয়েবসাইটের প্রতিবেদনে কিছু পরামর্শ দেন ভারতীয় ব্র্যান্ড ‘ওসিডি’র সহকারী প্রতিষ্ঠাতা নেহা কুমথেকার।
অনলাইনে সঠিক মাপ বাছাই: দোকানে গিয়ে পায়ের মাপ মতো জুতা কেনার সুবিধা অনলাইনে নেই। নতুন কোনো ব্র্যান্ডের জুতা অনলাইনে প্রথমবার কিনতে গেলে ঝামেলায় পরতে হতে পারে। কেনার আগে অবশ্যই তাদের পায়ের মাপ সম্পর্কিত নির্দেশনা ভালোভাবে পড়ে নিন। প্রতিটি ব্র্যান্ডের পায়ের মাপ নেওয়ার নির্দিষ্ট পদ্ধতি উল্লেখ করা থাকে, সেই দিকগুলো অনুসরণ করে তবেই অর্ডার করুন।
নিয়মাবলী পড়ুন: প্রতিটি ব্র্যান্ডের আলাদা নিয়মকানুন থাকে, সেগুলো আগেই ভালোভাবে পড়ে নিন। পছন্দ না হলে বা মাপে না মিললে তা ফিরিয়ে দেওয়ার বা বদলে নেওয়ার সুবিধা আছে কিনা, সেক্ষেত্রে বিশেষ কোনো চার্জ বা ফি দিতে হবে কিনা এই বিষয়গুলো আগেই জেনে নিতে হবে।
পাওয়ার সঙ্গে সঙ্গেই পরে দেখুন: জুতা হাতে পাওয়ার সঙ্গে সঙ্গেই পায়ে পরে দেখুন। কারণ বেশি দেরি করলে মাপ ঠিক না হলে বদলে নেওয়ার সুযোগ হাতছাড়া হয়ে যেতে পারে। তাই মাপ ঠিক আছে কিনা তা হাতে পেয়েই যাচাই করুন। জুতার যেকোনো ধরনের ক্ষতি এড়াতে ঘরের মধ্যে প্রথমে পরে দেখুন। এতে জুতার সোলে ময়লা লেগে যাওয়ার ঝুঁকি থাকবে না এবং তা বদলে নিতেও কোনো সমস্যা হবে না।
পণ্য সম্পর্কে জেনে নিন: যে জুতাটি পছন্দ করেছেন সেটি অর্ডার করার আগে এর সম্পর্কে জেনে নিন। জুতা কি দিয়ে তৈরি, হিল কতখানি এই বিষয়গুলো মূলত নিচে একটি আলাদা অংশে উল্লেখ করা থাকে। তাই অর্ডার করার আগেই এই বিষয়গুলো খেয়াল করুন।
নিজের পছন্দ: সবারই নিজের জুতা বাছাইয়ের ক্ষেত্রে আলাদা পছন্দ থাকে। আবার কেউ কেউ বিশেষ ধরনের জুতা পরতে স্বাচ্ছন্দ্যবোধ করেন। তাই অনলাইনে জুতা অর্ডারের আগে ভালোভাবে বুঝে নিন যেটি অর্ডার করছেন সেই জুতাটি আসলেও আপনার জন্য উপযুক্ত কিনা।
নতুন ব্র্যান্ডের ক্ষেত্রে: প্রথমবারের মতো কোনো ব্র্যান্ড অর্ডার করার ক্ষেত্রে এক জোড়া জুতাই অর্ডার করুন। এতে জুতার মান, কতটা আরামদায়ক, আকার ইত্যাদি বিষয় সম্পর্কে ধারণা পাওয়া যাবে। এক সঙ্গে বেশি জুতা অর্ডার করার পর যদি মনে হয় তা মনমতো হয়নি তখন আফসোস করতে হবে। তাই একজোড়া জুতা কিনেই শুরুটা করুন।
মূল্য পরিশোধের পদ্ধতি: কেনার আগে জেনে নিন কীভাবে মূল্য পরিশোধ করতে হবে। যদি অনলাইনে টাকা পরিশোধের প্রয়োজন হয় সেক্ষেত্রে কার্ড ব্যবহারের প্রক্রিয়াটি কতটা নিরাপদ সে সম্পর্কেও নিশ্চিত হন। এছাড়া অগ্রীম টাকা পরিশোধের ক্ষেত্রে তাদের পুরো পদ্ধতি কতটুকু নিরাপদ সে বিষয়গুলোও জেনে নিন।
