নামকরণের পেছনের অনুপ্রেরণা সম্পর্কে রেস্তোরাঁর ছয় মালিকের মধ্যে অন্যতম, আবিদ এ আজাদ বলেন, “গভীর রাত পর্যন্ত অতিথিদের সেবা করাই আমাদের লক্ষ্য।”
তো রাতটা কতটা গভীর হলে বন্ধ হবে রেস্তোরাঁ? আবিদ এ. আজাদ বলেন, “আমরা খাবার পরিবেশন শুরু করবো দুপুর ১২টা থেকে। যদি ক্রেতা থাকে, তবে আমরা রাত ৩টা পর্যন্ত রেস্তোরাঁ খোলা রাখতে প্রস্তুত। এজন্য প্রয়োজনীয় প্রশাসনিক অনুমতিও আমরা নিয়েছি।”




