গ্রীষ্মের অতিরিক্ত রোদ পায়ের ত্বকও পুড়িয়ে দেয়। তাই যতোটা সম্ভব পা ঢেকে রাখতে হবে।
এ বিষয়ে কথা বলেন ফারজানা শাকিল মেইকওভার স্যালনের কর্ণধান ফারজানা শাকিল। গরমকালে পায়ের বিশেষ যত্নের ব্যাপারে নজর দেওয়ার পরামর্শ দেন।
“গ্রীষ্মে যতটা সম্ভব পা ঢাকা পোশাক পরতে হবে। তবে পায়ের পাতা রোদ থেকে বাঁচাতে অবশ্যই বেশি এসপিএফ সমৃদ্ধ সানস্ক্রিন ব্যবহার করতে হবে। তাছাড়া চাইলে পাতলা মোজাও পরা যেতে পারে।” বললেন তিনি।
তিনি আরও পরামর্শ দেন, এই সময়ে অবশ্যই পা ঢাকা জুতা পরতে হবে। এতে পায়ে রোদের তাপ সরাসরি পরবে না এবং পায়ের ত্বক পরিচ্ছন্ন ও সুস্থ থাকবে।
গরমকালে বাইরে থেকে ঘরে ফিরে পা ভালোভাবে পরিষ্কার করে নিতে হবে। অনেকেই মনে করেন গরমে ত্বকে ময়েশ্চারাইজার ব্যবহারের প্রয়োজন পড়ে না। এটি অত্যন্ত ভুল ধারণা। কারণ গরমেও ত্বক আর্দ্রতা হারায়। তাই গরমের দিনে রাতে ঘুমাতে যাওয়ার আগে ভালো মানের ময়েশ্চারাইজার বা ‘ফুটক্রিম’ ব্যবহার করতে হবে।
“গরমের সময় পায়ের প্রতি বিশেষ যত্নশীল হতে হয়। নিয়মিত পা পরিষ্কার করা এবং নিয়ম করে পেডিকিওর করিয়ে নিলে পায়ের ত্বক পরিষ্কার থাকে। আর রোদেপোড়াভাব কমে যায়।” এমনটাই বলেন ফারজানা শাকিল।
রোদেপোড়া দাগ দূর করতে একটি ঘরোয়া প্যাক তৈরির প্রক্রিয়া জানান তিনি।
“চন্দন, মুলতানি মাটি, দুধ ও পাকাকলা চটকে মিশ্রণ তৈরি করে তা পায়ে লাগালে পায়ের ত্বক কোমল হবে এবং রোগেপোড়া দাগ কমবে। তাছাড়া নিয়মিত লেবুর রসে তুলা ভিজিয়ে পায়ে লাগাতে হবে। শুকিয়ে গেলে ধুয়ে ফেলতে হবে। লেবুর রস ত্বকের রং উজ্জ্বল করতে সাহায্য করে। তাই রোগেপোড়া দাগ দূর করতে এটি খুবই কার্যকর উপায়।”
তিনি আরও বলেন, “সপ্তাহে একদিন কুসুম গরম পানিতে ভিনিগার বা লেবুর রস ও শ্যাম্পু মিশিয়ে পা ভিজিয়ে রাখতে হবে। এতে পায়ের মৃতকোষ উঠে আসবে এবং ত্বক নরম হবে। কিছুক্ষণ ভিজিয়ে রাখার পর ‘পা ঘষুনি’ বা ‘ঝামা’ দিয়ে পা ঘষে নিতে হবে। এতে পায়ের ময়লা ও শুষ্ক চামড়া পরিষ্কার হয়ে যাবে।”


গরমে জুতা বাছাইয়ের ক্ষেত্রে পা ঢাকা জুতা বেছে নেওয়া জরুরি। আর যদি খোলা স্যান্ডেল পরতেই হয় তবে অবশ্যই পায়ে বেশি পরিমাণে সানস্ক্রিন মেখে নিতে হবে। তবে জুতা বাছাইয়ের ক্ষেত্রে অবশ্যই আরামের বিষয় মাথায় রাখতে হবে।
পায়ের লোম দূর করার আগে পরে
সুন্দর পা
রোদেপোড়া থেকে মুক্তি
ফাটা গোড়ালির প্রতিকার
