অডিশনে অংশ নেন ৭৫ জন রন্ধনশিল্পী। এদের মধ্যে থেকে রান্নায় পারদর্শীতা দেখিয়ে তিনজন বিজয়ী চূডান্ত পর্বের জন্য মনোনীত হয়েছেন।




‘সেরা রাঁধুনী ১৪২৪’ পাবেন ১৫ লাখ টাকা। প্রথম ও দ্বিতীয় রানার আপ পাবেন ১০ ও ৫ লাখ টাকা।
সেরা রাঁধুনী’র পরবর্তী বিভাগীয় অডিশন রাউন্ডের সময়সূচি হল:
বরিশাল: অডিশন ১১ ডিসেম্বর। বরিশাল ক্লাব। সকাল ৯টা - বিকাল ৫টা।  
চট্টগ্রাম ১: অডিশন ১৬ ডিসেম্বর। স্টেশন রোডে অবস্থিত পর্যটন মোটেল সৈকত। সকাল ৯টা - বিকাল ৫টা।
চট্টগ্রাম ২: অডিশন ১৭ ডিসেম্বর। স্টেশন রোডে অবস্থিত পর্যটন মোটেল সৈকত। সকাল ৯টা - বিকাল ৫টা।
সিলেট: অডিশন ২০ ডিসেম্বর। জিন্দাবাজারে অবস্থিত হোটেল নির্ভানা ইন। সকাল ৯টা - বিকাল ৫টা।
ঢাকা ১: অডিশন ২৪ ডিসেম্বর। সেগুনবাগিচায় অবস্থিত কেন্দ্রীয় কচি-কাঁচার মেলা। সকাল ৯টা - বিকাল ৫টা।
ঢাকা ২: অডিশন ২৫ ডিসেম্বর। সেগুনবাগিচায় অবস্থিত কেন্দ্রীয় কচি-কাঁচার মেলা। সকাল ৯টা - বিকাল ৫টা।
ঢাকা ৩: অডিশন ২৬ ডিসেম্বর। সেগুনবাগিচায় অবস্থিত কেন্দ্রীয় কচি-কাঁচার মেলা। সকাল ৯টা - বিকাল ৫টা।
