এই মিষ্টান্ন এক ধরনের কাস্টার্ড বা ফ্লান ডিশ যেখানে ডিমের কুসুম ও নারিকেল ব্যবহার করা হয়।
উপকরণ: ডিমের কুসুম ৬টি (ছাঁকনিতে ফেটে ছেঁকে নিতে হবে)। চিনি ৫ টেবিল-চামচ এবং ছাঁচে ছিটিয়ে দেওয়ার জন্য আরও কিছুটা। কোড়ানো নারিকেল আধা কাপ। এলাচগুঁড়া ১/৪ চা-চামচ। ভ্যানিলা নির্যাস ১/৮ চা-চামচ। মাখন ছাঁচে মাখিয়ে দেওয়ার জন্য। ফুটন্ত গরম পানি প্রয়োজন মতো।
পদ্ধতি: ওভেন ১৮০ ডিগ্রি সেলসিয়াস বা ৩৫০ ডিগ্রি ফারেনহাইটে প্রিহিট দিন।
৮ থেকে ১০টি ছোট রামেকিন বা সিলিকন মাফিন ছাঁচে মাখন মাখিয়ে চিনি ছিটিয়ে কোট করে রেখে দিন।
একটি বাটির ওপর পরিষ্কার তারের ছাঁকনি বসিয়ে ৬টি কুসুম একে একে ফেটিয়ে ছেঁকে বাটিতে নিন। চিনি, এলাচগুঁড়া ও ভ্যানিলা দিয়ে ভালোভাবে ফেটে নিন।
কোরানো নারিকেল দিয়ে আবারও ফেটে নিন।


