খাদ্য ও পুষ্টিবিষয়ক একটি ওয়েবসাইটে এমনই কিছু খাবারের নাম উল্লেখ করা হয় যেগুলো ওজন কমাতে সহায়তা করবে।
লেবুর রস: শরীরের ক্ষতিকর রাসায়নিক পদার্থ দূর করে হজম প্রক্রিয়া দ্রুত করে ওজম কমিয়ে আনতে সাহায্য করে লেবুর রস। প্রতিদিন সকালে তিন চা-চামচ লেবুর রস পানিতে গুলিয়ে পান করতে হবে। চাইলে এক চা-চামচ পরিমাণ মধু, আধা চা-চামচ কালো-গোলমরিচের গুঁড়া মিশিয়ে নেওয়া যেতে পারে। ভালো ফলাফলের জন্য প্রতিদিন খালি পেটে টানা তিন মাস পান করতে হবে।
অ্যাপল সাইডার ভিনিগার: প্রতিদিন সকালে খালি পেটে এক গ্লাস পানিতে দুই চা-চামচ অ্যাপল সাইডার ভিনিগার মিশিয়ে পান করতে হবে। শরীরে জমে থাকা চর্বি ভেঙে ওজন কমাতে সাহায্য করে। তবে দিনে কখনও দুই টেবিল-চামচের বেশি অ্যাপল সাইডার ভিনিগার গ্রহণ করা উচিত নয়। কারণ এতে হাড়ের ক্ষতি হতে পারে।
গ্রিন টি: বিশ্বে ওজন কমানোর জন্য গ্রিন টি বেশ জনপ্রিয় ও পরিচিত একটি পানীয়। এতে রয়েছে ‘এপিগালোক্যাটচিন-থ্রি-গ্যালেট’ নামক উপাদান, যা শরীরে চর্বি জমাতে দেয় না। ফলে ওজন কমতে সাহায্য করে।
