অরণ্যে ঢাকা খাগড়াছড়ির দীঘিনালা উপজেলা। পাহাড়ের কোল জুড়ে বৃষ্টির ধারায় নেমে আসে পাহাড়ি ঝরনা। অরণ্যে ঢেকে থাকে এরকম চেনা-অচেনা অনেক জলধারা।
বুনো ঝরনা তৈদুছড়া ১ এবং তৈদুছড়া ২, তোজেংমা, হরিণমারা, হাজাছড়া, শিবছড়ি এরকম কত ঝরনা ছড়িয়ে আছে দীঘিনালার ঘন অরণ্যে। এ যেন ঝরনার গ্রাম।
সোনায় মোড়ানো ঝকঝকে আলোয় সকালের খাবার সেরে রওনা হলাম তোজেংমা ঝরনার পথে। কিছুটা পথ মোটরবাইকে চড়ে গেলাম। গাড়ি চলার পথ শেষ করে, পাহাড়ের রাস্তা ধরে এগোতে থাকলাম। উঁচু-নিচু পথ পেরিয়ে পাহাড়ি ঝিরির সাক্ষাত পেলাম। বাকি পথটা ঝিরির পথ ধরেই হাঁটতে হল।


ঝরনার কাছে যাওয়ার আগে প্রায় লাগোয়া দুটো পাথুরে পাহাড়। এ যেন আরব্য উপন্যাসের ‘আলীবাবা'র জাদুকরী দরজার মতো, পাথুরে পাহাড় পেরিয়ে অবশেষে তোজেংমা ঝরনার দর্শন।
দুদিক থেকে আসা দুটি ঝরনার ধারা নেমেছে একই খুমে (পাহাড়িদের ভাষায় খুম মানে যেখানে ঝরনার ধারা এসে পড়ে)।


জুমক্ষেতের পাশ দিয়েই যেতে ঝিরি পর্যন্ত। ঝিরিপথ মানেই তো ট্রেকিংয়ের কষ্ট অর্ধেক কমে যাওয়া। তোজেংমা ঝরনায় যেতে বাকি পথটুকু এই ঝিরি পথেই হেঁটে যেতে হবে। বড়-ছোট পাথরে ভরা ঝিরির পথ। কোথাও কোথাও ঘন সবুজ আচ্ছাদন। বড় বড় লতা নেমেছে গাছের উপর থেকে। প্রধান ঝিরি থেকে আলাদা বাঁক নিয়ে তোজেংমা'র আসল ট্রেইল ধরে পথ চলতে হয়।


নিচে নামার পর পাওয়া গেল পা দেওয়ার মতো ছোট্ট একটা পাথর। পা ফসকে গেলেই গভীর খাদে হারিয়ে যেতে হবে।
এমনই ট্রেইল ধরে যেতে হয় তৈদুছড়া ঝরনায়।
ভরা বর্ষায় এই ঝরনা যৌবন পায়। তাই সে সময় গেলে সৌন্দর্য উপভোগ হয় বেশি। প্রথমেই কোমর সমান ঝিরির পথ। খরস্রোতা বোয়ালখালি খালের পথ ধরে সামনে এগুতে হয় অনেকখানি। ঝিরিতে খুব জোরে হাঁটার সুযোগ নেই।


ঝিরির পথ শেষে দেখা মিলবে উঁচু পাহাড়ি পথের। এখন সবুজ পাহাড়ে ছোট্ট ট্রেইল বেয়ে উঠতে হবে। একটানা বৃষ্টিতে উপরে ওঠার পুরো পথটাই বেশ ঝুঁকিপূর্ণ। ভেজা পথ বেয়ে দীর্ঘসময় নিয়ে ওঠার পর পাওয়া যাবে পাহাড়ের শীর্ষদেশ। এক নজরের পুরোটা আকাশ দেখে নেওয়া যায়। উঁচু পাহাড় থেকে নিচের ঝিরি পথ, ট্রেইল, জুমের ক্ষেত আর সবুজ বনকে বেশ লাগে।


পাহাড়ি পথ ছেড়ে আবার নামলাম ঝিরির পথে। বড় বড় পাথর ঝিরি জুড়ে। এক পাথর থেকে অন্য পাথরে পা মাড়িয়ে এগুতে হয়। পথের শেষে ঝরনার স্রোত! সবুজ পাহাড় থেকে সাদা রেখার মতো নেমে আসছে।
পাহাড়ের পাথর বেয়ে নেমে আসছিল জলের ধারা। নিচে আসতে আসতে ক্রমশ বড় হয়েছে। পাথরের ঢাল বেয়ে নেমে আসছে সাদা ফেনা মাথায় করে। সবুজ বনের মধ্যে তৈদুছড়ার এমন জলের স্রোত কেবল বর্ষাতেই দেখা যায়। 


প্রথমে পৌঁছাতে হবে খাগড়াছড়ি। সেখান থেকে সিএনজি বা মোটরবাইকে দীঘিনালা পৌঁছানো যায়। রাতে খাগড়াছড়িতেই থাকতে হবে। হোটেল গাইরিং, ইকোছড়ি ইন, ম্যাউনন্টেইন ইন, অরণ্য বিলাস, হোটেল আল আমিন ইত্যাদি মোটামুটি মানের।
