ফ্লেইভারস মিউজিক ক্যাফে: তিনটি প্ল্যাটার আছে। ৪শ’ টাকার প্ল্যাটারে মিলবে বাদাম, খেজুর, লেমোনেইড, ফ্রুট সালাদ, পটেটো ওয়েজেস, চিকেন সত্তে, চিকেন উইঙস, পপ চিকেন, ফ্রাইড রাইস। ৫শ’ টাকার প্ল্যাটারে মিলবে বাদাম, খেজুর, ফ্রুট সালাদ, ব্রাউনি, আমের জুস, ফ্রাইড রাইস, চিকেন সাসলিক, ক্যাম্পো চিকেন। ৬শ’ টাকার প্ল্যাটারে আছে বাদাম, খেজুর, ফ্রুট সালাদ, ব্রাউনি, আমের জুস, পপ চিকেন, মিট লোফ, ফ্রাইড রাইস।
‘ডি’স্ম্যাক: আছে তিনটি প্ল্যাটার। ৩শ’ টাকার প্ল্যাটারে মিলবে কাবাব রোল, জালি কাবাব, ফিশ ফিঙ্গার, অনিয়ন রিংস, ডিমের চপ, খেজুর, বাদাম, আপেল, লেমোনেইড। ৪৩০ টাকার প্ল্যাটারে পাওয়া যাবে গ্রিল চিকেন, ফ্রাইড রাইস, ফ্রুট সালাদ, মিক্সড সালাদ, খেজুর, বাদাম, লাভা কেক, মিন্ট ইয়োগার্ট। ৫শ’ টাকার প্ল্যাটারে পাবেন ফ্রাইড রাইস, ফ্রাইড চিকেন, চিকেন চিলি অনিয়ন, ফ্রুট সালাদ, খেজুর বাদাম, লাভা কেক, মিন্ট ইয়োগার্ট।
নস্টালজিক ক্যাফে: দুটি প্ল্যাটার। প্রথমটিতে মিলবে গ্রিলড চিকেন, বাটার নান, পাস্তা চিকেন উইথ হোয়াইট সস, কেশনাট সালাদ, দুটি স্টিমড ভেজিটেবল মোমো, আপেল, খেজুর, জিলাপি, আনলিমিটেড লেবুর শরবত, দাম সাড়ে ৬শ’ টাকা। দ্বিতীয়টিতে আছে ফ্রাইড রাইস, বিফ মাসালা, মিক্সড ভেজিটেবল, দুটি স্প্রিং রোল, দুটি স্টিমড চিকেন মোমো, আপেল, খেজুর, জিলাপি ও আনলিমিটেড লেবুর শরবত, দাম সাড়ে ৫শ’ টাকা।


