ভারতীয় ত্বকবিশেষজ্ঞ ডা. নিখিল বিশ্বাস মনে করেন, গরমে অতিরিক্ত ঘাম ও ব্যাক্টেরিয়ার সংক্রমণের কারণে এই মৌসুমে ব্রণের পরিমাণ বেড়ে যায়।
তিনি বলেন, “গ্রীষ্মে ত্বক পরিষ্কার রাখা অত্যন্ত জরুরি, তা না হলে ফুস্কুড়ি ও ব্রণের সমস্যা হতে পারে।”
রূপচর্চাবিষয়ক একটি ওয়েবসাইটে ডা. নিখিল উপরের তথ্য দেওয়ার পাশাপাশি কীভাবে এই সময়ে ত্বক ব্রণ মুক্ত রাখবেন সেই বিষয়ে কিছু পরামর্শ দেন।
- প্রচুর পরিমাণে পানি পান করতে হবে। এটি শরীরের দুষিত পদার্থ বের করে দিতে সাহায্য করবে এবং আর্দ্রতা ধরে রাখবে। চাইলে শসা, তুলসী বা যে কোনো পানিজাতীয় ফল পানির সঙ্গে মিশিয়ে নেওয়া যেতে পারে। এতে ‘ডিটক্সিং’য়ের কাজ করবে।
- সকালে মুখ ধোয়ার আগে লাল-চন্দনের পেস্ট ত্বকে লাগিয়ে নেওয়া যেতে পারে। লাল চন্দন ত্বক শীতল রাখতে সাহায্য করে। এতে গরমের কারণে হওয়া ব্রণের সমস্যা কমে আসে। তাছাড়া ত্বকে ব্রণের দাগ দূর করতেও উপকারী লাল-চন্দন।
- দিন শুরু করুন এক গ্লাস দুধ পান করে। গরুর দুধে আছে প্রচুর অ্যান্টি-ব্যাক্টেরিয়াল উপাদান যা খাদ্য হজম প্রক্রিয়ায় সাহায্য করে এবং শরীর ভেতর থেকে পরিষ্কার রাখে। ফলে ব্রণ হওয়ার ঝুঁকি কমে আসে।
-  রাতে ঘুমাতে যাওয়ার আগে মুখ ধুয়ে টোনার দিয়ে ত্বক মুছে নিতে হবে। গোলাপ জ্বল ও অ্যালোভেরা আছে এমন টোনার বেছে নেওয়া উচিত। এই উপাদানগুলো ব্রণ সারিয়ে তুলতে সাহায্য করে। তাছাড়া লোমকূপ পরিষ্কার করতেও উপযোগী এই উপাদান সমৃদ্ধ টোনার।
