দিল্লির রূপবর্ধক চর্মরোগ বিশেষজ্ঞ ড. মেঘনা গুপ্তা সম্প্রতি ভারতীয় একটি লাইফস্টাইল ম্যাগাজিনে জানিয়েছেন ঠোঁটের উপরের কালো দাগের কারণ ও এর থেকে পরিত্রাণের উপায়।
কারণ: ঠোঁটের উপরে কালো দাগের প্রথম এবং প্রধান কারণ হচ্ছে ঠোঁটের পাতলা লোমের স্তর। যে কারণে ঠোঁটের উপরের অংশকে চেহারার অন্য অংশের থেকে কালো দেখায়। তবে অনেকের ক্ষেত্রে এই গোঁফের মতো পাতলা লোমের স্তর ফেলে দিলেও দাগ দূর হয় না।
ড. মেঘনা গুপ্তা বলেন, “এর কারণ হতে পারে হরমোনের প্রভাব। বয়ঃসন্ধিতে এবং গর্ভাবস্থায় হরমোনের পরিবর্তনের সময় ঠোঁটের উপরে কালো দাগ পড়তে পারে।”
এ ছাড়াও, ভিটামিন-ই এবং আয়রনের অভাবে কালো ছোপ পড়ে। কেউ যদি জন্মনিয়ন্ত্রণ বড়ি ব্যবহার করেন বা অন্যান্য ওষুধের পার্শ্বপ্রতিক্রিয়াতেও এমনটা হতে পারে।
আলকাতরার উপাদান আছে এমন উপকরণে সমৃদ্ধ ক্রিম ব্যবহারে দাগ পড়াও বিরল নয়। এ ছাড়াও ত্বকের মেলালিন ঘটিত রোগ মেলানোসিস এবং সূর্যের আলোতে বেশি সময় কাটালে ঠোঁটের উপর কালো ছোপ পড়তে পারে বলে জানিয়েছেন ড. গুপ্তা। 
যদিও ঠোঁটের উপরের লোম ফেলে দিলে কালো ভাবটা দূর হয় তবে বার বার ঠোঁটের উপরের লোম উপরে ফেলতে থাকলে স্থায়ীভাবে কালো দাগ পড়ে যায়।
পরিত্রাণের উপায়
১। কী খাচ্ছেন সেই বিষয়ে লক্ষ রাখুন। একজন মানুষের শরীরে প্রতিদিন ৭২ ধরনের ভিটামিন ও মিনারেলের প্রয়োজন হয়। এসব পুষ্টি উপাদান প্রতিদিনের খাবারে নিশ্চিত করতে নানান ধরনের ফল ও সবজি প্রতিদিন খেতে হবে জানিয়েছে মুম্বাইয়ের রেজিস্টার্ড পুষ্টিবিদ ড. স্মিতা নন্দা।
তার মতে, “প্রতিদিন প্রচুর পরিমাণে পানি খেতে হবে। ফল চিবিয়ে খেতে হবে। তবে এর রস পান করা যাবে না। পাশাপাশি প্রতিদিন যেন প্রচুর পরিমাণে সবজি খাওয়া হয় সেই বিষয়েও যত্নশীল হতে হবে। যে সব খাবারে ওমেগা-থ্রি ফ্যাটি এসিড রয়েছে যেমন: ঘানিতে ভাঙা তেল, তোকমা দানা, আখরোট ইত্যাদি আপনাকে উপকৃত করতে পারে।
২। এই দাগ একটা সতর্ককারী সংকেত হতে পারে যে, আপনার দেহে হয়ত কিছু একটা ঠিক নেই। তাই একটি স্বাস্থ্যসম্মত জীবনযাপন আপনাকে অবশ্যই অনুসরণ করতে হবে। চেষ্টা করতে হবে এমন সব ওষুধ সেবন করতে যেগুলোর পার্শ্বপ্রতিক্রিয়া নেই অথবা তুলনামূলক কম।
কিছু খাবার আছে যেগুলো আপনার ক্ষতি করবে কিন্তু সেগুলোর লোভ সামলানো খুবই কষ্টসাধ্য, এই খাবারগুলো কম করে খাওয়ার চেষ্টা করুন। চর্বিযুক্ত খাবার, বেশি পরিমাণে খাবার, ক্যাফেইনযুক্ত খাবার আপনার ধারণার থেকে বেশি ক্ষতি করে থাকে।
অন্তত সাত ঘণ্টা ঘুমান, এই সাত ঘণ্টার বিষয়ে কোনো প্রকার আপোষ করবেন না।
মনে রাখবেন, প্রতিকারের চেয়ে প্রতিরোধ শ্রেয়। তাই, নিয়মিত রক্ত পরীক্ষা করা, শরীরচর্চা করা, ধ্যান করা, গান শোনা, নিজেকে প্রশ্রয় দেওয়া, ম্যাসেজ করার মতো কাজগুলো করবেন। এতে মন প্রফুল্ল থাকে এবং কাজ করতে ভালো লাগে।
৩। আপনার ত্বকের নিয়মিত যত্ন নিন। ত্বকে এসপিএফ ফিফটি মানের সানস্ক্রিন মাখুন, শুধু গরমে নয় শীতকালেও। ঘর থেকে বের হওয়ার অন্তত ৩০ মিনিট আগে সানস্ক্রিন মাখুন। ঠোঁটের উপরের লোম ওয়াক্স করার বদলে সুতা দিয়ে তুলুন।
