রেসিপি দিয়েছেন ইসরাত জাহান বীথি।
টুনা ভুনা
উপকরণ: টুনা মাছের ক্যান বড় ১টি (বাজারে পাবেন)। টমেটো-কুচি বড় ১টি। পেঁয়াজপাতা-কুচি ২ টেবিল-চামচ। তেল ৪,৫ টেবিল-চামচ। পেঁয়াজকুচি আধা কাপ। রসুনবাটা আধা চা-চামচ। হলুদগুঁড়া ১ চা-চামচ থেকে একটু কম। মরিচগুঁড়া দেড় চা-চামচ। ধনিয়াগুঁড়া ১ চা-চামচ। জিরাগুঁড়া আধা চা-চামচ। লবণ স্বাদ মতো। কাঁচামরিচ ফালি করা  ২,৩টি। ধনেপাতা-কুচি  পরিমাণ মতো।
পদ্ধতি: প্রথমে টুনা মাছের ক্যান খুলে, মাছের অতিরিক্ত তেল ফেলে দেবেন। কড়াইতে তেল দিয়ে, গরম হলে পেঁয়াজকুচি দিয়ে ভাজতে হবে।


টমেটো কিছুটা গলে গেলে টুনামাছ দিয়ে নেড়ে চেড়ে অল্প করে পানি দিয়ে রান্না করতে হবে চার পাঁচ মিনিট।
যখন টুনার পানি শুকিয়ে মাখা মাখা হয়ে আসবে তখন কাঁচামরিচ, পেঁয়াজপাতা-কুচি ও ধনেপাতা-কুচি দিয়ে ঢেকে মৃদু আঁচে দুতিন মিনিট রান্না করুন।
হয়ে গেলে নামিয়ে ভাত, রুটি বা পরোটার সঙ্গে গরম গরম পরিবেশন করুন।
চিংড়ি-বরবটি ভর্তা


পদ্ধতি: চিংড়ি বড় হলে, খোসা ও মাথা ফেলে ধুয়ে নিতে হবে।
এখন ধনেপাতা ও সরিষার তেল ছাড়া বাকি সব উপকরণ একটা সসপ্যানে নিয়ে সঙ্গে আধা কাপ পানি দিয়ে চুলায় বসিয়ে ঢেকে অল্প আঁচে সিদ্ধ করতে হবে।
