রেসিপি দিয়েছেন পাপন শ্রাবণ।
উপকরণ
সিদ্ধআলু ২০০ গ্রাম।  চিজ ১০০ গ্রাম। হাড় ছাড়া মুরগির মাংস ১০০ গ্রাম । পেঁয়াজকুচি ২ টেবিল-চামচ। কাঁচামরিচের কুচি ২ টেবিল-চামচ। হলুদ ১ চিমটি। জিরাগুঁড়া ১ চা-চামচ। ডিম ১টি। টেস্টিংসল্ট স্বাদমতো। লবণ স্বাদমতো । ধনেপাতার কুচি ২ টেবিল-চামচ। তেল পরিমাণমতো।
পদ্ধতি
আলু সিদ্ধ করে খোসা ছাড়িয়ে সামান্য লবণ, মরিচকুচি, ধনেপাতার কুচি এবং পেঁয়াজকুচি দিয়ে ভর্তা করে নিন।
মুরগির হাড় ছাড়া মাংস সিদ্ধ করে নিন। তারপর সিদ্ধমাংস হাতে ছাড়িয়ে ঝুরি করুন।
একটি প্যানে তেল দিয়ে গরম করে এতে পেঁয়াজকুচি, মরিচকুঁচি, লবণ, জিরাগুঁড়া, টেস্টিংসল্ট এবং হলুদ দিয়ে ভালো করে নেড়ে এতে ঝুরি করা মাংস দিয়ে দিন। মাংস কিছুটা ভাজা ভাজা হয়ে এলে নামিয়ে নিন।


ফ্রাইপ্যানে তেল গরম করুন। আলুর টিক্কি ফেটানো ডিমের মধ্যে চুবিয়ে লালচে করে ভেজে তুলুন।
সস দিয়ে পরিবেশন করুন।
মুরগি ভাজা
ভর্তা-ভাজা
বেগুনে ভাজা মাছ
ফুলকপির পাকোড়া
মাশরুম নুডুলস পাকোড়া
পেঁয়াজপাতার পাকোড়া
দোসা ও আলুর দম
