কখনও লাল, কখনও গোলাপি আভায় ঠোঁট সাজাতে মেইকআপের রংয়ের ব্যবহার নিয়ে জানা প্রয়োজন। সাজসজ্জাবিষয়ক একটি ওয়েবসাইটে মেইকাপের সঙ্গে মিলিয়ে নির্দিষ্ট ঠোঁটের রংগুলো কখন ব্যবহার করলে ভালো হয় সেই বিষয়ে পরামর্শ দেওয়া হয়।
লাল: ঠোঁটে লাল রং ব্যবহারের প্রাধান্য কখনও পুরান হওয়ার নয়। গাঢ় কালো আইলাইনারে টানা চোখ, ঘন করে লাগানো মাস্কারার সঙ্গে লাল লিপস্টিক দারুণ মানানসই। লাল লিপস্টিকের সঙ্গে চোখের সাজ এবং অন্যান্য মেইকআপ যত হালকা হয় ততই ভালো। এতে ঠোঁট নজর কাড়বে বেশি।


বেগুনি: দারুণ উজ্জ্বল একটি রং। তাই লালের মতো এই রং ব্যবহারের ক্ষেত্রেও মুখের অন্যান্য রং যত হালকা রাখা যায় ততই ভালো। হালকা ফাউন্ডেশন, চোখে অল্প কাজলের ছোঁয়া এবং প্রয়োজনে ত্বকের রংয়ের আইশ্যাডো দিয়ে চোখ সাজিয়ে নেওয়া যেতে পারে। গালে হালকা কমলা বা বাদামি ব্লাশ আর ঠোঁটে বেগুনি লিপস্টিকে মেইকআপ পূর্ণতা পাবে।
