‘গ্রিন টি’ অ্যান্টিঅক্সিডেন্ট’য়ের ভালো উৎস। এটি ওজন কমাতে, শরীর থেকে দূষিত পদার্থ দূর করতে এবং ক্যান্সারের ঝুঁকি কমাতে সাহায্য করে। স্বাস্থ্যবিষয়ক একটি ওয়েবসাইট থেকে চুলের যত্নে গ্রিন টি’র ব্যবহার সম্পর্কে জানা যায় ।
কন্ডিশনার হিসেবে: এক কাপ গরম পানিতে দুটি টি ব্যাগ দিয়ে তার সঙ্গে দুই টেবিল-চামচ নারিকেল তেল এবং এক টেবিল-চামচ মধু ভালোভাবে মিশিয়ে নিতে হবে। এই মিশ্রণ চুলে লাগিয়ে ২৫ থেকে ৩০ মিনিট অপেক্ষা করুন তারপর কুসুম গরম পানি দিয়ে ধুয়ে ফেলুন।
চুল পরিষ্কার করতে: ঝলমলে স্বাস্থ্যোজ্জ্বল চুল পেতে নিজেই তৈরি করতে পারেন চুলের জন্য পরিষ্কারক দ্রবণ। সাধারণ তাপমাত্রায় তিন কাপ গ্রিন টিয়ের সঙ্গে তিন টেবিল-চামচ লেবুর রস মেশান। কেউ চাইলে এক টেবিল-চামচ লেমন এসেন্সিয়াল অয়েলের সঙ্গে মেশাতে পারেন। ভালো ফলাফলের জন্য এই মিশ্রণ নিয়মিত ব্যবহার করতে পারেন।
