রেসিপি দিয়েছেন ফারহানা রহমান।
উপকরণ: ৩টি ডিম। ১ কাপ চিনি। ২০০ গ্রাম মাখন। আধা কাপ ডার্ক চকলেট। ৫০ গ্রাম মিল্ক চকলেট। আধা কাপ ময়দা। ১ চা-চামচ বেকিং পাউডার। ১ চিমটি বেইকিং সোডা। ১ চা-চামচ কফি পাউডার। ২ টেবিল-চামচ ডার্ক কোকো পাউডার।
পদ্ধতি: ওভেন ১৮০ ডিগ্রি সেলসিয়াস তাপমাত্রায় প্রিহিট করতে দিন। মাখন ছোট ছোট টুকরা করে ডার্ক চকলেটের সঙ্গে মিল্ক চকলেট মিশিয়ে গলিয়ে নিন।
সব গলে গেলে খুব ভালো মতো নেড়ে চকলেট আর মাখন মেশান। কফির গুঁড়াও এই মিশ্রণে মিশিয়ে দিন।
এবার অন্য পাত্রে ডিম ও চিনি ইলেক্ট্রিক বিটার দিয়ে বিট করতে থাকুন যতক্ষণ না ডিম ফেপে দ্বিগুন পরিমাণে হয়ে যায়। কিছুটা ঘন ক্রিমের মতো হবে দেখতে। ১০ মিনিট সময় লাগতে পারে।
এই ডিমের মিশ্রণে চকলেটের মিশ্রণ আস্তে আস্তে দিয়ে ননস্টিক চামচ দিয়ে হালকা হাতে আস্তে আস্তে ভালো মতো মিশিয়ে দিন।
এবার একটি শুকনা পাত্রে ময়দা, বেইকিং পাউডার, বেইকিং সোডা, কোকো পাউডার মিশিয়ে ডিমের মিশ্রণে ধীরে ধীরে ঢেলে হালকা হাতে মিশিয়ে দিন। ভালো মতো মিশে গেলে বেইকিং পাত্রে বেইকিং পেপার বিছিয়ে তাতে ঢেলে দিন।
প্রিহিটেড ওভেনে ১৭০ থেকে ১৮০ ডিগ্রি সেলসিয়াসে ৪০ থেকে ৫০ মিনিট বেইক করুন।
৪০ মিনিট পর একটি কাঠি দিয়ে পরীক্ষা করে দেখুন। যদি কাঠি পরিষ্কার বের হয়ে আসে তাহলে ব্রাউনি ওভেন থেকে বের করে আনুন।
