পদ্ধতি দিয়েছেন আনার সোহেল।
উপকরণ: পানি ২ কাপ। এক চিমটি লবণ। আদা পাতলা করে কাটা ২,৩টি। এলাচ ২টি। লবঙ্গ ২,৩টি। এক ইঞ্চি লম্বা দারুচিনি ২ টুকরা করা। তেজপাতা ১টি দুই টুকরা করা। লেবু ছোট ১টি। চা-পাতা ১ চা-চামচ। মধু বা চিনি ২ চা-চামচ (২ কাপ চায়ের জন্য)।
পদ্ধতি: মধু, লেবু, চা-পাতা বাদে পাত্রে পানি, আদা, সব মসলা ও এক চিমটি লবণ দিয়ে চুলায় বসিয়ে দিন। ‍দুতিন বার বলগ উঠলে কিংবা ফুটে উঠলে চা-পাতা দিন।
