রেসিপি দিয়েছেন নদী সিনা।
 
মিষ্টি দই
 
উপকরণ
দুধ ২ লিটার। চিনি আধা কাপ অথবা ১ কাপ (মিষ্টি নিজের পছন্দমতো)। টক দই ২৫০ গ্রাম।
পদ্ধতি


৫ মিনিট ওভেন প্রি হিট করুন। ওভেনপ্রুফ বাটিতে অথবা মাটির হাঁড়িতে টক দই মেশানো দুধ ওভেনে দিন। এখন ওভেন এ ১৩০ ডিগ্রি তাপমাত্রায় ৫০ মিনিট থেকে ১ ঘণ্টা বেইক করুন। ৬০ মিনিট শেষ হলে দই জমে যাবে। আরও ৩০ মিনিট পর ওভেন থেকে বের করতে হবে। কারণ গরম অবস্থায় দই নাড়া খেলে পানি বের হয়ে যাবে।
দইয়ের বাটি যখন ঠান্ডা হবে তখন বের করে ফ্রিজে রেখে দিন। পরে পরিবেশন করতে হবে।
 
পেস্তা-ড্রাইফ্রুট পুডিং
উপকরণ
ঘন দুধ ২ কাপ। চিনি ১ কাপ। ডিম ৪টি। পেস্তাবাদাম পেস্ট করা ৪ টেবিল-চামচ। ক্রিম ২ টেবিল-চামচ। ড্রাইফ্রুট নিজের পছন্দমতো।
পদ্ধতি


