তাহলে ত্বকে ক্ষতির পরিমাণ কিছুটা হলেও কম হয়।
ঈদের আগে সাধারণ কিছু পরিচর্যা করলেই হাতের ত্বক সুন্দর রাখা সম্ভব। এ বিষয়ে সহজ কিছু পরামর্শ দিয়েছেন রেড বিউটি স্যালুনের কর্ণধার আফরোজা পারভিন।
আফরোজা পারভিন বলেন, “ঈদুল আজহায় কাজের পরিমাণ বেশি থাকে। তাই হাত ও পায়ের ত্বকের ক্ষতিও হয় বেশি। ঈদের কিছুদিন আগে থেকেই হাত ও পায়ের যত্ন নেওয়া শুরু করতে হবে। আর ঘরে বসেই এই চর্চাগুলো চালিয়ে যাওয়া সম্ভব। এতে ত্বকের ক্ষতি কিছুটা কম হবে।”
ঈদের আগে পছন্দ মতো আকারে ছোট করে নখ কেটে নিতে হবে। কারণ ঈদে মাংস কাটাকাটি করতে গিয়ে অনেক সময়ই নখ ভেঙে বা ফেটে যেতে পারে। তখন আরও বেশি সমস্যা হতে পারে। এতে নখ ছোট করে কেটে নিলে নখ ফেটে যাওয়ার সমস্যা থাকবে না। এরপর নখ শক্ত করতে সাহায্য করে এমন লোশন লাগিয়ে নিলে নখ ভালো থাকবে। তাছাড়া নিয়মিত হাতে ময়েশ্চারাইজার বা ভ্যাজলিন ব্যবহার করা উচিত।
মাংস কাটার ফলে হাতে 'বোটকা' একটা গন্ধ হয়ে থাকে, যা বেশ অস্বস্তিকর। সহজে ওই গন্ধ যেতেও চায় না। এক্ষেত্রে হাত পানি দিয়ে ধুয়ে হাতে ও পায়ে খানিকটা হলুদ মাখিয়ে নিন। হলুদ দিয়ে ভালো করে হাত ঘষে তারপর হ্যান্ডওয়াশ বা সাবান দিয়ে হাত ধুয়ে নিতে হবে। এতে হাত থেকে বিরক্তিকর গন্ধ দূর হবে। এরপর ময়েশ্চারাইজার ব্যবহার করতে হবে।
এছাড়া সরিষার তেলও হাতের নমনীয়তা বজায় রাখবে এবং গন্ধ দূর করবে, জানিয়েছেন আফরোজা পারভিন।
তিনি বলেন, “এ সময়ে হাতের কাছে সবসময় ময়েশ্চারাইজার রাখতে হবে। কারণ আবহাওয়া পরিবর্তনের কারণে এখন হাত শুষ্ক হয়ে যায়, তাই প্রতিবারই হাত ও পা ধোয়ার পর ময়েশ্চারাইজার ব্যবহার করতে হবে।”
এছাড়াও আরু কিছু উপায়ে হাতের দুর্গন্ধ থেকে মুক্তি পাওয়া যায়।
লবণের স্ক্রাব: লবণ হাতের গন্ধ দূর করতে সাহায্য করে। হাতের তালুতে খানিকটা লবণ নিয়ে সামান্য পানি দিয়ে দুই হাতে ঘষে নিতে হবে। ভালোভাবে হাতের দুপাশেই ঘষা হলে পানি দিয়ে ধুয়ে ফেলুন।
লেবু: লেবু, কমলা ইত্যাদি ফল দুর্গন্ধ দূর করতে দারুণ কার্যকর। লেবু বা কমলা কেটে তা হাতে ভালোভাবে ঘষে নিতে হবে। এতে দুর্গন্ধ দূর হবে পাশাপাশি হাতে কমলা বা লেবুর হালকা গন্ধও লেগে থাকবে।
ভিনিগার ও বেইকিং সোডা: তীব্র গন্ধ দূর করার জন্য এই মিশ্রণ বেশ উপযোগী। বেইকিং সোডার সঙ্গে ভিনিগার মিশিয়ে পেস্ট তৈরি করে দুই হাতে ঘষতে হবে। এরপর ঠাণ্ডা পানি দিয়ে হাত ধুয়ে ফেলুন।
