ভারতীয় ওয়েবসাইট ‘জুয়েলারকাকা ডটকম’য়ের প্রতিষ্ঠাতা ভিকাল্প বোথারা এবং ‘ওপা এক্সসরিজ’য়ের ডিজাইনার কৃতি আগারওয়াল গয়না মরিচা মুক্ত রাখার কিছু টিপস দেন।
* গয়না সবসময় পরিষ্কার ও শুকনা রাখা প্রয়োজন। গলার হার, আংটি, কানের দুল বা যে কোনো গয়না ক্রিম, লোশন বা সুগন্ধির সংস্পর্শের বাইরে রাখতে হবে। তাই গয়না পরার আগে প্রসাধনী ব্যবহার করুন।
* গয়না সঠিকভাবে সংরক্ষণ করা উচিত। গয়নার হুকগুলো আটকে ঝুলিয়ে রাখতে হবে। একটা গয়না যেন অন্যটির সঙ্গে আটকে না যায় সেদিকে খেয়াল রাখতে হবে।
* ঘুমানোর আগে অবশ্যই গয়না খুলে রাখা উচিত। কারণ গয়না পরে থাকলে তা দ্রুত নষ্ট হয়ে যেতে পারে বা ভেঙে যেতে পারে।
* বেশিরভাগ গয়না রাখার বক্সের ভেতরের অংশে ভেলভেটের কাপড় দেওয়া থাকে। তবে এই কাপড় গয়নার উজ্জ্বলভাব নষ্ট করে। তাই এই ধরনের বক্স এড়িয়ে চলা ভালো।  গয়না সুতির কাপড়ে জড়ানো বক্সে রাখা যেতে পারে।
* গয়না খোলার পর পরিষ্কার সুতি কাপড় দিয়ে ভালোভাবে মুছে আলাদা মুখ বন্ধ ব্যাগে সংরক্ষণ করতে হবে।
