খাদ্যাভ্যাস সম্পর্কে আমাদের অনেকে তেমন কোনো ধারণা নেই। অনেকে খেয়াল খুশিমতো খাদ্য গ্রহণ করে থাকি। স্বাস্থ্যকর খাবার খাওয়ার শরীরের জন্য যেমন জরুরি, তেমনি খাবার খাওয়ার সময়ও সঠিক হওয়া জরুরি। তবে কিছু খাবার রয়েছে যা খালি পেটে খাওয়া একদম ঠিক নয়। এই খাবারগুলো অ্যাসিড তৈরি করে এবং অন্ত্রে সমস্যা তৈরি করতে পারে।
আসুন ছবিতে দেখে নেই খালি পেটে খাবেন না, যেসব খাবার।
ড্রিংক সিট্রাস জুস
সুপ
ইনটেনস ট্রেইনিং
গো-টু-বেড
চুইনগাম
ড্রিংক অ্যালকোহল
ড্রিংক কফি
