ভারতের ‘ইউনাইটেড পেশার কুকার’ ব্র্যান্ডের সভাপতি মো. নওশাহ এমনই কিছু বিষয়ের প্রতি নজর দিতে বলেছেন যা খেয়াল রাখলে সঠিক প্রেশার কুকার কিনতে সুবিধা হবে।
আকার: প্রেশার কুকার পূর্ণ করে খাবার রান্না করা হয় না। এক তৃতীয়াংশ ভর্তি করেই খাবার রান্না করা হয়। তাই প্রতিদিন কী পরিমাণ রান্না করতে হয়, পরিবারের সদস্য কয়জন- এসব বিষয় মাথায় রেখে প্রেশার কুকার বড় না মাঝারি কিনবেন সেটা বিবেচনা করা উচিত।
ভার ও পুরুত্ব: প্রেশার কুকার মোটা দেখাতে সাধারণত ভারী হাতল ব্যবহার করা হয়। তাই সঠিক পুরুত্বের প্রেশার কুকার কেনার জন্য অবশ্যই মোটা অ্যালুমিনিয়াম বা পুরু স্টিলের তৈরি কিনা তা দেখে নিন।
দুর্ঘটনা এড়াতে প্রতিদিন ব্যবহারের জন্য ৩.২৫ মি.মি. পুরুত্বের প্রেশার কুকার কেনা উচিত।
প্রেশার নির্দেশক: যখন নতুন প্রেশার কুকার কিনতে যাবেন তখন খেয়াল করুন তাতে ‘প্রেশার ইন্ডিকেইটর’ আছে কিনা। না থাকলেও প্রেশার মার্কার বা ‘পপ-আপ ইন্ডিকেইটর’ থাকার কথা। আধুনিক প্রেশার কুকারে এরকম সুবিধা থাকে যা প্রেশার পরিমাপ করতে সাহায্য করে। পাশাপাশি প্রেশার দ্রুত কমানোর জন্য বোতাম থাকাও আবশ্যক।
