রূপচর্চাবিষয়ক একটি ওয়েবসাইটে প্রকাশিত এক প্রতিবেদন থেকে জানা যায় নখের সঠিক যত্নের ছয়টি উপায় সম্পর্কে।
ত্বকের মতো নখের যত্ন নিন: নখ ভালো রাখতে ত্বকের মতো করে নখের যত্ন নেওয়া প্রয়োজন। মুখের মতো করে নখেও ক্রিম ও সানস্ক্রিন লাগানো উচিত। হাতের উল্টা পাশে কিউটিকলের চারপাশে সানস্ক্রিনের সঙ্গে ‘অ্যান্টি-এইজিং’ সিরাম মিশিয়ে লাগান।
কিউটিকল’য়ের যত্ন নেওয়া আবশ্যক: কিউটিকল আর্দ্র রাখতে ম্যানিকিউরের আগে খানিকটা অর্গান তেল মিশিয়ে নিন। নখ ভালো রাখতে কখনই নখ ভাঙা বা দাঁত দিয়ে কাটা ঠিক নয়।
ম্যানিকিউরের আগের প্রস্তুতি: ম্যানিকিউরের স্থায়িত্ব বাড়ানোর জন্য প্রসাধনী ব্যবহারের আগে নখ ভালোভাবে পরিষ্কার করে নেওয়া উচিত। নেইলপলিশ তুলে খানিকটা নখের তেল মালিশ করে তা শোষণ করা পর্যন্ত অপেক্ষা করতে হবে। এরপর নখে যদি কোনো ফাটা অংশ থাকে তা ঢাকার জন্য বেইসকোট ব্যবহার করতে হবে।
নখের সঠিক আকার নির্ধারন: প্রত্যেকের জীবনযাপনের ধরন আলাদা। তাই নখের আকার ও উচ্চতাও আলাদা হয়ে থাকে। কাজের ধরন বুঝে নখের আকার-আকৃতি ঠিক করা উচিত। না হলে অকালে নখ ভেঙে যাওয়ার সম্ভাবনা থাকে।
