হালকা, মজার অথচ অল্প খেলেই পেট ভরবে এমনই খাবারের রেসিপি দিয়েছেন শাহনাজ শিমুল।
উপকরণ
মুরগি হাড়সহ ৪ টুকরা। বিভিন্ন রকমের ডাল ১ কাপ (আগের দিন রাতে ভিজিয়ে রাখুন)। গম আধা কাপ। লেবু টুকরা করা ১টি। সবজি টুকরা পছন্দমতো ১ কাপ। কাঁচামরিচ কয়েকটি। পেঁয়াজ মোটা করে কুচি করা আধা কাপ। টমেটো বড় টুকরা ২টি। ধনেগুঁড়া ১ চা-চামচ। জিরাগুঁড়া ১ চা-চামচ। হলুদগুঁড়া ১ চা-চামচ। আদাবাটা ১ চা-চামচ। রসুনবাটা ১ চা-চামচ। লবণ পরিমানমতো। পানি ৫ কাপ।
পদ্ধতি
পানিতে মুরগির টুকরা, টমেটো, লবণ, লেবুর টুকরা, পেঁয়াজ, আদা ও রসুনবাটা আর গুঁড়া মসলাগুলো দিয়ে ৩০ মিনিট কম আঁচে জ্বাল দিন।
ডাল আর গমগুলো আলাদা সিদ্ধ করে পানি ঝরিয়ে রাখুন। মুরগির টুকরা সিদ্ধ হয়ে গেলে সেগুলো পানি থেকে তুলে মাংস হাড় থেকে ছাড়িয়ে আবার মাংস আর হাড়গুলো পানিতে দিয়ে দিন।
এবার সুপে ডাল আর কাঁচামরিচ দিন। ভালোভাবে নাড়ুন। কম আঁচে আরও ১৫ মিনিটি রান্না করুন। সবজি টুকরাগুলো দিয়ে লবণ চেখে নিন। কম মনে হলে আরও দিন।
