রূপচর্চাবিষয়ক একটি ওয়েবসাইটের প্রতিবেদন থেকে জানা যায়- ত্বকের বড় হয়ে যাওয়া লোমকূপ সংকুচিত করতে, মেইকআপ ঠিক রাখতে এবং অতিরিক্ত ঘামের সমস্যার সমাধান হতে পারে বরফ।
ব্রণ দূর করতে বরফ: ব্রণের ফোলাভাব কমাতে সাহায্য করে বরফ। একটি পরিষ্কার কাপড়ে কয়েক টুকরা বরফ নিয়ে ব্রণের উপর হালকা করে চেপে ধরতে হবে। এতে ব্রণ সংকুচিত হবে এবং ব্যথা কমবে।
ত্বক উজ্জ্বল করতে: বরফ ঘষলে ত্বকে দীপ্তি ফিরে আসে। পরিষ্কারের পর এক টুকরা বরফ ঘষে নিলে ত্বকে স্নিগ্ধতা ফিরে আসবে। বরফ ঘষার ফলে রক্ত সঞ্চালন বৃদ্ধি পায় তাই ত্বক সুস্থ থাকে। পাশাপাশি বলিরেখা দূর করে ত্বকের তারুণ্য ধরে রাখতেও বরফ বেশ উপকারী।
ভ্রু-প্লাকের ব্যথা কমাতে: ভ্রু প্লাক করার সময় বেশ ব্যথা অনুভূত হতে পারে। তাই শুরুতে এক টুকরা বরফ ঘষে নিন। এতে ভ্রু’র অংশ খানিকটা অবশ হয়ে আসবে। ফলে ব্যথা কম হবে।
চোখের ফোলাভাব দূর করতে: অপর্যাপ্ত ঘুমের কারণে চোখের নিচে ফুলে যেতে পারে। চোখের ফোলাভাব কমাতে বরফ চেপে ধরতে পারেন। যা চোখে আরাম দেওয়ার পাশাপাশি ত্বক করবে টানটান।
রোদে পোড়াভাব কমাতে: সানস্ক্রিন ব্যবহার করার পরও ত্বক পুড়ে যেতে পারে। রোদ থেকে ঘরে ফিরে ত্বকে খানিকটা বরফ ঘষে নিলে জ্বালাভাব কমে আসবে এবং পোড়াভাবও দূর হবে।
মেইকআপ দীর্ঘস্থায়ী করতে: মেইকআপের শুরুতে মুখে বরফ ঘষে নিলে তা লোমকূপ সংকুচিত করবে এবং ত্বক শীতল হবে। ফলে ত্বকে মেইকআপ সহজেই বসে ও দীর্ঘক্ষণ স্থায়ী হয়।
নেইলপলিশ শুকাতে: নখে নেইলপলিশ লাগানোর পর তা চটজলদি শুকাতে বরফ ঠাণ্ডা পানিতে নখ ভিজিয়ে রাখুন।
