রেসিপি দিয়েছেন আফরোজ সাইদা ।
বাসমতী পোলাও


পদ্ধতি: হাঁড়িতে তেল বা ঘি দিয়ে গরম করে, প্রথমে গরম মসলা দিয়ে নেড়ে চাল দিয়ে দিন। তাতে আদাবাটা দিয়ে ভালোভাবে ভেজে ফুটন্ত গরম পানি দিয়ে দিতে হবে। লবণ দিন। পানি ফুটে উঠলে চুলার আঁচ কমিয়ে ঢেকে দেবেন। বেশি নাড়বেন না।
পানি শুকিয়ে চাল সিদ্ধ হয়ে আসলে নিচে তাওয়া দিয়ে দমে রাখতে হবে। এই সময় ঢাকনা খুলবেন না।
চাল সিদ্ধ হলে, গোলাপ জল, কিছু বেরেস্তা দিয়ে চুলা থেকে নামিয়ে ঢেকে রাখবেন। আধা ঘণ্টা পর ঢাকনা খুলে পরিবেশন করুন।
পরিবেশন পাত্রে পোলাও ঢেলে উপরে বাকি পেঁয়াজ-বেরেস্তা, কিশমিশ ও আলুভাজা দিয়ে সাজিয়ে পরিবেশন করতে পারেন।
মোরগের রোস্ট


লবণ স্বাদ মতো।
পদ্ধতি: মোরগের চামড়া ছাড়িয়ে চার টুকরা করে মোট আট টুকরা করতে হবে। হালকা রং মাখিয়ে তেলে ভেজে রাখতে হবে। পেঁয়াজ ভেজে রাখুন।
কেওড়াতে জাফরান ভিজিয়ে রাখুন।
ঘি, টক দই, পেঁয়াজবাটা, আদাবাটা, রসুনবাটা, পোস্তদানা-বাটা আর লবণ একসঙ্গে ভালো করে ফেটে মোরগের মাংসের টুকরার সঙ্গে মিশিয়ে দিন।
মাংস সিদ্ধ হয়ে পানি কমে আসলে, গরম মসলা, কেওড়া, চিনি, লেবুর রস দিয়ে কষাতে হবে। মসলার উপরে তেল উঠে আসলে নামিয়ে ফেলুন।
উপরে পেঁয়াজভাজা ছড়িয়ে পরিবেশন করুন।
নোট- মোরগের মাংস সিদ্ধ হতে সময় লাগে তাই একটু সময় নিয়ে সিদ্ধ করে নেবেন।
গরুর মাংসের ঝালভুনা


পদ্ধতি: মাংস ধুয়ে ছোট ছোট টুকরা করে নিতে হবে। এবার মাংসে সব বাটা মসলা, তেজপাতা, লবণ ও টক দই দিয়ে ভালোভাবে মাখিয়ে রাখুন। প্রয়োজনে প্রেশার কুকারে সিদ্ধ করে নিতে পারেন।
একটা হাঁড়িতে বাকি তেল গরম করে পেঁয়াজকুচি সামান্য বাদামি করে ভেজে মাংস দিয়ে দিন।
ভালোভাবে কষানো হলে সিদ্ধ হওয়ার জন্য অল্প পানি দিন। তেলের মাঝে মাংস কষাতে হবে।
পানি শুকিয়ে মাংস সিদ্ধ হয়ে গেলে দারুচিনি, এলাচ ও টমেটো সস দিয়ে চুলার আঁচ কমিয়ে কিছুক্ষণ ঢেকে রাখুন। তেলটা উপরে উঠে আসলেই নামিয়ে পরিবেশন করুন।
সমন্বয়ে: ইশরাত জে. মৌরি।
