ত্বকের বাড়তি যত্ন নিতে গিয়ে না জেনে প্রসাধনী ব্যবহারের কারণে আমরা উল্টা ক্ষতিই করছি বেশি। আর তাই আগেই জেনে নেওয়া উচিত এমন সাধারণ ভুলগুলো।
দিল্লির মায়রা স্কিন অ্যান্ড হেয়ার সলুশনের পরিচালক সোনিয়া মঙ্গল ত্বকের যত্নের এমনই কিছু ভুলের বিষয় উল্লেখ করেন।
ভুল সানস্ক্রিন বাছাই: সূর্যের ক্ষতিকর রশ্মি ত্বকের জন্য ক্ষতিকর, তাই ব্যবহার করতে হয় সানস্ক্রিন। কিন্তু ভুল সানস্ক্রিন ব্যবহারে উপকারের চেয়ে ক্ষতির সম্ভাবনাই বেশি থাকে। ইউভিএ থেকে সুরক্ষা দিবে এবং এসপিএফ ৩০ রয়েছে এমন সানস্ক্রিন বেছে নিতে হবে।
শীতে এবং বর্ষায় সানস্ক্রিন ব্যবহার না করা: মেঘলা বা কুয়াশা ঢাকা দিনে বেশিরভাগই সানস্ক্রিন এড়িয়ে চলেন। কিন্তু মেঘ বা কুয়াশা সূর্যের ক্ষতিকর রশ্মি আটকাতে পারে না। তাই সারা বছর বাইরে এবং ঘরের ভিতরে থাকলেও সানস্কিন ব্যবহার করা উচিত।
ক্ষারযুক্ত সাবান ব্যবহার: ক্ষারযুক্ত সাবান ব্যবহারের ফলে ত্বক শুষ্ক হয়ে যায়। তাই সাবানবিহীন ক্লিনজার ব্যবহার করতে হবে ত্বক পরিষ্কার করার জন্য।
পর্যাপ্ত ঘুমের অভাব: পর্যাপ্ত ঘুমের অভাবে শরীরে হরমোনের পরিবর্তন হয় এতে করে ত্বক ক্ষতিগ্রস্ত হয় ও বলিরেখা পড়ে। তাছাড়া চোখের নিচে কালি পড়ার সমস্যাও বৃদ্ধি পায়। তাই সুন্দর ত্বকের জন্য পর্যাপ্ত ঘুম জরুরি।
পানি পান না করা: শরীর ও ত্বকের সুস্থতার জন্য পানি পান অপরহার্য। পানি কম পান করলে ত্বক শুষ্ক হয়ে যায় ও ব্রণের সমস্যা দেখা দেয়। তাই প্রতিদিন প্রচুর পানি পান করতে হবে।
ভুল প্রসাধনী বাছাই: বিজ্ঞাপনের ‘মিষ্টি কথায় ভুলে’ প্রসাধনী কেনা উচিত নয়। কারণ এগুলো ত্বকের কোনো উপকারই করে না উল্টা এতে ব্যবহৃত রাসায়নিক উপাদান ত্বকের জন্য ক্ষতিকর।
ধৈর্য্য না ধরা: ভালো প্রসাধনীর ফলাফল আমরা খুব দ্রুতই আশা করি। জলদি ফলাফল না পেলে বারবার প্রসাধনী বদলাতে থাকেন অনেকেই। যা ত্বকের জন্য ক্ষতিকর। তাই ভালো ফল পেতে সময় নিয়ে অপেক্ষা করে প্রসাধনী ব্যবহার করতে হবে।
ত্বক বিশেষজ্ঞের পরামর্শ না নেওয়া: ত্বকের সমস্যা দেখা দিলে অনেকেই নিজের মতো করে প্রসাধনী ব্যবহার করতে থাকেন। যা ক্ষতি করে। যে কোনো ত্বকের সমস্যায় ডাক্তারের পরামর্শ নিয়ে তবেই প্রসাধনী ব্যবহার করা উচিত।
