পদ্ধতি দিয়েছেন কেক বেইকের স্বত্বাধিকারী তানজিয়া এনাম।


পদ্ধতি: প্রথমে ময়দা, কোকো পাউডার, বেইকিং সোডা এবং লবণ একসঙ্গে চেলে রাখতে হবে।
এবার মাখন ও চিনি বিটার দিয়ে বিট করে নিন। তারপর একটা ডিম দিয়ে বিট করুন। ভ্যানিলা এসেন্স মেশান।
একটা কাঠের চামচ কিংবা স্প্যাচুলা দিয়ে ময়দার মিশ্রণটা হালকা করে মেশাতে থাকুন। এই মণ্ডটা একটু আঠালো হয়ে গেলে বুঝবেন কুকি তৈরির জন্য প্রস্তুত।
একটা টেবিল-চামচে মণ্ড থেকে অল্প অল্প নিয়ে বেকিং ট্রে’তে গোল গোল করে বসিয়ে দিন।
৩৬০ ডিগ্রি তাপমাত্রায় ১৫ থেকে ১৬ মিনিট বা কুকি হয়ে যাওয়া পর্যন্ত বেইক করুন। হয়ে গেলে নামিয়ে নিন।
ঠাণ্ডা হলে বাতার রোধক বাক্সে কিংবা কৌটায় ভরে সংরক্ষণ করুন।
সমন্বয়ে: ইশরাত জে. মৌরি।
আরও রেসিপি
মগ কেক  
বার্গার বান  
