‘পুনিতি ইউনিসেক্স স্যালন’য়ের রূপবিশেষজ্ঞ পুনিতি এবং ‘শ্রী বালাজি অ্যাক্সন মেডিকল ইন্সটিটিউট’য়ের জ্যেষ্ঠ ত্বকবিশেষজ্ঞ বিজয় সিংহাল ট্যালকাম পাউডার ব্যবহারের কয়েকটি পন্থা জানান।


মেইকআপ সেট করতে: মেইকআপের বেইজ তৈরিতে ট্যালকাম পাউডার অসাধারণ কাজ করে। মেইকআপের চিটচিটেভাব দূর করতে ট্যালকাম পাউডার দিয়ে বেইজ তৈরি করুন। এটা মেইকআপ সেট করতে ও ত্বকের অতিরিক্ত তেল শুষে নিতে সাহায্য করে। তবে খেয়াল রাখবেন যেন ভালোভাবে পরিষ্কার করা হয় কেননা এটা ত্বকে দীর্ঘক্ষণ রাখা ঠিক নয়।   
ওয়াক্সিংয়ের পরে: ওয়াক্সিংয়ের পরে জ্বালাপোড়া ও লালচে ভাব থেকে রক্ষা পেতে, ওয়াক্সিংয়ের আগে ট্যালকাম পাউডার লাগিয়ে নিন। যে স্থানে ওয়াক্স করবেন তার উপরে হালকা করে পাউডার ছিটিয়ে নিন। এতে অনেক বেশি মসৃণ ও কোমল অনুভূত হবে।    
ড্রাই শ্যাম্পু হিসেবে: ট্যালকাম পাউডার খুব ভালো ড্রাইশ্যাম্পু হিসেবে কাজ করে। চুলে মসৃণভাব আনতে চুলের গোড়ায় সামান্য ট্যালকাম পাউডার ছিটিয়ে নিন। এতে মাথার ত্বকের অতিরিক্ত তেল শুষে নেবে ও চুলে মসৃণভাব আনবে। তবে খেয়াল রাখবেন কেবল একবার ব্যবহারের পরেই চুল পরিষ্কার করে নিতে হবে। এটা কেবল তাৎক্ষণিক সমস্যা সমাধানের জন্য, কোনোভাবেই অভ্যাসে পরিণত করা যাবে না।
দুর্গন্ধ কমাতে: শরীরের দুর্গন্ধ কমিয়ে সতেজভাব আনতে ট্যালকাম পাউডার ভালো কাজ করে। এছাড়াও ত্বকের কোথাও জ্বালাপোড়া করলে বা পোড়াভাব দেখা দিলে সেখানে ট্যালকাম পাউডার লাগান।
আরও পড়ুন
দরকারী ফ্যাশন টিপস  
