মাসিকের সময় তল পেট এবং পিঠে ব্যথা হলে গরম পানি ‘হট ওয়াটার ব্যাগ’য়ে ভরে কিছুক্ষণ চেপে রাখলে আরাম পাওয়া যায়, এমনটাই জানান দিল্লির ইরেনে আইভিএফ সেন্টারের পরিচালক ইন্দিরা গনেশান।
তিনি এই ব্যথা উপশমের জন্য আরও কিছু পরামর্শ দেন।
-  তল পেটে এবং পিঠের নিচের অংশে গরম পানি ভর্তি হট ওয়াটার ব্যাগ চেপে ধরে রাখলে ব্যথা অনেকটাই কমে আসবে। তাছাড়া বেশি অসুস্থ বোধ করলে কুসুম গরম পানি দিয়ে গোসল করে নিলেও উপকার পাওয়া যাবে।
- আদা চা, জেসমিন টি, ক্যামমাইল টি শুধু যে ব্যথা কমাতে সাহায্য করবে তা নয়, রক্ত ক্ষরণের ফলে শরীরের পানির ভারসাম্যও রক্ষা করতে সাহায্য করবে।
- এ সময় প্রচুর ভিটামিন বি, ই, সি সমৃদ্ধ খাবার খেতে হবে। এই উপাদানগুলো মাসিকের ব্যথা কমাতে সাহায্য করে।
- আঁশ সমৃদ্ধ খাবার, প্রচুর ফল ও সবজি খেতে হবে। কারণ এই খাবারগুলোতে প্রচুর ভিটামিন, খনিজ উপাদান এবং অ্যান্টিঅক্সিডেন্ট থাকে। তাছাড়া এ সময় ঘৃতকুমারী বা অ্যালোভেরা রসের শরবত ও পেঁপে খেলেও ব্যথায় আরাম পাওয়া যাবে।
- অতিরিক্ত দুগ্ধজাত খাবার, মাংস এবং শুঁটিজাতীয় খাবার এড়িয়ে চলতে হবে।
- অতিরিক্ত চা ও কফি, অর্থাৎ ক্যাফেইন এড়িয়ে চলতে হবে। তাছাড়া এ সময় ধূমপান ও অ্যালকোহল গ্রহণ এড়িয়ে চলতে হবে।
