আস্কমেন ডটকমের রিপোর্টে বলা হয়, এক ঘণ্টার মধ্যে পুরুষের দ্বিতীয়বারের দেওয়া বীর্য পর্যবেক্ষণ করে গবেষকরা দেখেছেন, ‘ইন্ট্রাইউটরাইন ইন্সেমিনেইশন (আইইউআই)’ নামক বন্ধ্যত্বের চিকিৎসার সফল হওয়ার সম্ভবনা বেড়ে যায় ২০ শতাংশ।
আইইউআই’য়ের স্বাভাবিক সফলতার হার ছয় শতাংশ।
বিজ্ঞানীরা মনে করছেন, আবিষ্কারটি দম্পতিদের প্রাকৃতিকভাবে গর্ভধারণ করতে সাহায্য করবে।
বন্ধ্যত্ব বিশেষজ্ঞ এবং এই গবেষণার প্রধান গুলাম বাহাদুর বলেন, “যদিও গবেষণাটি তুলনামলকভাবে ছোট তবে আমাদের বিশ্বাস এই অগ্রগতির দিকে একটি বড় ধাপ এবং এটি গর্ভধারণের হারের উপর উল্লেখযোগ্য পরিবর্তন আনবে।”
গবেষণায়, এক ঘণ্টার মধ্যে দেওয়া পুরুষের দ্বিতীয়বার বীর্য যেসব নারীদের উপর প্রয়োগ করা হয় তাদের মধ্যে ১৫ জন গর্ভধারণ করেন প্রায় প্রথম প্রয়োগেই। এসব নারী আইইউআই গবেষণায় নিযু্ক্ত ছিলেন।
এছাড়া দ্বিতীয়বারের মতো দেওয়া বীর্য থেকে ভালো শুক্র সংগ্রহ করে প্রয়োগ করার পর আরও ১০ জন নারী গর্ভবতী হন।
একাধিক বিশেষজ্ঞদের মতে, শুক্রানুর পরিমান বাড়াতে এবং নিজেদের যৌনক্ষমতা দৃঢ় করতে মাসের যে সময়ে নারীর গর্ভবতী হওয়ার সম্ভাবনা সবচাইতে বেশি থাকে সেই সময়েই পুরুষ যৌনসঙ্গম থেকে বিরত থাকে।
