ভারতের ‘অরিফ্লেইম ইন্ডিয়া’র স্বাস্থ্যবিশেষজ্ঞ সোনিয়া নারাং এবং শরীরচর্চা কেন্দ্র ‘ফিটপাস’য়ের পুষ্টিবিদ মেহের রাজপুত টমেটোর উপকারিতা সম্পর্কে জানান।
* ভিটামিন সি, ভিটামিন কে, আয়রন, ফলাট, পটাশিয়াম এবং অন্যান্য পুষ্টি উপাদানের ভালো উৎস টমেটো। একটি মাঝারি মাপের টমেটোতে ২২ কিলোক্যালরি, শূন্য (০) গ্রাম ফ্যাট, ৫ গ্রাম কার্বোহাইড্রেট, ১ গ্রাম খাদ্যআঁশ, ১ গ্রাম প্রোটিন ও ৫ গ্রাম সোডিয়াম থাকে।
* ‘লাইকোপেইন’ নামক অ্যান্টিঅক্সিডেন্ট’য়ের কারণে টমেটোর রং লাল হয়। এই উপাদান কোলেস্টেরলের হ্রাস, দৃষ্টি ও ত্বক ভালো রাখতে সাহায্য করে।
* টমেটো ত্বক, মুখ ও চুলের জন্য অনেক উপকারী। এতে সব ধরনের ক্যারোটেনোইডস থাকে যেমন- আলফা, বেটা ক্যারোটিন, লু্টেইন এবং লাইকোপেইন। এগুলোর মধ্যে লাইকোপেইন উচ্চ মাত্রার অ্যান্টিঅক্সিডেটিভ উপাদান, যা প্রাকৃতিক অ্যাস্ট্রিনজান্ট হিসেবে ত্বকের খোলা লোমকূপ সঙ্কুচিত করতে সাহায্য করে।
লাইকোপেইন সমৃদ্ধ খাবার যেমন- টমেটো ত্বকের রোদপোড়া ভাব কমাতে সাহায্য করে।
* টমেটো ত্বকের 'ব্ল্যাক হেডস' অপসারণে কাজ করে। তাই এক টুকরা টমেটো নিয়ে আক্রান্ত স্থানে ঘষলে উপকার মিলবে। 
* ত্বকে রোদপোড়াভাব, নির্জীব এবং অসামঞ্জস্য রংয়ের সমস্যা দূর করতে ঘরে তৈরি টমেটোর মাস্ক ব্যবহার করুন।
টক দইয়ের সঙ্গে টমেটো মিশিয়ে মাস্কের মতো করে ১৫ মিনিট মুখে লাগিয়ে রাখুন। এটা ত্বকের ক্ষয় পূরণ করতে সাহায্য করে এবং সতেজ অনুভূত হয়। 


* প্রতিদিন খাদ্যতালিকায় টমেটো রাখুন। এটা উচ্চ রক্তচাপ কমাতে সাহায্য করবে। কারণ টমেটো পটাসিয়ামের ভালো উৎস। পর্যাপ্ত পরিমাণে পটাসিয়াম খাদ্যতালিকায় রাখলে শরীরে পানি ধরে রাখার সমস্যা কমে। ফলে মুখের ফোলা কমতে থাকে।
