বিজ্ঞানে এটা প্রমাণ হয়েছে যে সুখী হতে হলে সচেতন প্রচেষ্টার প্রয়োজন। তবে এটা খুব একটা সহজ কাজ নয়, এজন্যে সময় লাগবে। এমনটাই বলেছেন যুক্তরাষ্ট্রের ইয়েল বিশ্ববিদ্যালয় মনোবিজ্ঞান এবং কগনিটিভ বিজ্ঞান বিভাগের অধ্যাপক লরি স্যান্টোস। তিনি পড়ান 'মনোবিজ্ঞান ও সুন্দর জীবন' বিষয়ে।
ইয়েল বিশ্ববিদ্যালয়ের ৩১৬ বছরের ইতিহাসে তার ক্লাস শিক্ষার্থীদের মধ্যে সবচেয়ে জনপ্রিয়। ছাত্রছাত্রীর সংখ্যা প্রায় ১২,০০। এটা বিশ্ববিদ্যালয়ের ইতিহাসে একটি রেকর্ড। ইতিবাচক মনোবিজ্ঞানের উপর ভিত্তি করে এই কোর্সটি পরিচালনা করেন অধ্যাপক স্যান্টোস। এটা মনোবিজ্ঞানেরই একটি শাখা যেখানে সুখ এবং আচরণগত পরিবর্তনের বিষয়ে পড়ানো হয়।
কিভাবে সুখী হতে হবে তার কিছু কলাকৌশল তিনি শিক্ষার্থীদের শেখান সপ্তাহে দুদিন। আপনি সুখী হতে চান কিন্তু সমস্যা হচ্ছে আপনি তো আর ইয়েল বিশ্ববিদ্যালয়ে ভর্তি হতে পারছেন না? এখান তার দেওয়া পাঁচটি টিপস তুলে ধরা হলো। চর্চা করার চেষ্টা করে দেখতে পারেন।
১. কৃতজ্ঞতার একটি তালিকা তৈরি করুন। এটা শুনতে খুব সহজ মনে হতে পারে, কিন্তু আমরা দেখেছি যেসব শিক্ষার্থীরা নিয়মিতভাবে এটা চর্চা করেন তাদের সুখী মনে হয়, বলেন অধ্যাপক স্যান্টোস।
২. আরো বেশি করে ও নিশ্চিন্তে ঘুমাতে চেষ্টা করুন। প্রতিরাতে অন্তত ৮ ঘণ্টা ঘুমানোর চেষ্টা করুণ।
৩. ধ্যান করুন। আপনার কাজ হবে প্রত্যেকদিন ১০ মিনিট করে মেডিটেট বা ধ্যান করা।
৪. পরিবার ও বন্ধুদের সাথে আরো সময় কাটান। পরিবার ও বন্ধুদের সাথে ভালো সময় কাটালে আপনি সুখী হবেন।
৫. সোশাল মিডিয়ায় যোগাযোগের পরিবর্তে বাস্তবে যোগাযোগ বৃদ্ধি করুন। সোশাল মিডিয়া থেকে সুখের বিষয়ে মিথ্যা যেসব ধারণা পাওয়া যায় সেসবে ভেসে যাওয়া উচিত নয়।
আপনি যদি সত্যিই জীবনে সুখী হতে চান, তাহলে কৃতজ্ঞ হতে শুরু করুন, পরিবারের সাথে আরো বেশি সময় কাটান, বন্ধুদের সাথে মেলামেশা করুন, দিনের একটা সময়ে কিছুক্ষণের জন্যে নিজেকে সবকিছু থেকে সরিয়ে ধ্যানে মগ্ন হউন, সোশাল মিডিয়া থেকে দূরে সরে এসে আরো একটু বেশি ঘুমাতে চেষ্টা করুন। ইয়েলের শিক্ষার্থীদের জন্যে যদি এটা কাজ করে, তাহলে এসব পরামর্শ আপনার ক্ষেত্রেও নিশ্চয় কাজ করবে।
ইত্তেফাক/মোস্তাফিজ
