বিশেষজ্ঞরা বলছেন, “জুতার ডিজাইনে ফ্যাশনেবল থাকতে চাইলে পুরুষরা পরতে পারেন দুই রংয়ের ডিজাইন করা জুতা কিংবা ‘ব্রৌগস’ বা শক্ত ও মোটা সোলের নকশা করা চামড়ার জুতা।”
জুতার ফ্যাশন সম্পর্কে পরামর্শ দিয়েছেন বিলাসবহুল জুতা বিক্রয়ের অনলাইন প্রতিষ্ঠান ডি’ভানো’র প্রতিষ্ঠাতা প্রশান্ত এস. দিভান।
ব্রৌগস অ্যান্ড ডারবিস


দুই রংয়ের জুতা
অনেকসময় দুই রংয়ের ডিজাইনের জুতাগুলো পুরুষের পোষাকের সঙ্গে মানায় আদর্শভাবে। সঠিক উপায়ে পরলে এই জুতাগুলো আপনার ফ্যাশন চিন্তার মান উপরে তুলে ধরবে।
একই রংয়ের দুই শেইড ব্যবহার করে ডিজাইন করা যেমন হালকা এবং গাঢ় বাদামি রংয়ের মিশ্র ডিজাইনের জুতা ব্যবহার করা যেতে পারে। একই রংয়ের দুই শেইডের এই মিশ্রণ ফুটিয়ে তুলবে রংয়ের ভিন্নতা। তবে দুটি গাঢ় রংয়ের মিশ্রণ ব্যবহার করতে চাইলে পোশাকের সঙ্গে এরমধ্যে একটি রংয়ের মিল থাকতে হবে।
অক্সফোর্ডস


চুকাজ
পায়ের তুলনায় সামনের দিকে একটু বেশি লম্বা আকৃতির এই জুতাগুলোর অবস্থান পোষাকি ও ইনফরমালের মাঝামাঝিতে। ধূসর, মেরুন ইত্যাদি রংয়ের চুকাজ জুতাগুলো বন্ধুদের সঙ্গে আড্ডা দেওয়া থেকে শুরু করে ডিনার পার্টি পর্যন্ত সবক্ষেত্রেই মানানসই।
ছবি: রয়টার্স।
কর্মক্ষেত্রে যেমন পোশাক
লম্বা দেখানোর উপায়
চিকন মেয়েদের যেমন পোশাক
দেহের আকার অনুসারে পোশাক
