ভূস্বর্গখ্যাত কাশ্মীর ভ্রমণকারী বিদেশি পর্যটকদের তালিকায় তৃতীয় অবস্থানে রয়েছেন বাংলাদেশিরা।
ভারতনিয়ন্ত্রিত অঞ্চলটিতে সবচেয়ে বেশি পর্যটক যায় মালয়েশিয়া থেকে। এর পরই রয়েছেন থাইল্যান্ডবাসী।
বাংলাদেশ সফরকারী অ্যাসোসিয়েশন অব ট্যুর অপারেটরস অব কাশ্মীরের (একটো) চেয়ারম্যান নাজির মির রোববার বাংলাদেশ সংবাদ সংস্থা-বাসসকে এ কথা জানান।
তিনি বলেন, গত বছর আমরা বাংলাদেশে প্রচার শুরু করি। প্রচারের প্রথম বছরে পর্যটকদের সাড়া ছিল অভূতপূর্ব। গত বছর মালয়েশিয়া ও থাইল্যান্ডের পর বাংলাদেশ থেকে সবচেয়ে বেশি পর্যটক কাশ্মীরে গেছেন।
নাজিরের দেয়া হিসাব অনুসারে, ২০১৭ সালে কাশ্মীর ভ্রমণ করেন সাড়ে পাঁচ হাজার বাংলাদেশি। যেখানে মালয়েশিয়ার পর্যটক সংখ্যা ২০ হাজার, ১৫ হাজার থাইল্যান্ডের।
তিনি বলেন, বর্তমানে ৫০ হাজারের বেশি দেশি পর্যটক কাশ্মীর ভ্রমণ করলেও পর্যটন শিল্পের বিকাশে আমরা বিদেশি পর্যটকদের আকৃষ্ট করায় মনোযোগ দিয়েছি।
নিরাপত্তা বিষয়ে একটোর ভাইস প্রেসিডেন্ট নাজির আহমদ টুন্ডা বলেন, পর্যটন এলাকাগুলোর আশপাশে আপনি একটিও অপ্রীতিকর ঘটনা খুঁজে পাবেন না।
