রেসিপি দিয়েছেন বীথি জগলুল।
উপকরণ: বাঁধাকপি কুচি ১টির অর্ধেক। কাঁচাটমেটো ২টি। ডাল আধা কাপ। পেঁয়াজপাতা-কুচি ৪,৫টি। (না থাকলে, পেঁয়াজকুচি)। রসুন ছেঁচে নেওয়া আস্ত ১টি। হলুদগুঁড়া সামান্য। জিরাগুঁড়া ১ চা-চামচ। কালিজিরা দেড় চা-চামচ। শুকনামরিচ ২টি। তেজপাতা ২টি। কাঁচামরিচ ফালি ৮,১০টি। লবণ স্বাদ মতো। তেল পরিমাণ মতো।
পদ্ধতি: ডাল ধুয়ে ভিজিয়ে রাখুন। বাঁধাকপি একটু মোটা করে কুচি করে নিন। টমেটো পাতলা পাতলা করে টুকরা করে নিন।
প্যানে তেল গরম করে কালিজিরা, শুকনামরিচ ও তেজপাতা ফোঁড়ন দিয়ে রসুন ভাজুন। রসুন হালকা বাদামি হলে টমেটো ও বাঁধাকপি-কুচি দিন। গুঁড়ামসলা ও লবণ মিশিয়ে ঢাকনা দিয়ে রান্না করুন। বাঁধাকপি প্রায় সেদ্ধ হয়ে গেলে কাঁচামরিচ, পেঁয়াজ ও পানি ঝরানো ডাল মিশিয়ে দিন। ঢাকনা দেবেন না।
