শীতকালে ত্বক নিষ্প্রাণ ও রুক্ষ হয়ে পড়ে। ত্বক চায় একটু আলাদা যত্ন। এই জন্য শীতে নিয়মিত ত্বকের যত্ন নেয়া উচিত। ঠিক মতো যত্ন না নিলে ত্বকের উজ্জ্বলতা হারায়, ত্বকের উপরিভাগ কালো হয়ে আসে এবং ত্বক ফেটে যায়। তাই আজকে আপনাদের জন্য রইল ঘরে তৈরি করুন কিছু ফেসিয়াল মাস্ক ও ময়েশ্চারাইজার। ব্যবহারে ত্বককে শীতের প্রকোপ থেকে বাঁচিয়ে ত্বক হবে উজ্জ্বল ও মসৃণ। আর এই বিষয়ে জানিয়েছেন শিবানি’জ অ্যারোমার
চিনি ও অলিভ অয়েল ফেসিয়াল মাস্ক
সব ধরনের ফেসিয়াল মাস্কের মধ্যে এই মাস্কটি সবচেয়ে সহজ। কারণ এই মাস্কটির উপাদান অনেক সহজলভ্য এবং এটা তৈরি করাও সহজ। কিন্তু এর কার্যকারিতা অনেক বেশি। অলিভ অয়েল ত্বককে কোমল করে ও চিনি ত্বকের উপরিভাগের মরা কোষ দূর করে।
পদ্ধতি : এই মাস্কটি তৈরি করতে আপনার লাগবে চিনি ও অলিভ অয়েল। ২ চা চামচ চিনি ও ২ চা চামচ অলিভ অয়েল নিয়ে ভালোভাবে মিশিয়ে নিন। যোগ করতে পারেন কয়েক ফোঁটা লেবুর রস। এটা দাগছোপ দূর করতে সহায়তা করবে। এরপর এই মিশ্রণটি হাতের তালুতে নিয়ে মুখের ত্বকে হালকাভাবে ঘষে লাগান। মুখে এই মিশ্রণটি ১০ মিনিট রেখে হালকা গরম পানি দিয়ে মুখ ধুয়ে ফেলুন। এভাবে সপ্তাহে ২/৩ বার করুন। ত্বকের উজ্জ্বলতার পরিবর্তন আপনি নিজেই দেখতে পাবেন।
চুল
শীতে অনেকের চুল পড়তে দেখা যায়। এই চুল পড়া রোধে এলোভেরা জেল, অলিভ অয়েল ও ক্যাস্টর অয়েল একসঙ্গে হালকা গরম করে নিন। ঠাণ্ডা হয়ে গেলে তাতে ভিটামিন-ই ক্যাপসুল ভেঙে মিশিয়ে চুলে লাগান।
শীতের দিনগুলোতে সবচেয়ে বেশি উপকারে আসে হট অয়েলের ম্যাসাজ। নারিকেল তেল, অলিভ অয়েল, বাদাম তেল বা যে কোনো চুলে লাগানোর তেল হালকা গরম করে নিয়ে চুলের গোড়ায় ম্যাসাজ করে লাগান। ৩০ থেকে ৪০ মিনিট রেখে চুল ধুয়ে ফেলুন।
শীতের দিনে আর্দ্রতা কমে যাওয়ায় মাথার ত্বক ময়েশ্চার হারায় ফলে কম-বেশি সবাই এই সময়ে খুশকির সমস্যায় ভোগেন। এই সমস্যা থেকে মুক্তি পেতে আধা কাপ অলিভ অয়েল হালকা গরম করে এর সঙ্গে এক ফালি লেবুর রস মিশিয়ে চুলের গোড়ায় লাগান। ৪৫ মিনিট রেখে হালকা কোনো শ্যাম্পু ব্যবহার করে ধুয়ে ফেলুন। সপ্তাহে ৩ থেকে ৪ বার এভাবে চুলের যত্ন নিন।
শীতে বেশির ভাগ মানুষের চুল রুক্ষ আর শুষ্ক হয়ে পড়ে। তাই রুক্ষ এবং নিষ্প্রাণ চুলের জন্য আধা কাপ পালং শাক, ১ চা চামচ মধু এবং ১ চা চামচ অলিভ অয়েল বা নারিকেল তেল নিয়ে ব্লেন্ডারে ভালো মতো ব্লেন্ড করুন। এরপর এই মিশ্রণটি চুলে লাগিয়ে ৩০ মিনিট পর শ্যাম্পু করে ফেলুন। চুলে সিল্কি ভাব আসবে ও চুল হবে মসৃণ প্রাণবন্ত।
স্বাভাবিক ত্বকে ময়েশ্চারাইজার রাখতে
স্বাভাবিক ত্বকের অধিকারীদের ত্বকে আর্দ্রতা ধরে রাখতে ৫-৬ ফোঁটা আমন্ড অয়েল ও গোলাপজল ভালো করে মিশিয়ে ত্বকে ম্যাসাজ করুন। গোসলের আগে মাখন ও কমলার রস মিশিয়ে ত্বকে লাগান আর গোসলের পর ভিনেগার, অলিভ অয়েল আর মধু মিশিয়ে ত্বকে ম্যাসাজ করুন। ত্বক নরম থাকবে।
