রেসিপি দিয়েছেন ফারাহ তানজীন সুবর্ণা
উপকরণ: হাড় ছাড়া মুরগি ২০০ গ্রাম। পেঁয়াজকলি ২ আঁটি। পেঁয়াজকুচি ১ টেবিল-চামচ। কাঁচামরিচ-কুচি ২ চা-চামচ (স্বাদ মতো দেওয়া ভালো)। ধনেপাতা-কুচি ১ টেবিল-চামচ। আদাকুচি আধা চা-চামচ। লেবুর রস ১ চা-চামচ। লেবুর খোসা (লেমন জেস্ট) ১/৪ চা-চামচ। গরম মসলাগুঁড়া ১ চিমটি। আদা-রসুনবাটা ১/৪ চা-চামচ। মরিচগুঁড়া ১/৪ চা-চামচ। লবণ স্বাদ মতো। সরিষার তেল দেড় টেবিল-চামচ।
পদ্ধতি: আদা–রসুনবাটা, মরিচগুঁড়া, গরম মসলাগুঁড়া আর লবণ দিয়ে মুরগির মাংস সিদ্ধ করে হাত দিয়ে ছিড়ে নিতে হবে।
পেঁয়াজকলি আধা ইঞ্চি করে কেটে নিন।
প্যানে তেল গরম করে প্রথমে আদাকুচি ভেজে তারপর পেঁয়াজকুচি দিয়ে সোনালি করে ভেজে নিতে হবে। এতে সিদ্ধ মুরগির মাংস দিয়ে হালকা ভেজে পেঁয়াজকলি দিয়ে চুলার আঁচ বাড়িয়ে ভাজতে হবে।
