সাধারণ নারীদের ব্যাগে অনেক জিনিস থাকে। তবে কর্মজীবী নারীদের ক্ষেত্রে বিষয়টি সম্পূর্ণ ভিন্ন। কর্মজীবী নারীদের ব্যাগটি থাকবে অন্য নারীর চেয়ে একটু আলাদা। কারণ সারা দিনের কাজের ঝক্কি-ঝামেলা সেরে আপনাকে থাকতে হবে ফ্রেস। তাই গুছিয়ে নিতে হবে নিজের ব্যাগ। সকালে উঠে অনেক কাজের তাড়া থাকে, তাই নিজের ব্যাগটি আপনি রাতেই গুছিয়ে নিতে পারেন।
আসুন জেনে নিই কর্মজীবী নারী ব্যাগে রাখবেন যেসব জিনিস-
ডায়েরি ও কলম কর্মজীবী নারীরা যেহেতু অফিসের অনেক কাজ করেন, তাই তাদের ব্যাগে কলম ও ডায়েরি থাকা একান্ত প্রয়োজন। তাই মিটিংয়ের জরুরি তথ্য, ব্যক্তিগত তথ্য কিংবা কাজের ছোটখাটো বিষয় লিখে রাখার জন্য ব্যাগে রাখুন ছোট ডায়েরি ও কলম।
টাকার ব্যাগ ও চাবি টাকার ব্যাগ অনেক সময় হারিয়ে যেতে পারে, তাই বাসা থেকে বের হওয়ার সময় জরুরি কিছু টাকা ব্যাগের ছোট পকেটে নিয়ে নিন। আর বাসার চাবিটি যত্ন করে ব্যাগে নিন।
ফোন ও চার্জার
বাসা থেকে বের হওয়ার আগে অবশ্যই আপনার মোবাইল ফোনটি ব্যাগে নিয়ে নিন। কারণ মোবাইল ফোনটি হচ্ছে আপনার প্রতিদিনের জীবনযাত্রার অতীব গুরুত্বপূর্ণ। এ ছাড়া ফোনের চার্জারটিও সঙ্গে নিতে পারেন কারণ পরিবারের সঙ্গে যোগাযোগ বিচ্ছিন্ন হলে পড়তে হয় বাড়তি দুশ্চিন্তায়।
চিরুনি ও পারফিউম ব্যাগে চিরুনি ও পারফিউম রাখতে পারেন। বাসা থেকে বের হওয়ার সময় চুল ঠিক করে বেঁধে এলেও তা অফিস পর্যন্ত আসতে এলোমেলো হয়ে যেতে পারে। তাই সঙ্গে চিরুনি থাকলে ভালো হয়। এ ছাড়া বেশিরভাগ সময় আমরা পারফিউম দিতে ভুলে যাই, তাই ব্যাগে রেখে দিন যে কোনো সময় লাগতে পারে পারফিউম ও চিরুনি।
ব্যথানাশক ওষুধ কাজের চাপ। দীর্ঘক্ষণ ডেস্কটপের আলো চোখে লেগে মাথাব্যাথা শুরু হতে পারে যে কোনো মুহূর্তেই। সঙ্গে রাখুন ব্যথানাশক ট্যাবলেট। সাময়িক যন্ত্রণা কাটিয়ে বাসায় ফিরতে পারবেন নির্বিঘ্নে।
