ফ্যাশন পছন্দ করেন না এমন মানুষ খুঁজে পাওয়া দায়। অনেকে সাদামাটা থাকতে পছন্দ করলেও প্রযুক্তির এই যুগের সঙ্গে তাল মিলিয়ে নতুন করে এসেছে বিভিন্ন ধরনের ফ্যাশন। পুরাতন ফ্যাশনগুলো ঘুরে-ফিরে আবার নতুন করে ফিরে আসে।
ফ্যাশন মৌলিক ও পরিবর্তনশীল হয়। একজন ব্যক্তি অভ্যাসগতভাবে যে শৈলীতে স্বাচ্ছন্দ্যবোধ করে সেটাই তার ফ্যাশন। তবে, কারিগরী দিক থেকে পোশাকীয় পরিভাষাগুলোর সঙ্গে ফ্যাশন পরিভাষাটির যোগসূত্র বৃদ্ধি পাওয়ার সাথে সাথে শব্দটি জমকালো বা মুল্যবান পোশাক বা ব্যবহার্য বোঝাতে অধিক ব্যবহৃত হচ্ছে|। পুরুষ ও নারীদের জন্য বেশীরভাগ ক্ষেত্রেই পৃথক ফ্যাশনের প্রচলন দেখা যায়, তবে কিছু ক্ষেত্রে উভয়ের উপযোগী অভিন্ন ফ্যাশনও পাওয়া যায়।
যুগান্তর পাঠকদের জন্য থাকছে যুক্তরাষ্ট্রের বিজরি ফ্যাশন। ছবিতে দেখুন যুক্তরাষ্ট্রের বিজরি ফ্যাশন।
লিপ উইথ রিনস্টোন
ফার নেইলস
ওয়েভি মেকআপ
গ্লিটার ফর এ ব্যাড হেয়ার ডে
নিয়ন আইলাইনার ফর আইস, ব্রাউস অ্যান্ড লিপস
