এই ধরনের সমস্যাগুলো সমাধানে প্রচলিত ও প্রতিষ্ঠিত কিছু পন্থা রয়েছে। এই বিষয়ে বিভিন্ন ওয়েবসাইটের প্রতিবেদনের তথ্য অবলম্বনে এই আয়োজন।
পোশাক ইস্ত্রি করতে হেয়ার স্ট্রেইটনার


পোশাকের তন্তুর ধরন অনুযায়ী তাপমাত্রা ঠিক করে নিন, এরপর তা দিয়ে পোশাক ইস্ত্রি করুন। পোশাকের কলার ইস্ত্রি করতে এটা বেশ সহায়ক। কারণ এর মাধ্যমে পোশাকের কুঁচকানোভাব দূর করা যায় এবং আকার ঠিক থাকে।  
কাপড়ের হলদেভাব দূর করতে


একটি স্প্রেয়ের বোতলে লেবুর রস নিয়ে তা হলদে দাগের উপরে স্প্রে করুন। দশ মিনিট অপেক্ষা করে ধুয়ে ফেলুন।
হ্যান্ডব্যাগে তেলের দাগ


তেলের দাগের উপরে পাউডার ছিটিয়ে সারা রাত রেখে দিন। এতে পাউডার তেল শুষে নেওয়ায় সুযোগ পাবে এবং তা আবার নতুনের মতো হয়ে যাবে। তবে মনে রাখবেন এটা কেবল তেলের দাগ ওঠাতে সাহায্য করে অন্য কোনো কালো দাগ বা রংয়ের ক্ষেত্রে এটা প্রযোজ্য নয়।  
নতুন জুতা পরা


এরপর জুতা খুলে ঠাণ্ডা হতে দিন।
বন্ধ জিপার খোলার উপায়


বন্ধ চেইনের দাঁতের উপর মোমবাতি ঘষলেও উপকার পাওয়া যায়।
ছবি: রয়টার্স।
আরও পড়ুন
নেইল পলিশ ওঠানোর বিকল্প উপায়  
