খামার থেকে গরু কিনতে চাইলে চলে যেতে পারেন রাজধানীর কেরানীগঞ্জ এলাকায়। আটিবাজার, ভেড়িবাঁধ, জিঞ্জিরা, হযরতপুরে রয়েছে প্রায় ৩শ’র মতো খামার।
এদের মধ্যেই একটি খামার ‘টাইমস অ্যাগ্রো’। আটিবাজার এলাকায় ২০১৬ সালের অক্টোবরে ১০ কাঠা জমিতে মাত্র একটি ভুট্টি গরু নিয়ে টাইমস অ্যাগ্রো গড়েছিলেন বিশ্ববিদ্যালয় পড়ুয়া শিক্ষার্থী মাহবুব-ই-খোদা।
তিনি বলেন, “এবারের ঈদ মৌসুমে গরুর সংখ্যা দাঁড়িয়েছিল ২০টিতে। যার মধ্যে অবশিষ্ট আছে ১শ’ ও ২শ’ কেজি ওজনের দুইটি ভুট্টি গরু, দাম যথাক্রমে ৪৫ হাজার ও ৮০ হাজার টাকা। ৩শ’ কেজি ওজনের একটি পাকরা গরু, দাম দেড় লাখ টাকা এবং দুইটি দেশি গরু, প্রতিটির দাম ৮০ হাজার টাকা।”
“আমাদের খামার থেকে গরু ওজন মেপে কেনার সুবিধা রয়েছে। কেনার সময় আমাদের নিজস্ব পশু চিকিৎসক পশু যাচাই বাছাই করতে সাহায্য করবেন ক্রেতাদের। বিক্রয়োত্তর চিকিৎসা সেবাও পাবেন। তবে চিকিৎসককে পারিশ্রমিক দিতে হবে। ঢাকার ভেতরে যে কোনো স্থানে বিনামূল্যে গরু পৌঁছে দেওয়ার সুবিধাও দিচ্ছি আমরা।”
একই এলাকার আরেকটি খামার ‘বিক্রমপুর অ্যাগ্রো’। খামারের মালিক মোহাম্মদ আজিজ আশরাফ ও ফয়সাল আশরাফ শখের বসে প্রতিষ্ঠানটি গড়ে তুলেছেন।


মধ্যবিত্তদের কথা মাথায় রেখে পালন করা হয়েছে ভুট্টি গরু।
আজিজ আশরাফ বলেন, “প্রায় দুই বছর ধরে ভুট্টি গরুগুলো পালন করছি। ‘কংগো’ নামের গরুটির চকচকে কালো রং, বড় শিং, বড় গুজ। খাটো হলেও একে বশে আনতে তিন থেকে চার জন শক্তিশালি মানুষ লাগে। বাদামি লাল রংয়ের আরেকটি ভুট্টি গরুর নাম দিয়েছি ‘রাউটার’। ‘কংগো’য়ের ওজন ৩৫০ কেজি এবং ‘রাউটার’য়ের ওজন ২শ’ কেজি। ‘কংগো’য়ের দাম ধরেছি ১ লাখ ৮০ হাজার টাকা আর ‘রাউটার’য়ের এর দাম ১ লাখ টাকা।”
২০০৯ সালে বন্ধুকে সঙ্গে নিয়ে দুই বিঘা জমির উপর ‘সাদিক অ্যাগ্রো’ খামারটি গড়ে তোলেন ইমরান হোসেন।
তার কথায়, “বর্তমানে আমাদের সংগ্রহে ৫শ’র বেশি গরু আছে। যার মধ্যে শাহিওয়াল, সিন্ধি জাতের গরুই বেশি। এদের ওজন হবে ১৫০ কেজি থেকে ৯০০ কেজি। দাম ৮০ হাজার থেকে শুরু করে ৮ লাখ টাকা পর্যন্ত। ক্রেতাদেরও দেশি গরুতেই আগ্রহ বেশি। ৫শ’ থেকে ৬শ’ কেজি ওজনের দেশি গরুগুলো বিক্রি হচ্ছে বেশি, দাম গড়ে দেড় থেকে দুই লাখ টাকা।”


খামারের মালিকের সঙ্গে কথা বলতে দেখা যায় এক ক্রেতার সঙ্গে।
রাজধানির কলাবাগানের বাসিন্দা মাহবুব, পেশায় ছাত্র হলেও তিনিও ছোট একটি ব্যবসার সঙ্গে জড়িত। ঈদের ৯ মাস আগেই পরিবারের সম্মতি নিয়ে এই ফার্ম থেকে একটি ভুট্টি গরু কিনেছেন।
কথা বলে জানা গেল, তুলনামূলকভাবে বিক্রিমপুর অ্যাগ্রোতে দাম কম এবং ছোট ও মাঝারি গরু বেশি থাকায় তিনি এখান থেকে গরু ক্রয় করতে স্বাচ্ছন্দ্যবোধ করেছেন।
নারায়নগঞ্জের আটিবাজারের ‘টাইমস অ্যাগ্রো’। এই খামারে কোরবানি ঈদ উপলক্ষ্যে পালা হচ্ছে দেশি ও বিদেশি জাতের মাঝারি গরু। খামারের পরিচালক মাহবুব-ই-খোদা জানান শখের বসে করা এই খামারে ২০টির মতো গরু আছে। ছোট থেকে মাঝারি সবগরুই এবারের ঈদকে কেন্দ্র করে পালন করা হয়েছে।
তিনি বলেন, “বিক্রমপুর অ্যাগ্রো’র মালিক তপু এবং ফয়সাল শুরু থেকে আমাকে যথেষ্ট সহযোগিতা ও উৎসাহ দিয়ে আসছেন।”


মাহবুবের খামারে ‘পাকরা’ জাতের গরুর মূল্য ১ লক্ষ ৫০ হাজার টাকা। পাকিস্তানি শাহিওয়াল‘ পাকরা এবং নেপালী জাতের মিশ্রণ এই গরুর ওজন ৩শ’ কেজি।
