খাদ্য ও পুষ্টিবিষয়ক একটি ওয়েবসাইটে প্রকাশিত এক প্রতিবেদনে জানানো হয়, ডিম উচ্চ প্রোটিন সমৃদ্ধ খাবার। সম্প্রতি এক গবেষণায় দেখা দেখা গেছে, প্রতিদিন একটি ডিম খাওয়া হলে তা ১২ শতাংশ পর্যন্ত স্ট্রোক’য়ের ঝুঁকি কমায়।
একটি বড় আকারের ডিমে ছয় গ্রাম উচ্চ মানের প্রোটিন থাকে এবং ডিমের কুসুমে অ্যান্টিঅক্সিডেন্ট লুটেইন ও জিক্সাথিন এমনকি ভিটামিন ‘ই’, ‘ডি’ এবং ‘এ’ থাকে।
মিশিগানের এপিড স্টার ইন্সটিটিউট’য়ের প্রধান গবেষক ডমিনিক আলেক্সান্ডার বলেন, “ডিমে আছে অ্যান্টিঅক্সিডেন্টসহ নানা রকমের পুষ্টি উপাদান, এটি অক্সিডেটিভ স্ট্রেস এবং প্রদাহ কমাতে সাহায্য করে। ডিম প্রোটিনের ভালো উৎস আর প্রোটিন রক্তচাপ কমাতে সাহায্য করে।”
গবেষণার জন্য, তারা ১৯৮২ থেকে ২০১৫ সাল পর্যন্ত নিয়মানুগ গবেষণা ও ‘মেটা’ বা বিভিন্ন গবেষণার উপাত্ত বিশ্লেষণ চালায়।
এতে অংশগ্রহণ করা ২,৭৬,০০০ জন কোরোনারি হৃদরোগী ও ৩,০৮,০০০ জন স্ট্রোকের রোগীর উপর ডিম খাওয়া ও কোরোনারি হৃদরোগের সঙ্গে সম্পর্ক মূল্যায়ন করেন।
