খাদ্য ও পুষ্টিবিষয়ক একটি ওয়েবসাইটে জানানো হয়, বৈজ্ঞানিকরা দেখিয়েছেন চর্বি খাওয়া মানেই মোটা হওয়া নয়।
যেসব খাবারে শরীরের জন্য ক্ষতিকর চর্বিতে ভরপুর সেগুলোই ওজন বাড়ায়। পাই ক্রাসট এবং অন্যান্য বেইক করা খাবারে ট্র্যান্স ফ্যাট থাকে। প্রক্রিয়াজাত করা এবং শস্য খাওয়া পশুর মাংসে স্যাচারেইটেড ফ্যাট থাকার পাশাপাশি অত্যধিক ক্যালোরি থাকে যা শেষ পর্যন্ত শরীরের পুষ্টির সীমারেখায় ক্ষতিগ্রস্ত করে।
কিন্তু স্বাস্থ্যকর চর্বি ঠিক তার উল্টোটা করে যেমন: ক্ষুদা নিয়ন্ত্রণ করে এবং শরীর থেকে প্রতিদিনের খাওয়া বাড়তি ক্যালোরি ঝরিয়ে ফেলে। তাই হৃদপিণ্ডের স্বাস্থ্য ভালো থাকে এবং বিপাকক্রিয়া সচল থাকে।    
ঘাস খাওয়া পশুর মাংস


চর্বি ছাড়া ৭ আউন্সের একটি ফালি করা সাধারণ স্টেক থেকে ৩৮৬ ক্যালোরি এবং ১৬ গ্রাম চর্বি শরীরে ঢুকে যেতে পারে। সেখানে একই পরিমাণ ও আকারের ঘাস খাওয়া পশুর মাংস খেলে ২৩৪ ক্যালোরি ও ৫ গ্রাম চর্বি শরীরে ঢুকে।      
অলিভ অয়েল


ডার্ক চকলেট


সম্প্রতি এক গবেষণায় দেখা গেছে- যারা খাবার খাওয়ার দুই ঘন্টা আগে ৩.৫ আউন্স চকলেট খেয়েছিলেন, তাদের মধ্যে ডার্ক চকলেট গ্রহণকারীরা মিল্ক চকলেট গ্রহণকারীদের তুলনায় ১৭ শতাংশ কম ক্যালোরি গ্রহণ করেন। গবেষকদের মতে, ডার্ক চকলেটে আছে বিশুদ্ধ কোকো বাটার, যা হজম প্রক্রিয়া ধীর করার জন্য দায়ী স্টিয়ারিক অ্যাসিডের অন্যতম উৎস। ডার্ক চকলেট হজম হতে সময় নেয়, ফলে ক্ষুধা কম লাগে এবং ওজন কমাতে ভুমিকা রাখে।    
কাঠ বাদামের মাখন


ইন্টারন্যাশনাল জার্নাল ৬ মাস ধরে স্থুলতা ও বিপাকীয় রোগের উপর দুই ধরনের খাদ্যাভ্যাস নিয়ে তুলনামূলক গবেষণা করে।
গবেষণায় একদল কম-চর্বি ও সীমিত ক্যালোরিযুক্ত খাবার খায় (যাতে ছিল ১৮ শতাংশ চর্বি)। অন্য দল পরিমিত-চর্বি যুক্ত খাবার (৩৯ শতাংশ চর্বি) খায় যেখানে অতিরিক্ত চর্বি হিসেবে কাঠবাদাম খেতে দেওয়া হয়েছে।
দেখা গেছে আগের দলের তুলনায় পরের দল বেশি ওজন হারিয়েছে। যদিও দুই দল সমপরিমাণ ক্যালোরি গ্রহণ করেছিল। আরও দেখা গেছে যারা কাঠ বাদাম খেয়েছেন তাদের কোমরের মেদ ৫০ শতাংশ বেশি কমেছে।
একটা কীভাবে হল? কাঠবাদামে থাকা উপাদানসমুহ শরীরকে বেশি চর্বি শোষণ করতে দেয় না। ফলে কিছু চর্বি হজম না হয়ে শরীর থেকে বের হয়ে যায়। কাঠবাদামের মাখন ওটমিলের সঙ্গে মিশিয়ে টোস্টে মাখিয়ে কলা দিয়ে খেতে পারেন, বা কয়েক চামচ কাঠবাদাম হালকা খাবার হিসেবেও খাওয়া যায়।
ছবি: রয়টার্স।
বিষণ্ণতা রোধে ফল
স্বাস্থ্য ভালো করার খাবার
ভাজার জন্য অলিভ অয়েল
