বাংলাদেশে ডায়বেটিস রোগীদের প্রথম জাতীয় ডিজিটাল নিবন্ধন


শুধু তাই নয়, মানুষ সচেতন হবে ডায়াবেটিস রোগ সম্পর্কেও। নভো নরডিস্কের সহযোগিতায় পুরো প্রক্রিয়াটি সম্পন্ন করবে ডায়াবেটিস অ্যাসোসিয়েশন অব বাংলাদেশ (বাডাস) ও দেশে জুড়ে থাকা তাদের শাখা ও সহযোগী প্রতিষ্ঠানগুলো।
এই উপলক্ষ্যে বাডাসের সভাপতি অধ্যাপক একে আজাদ খান ও নভো নরডিস্কের সিনিয়র ভাইস প্রেসিডেন্ট ফ্রেডরিক কিয়ার এক চুক্তি স্বাক্ষর করেছেন।
এই প্রসঙ্গে অধ্যাপক আজাদ বলন, “ডিজিটাল নিবন্ধনের ফলে দেশে বসবাসকারী রোগীদের রক্তে গ্লুকোজের মাত্রা, তিন মাসের গ্লুকোজের গড় হিসাব (এইচবিএওয়ানসি) জানা যাবে। একই সঙ্গে রোগ সংক্রান্ত যাবতীয় সমস্যার সহজে সমাধান করা সম্ভব হবে। কারণ সু চিকিৎসা তখনই নিশ্চিত করা যায় যখন হাতের কাছে প্রয়োজনীয় সঠিক তথ্য-উপাত্ত পাওয়া যায়। যা এই নিবন্ধন প্রক্রিয়ার মাধ্যমে সম্ভব হবে।”
এ সময় পৃথিবীব্যাপী ডায়াবেটিস রোগের নিয়ন্ত্রণে সহযোগিতায় কাজ করা প্রতিষ্ঠান নভো নরডিস্কের সিনিয়র ভাইস প্রেসিডেন্ট ফ্রেডরিক কিয়ার বলেন, “ডায়াবেটিস প্রতিরোধের জন্য এর গতি-প্রকৃতি সম্পর্কে ধারণা থাকা খুব জরুরি। পুরো পৃথিবীতে এই রোগ যাতে মহামারী আকার ধারণ করতে না পারে তার পেছনে ৯০ বছরের ও বেশি সময় ধরে কাজ করছে নভো নরডিস্ক।”
নভো নরডিস্ক এসকেএফ ফার্মার সঙ্গে অংশীদারিত্বের ভিত্তিতে ২০১২ সাল থেকেই বাংলাদেশে হিউম্যান ইনসুলিন তৈরি করে আসছে এবং ট্রান্সকম ডিস্ট্রিবিউশন দেশব্যাপী সরবরাহ করে আসছে।
এশিয়া ইয়ং ডিজাইনার অ্যাওয়ার্ড প্রদান অনুষ্ঠিত


সম্প্রতি রাজধানীর একটি রিসোর্টে চূড়ান্ত দুটি বিভাগে বিজয়ী চার জনকে পুরস্কার প্রদান করা হয়।
আর্কিটেকচার ও ইন্টেরিয়র ক্যাটাগরিতে গোল্ড পুরস্কার পান নাদিয়া আফরিন লগ্ন ও আহনাফ আকিফ সিদ্দিকী। সিলভার পুরস্কার পান মতিয়ার রহমান ও ফাতিমা বিন্তে খালেদ।
গোল্ড বিজয়ীরা ৫০ হাজার করে টাকা এবং সিলভার বিজয়ীরা ২৫ হাজার করে টাকা পান।
