শরীরে খাবার দরকার। তবে কিছু খাবার বেশি পরিমাণে গ্রহণ করলে ত্বকের ক্ষতি হতে পারে।
এই বিষয়ের উপর প্রকাশিত খাদ্য ও পুষ্টিবিষয়ক একটি ওয়েবসাইটের প্রতিবেদনে পুষ্টিবিজ্ঞানের বরাত দিয়ে পাঁচ ধরনের খাবার সম্পর্কে জানানো হয়। যেগুলো প্রচলিত ধ্যান ধারণা থেকে আমরা বেশি খাই। যা ত্বকের উপর বিরূপ প্রভাব ফেলে।
এই প্রতিবেদনে ত্বকের স্বাস্থ্য নষ্ট ও লোমকূপ সংকুচিত করে এমন কিছু খাবারের পাশাপাশি ত্বক সুস্থ রাখতে প্রয়োজন এমন কিছু খাবারের কথা তুলে ধরা হল।
অ্যালকোহল


তারপরও মনে রাখতে হবে-
* অ্যালকোহল হরমোনের মাত্রা পরিবর্তন করে যা সরাসরি ব্রণ ও অস্বাস্থ্যকর ত্বকের জন্য দায়ি।
* লোমকূপ সংকুচিত করে এবং বন্ধ হয়ে যাওয়ার সম্ভাবনা বাড়ায়।
এটা ত্বকের বর্তমান সমস্যার পরিমাণ আরও বাড়িয়ে তোলে অথবা ত্বকের নিত্য নতুন সমস্যার সৃষ্টি করে।
দুগ্ধজাত খাবার


নিউ ইয়র্কের নিবন্ধিত পুষ্টিবিদ মারিয়া বেলা জানান, তার বেশিরভাগ তরুণ তরুণী ও ক্লায়েন্টদের মধ্যে একটা বিষয় খুব সাধারণ। তাদের খাবার তালিকা থেকে দুধের তৈরি খাবার বাদ দিয়েছেন। ডেইরি পণ্য যেমন– দুধ খাওয়ার সঙ্গে ব্রণ, ত্বকের ক্ষতি ও বয়সের ছাপের সম্পর্ক রয়েছে বলে জানা তিনি। 
চিনি


অস্বাস্থ্যকর উচ্চ কার্বহাইড্রেইট সমৃদ্ধ খাবার চিনি ছাড়া আর কিছুই না এবং এগুলো ত্বকের জন্য অনেক ক্ষতিকর। যেমন- ভাত, রুটি ও পাস্তা। নিজের ত্বক যদি রক্ষা করতে চান তাহলে পূর্ণশষ্য থেকে তৈরি খাবার বেছে নেওয়া সবচেয়ে ভালো।
লবণ


জানা প্রয়োজন যে, অতিরিক্ত লবণের কারণে ত্বকের লোমকূপ সংকুচিত হয়ে যায়। লবণ খাওয়ার কারণে ত্বকে পানি স্বল্পতা দেখা দেয়। ফলে ত্বক হারায় আর্দ্রতা, যা ফিরিয়ে আনা বেশ কষ্টসাধ্য।
অতিরিক্ত লবণ গ্রহণ ত্বক শুষ্ক করে দেয়। ফলে বলিরেখা ও বয়সের ছাপ দেখা দেওয়ার সম্ভাবনা বাড়ায়।
এছাড়া অতিরিক্ত লবণ খাওয়া হলে ব্রণের সমস্যা আরও বাড়িয়ে দেয় এবং শরীর ও ত্বকে প্রদাহের সৃষ্টি করে।
ময়দা


সুসংবাদ হল, অধিকাংশ খাবারই পূর্ণশস্য থেকে পাওয়া যায়। খাদ্যশস্য থেকে তৈরি রুটি, ভাত ইত্যাদি ময়দা দিয়ে তৈরি খাবারের তুলনায় শরীর ও ত্বকের জন্য বেশি ভালো।
স্বাস্থ্যকর ত্বকের খাদ্য


টমেটো- এটা রোদপোড়াভাব ও সুর্যের কারণে ক্ষতি দূর করে।
ডার্ক চকোলেট- ত্বকের মসৃণভাব বৃদ্ধি করে এবং সৌন্দর্য ফুটিয়ে তোলে।
আখরোট– ত্বকের স্থিতিস্থাপকতা বাড়ায় এবং কোলাজেনের উৎপাদন বৃদ্ধি করে। 
বেরিজাতীয় ফল- স্ট্রবেরি, ব্লু বা ব্ল্যাক বেরি কিংবা আঙুর ত্বকের গঠন সুন্দর করে এবং বলিরেখা পড়া থেকে বিরত রাখে। 
ছবি: রয়টার্স।
আরও পড়ুন
সুস্থ ও ব্রণ মুক্ত ত্বকের জন্য টমেটো  
ত্বক ভালো রাখার খাবার  
