রূপচর্চাবিষয়ক একটি ওয়েবসাইটে এমনই কিছু ঘরোয়া টোটকা উল্লেখ করা হয়।
- দুইশ থেকে তিনশ গ্রাম পরিমাণ রিঠা, আমলকি এবং শিকাকাই পরিমাণ মতো পানিতে সারারাত ভিজিয়ে রাখতে হবে। সকালে এই পানি ফুটিয়ে ঠাণ্ডা করে ছেঁকে পানি আলাদা করে কয়েক ফোঁটা টি ট্রি অয়েল দিয়ে ব্যবহার করা যায়। মাথার ত্বক পরিষ্কার করে মৌসুমি সংক্রমণের হাত থেকে রক্ষা করবে এই মিশ্রণ।
- কেমোমাইল চা, ভিনিগার এবং লেবুর রস পানিতে মিশিয়ে ব্যবহার করলে চুল ঝরঝরে ও মসৃণ হয়।
- শুষ্ক ও রুক্ষ চুলের সমস্যায় গোলাপ জল ব্যবহার বেশ উপকারী।
- এক কাপ পাকাপেঁপে ভর্তা করে মধু ও অলিভ অয়েল মিশিয়ে চুলের জন্য মাস্ক তৈরি করে নেওয়া যেতে পারে। চুল ও চুলের গোড়ায় ভালোভাবে এই মাস্ক মাখিয়ে এক ঘণ্টা অপেক্ষা করে শ্যাম্পু করে ফেলতে হবে।
