সাফল্য লাভের জন্য শুধু কর্মই যথেষ্ট নয়। দরকার সঠিক কর্মকৌশল, সহনশীলতা ও কিছু বিষয়ে সচেতনতা। আর তাতেই আপনি আপনার জীবনের প্রতিটি যুক্তিসঙ্গত চাওয়াকে পাওয়ায় রূপান্তর করতে পারেন।
পাশ্চাত্য রাশিচক্রমতে চন্দ্র ও অন্যান্য গ্রহগত অবস্থানের ওপর ভিত্তি করে চলতি সপ্তাহের বিভিন্ন রাশির জাতক জাতিকাদের নানান বিষয়ের শুভাশুভ পূর্বাভাস ও সতর্কতা জানাচ্ছেন বাংলাদেশ অ্যাস্ট্রলজার্স সোসাইটি (বিএএস)’র কেন্দ্রীয় কার্যনির্বাহী সদস্য অ্যাস্ট্রলজার অ্যান্ড সাইকিক কনসালটেন্ট ফজলে আজিম।
মেষ রাশি (২১ মার্চ-২০ এপ্রিল) জীবনের যে কোনো লক্ষ্য অর্জনের জন্য দরকার পরিকল্পনা। এথন সময় নতুন উদ্যমে কাজ শুরু করার। অতীতের ভুল কিংবা ব্যর্থতা থেকে প্রাপ্ত শিক্ষা নতুন করে কাজে লাগানোর সুযোগ পাবেন। মানসিক চাপ বাড়তে পারে। আর্থিক দিক ভালো যেতে পারে। কারও কারও ক্ষেত্রে পেশাগত পদোন্নতি কিংবা আয় উপার্জন বৃদ্ধির সম্ভাবনা রয়েছে। ভ্রমণ হতে পারে।
বৃষ রাশি (২১ এপ্রিল-২১ মে) আপনার বিশেষ কোনো কাজে বড় ভাইবোন কিংবা বন্ধুদের সহযোগিতার প্রয়োজন হলে নির্দ্বিধায় বলুন। বুদ্ধি পরামর্শ কিংবা অন্যকোনো উপায়ে তাদের সহযোগিতা পেতে পারেন। বন্ধু বান্ধবের সঙ্গে দেখা হতে পারে। সময়সচেতনতা অভাবে বিশেষ কোনো সুযোগ হাতছাড়া হতে পারে। পুরানো কোনো রোগে ভুগতে হতে পারে। স্বাস্থ্যবিধি মেনে চলুন। আইনগত বিষয়ে সচেতন থাকুন। অর্থ প্রাপ্তির যোগ রয়েছে।
মিথুন রাশি (২২ মে-২১ জুন) কোনো বিষয়ে মানসিক চিন্তা বাড়বে। সিদ্ধান্ত গ্রহণে কেউ কেউ দ্বিধাগ্রস্ত হতে পারেন। আবেগতাড়িত হয়ে কোনো সিদ্ধান্ত না নিলেই ভালো করবেন। কারও কারও ক্ষেত্রে নতুন চাকুরিলাভ কিংবা পেশাপরিবর্তন হতে পারে। সামাজিক কিংবা সাংগঠনিক কোনো কর্মকাণ্ডে সম্পৃক্ত হতে পারেন। আয়-ব্যয়ের ভারসাম্য বজায় রাখা কঠিন হতে পারে। ব্যবসায়িরা বুঝে শুনে বিনিয়োগ করলে লাভবান হবেন। সাময়িকভাবে শরীর কম ভালো যেতে পারে।
কর্কট রাশি (২২ জুন-২২ জুলাই) আত্মউন্নয়ণের চেষ্টায় সাফল্য পেতে পারেন। ভ্রমণ হতে পারে। প্রাজ্ঞ কারও দিকনির্দেশনা আপনাকে মানসিক প্রশান্তি দেবে। কারও কারও ক্ষেত্রে তীর্থ ভ্রমণ হতে পারে। পেশা কিংবা ‍উচ্চশিক্ষার্থে প্রবাসযাত্রা হতে পারে। কর্মক্ষেত্রে অপ্রত্যাশিত কোনো ঘটনার আশঙ্কা রয়েছে। পদস্থদের সঙ্গে মানিয়ে চলার চেষ্টা করুন। আয় উপার্জন বৃদ্ধি পেতে পারে।
সিংহ রাশি (২৩ জুলাই-২৩ অগাস্ট) সাময়িকভাবে সময় কিছুটা প্রতিকূল যেতে পারে। গোপনসূত্রে কোনো তথ্য লাভ করতে পারেন। কারও কারও ক্ষেত্রে নতুন আত্মীয়তার সম্পর্ক তৈরি হতে পারে। উত্তরাধিকারসূত্রে সম্পত্তির মালিকানা পেতে পারেন। হঠাৎ করে ভ্রমণ হতে পারে। কারও কারও ক্ষেত্রে তীর্থযাত্রা হতে পারে। পেশাক্ষেত্রে কোনো সুখবর আশা করতে পারেন।
কন্যা রাশি (২৪ অগাস্ট-২৩ সেপ্টেম্বর) ব্যবসায়িক দিক ভালো যেতে পারে। কোনো বিষয়ে চুক্তি হতে পারে। বিবাহযোগ্য কারও কারও বিয়ের আলোচনায় অগ্রগতি হতে পারে। আইনগত বিষয়ে সচেতন থাকুন। অন্যথায় সমস্যায় পড়তে হতে পারে। জীবন ও জগত সম্পর্কে নতুন কোনো ধারণা লাভ করবেন। ভূসম্পত্তি সংক্রান্ত কোনো বিষয়ে ব্যস্ততা বাড়তে পারে। ভ্রমণ হতে পারে। ধর্মীয় কোনো কার্যক্রমে অংশ নিতে পারেন।
তুলা রাশি (২৪ সেপ্টেম্বর-২৩ অক্টোবর) শরীর সাময়িকভাবে কম ভালো যেতে পারে। কর্মক্ষেত্রে ব্যস্ততা বাড়বে। সহকর্মীদের আন্তরিক সহযোগিতা আপনাকে মুগ্ধ করবে। কোনো বিষয়ে চুক্তি হতে পারে। দাম্পত্য সম্পর্কের ক্ষেত্রে পরষ্পরকে বোঝার চেষ্টা করুন। বিবাহযোগ্য কারও কারও হঠাৎ বিয়ের সম্ভাবনা রয়েছে। সাময়িকভাবে প্রতিকূল সময় মোকাবেলার প্রয়োজন হতে পারে। মানসিক চাপ এড়াতে প্রতিটি কাজ সময়মতো করার চেষ্টা করুন।
বৃশ্চিক রাশি (২৪ অক্টোবর-২২ নভেম্বর) বিদ্যার্থীরা পড়াশোনায় আনন্দ পাবেন। খেলাধুলার সঙ্গে সম্পৃক্তদের সাফল্য লাভের যোগ রয়েছে। কারও প্রেমের আহ্বানে সাড়া দেওয়ার প্রয়োজন হতে পারে। প্রিয় মানুষের সঙ্গে আনন্দ বিনোদনে সময় কাটানোর সুযোগ পেতে পারেন। শরীর কম ভালো যেতে পারে। অংশীদারিত্বের ভিত্তিতে কোনো কাজে সম্পৃক্ত হতে পারেন। পারষ্পরিক আলোচনার মাধ্যমে কোনো সমস্যার সমাধান হতে পারে।
ধনু রাশি (২৩ নভেম্বর-২১ ডিসেম্বর) আপনার বিশেষ কোনো চেষ্টায় সাফল্য আসতে পারে। কেউ কেউ আবাসনখাতে বিনিযোগের সুযোগ পেতে পারেন। মাতৃসূত্রে লাভবান হতে পারেন। প্রেমের সম্পর্কে অপ্রত্যাশিত কোনো ঘটনার আশঙ্কা রয়েছে। শিক্ষার্থীরা পড়াশোনায় কাঙ্ক্ষিত সাফল্য লাভে সক্ষম হবেন। বিনাশ্রমে লাভের চেষ্টায় কেউ কেউ ক্ষতিগ্রস্ত হতে পারেন। কর্মক্ষেত্রে সহকর্মীদের সঙ্গে মানিয়ে চলার চেষ্টা করুন।
মকর রাশি (২২ ডিসেম্বর-২০ জানুয়ারি) স্বল্প দূরত্বে ভ্রমণ হতে পারে। প্রতিবেশীদের সঙ্গে সুসম্পর্ক বজায় থাকবে। ‍মনের কোনো আশা পূরণ হতে পারে। গৃহস্থালী কাজকর্মে ব্যস্ততা বাড়বে। কারও কারও ক্ষেত্রে বিলাসজাতসামগ্রী কিংবা ফার্নিচার কেনা হতে পারে। নবদম্পতির সন্তানলাভের চেষ্টায় সাফল্য আসতে পারে। লেখক ও প্রকাশকদের জন্য সময় অনুকূল থাকবে। শেয়ার মার্কেটের সঙ্গে সম্পৃক্তদের কেউ কেউ লাভবান হতে পারেন।
কুম্ভ রাশি (২১ জানুয়ারি-১৮ ফেব্রুয়ারি) শরীর ও মন মোটামুটি ভালো থাকবে। বিশেষ কোনো রংয়ের প্রতি আগ্রহবোধ করবেন। কোনো উৎস থেকে অর্থ আসতে পারে। নতুন কোনো পরিকল্পনা কাজে লাগানোর সুযোগ পেতে পারেন। ভ্রমণ হতে পারে। পরিবারের কোনো সদস্যের ব্যাপারে চিন্তিত হতে পারেন। ভ্রমণের ক্ষেত্রে অপ্রয়োজনীয় ঝুঁকি এড়িয়ে চলুন। আপনার মনের অব্যক্ত কোনো কথা বলার সুযোগ পাবেন।
মীন রাশি (১৯ ফেব্রুয়ারি-২০ মার্চ) আত্মউন্নয়ণের চেষ্টায় সাফল্য পেতে পারেন। গৃহে অতিথি আসতে পারে। পাওনা আদায়ের সম্ভাবনা রয়েছে। কারও কারও ক্ষেত্রে নতুন আত্মীয়তার সম্পর্ক তৈরি হতে পারে। ভ্রমণ হতে পারে। ব্যক্তিগত যোগাযোগ ফলপ্রসু হবে। কোনো দিক থেকে গুরুত্বপূর্ণ কোনো তথ্য লাভ করতে পারেন। চাকুরিপ্রার্থীরা আশাব্যঞ্জক কোনো খবর পেতে পারেন। কারও কারও ক্ষেত্রে গলা/কণ্ঠ সংক্রান্ত সমস্যা দেখা যেতে পারে। মৌসুমী রোগব্যধি এড়াতে স্বাস্থ্যবিধি মেনে চলুন।
জ্যোতিষশাস্ত্রভিত্তিক কোনো পরামর্শের জন্য যোগাযোগ করুন এই ঠিকানায় fazleazim09@gmail.com।
আরও পড়ুন
২০১৮ সালের প্রেম রোমান্স বিয়ে
