এই বিষয়ে বিস্তারিত জানাচ্ছেন ঢাকা মেডিকেল কলেজ মেডিসিন বিভাগের প্রধান অধ্যাপক ডা. খান আবুল কালাম আজাদ।
ফ্লু বা ইনফ্লুয়েঞ্জার জটিলতা সম্পর্কে বলার আগে আমাদের জানা প্রয়োজন সাধারণ সর্দিজ্বর আর ফ্লু’য়ের তফাত।
সাধারণ সর্দিজ্বর ঋতু পরিবর্তনের সময়গুলোতে হয়ে থাকে। যার প্রাথমিক লক্ষণগুলো হচ্ছে- বন্ধ নাক, গলা ব্যথা, সঙ্গে মৃদু জ্বর এবং খুসখুসে কাশি থাকতে পারে। এই জ্বর ভাইরাসের কারণে হলেও এর ফলে কোনো মারাত্মক জটিলতা হয় না এবং সর্বোচ্চ সাত দিনের মাঝেই রোগী সুস্থ হয়ে যেতে থাকেন।
অন্যদিকে ফ্লু হলে হঠাৎ করেই তীব্র জ্বর ওঠে যা তিন থেকে চার দিন থাকে। রোগীর সারা গায়ে এবং মাথায় সুতীব্র ব্যথা থাকতে পারে।
ফ্লু’র আরেকটি বৈশিষ্ট্য হল আক্রান্ত ব্যক্তি প্রচণ্ড ক্লান্ত বোধ করেন এবং তার দৈনন্দিন কর্মকাণ্ড মারাত্মকভাবে ব্যহত হয়। যদি রোগী শিশু বা বয়স্ক হয় অথবা তার অন্যান্য দীর্ঘস্থায়ী স্বাস্থ্যগত সমস্যা যেমন- ডায়াবেটিস, হৃদরোগ বা হাঁপানি থাকে তাহলে জটিলতা মারাত্মক আকার ধারণ করতে পারে।
ফ্লু একটি ভাইরাস জনিত রোগ যার প্রকোপ বাংলাদেশে সাধারণত শীত ও বর্ষা কালে বেশি হয়। এর ফলে শ্বাসতন্ত্রের সংক্রমণ দেখা দেয় যা উপযুক্ত চিকিৎসা না করালে ফুসফুসেও ছড়িয়ে যেতে পারে।
প্রতি বছর বিশ্বে ৫-১০ শতাংশ পূর্ণ বয়স্ক ব্যক্তি এবং ২০-৩০ শতাংশ শিশু এই রোগে আক্রান্ত হয়। আক্রান্ত ব্যক্তির হাঁচি-কাশি থেকে বা তার ব্যবহৃত জিনিসপত্র স্পর্শ করলে ফ্লু ছড়াতে পারে।
এখন প্রতিযোগিতার সময়। স্কুল-কলেজ থেকে শুরু করে অফিস-আদালতে আমাদের সার্বক্ষণিক উপস্থিতি প্রায় বাধ্যতামূলক। তাই ফ্লু’র মতো অসুস্থতার প্রতিকারের চেয়ে প্রতিরোধ করাটাই সবচেয়ে কার্যকর পন্থা।
ফ্লু’র টিকা বাংলাদেশসহ বিশ্বের অধিকাংশ দেশেই সহজলভ্য। এই টিকার কার্যকারিতা পরীক্ষিত এবং প্রমাণিত। তবে প্রতি বছরই এই জীবাণুর ধারা পরিবর্তিত হয়। আর তাই বিশ্ব স্বাস্থ্য সংস্থা প্রতি বছরই ফ্লু’র সর্বশেষ ভাইরাসগুলো চিহ্নিত করে টিকায় ব্যবহারের অনুমতি দেয়।
সুতরাং ফ্লু’র বিরুদ্ধে সর্বোত্তম প্রতিরোধ গড়তে প্রতিবছরই ফ্লু’র মৌসুম শুরুর আগে এই টিকা নেওয়া প্রয়োজন। আসুন সকলে মিলে আমরা ফ্লু প্রতিরোধ করি।
আরও পড়ুন
জ্বর যখন টাইফয়েড
