বিশেষজ্ঞদের মতে, খাওয়ার আগে পানি ও অ্যাপল সাইডার ভিনেগারের মিশ্রণ খাওয়া ইনসুলিনের সংবেদনশীলতা বাড়াতে সহায়ক। পাশাপাশি ডায়বেটিস নেই বা টাইপ টু ডায়বেটিসে আক্রান্ত ব্যক্তি রক্তে শর্করার পরিমাণ হঠাৎ বেড়ে যাওয়ার আশঙ্কাও কমায় এই মিশ্রণ।
অপরিদিকে হার্ট অ্যাটাকের আশঙ্কা বাড়ানোর পেছনে দায়ি দীর্ঘমেয়াদি প্রদাহ কমাতে সহায়ক গ্রিন টি।  
রক্তে শর্করার পরিমাণ নিয়ন্ত্রণে রাখতে, ডায়বেটিস এবং এই সংক্রান্ত জটিলতাগুলো থেকে মুক্তি দিতে সহায়ক কয়েকটি খাবার সম্পর্কে জানিয়েছেন ভারতের ‘বাইটক্লাব ডটইন’য়ের খাদ্য বিশেষজ্ঞ সৌম্য শ্রী।


দারুচিনি: টাইপ টু ডায়বেটিসের ঝুঁকি এবং রক্তে শর্করার পরিমাণ কমাতে কার্যকর। পাশাপাশি রক্তে গ্লুকোজ, কোলেস্টেরল ও ট্রাইগ্লিসারাইডের মাত্রা বেড়ে যাওয়ার হাত থেকে রক্ষা করে। শরীরের জন্য ভালো ও ক্ষতিকর কোলেস্টেরলের মধ্যে ভারসাম্য বজায় রাখতেও সহায়ক এটি।  


 


মেথি: টাইপ ওয়ান ও টু দুই ধরনের ডায়বেটিসে আক্রান্ত রোগী, এমনকি ডায়বেটিস নেই এমন ব্যক্তিদেরও রক্তে শর্করার পরিমাণ কমাতে সহায়ক আরেকটি উপাদান এই মেথি। মেথি বীজে থাকা আঁশ কার্বোহাইড্রেটের হজম প্রক্রিয়া মন্থর করতে সহায়ক। ট্যাবলেট হিসেবে, চা ও বিভিন্ন খাবারের সঙ্গে মিশিয়ে মেথি খাওয়া যেতে পারে।


