রেসিপি দিয়েছেন শারমিন হক।
উপকরণ: আধা কাপ মুরগির বুকের মাংস (কিউব করে কাটা)। আধা কাপ কাটা ব্রকলি। আধা কাপ কাটা ফুলকপি। আধা কাপ কাটা পেঁয়াজ। আধা কাপ মাশরুম। কাঁচামরিচ ফালি ৪টি। ১ টেবিল-চামচ ওয়েস্টার সস। ১ প্যাকেট ইন্সট্যান্ট নুডলস। ১টি আধা সিদ্ধ ডিম। স্বাদ মতো লবণ।
পদ্ধতি: প্যানে ৪ কাপ পানি দিন। পানি ফুটে উঠলে তাতে সব সবজি ও মুরগির মাংস সামান্য লবণ দিয়ে সিদ্ধ করে নিন।


