তাল গাছের মতো লম্বা হলে দেখতে যেমন ভালোলাগে না তেমনি কচুগাছের সমান হলেও দর্শনদারি হওয়া সম্ভব না। আবার শারীরিক গঠনের পুরোটাই নির্ভর করে বংশগতি।
‘একজন ব্যক্তির উচ্চতা তার জীনগত বৈশিষ্টের উপর নির্ভর করে এবং ধরা হয় ১৮ বছর বয়সের মধ্যেই মানবদেহের বৃদ্ধি থেমে যায়।’- চিকিৎসাবিজ্ঞানে এই তথ্য প্রতিষ্ঠিত হলেও ভিন্ন মতও রয়েছে।
অনেক স্বাস্থ্যবিশেষজ্ঞ বিশ্বাস করেন, প্রতিদিনের খাদ্যতালিকায় নির্দিষ্ট কিছু খাবার যোগ করার মাধ্যমে উচ্চতা কয়েক ইঞ্চি পর্যন্ত বাড়ানো সম্ভব। তবে এই খাদ্যাভ্যাস অক্ষরে অক্ষরে মেনে চলতে হবে এবং সঙ্গে থাকতে হবে পর্যাপ্ত শরীরচর্চা।
খাদ্য ও পুষ্টিবিষয়ক একটি ওয়েবসাইটে এই বিষয়ে প্রকাশিত প্রতিবেদন অবলম্বনে কয়েকটি উচ্চতা বাড়ানোর খাবারের নাম এখানে দেওয়া হল, যেগুলো সহজেই বাজার থেকে যোগাড় করা সম্ভব।
সবুজ পত্রল শাক-সবজি


সয়াবিন


ওটমিল


বাদাম ও বীজ


মাছ


ডিম


মুরগির মাংস


কলা


ছবি: নিজস্ব ও রয়টার্স।
আরও পড়ুন
মেদ কমাতে ৭ ধরনের খাবার  
পেটের মেদ কমানোর খাবার  
