ওয়াশিংটন ইউনিভার্সিটি’র গবেষণার ফলাফলে দেখা গেছে, বাড়তি এই ঝুঁকির পেছনে দায়ী ইউরিয়া। নাইট্রোজেনবাহী এই বর্জ্য পদার্থ রক্তে মিশে থাকে, যার উৎপত্তি হয় প্রোটিনের ভাঙন থেকে।
রক্ত থেকে ইউরিয়া অপসারণের কাজটা বৃক্কের। আর বৃক্কের কর্মক্ষমতা কমে গেলে রক্তে ইউরিয়ার মাত্রা বাড়তে থাকে। ফলে শরীর অতিরিক্ত ইনসুলিনরোধী হয়ে পড়ে এবং ইনসুলিনের মাত্রাও বেড়ে যায়।
যুক্তরাষ্ট্রের সেন্ট লুইস’য়ে অবস্থিত এই বিশ্ববিদ্যালয়ের প্রভাষক জিয়াদ আল-আলে বলেন, “আমরা অনেকদিন থেকেই জানি যে, বৃক্কের রোগবালাই হওয়ার একটি বড় কারণ ডায়বেটিস। তবে এখন আমরা জানতে পেরেছি, বৃক্কের সমস্যা থেকে শরীরে ইউরিয়ার মাত্রা অতিরিক্ত হয়ে যাওয়ার ফলে ডায়বেটিস নেই এমন ব্যক্তির ডায়বেটিস হওয়ার সম্ভাবনা বাড়ে।” 
তিনি আরও বলেন, “বৃক্কের সমস্যার কারণে রক্তে ইউরিয়ার মাত্রা বেড়ে যাওয়ায় শরীরের ইনসুলিন প্রতিরোধ করার ক্ষমতা এবং ইনসুলিন নিঃসরণের মাত্রা দুটোই বেড়ে যায়।”
‘কিডনি ইন্টারন্যাশনাল’ জার্নালে প্রকাশিত হওয়া গবেষণাপ্রাপ্ত ফলাফলে গবেষকরা বলেন, “এই পর্যবেক্ষণের গুরুত্বপূর্ণ দিক হল ওষুধ ও খাদ্যাভ্যাসের মাধ্যমে রক্তে ইউরিয়ার মাত্রা কমানো সম্ভব। যেমন- প্রোটিন কম খাওয়া। ফলে রোগীকে উন্নত চিকিৎসা সেবা দেওয়া যাবে, পাশাপাশি ডায়বেটিস প্রতিরোধ করাও সহজ হবে।”
গবেষণার জন্য ১৩ লাখ ডায়বেটিস মুক্ত প্রাপ্তবয়স্ক মানুষকে ২০০৩ সাল থেকে পাঁচ বছর ধরে পর্যবেক্ষণ করেন গবেষকরা।
এদের মধ্যে ১ লাখ ১৭ হাজার জন বা অংশগ্রহণকারীদের ৯ শতাংশের রক্তে ইউরিয়ার মাত্রা বেশি ছিল, যা তাদের বৃক্কের ক্ষমতা কম হওয়ার ইঙ্গিত দেয়। এদের ডায়বেটিসে আক্রান্ত হওয়ার ঝুঁকি অন্যান্যদের তুলনায় ২৩ শতাংশ বেশি ছিল।
ছবি: রয়টার্স।
আরও পড়ুন
ইন্সুলিন তৈরির প্রাকৃতিক পদ্ধতি  
শিশুর ডায়াবেটিস  
