টেলিভিশনে জাঙ্ক ফুডের বিজ্ঞাপন প্রদর্শনের কারণে তীব্রভাবে এসবখাবারে আসক্ত হচ্ছেটিনএজাররা। এক গবেষণায়এমন তথ্য উঠে এসেছে।
টিনএজারদের সার্বিক কন্ডিশন যাচাইয়ে গবেষণাটি করা হয়। এতে দেখা যায়, যেসব ছেলেমেয়ে টিভিতে প্রদর্শিত জাঙ্ক ফুডের বিজ্ঞাপন দেখে, তারা উচ্চমাত্রায় এগুলো খায়।
বিস্কুট, চিপস, কোমল পানীয়ে প্রচুর পরিমাণে রয়েছে সুগার ও ফ্যাট। যারা টিভিতে এগুলোর বিজ্ঞাপন দেখে, তারা প্রচুর পরিমাণে তা খায়। যারা দেখে না তাদের মধ্যে এ হার কম।
যুক্তরাজ্যের একটি ক্যান্সার রিসার্চ সেন্টার গবেষণাটি করেছে। তিন হাজার ৩৪৮ ছেলেমেয়ের ওপর এ গবেষণা করা হয়। তাদের সবার বয়স ১১-১৯ বছরের মধ্যে।
গবেষণায় এসব ছেলেমেয়ের টিভি দেখার সময় ও খাদ্যাভ্যাস আমলে নেয়া হয়।
নিয়মিত জাঙ্ক ফুড খাওয়ায় টিনএজারদের মুটিয়ে যাওয়ার ঝুঁকি থাকে। আর ওজন বেড়ে গেলে তো কথায় নেই। এতে ১৩ ধরনের ক্যান্সারের সম্ভাবনা বাড়ে।
ক্যান্সার রিসার্চ ইউকের গবেষক জ্যোৎস্না ভোরা বলেন, ‘এটি একটি শক্ত প্রমাণ। টিভিতে প্রদর্শিত জাঙ্ক ফুডের বিজ্ঞাপন ছেলেমেয়েদের খাদ্য বেছে নিতে সহায়তা করে। আমরা এখন বলতেই পারি- টিভিতে জাঙ্ক ফুডের প্রদর্শন কমালে স্থূলতা সংকট কমে আসবে।’
