রেসিপি দিয়েছেন রুনা হোসেন।
উপকরণ: ছানা ৩ কাপ। ডিম ১টি। কনডেন্সড মিল্ক ১/৩ কাপ। দারুচিনি গুঁড়া সামান্য। গাজর কুচি ৩ কাপ। গুঁড়াদুধ আধা কাপ। কনডেন্সড মিল্ক ১/৩ কাপ। মাখন ২,৩ টেবিল-চামচ।
এছাড়া লাগবে- মাখন ২ টেবিল-চামচ। ওভেনে দেওয়ার জন্য আকার মতো চারকোনা পাত্র।
পদ্ধতি: গাজরকুচি গরম পানিতে সিদ্ধ করে পানিটা চেপে বের করে নিন। গুঁড়াদুধ, কনডেন্সড মিল্ক আর মাখন দিয়ে গাজরকুচি ভেজে নিন। বেশি ভাজবেন না। ভাজা হলে নামিয়ে ঠাণ্ডা করে নিন।
ছানা, ডিম, দারুচিনি এবং কনডেন্সড মিল্ক একসঙ্গে বিটার দিয়ে তিন থেকে চার মিনিট বিট করুন।
২ চেবিল-চামচ মাখন ওভেন প্রুফ চারকোনা পাত্রে ব্রাশ করে নিন। অর্ধেক ছানা বাটিতে সমান করে দিন, তার উপরে গাজর সমান করে দিন। বাকি অর্ধেক ছানা উপরে দিয়ে দিন।
