সাজসজ্জাবিষয়ক একটি ওয়েবসাইটের প্রতিবেদনে সঠিকভাবে কন্ডিশনার ব্যবহারের উপায় তুলে ধরা হয়।
সঠিক অংশে ব্যবহার: শুধু চুলে কন্ডিশনার ছড়িয়ে দিলেই চলবে না, সঠিক অংশে কন্ডিশনার লাগানোও দরকার। কন্ডিশনার লাগাতে হয় মূলত চুলের গোড়ার অংশে। কখনও মাথার তালুতে মালিশ করা উচিত নয়।
প্রতিদিন ব্যবহার না করা: মাঝেমধ্যে কন্ডিশনার বাদ পরতেই পারে। তবে প্রায়ই যদি এই ভুল হয় বা একদমই ব্যবহার না করলে এই অভ্যাস বদলাতে হবে। কন্ডিশনার চুল ময়েশ্চারাইজ করে নরম ও ঝলমলে রাখে। এছাড়া কন্ডিশনার ব্যবহারের ফলে চুলে জট বাঁধার সমস্যাও কমবে।
